 SD3021R                                           Rydell Auto Center Inc.                            11/14/13  13:39:27
 JANDR561                                        Technician Time Adjustments                                    Page   1
 From 10/01/13 to 10/31/13                           Flag Time Adjustments
 ========================================================================================================================
                  -- Repair --   --------------- Tech Hours --------------                    ------- Created by -------
 Tech  Flag Date  Order   Line   Cust Pay  Warranty  Internal  Srv-Contrct       Cost         User        Date      Time
 ========================================================================================================================
 D08  10/25/13   16134409    1                          -1.00                  -15.00         RYDEBEVERL 10/25/13  16:42
 ========================================================================================================================
 Totals:                                                -1.00                  -15.00


 D12  10/24/13   16134300    1                           1.00                   15.00         XXXXXXXX    0/00/00   0:00
 ========================================================================================================================
 Totals:                                                 1.00                   15.00


 D25  10/25/13   16134409    1                           1.00                   15.00         RYDEBEVERL 10/25/13  16:42
 ========================================================================================================================
 Totals:                                                 1.00                   15.00


 D26  10/18/13   16133665    2                          -6.10                  -91.50         RYDEBEVERL 10/18/13   9:28
 ========================================================================================================================
 Totals:                                                -6.10                  -91.50


 D27  10/18/13   16133665    2                           6.10                   91.50         RYDEBEVERL 10/18/13   9:28
 ========================================================================================================================
 Totals:                                                 6.10                   91.50


 D32  10/24/13   16134300    1                          -1.00                  -15.00         XXXXXXXX    0/00/00   0:00
 ========================================================================================================================
 Totals:                                                -1.00                  -15.00


 522  10/17/13   16132895    2        .10                                        1.71         RYDEBEVERL 10/17/13  14:11
 ========================================================================================================================
 Totals:                              .10                                        1.71


 545  10/31/13   16134106    1      -9.80                                     -287.83         RYDEBEVERL 10/31/13  15:48
 ========================================================================================================================
 Totals:                            -9.80                                     -287.83


 566  10/04/13   16131958    1                         -49.50                 -965.25         XXXXXXXX    0/00/00   0:00
 566  10/30/13   18025209    4       -.40                                       -7.80         XXXXXXXX    0/00/00   0:00
 566  10/31/13   18025209    8       -.80                                      -15.60         XXXXXXXX    0/00/00   0:00
 ========================================================================================================================
 Totals:                            -1.20              -49.50                 -988.65


 577  10/24/13   16130131    3                                     5.10        104.04         XXXXXXXX    0/00/00   0:00
 577  10/31/13   16134106    1       9.80                                      199.92         RYDEBEVERL 10/31/13  15:48
 ========================================================================================================================
 Totals:                             9.80                          5.10        303.96


 630  10/10/13   16120890    1                           -.40                   -4.32         RYDEBEVERL 10/10/13   9:18
 ========================================================================================================================
 Totals:                                                 -.40                   -4.32



 Grand Total:                                                                 -975.13

