﻿journal,date,account,control,document,reference,amount,description
GLI,11/30/2020,232103,GLI113020,GLI113020,GLI113020,-33192.34,Payroll Accrual
GLI,11/30/2020,132101,GLI113020,GLI113020,GLI113020,-296140.09,Payroll Accrual
GLI,11/30/2020,12006,1130426,GLI113020,GLI113020,1004.31,Payroll Accrual
GLI,11/30/2020,12005,1130426,GLI113020,GLI113020,1004.31,Payroll Accrual
GLI,11/30/2020,12004,1130426,GLI113020,GLI113020,1004.31,Payroll Accrual
GLI,11/30/2020,12002,1130426,GLI113020,GLI113020,1004.31,Payroll Accrual
GLI,11/30/2020,12001,1130426,GLI113020,GLI113020,905.86,Payroll Accrual
GLI,11/30/2020,22904,298432,GLI113020,GLI113020,8.39,Payroll Accrual
GLI,11/30/2020,22504,298432,GLI113020,GLI113020,34.46,Payroll Accrual
GLI,11/30/2020,22304C,298432,GLI113020,GLI113020,559.3,Payroll Accrual
GLI,11/30/2020,22506,296347,GLI113020,GLI113020,48.76,Payroll Accrual
GLI,11/30/2020,22406,296347,GLI113020,GLI113020,104,Payroll Accrual
GLI,11/30/2020,22306,296347,GLI113020,GLI113020,555.75,Payroll Accrual
GLI,11/30/2020,22903,295435,GLI113020,GLI113020,6.48,Payroll Accrual
GLI,11/30/2020,22503,295435,GLI113020,GLI113020,30.21,Payroll Accrual
GLI,11/30/2020,22303,295435,GLI113020,GLI113020,432.04,Payroll Accrual
GLI,11/30/2020,22904,295148,GLI113020,GLI113020,9.96,Payroll Accrual
GLI,11/30/2020,22504,295148,GLI113020,GLI113020,47.58,Payroll Accrual
GLI,11/30/2020,224704,295148,GLI113020,GLI113020,664.2,Payroll Accrual
GLI,11/30/2020,22910,289563,GLI113020,GLI113020,0.95,Payroll Accrual
GLI,11/30/2020,22906,289563,GLI113020,GLI113020,1.98,Payroll Accrual
GLI,11/30/2020,22904,289563,GLI113020,GLI113020,1.98,Payroll Accrual
GLI,11/30/2020,22902,289563,GLI113020,GLI113020,1.98,Payroll Accrual
GLI,11/30/2020,22901,289563,GLI113020,GLI113020,1.03,Payroll Accrual
GLI,11/30/2020,22510,289563,GLI113020,GLI113020,3.31,Payroll Accrual
GLI,11/30/2020,22506,289563,GLI113020,GLI113020,8.56,Payroll Accrual
GLI,11/30/2020,22504,289563,GLI113020,GLI113020,8.56,Payroll Accrual
GLI,11/30/2020,22502,289563,GLI113020,GLI113020,8.56,Payroll Accrual
GLI,11/30/2020,22501,289563,GLI113020,GLI113020,3.71,Payroll Accrual
GLI,11/30/2020,22210B,289563,GLI113020,GLI113020,63.3,Payroll Accrual
GLI,11/30/2020,22206B,289563,GLI113020,GLI113020,131.88,Payroll Accrual
GLI,11/30/2020,22204B,289563,GLI113020,GLI113020,131.88,Payroll Accrual
GLI,11/30/2020,22202B,289563,GLI113020,GLI113020,131.88,Payroll Accrual
GLI,11/30/2020,22201B,289563,GLI113020,GLI113020,68.58,Payroll Accrual
GLI,11/30/2020,22504,285943,GLI113020,GLI113020,10.13,Payroll Accrual
GLI,11/30/2020,22304C,285943,GLI113020,GLI113020,132.48,Payroll Accrual
GLI,11/30/2020,22504,279630,GLI113020,GLI113020,114.14,Payroll Accrual
GLI,11/30/2020,224704,279630,GLI113020,GLI113020,1492.05,Payroll Accrual
GLI,11/30/2020,22904,276431,GLI113020,GLI113020,5.32,Payroll Accrual
GLI,11/30/2020,22504,276431,GLI113020,GLI113020,23.91,Payroll Accrual
GLI,11/30/2020,224704,276431,GLI113020,GLI113020,354.9,Payroll Accrual
GLI,11/30/2020,22904,275342,GLI113020,GLI113020,11.24,Payroll Accrual
GLI,11/30/2020,22504,275342,GLI113020,GLI113020,57.33,Payroll Accrual
GLI,11/30/2020,224704,275342,GLI113020,GLI113020,749.34,Payroll Accrual
GLI,11/30/2020,22506,274225,GLI113020,GLI113020,67.67,Payroll Accrual
GLI,11/30/2020,22406,274225,GLI113020,GLI113020,336,Payroll Accrual
GLI,11/30/2020,22306,274225,GLI113020,GLI113020,758.1,Payroll Accrual
GLI,11/30/2020,22504,273315,GLI113020,GLI113020,61.46,Payroll Accrual
GLI,11/30/2020,224704,273315,GLI113020,GLI113020,898.8,Payroll Accrual
GLI,11/30/2020,22503,269854,GLI113020,GLI113020,29.07,Payroll Accrual
GLI,11/30/2020,224723,269854,GLI113020,GLI113020,380.04,Payroll Accrual
GLI,11/30/2020,22503,269547,GLI113020,GLI113020,13.24,Payroll Accrual
GLI,11/30/2020,224723,269547,GLI113020,GLI113020,173.04,Payroll Accrual
GLI,11/30/2020,22503,265421,GLI113020,GLI113020,14.37,Payroll Accrual
GLI,11/30/2020,22303,265421,GLI113020,GLI113020,382.5,Payroll Accrual
GLI,11/30/2020,22503,265258,GLI113020,GLI113020,32.25,Payroll Accrual
GLI,11/30/2020,224723,265258,GLI113020,GLI113020,421.68,Payroll Accrual
GLI,11/30/2020,22904,264852,GLI113020,GLI113020,10.17,Payroll Accrual
GLI,11/30/2020,22504,264852,GLI113020,GLI113020,48.65,Payroll Accrual
GLI,11/30/2020,224704,264852,GLI113020,GLI113020,678.3,Payroll Accrual
GLI,11/30/2020,22903,264387,GLI113020,GLI113020,8.28,Payroll Accrual
GLI,11/30/2020,22503,264387,GLI113020,GLI113020,42.22,Payroll Accrual
GLI,11/30/2020,224723,264387,GLI113020,GLI113020,551.88,Payroll Accrual
GLI,11/30/2020,22503,264329,GLI113020,GLI113020,17.8,Payroll Accrual
GLI,11/30/2020,224723,264329,GLI113020,GLI113020,232.68,Payroll Accrual
GLI,11/30/2020,22506,264220,GLI113020,GLI113020,42.47,Payroll Accrual
GLI,11/30/2020,22406,264220,GLI113020,GLI113020,120,Payroll Accrual
GLI,11/30/2020,22306,264220,GLI113020,GLI113020,529.5,Payroll Accrual
GLI,11/30/2020,22510,264110,GLI113020,GLI113020,2.68,Payroll Accrual
GLI,11/30/2020,21301C,264110,GLI113020,GLI113020,35,Payroll Accrual
GLI,11/30/2020,22510,263975,GLI113020,GLI113020,1.22,Payroll Accrual
GLI,11/30/2020,22506,263975,GLI113020,GLI113020,6.06,Payroll Accrual
GLI,11/30/2020,22504,263975,GLI113020,GLI113020,6.06,Payroll Accrual
GLI,11/30/2020,22502,263975,GLI113020,GLI113020,6.06,Payroll Accrual
GLI,11/30/2020,22501,263975,GLI113020,GLI113020,1.59,Payroll Accrual
GLI,11/30/2020,22210B,263975,GLI113020,GLI113020,58.29,Payroll Accrual
GLI,11/30/2020,22206B,263975,GLI113020,GLI113020,121.44,Payroll Accrual
GLI,11/30/2020,22204B,263975,GLI113020,GLI113020,121.44,Payroll Accrual
GLI,11/30/2020,22202B,263975,GLI113020,GLI113020,121.44,Payroll Accrual
GLI,11/30/2020,22201B,263975,GLI113020,GLI113020,63.15,Payroll Accrual
GLI,11/30/2020,22503,259756,GLI113020,GLI113020,9.66,Payroll Accrual
GLI,11/30/2020,22303,259756,GLI113020,GLI113020,126.28,Payroll Accrual
GLI,11/30/2020,22503,259394,GLI113020,GLI113020,38.14,Payroll Accrual
GLI,11/30/2020,224723,259394,GLI113020,GLI113020,498.6,Payroll Accrual
GLI,11/30/2020,22503,257935,GLI113020,GLI113020,18.69,Payroll Accrual
GLI,11/30/2020,224723,257935,GLI113020,GLI113020,244.32,Payroll Accrual
GLI,11/30/2020,22904,256879,GLI113020,GLI113020,5.73,Payroll Accrual
GLI,11/30/2020,22504,256879,GLI113020,GLI113020,29.23,Payroll Accrual
GLI,11/30/2020,22304C,256879,GLI113020,GLI113020,382.08,Payroll Accrual
GLI,11/30/2020,22910,256845,GLI113020,GLI113020,4.36,Payroll Accrual
GLI,11/30/2020,22902,256845,GLI113020,GLI113020,17.81,Payroll Accrual
GLI,11/30/2020,22901,256845,GLI113020,GLI113020,11.42,Payroll Accrual
GLI,11/30/2020,22510,256845,GLI113020,GLI113020,15.98,Payroll Accrual
GLI,11/30/2020,22502,256845,GLI113020,GLI113020,84.52,Payroll Accrual
GLI,11/30/2020,22501,256845,GLI113020,GLI113020,51.97,Payroll Accrual
GLI,11/30/2020,22410,256845,GLI113020,GLI113020,31.2,Payroll Accrual
GLI,11/30/2020,22402,256845,GLI113020,GLI113020,127.2,Payroll Accrual
GLI,11/30/2020,22401,256845,GLI113020,GLI113020,81.6,Payroll Accrual
GLI,11/30/2020,21110,256845,GLI113020,GLI113020,260,Payroll Accrual
GLI,11/30/2020,21102,256845,GLI113020,GLI113020,1060.01,Payroll Accrual
GLI,11/30/2020,21101,256845,GLI113020,GLI113020,680.01,Payroll Accrual
GLI,11/30/2020,22503,256689,GLI113020,GLI113020,42.17,Payroll Accrual
GLI,11/30/2020,224723,256689,GLI113020,GLI113020,668.92,Payroll Accrual
GLI,11/30/2020,22904,247000,GLI113020,GLI113020,26.26,Payroll Accrual
GLI,11/30/2020,22504,247000,GLI113020,GLI113020,133.91,Payroll Accrual
GLI,11/30/2020,22304B,247000,GLI113020,GLI113020,1750.54,Payroll Accrual
GLI,11/30/2020,22503,246783,GLI113020,GLI113020,27.55,Payroll Accrual
GLI,11/30/2020,22303,246783,GLI113020,GLI113020,469.08,Payroll Accrual
GLI,11/30/2020,22903,24665,GLI113020,GLI113020,8.48,Payroll Accrual
GLI,11/30/2020,22503,24665,GLI113020,GLI113020,43.26,Payroll Accrual
GLI,11/30/2020,224723,24665,GLI113020,GLI113020,565.5,Payroll Accrual
GLI,11/30/2020,22503,24551,GLI113020,GLI113020,36.91,Payroll Accrual
GLI,11/30/2020,224723,24551,GLI113020,GLI113020,482.44,Payroll Accrual
GLI,11/30/2020,22506,243180,GLI113020,GLI113020,47.46,Payroll Accrual
GLI,11/30/2020,22406,243180,GLI113020,GLI113020,396,Payroll Accrual
GLI,11/30/2020,22306,243180,GLI113020,GLI113020,448.14,Payroll Accrual
GLI,11/30/2020,22904,241085,GLI113020,GLI113020,12.48,Payroll Accrual
GLI,11/30/2020,22504,241085,GLI113020,GLI113020,60.82,Payroll Accrual
GLI,11/30/2020,224704,241085,GLI113020,GLI113020,832.2,Payroll Accrual
GLI,11/30/2020,22504,232874,GLI113020,GLI113020,13.68,Payroll Accrual
GLI,11/30/2020,22304C,232874,GLI113020,GLI113020,178.8,Payroll Accrual
GLI,11/30/2020,22504,230810,GLI113020,GLI113020,5.24,Payroll Accrual
GLI,11/30/2020,22304C,230810,GLI113020,GLI113020,68.52,Payroll Accrual
GLI,11/30/2020,22504,230601,GLI113020,GLI113020,102.88,Payroll Accrual
GLI,11/30/2020,22104,230601,GLI113020,GLI113020,1476.93,Payroll Accrual
GLI,11/30/2020,22510,2141225,GLI113020,GLI113020,5.18,Payroll Accrual
GLI,11/30/2020,22502,2141225,GLI113020,GLI113020,5.18,Payroll Accrual
GLI,11/30/2020,22501,2141225,GLI113020,GLI113020,5.65,Payroll Accrual
GLI,11/30/2020,22310,2141225,GLI113020,GLI113020,204.09,Payroll Accrual
GLI,11/30/2020,22302,2141225,GLI113020,GLI113020,204.09,Payroll Accrual
GLI,11/30/2020,22301,2141225,GLI113020,GLI113020,210.27,Payroll Accrual
GLI,11/30/2020,22503,2126055,GLI113020,GLI113020,71.55,Payroll Accrual
GLI,11/30/2020,22103,2126055,GLI113020,GLI113020,935.39,Payroll Accrual
GLI,11/30/2020,22504,211568,GLI113020,GLI113020,49.33,Payroll Accrual
GLI,11/30/2020,22304B,211568,GLI113020,GLI113020,644.85,Payroll Accrual
GLI,11/30/2020,22504,2106410,GLI113020,GLI113020,232.33,Payroll Accrual
GLI,11/30/2020,22304B,2106410,GLI113020,GLI113020,3186.74,Payroll Accrual
GLI,11/30/2020,22506,2106350,GLI113020,GLI113020,143.17,Payroll Accrual
GLI,11/30/2020,22106,2106350,GLI113020,GLI113020,2026.16,Payroll Accrual
GLI,11/30/2020,22904,210123,GLI113020,GLI113020,16.42,Payroll Accrual
GLI,11/30/2020,22504,210123,GLI113020,GLI113020,65.86,Payroll Accrual
GLI,11/30/2020,224704,210123,GLI113020,GLI113020,1094.4,Payroll Accrual
GLI,11/30/2020,12504,198567,GLI113020,GLI113020,45.31,Payroll Accrual
GLI,11/30/2020,12404,198567,GLI113020,GLI113020,104,Payroll Accrual
GLI,11/30/2020,12304C,198567,GLI113020,GLI113020,488.28,Payroll Accrual
GLI,11/30/2020,12503,19856,GLI113020,GLI113020,31.7,Payroll Accrual
GLI,11/30/2020,124723,19856,GLI113020,GLI113020,318.36,Payroll Accrual
GLI,11/30/2020,12403,19856,GLI113020,GLI113020,96,Payroll Accrual
GLI,11/30/2020,12501,198543,GLI113020,GLI113020,2.68,Payroll Accrual
GLI,11/30/2020,11301C,198543,GLI113020,GLI113020,35,Payroll Accrual
GLI,11/30/2020,12505,198542,GLI113020,GLI113020,54.39,Payroll Accrual
GLI,11/30/2020,12405,198542,GLI113020,GLI113020,124,Payroll Accrual
GLI,11/30/2020,12205A,198542,GLI113020,GLI113020,629.3,Payroll Accrual
GLI,11/30/2020,12528,198532,GLI113020,GLI113020,9.87,Payroll Accrual
GLI,11/30/2020,12527,198532,GLI113020,GLI113020,23.02,Payroll Accrual
GLI,11/30/2020,12328,198532,GLI113020,GLI113020,128.97,Payroll Accrual
GLI,11/30/2020,12327,198532,GLI113020,GLI113020,300.94,Payroll Accrual
GLI,11/30/2020,12503,198531,GLI113020,GLI113020,18.36,Payroll Accrual
GLI,11/30/2020,124723,198531,GLI113020,GLI113020,240,Payroll Accrual
GLI,11/30/2020,12524,198431,GLI113020,GLI113020,17.9,Payroll Accrual
GLI,11/30/2020,124724,198431,GLI113020,GLI113020,234,Payroll Accrual
GLI,11/30/2020,12504,198234,GLI113020,GLI113020,53.4,Payroll Accrual
GLI,11/30/2020,12404,198234,GLI113020,GLI113020,112,Payroll Accrual
GLI,11/30/2020,12304B,198234,GLI113020,GLI113020,586.04,Payroll Accrual
GLI,11/30/2020,12528,198134,GLI113020,GLI113020,5.1,Payroll Accrual
GLI,11/30/2020,12527,198134,GLI113020,GLI113020,11.89,Payroll Accrual
GLI,11/30/2020,12328,198134,GLI113020,GLI113020,66.61,Payroll Accrual
GLI,11/30/2020,12327,198134,GLI113020,GLI113020,155.43,Payroll Accrual
GLI,11/30/2020,12904,197643,GLI113020,GLI113020,17.72,Payroll Accrual
GLI,11/30/2020,12504,197643,GLI113020,GLI113020,82.08,Payroll Accrual
GLI,11/30/2020,12404,197643,GLI113020,GLI113020,112,Payroll Accrual
GLI,11/30/2020,12304D,197643,GLI113020,GLI113020,1069.76,Payroll Accrual
GLI,11/30/2020,12916,197642,GLI113020,GLI113020,10.03,Payroll Accrual
GLI,11/30/2020,12516,197642,GLI113020,GLI113020,48.33,Payroll Accrual
GLI,11/30/2020,12416,197642,GLI113020,GLI113020,104,Payroll Accrual
GLI,11/30/2020,12316,197642,GLI113020,GLI113020,564.85,Payroll Accrual
GLI,11/30/2020,12901,197523,GLI113020,GLI113020,10.2,Payroll Accrual
GLI,11/30/2020,12501,197523,GLI113020,GLI113020,52.04,Payroll Accrual
GLI,11/30/2020,12301B,197523,GLI113020,GLI113020,680.25,Payroll Accrual
GLI,11/30/2020,12503,196623,GLI113020,GLI113020,43.07,Payroll Accrual
GLI,11/30/2020,124723,196623,GLI113020,GLI113020,467.04,Payroll Accrual
GLI,11/30/2020,12403,196623,GLI113020,GLI113020,96,Payroll Accrual
GLI,11/30/2020,12503,196452,GLI113020,GLI113020,51.3,Payroll Accrual
GLI,11/30/2020,12403,196452,GLI113020,GLI113020,112,Payroll Accrual
GLI,11/30/2020,12303,196452,GLI113020,GLI113020,635.91,Payroll Accrual
GLI,11/30/2020,12906,196341,GLI113020,GLI113020,2.14,Payroll Accrual
GLI,11/30/2020,12905,196341,GLI113020,GLI113020,1.57,Payroll Accrual
GLI,11/30/2020,12514,196341,GLI113020,GLI113020,8.97,Payroll Accrual
GLI,11/30/2020,12506,196341,GLI113020,GLI113020,0.5,Payroll Accrual
GLI,11/30/2020,12505,196341,GLI113020,GLI113020,0.37,Payroll Accrual
GLI,11/30/2020,12504,196341,GLI113020,GLI113020,6.86,Payroll Accrual
GLI,11/30/2020,12502,196341,GLI113020,GLI113020,5.45,Payroll Accrual
GLI,11/30/2020,12501,196341,GLI113020,GLI113020,5.45,Payroll Accrual
GLI,11/30/2020,12214,196341,GLI113020,GLI113020,202.18,Payroll Accrual
GLI,11/30/2020,12206C,196341,GLI113020,GLI113020,119.47,Payroll Accrual
GLI,11/30/2020,12205C,196341,GLI113020,GLI113020,110.28,Payroll Accrual
GLI,11/30/2020,12204C,196341,GLI113020,GLI113020,174.61,Payroll Accrual
GLI,11/30/2020,12202C,196341,GLI113020,GLI113020,156.23,Payroll Accrual
GLI,11/30/2020,12201C,196341,GLI113020,GLI113020,156.23,Payroll Accrual
GLI,11/30/2020,12503,196325,GLI113020,GLI113020,20.79,Payroll Accrual
GLI,11/30/2020,124723,196325,GLI113020,GLI113020,271.74,Payroll Accrual
GLI,11/30/2020,12503,196314,GLI113020,GLI113020,17.09,Payroll Accrual
GLI,11/30/2020,12303,196314,GLI113020,GLI113020,223.44,Payroll Accrual
GLI,11/30/2020,12524,195975,GLI113020,GLI113020,71.49,Payroll Accrual
GLI,11/30/2020,12424,195975,GLI113020,GLI113020,168,Payroll Accrual
GLI,11/30/2020,12124,195975,GLI113020,GLI113020,766.5,Payroll Accrual
GLI,11/30/2020,12516,195675,GLI113020,GLI113020,47.02,Payroll Accrual
GLI,11/30/2020,12416,195675,GLI113020,GLI113020,104,Payroll Accrual
GLI,11/30/2020,12316,195675,GLI113020,GLI113020,553.02,Payroll Accrual
GLI,11/30/2020,12506,195401,GLI113020,GLI113020,49.81,Payroll Accrual
GLI,11/30/2020,12306D,195401,GLI113020,GLI113020,745.45,Payroll Accrual
GLI,11/30/2020,12503,195359,GLI113020,GLI113020,51.72,Payroll Accrual
GLI,11/30/2020,124723,195359,GLI113020,GLI113020,564.2,Payroll Accrual
GLI,11/30/2020,12403,195359,GLI113020,GLI113020,112,Payroll Accrual
GLI,11/30/2020,12504,194675,GLI113020,GLI113020,91.32,Payroll Accrual
GLI,11/30/2020,124704,194675,GLI113020,GLI113020,1425.7,Payroll Accrual
GLI,11/30/2020,12404,194675,GLI113020,GLI113020,465.28,Payroll Accrual
GLI,11/30/2020,12528,193542,GLI113020,GLI113020,-0.49,Payroll Accrual
GLI,11/30/2020,12527,193542,GLI113020,GLI113020,3.17,Payroll Accrual
GLI,11/30/2020,12328,193542,GLI113020,GLI113020,35.87,Payroll Accrual
GLI,11/30/2020,12327,193542,GLI113020,GLI113020,83.69,Payroll Accrual
GLI,11/30/2020,12506,193457,GLI113020,GLI113020,61.72,Payroll Accrual
GLI,11/30/2020,12306D,193457,GLI113020,GLI113020,849.03,Payroll Accrual
GLI,11/30/2020,12505,191350,GLI113020,GLI113020,97.51,Payroll Accrual
GLI,11/30/2020,124703,191350,GLI113020,GLI113020,1294.75,Payroll Accrual
GLI,11/30/2020,12405,191350,GLI113020,GLI113020,238.4,Payroll Accrual
GLI,11/30/2020,12504,191060,GLI113020,GLI113020,180.49,Payroll Accrual
GLI,11/30/2020,12404,191060,GLI113020,GLI113020,360,Payroll Accrual
GLI,11/30/2020,12304B,191060,GLI113020,GLI113020,1999.28,Payroll Accrual
GLI,11/30/2020,12503,190910,GLI113020,GLI113020,111.17,Payroll Accrual
GLI,11/30/2020,12103,190910,GLI113020,GLI113020,1476.93,Payroll Accrual
GLI,11/30/2020,12906,190892,GLI113020,GLI113020,12.91,Payroll Accrual
GLI,11/30/2020,12506,190892,GLI113020,GLI113020,47.03,Payroll Accrual
GLI,11/30/2020,12306C,190892,GLI113020,GLI113020,645.66,Payroll Accrual
GLI,11/30/2020,12516,190600,GLI113020,GLI113020,47.77,Payroll Accrual
GLI,11/30/2020,12416,190600,GLI113020,GLI113020,720,Payroll Accrual
GLI,11/30/2020,12316,190600,GLI113020,GLI113020,171.9,Payroll Accrual
GLI,11/30/2020,12504,190324,GLI113020,GLI113020,103.21,Payroll Accrual
GLI,11/30/2020,124704,190324,GLI113020,GLI113020,1166.28,Payroll Accrual
GLI,11/30/2020,12404,190324,GLI113020,GLI113020,220,Payroll Accrual
GLI,11/30/2020,12503,189596,GLI113020,GLI113020,4.13,Payroll Accrual
GLI,11/30/2020,124723,189596,GLI113020,GLI113020,54,Payroll Accrual
GLI,11/30/2020,12906,189438,GLI113020,GLI113020,0.87,Payroll Accrual
GLI,11/30/2020,12905,189438,GLI113020,GLI113020,0.8,Payroll Accrual
GLI,11/30/2020,12514,189438,GLI113020,GLI113020,1.81,Payroll Accrual
GLI,11/30/2020,12506,189438,GLI113020,GLI113020,0.2,Payroll Accrual
GLI,11/30/2020,12505,189438,GLI113020,GLI113020,0.19,Payroll Accrual
GLI,11/30/2020,12504,189438,GLI113020,GLI113020,1.57,Payroll Accrual
GLI,11/30/2020,12502,189438,GLI113020,GLI113020,1.41,Payroll Accrual
GLI,11/30/2020,12501,189438,GLI113020,GLI113020,1.41,Payroll Accrual
GLI,11/30/2020,12214,189438,GLI113020,GLI113020,23.72,Payroll Accrual
GLI,11/30/2020,12206C,189438,GLI113020,GLI113020,14.01,Payroll Accrual
GLI,11/30/2020,12205C,189438,GLI113020,GLI113020,12.94,Payroll Accrual
GLI,11/30/2020,12204C,189438,GLI113020,GLI113020,20.48,Payroll Accrual
GLI,11/30/2020,12202C,189438,GLI113020,GLI113020,18.33,Payroll Accrual
GLI,11/30/2020,12201C,189438,GLI113020,GLI113020,18.33,Payroll Accrual
GLI,11/30/2020,12528,189324,GLI113020,GLI113020,5.21,Payroll Accrual
GLI,11/30/2020,12527,189324,GLI113020,GLI113020,12.17,Payroll Accrual
GLI,11/30/2020,12328,189324,GLI113020,GLI113020,68.13,Payroll Accrual
GLI,11/30/2020,12327,189324,GLI113020,GLI113020,158.98,Payroll Accrual
GLI,11/30/2020,12505,188338,GLI113020,GLI113020,72.58,Payroll Accrual
GLI,11/30/2020,12405,188338,GLI113020,GLI113020,80,Payroll Accrual
GLI,11/30/2020,12305B,188338,GLI113020,GLI113020,979.99,Payroll Accrual
GLI,11/30/2020,12504,187675,GLI113020,GLI113020,124.63,Payroll Accrual
GLI,11/30/2020,124704,187675,GLI113020,GLI113020,1772.31,Payroll Accrual
GLI,11/30/2020,12516,187526,GLI113020,GLI113020,35.58,Payroll Accrual
GLI,11/30/2020,12416,187526,GLI113020,GLI113020,104,Payroll Accrual
GLI,11/30/2020,12316,187526,GLI113020,GLI113020,381.16,Payroll Accrual
GLI,11/30/2020,12502,187347,GLI113020,GLI113020,35.07,Payroll Accrual
GLI,11/30/2020,12501,187347,GLI113020,GLI113020,23.38,Payroll Accrual
GLI,11/30/2020,11102,187347,GLI113020,GLI113020,458.4,Payroll Accrual
GLI,11/30/2020,11101,187347,GLI113020,GLI113020,305.6,Payroll Accrual
GLI,11/30/2020,12528,186724,GLI113020,GLI113020,5.32,Payroll Accrual
GLI,11/30/2020,12527,186724,GLI113020,GLI113020,12.4,Payroll Accrual
GLI,11/30/2020,12328,186724,GLI113020,GLI113020,69.46,Payroll Accrual
GLI,11/30/2020,12327,186724,GLI113020,GLI113020,162.07,Payroll Accrual
GLI,11/30/2020,12506,186100,GLI113020,GLI113020,27.84,Payroll Accrual
GLI,11/30/2020,12505,186100,GLI113020,GLI113020,27.84,Payroll Accrual
GLI,11/30/2020,12504,186100,GLI113020,GLI113020,27.84,Payroll Accrual
GLI,11/30/2020,12502,186100,GLI113020,GLI113020,27.84,Payroll Accrual
GLI,11/30/2020,12501,186100,GLI113020,GLI113020,27.84,Payroll Accrual
GLI,11/30/2020,12106,186100,GLI113020,GLI113020,369.23,Payroll Accrual
GLI,11/30/2020,12105,186100,GLI113020,GLI113020,369.23,Payroll Accrual
GLI,11/30/2020,12104,186100,GLI113020,GLI113020,369.23,Payroll Accrual
GLI,11/30/2020,12102,186100,GLI113020,GLI113020,369.23,Payroll Accrual
GLI,11/30/2020,12101,186100,GLI113020,GLI113020,369.23,Payroll Accrual
GLI,11/30/2020,12528,185934,GLI113020,GLI113020,5.01,Payroll Accrual
GLI,11/30/2020,12527,185934,GLI113020,GLI113020,11.68,Payroll Accrual
GLI,11/30/2020,12328,185934,GLI113020,GLI113020,65.44,Payroll Accrual
GLI,11/30/2020,12327,185934,GLI113020,GLI113020,152.7,Payroll Accrual
GLI,11/30/2020,12528,185647,GLI113020,GLI113020,13.37,Payroll Accrual
GLI,11/30/2020,12527,185647,GLI113020,GLI113020,31.2,Payroll Accrual
GLI,11/30/2020,12328,185647,GLI113020,GLI113020,174.8,Payroll Accrual
GLI,11/30/2020,12327,185647,GLI113020,GLI113020,407.86,Payroll Accrual
GLI,11/30/2020,12515,185600,GLI113020,GLI113020,36.96,Payroll Accrual
GLI,11/30/2020,12506,185600,GLI113020,GLI113020,25.2,Payroll Accrual
GLI,11/30/2020,12505,185600,GLI113020,GLI113020,25.2,Payroll Accrual
GLI,11/30/2020,12504,185600,GLI113020,GLI113020,26.87,Payroll Accrual
GLI,11/30/2020,12502,185600,GLI113020,GLI113020,26.87,Payroll Accrual
GLI,11/30/2020,12501,185600,GLI113020,GLI113020,26.87,Payroll Accrual
GLI,11/30/2020,12315,185600,GLI113020,GLI113020,489.08,Payroll Accrual
GLI,11/30/2020,12306,185600,GLI113020,GLI113020,333.46,Payroll Accrual
GLI,11/30/2020,12305,185600,GLI113020,GLI113020,333.46,Payroll Accrual
GLI,11/30/2020,12304,185600,GLI113020,GLI113020,355.69,Payroll Accrual
GLI,11/30/2020,12302,185600,GLI113020,GLI113020,355.69,Payroll Accrual
GLI,11/30/2020,12301,185600,GLI113020,GLI113020,355.69,Payroll Accrual
GLI,11/30/2020,12502,185462,GLI113020,GLI113020,62.47,Payroll Accrual
GLI,11/30/2020,12501,185462,GLI113020,GLI113020,41.64,Payroll Accrual
GLI,11/30/2020,12402,185462,GLI113020,GLI113020,360,Payroll Accrual
GLI,11/30/2020,12401,185462,GLI113020,GLI113020,240,Payroll Accrual
GLI,11/30/2020,11102,185462,GLI113020,GLI113020,456.59,Payroll Accrual
GLI,11/30/2020,11101,185462,GLI113020,GLI113020,304.39,Payroll Accrual
GLI,11/30/2020,12506,185438,GLI113020,GLI113020,7.38,Payroll Accrual
GLI,11/30/2020,12306C,185438,GLI113020,GLI113020,96.48,Payroll Accrual
GLI,11/30/2020,12503,185393,GLI113020,GLI113020,3.58,Payroll Accrual
GLI,11/30/2020,124723,185393,GLI113020,GLI113020,46.8,Payroll Accrual
GLI,11/30/2020,12505,184920,GLI113020,GLI113020,130.98,Payroll Accrual
GLI,11/30/2020,124703,184920,GLI113020,GLI113020,1734.4,Payroll Accrual
GLI,11/30/2020,12405,184920,GLI113020,GLI113020,312.96,Payroll Accrual
GLI,11/30/2020,12524,184806,GLI113020,GLI113020,89.51,Payroll Accrual
GLI,11/30/2020,124724,184806,GLI113020,GLI113020,1190,Payroll Accrual
GLI,11/30/2020,12424,184806,GLI113020,GLI113020,160,Payroll Accrual
GLI,11/30/2020,12505,184738,GLI113020,GLI113020,49.34,Payroll Accrual
GLI,11/30/2020,12405,184738,GLI113020,GLI113020,110,Payroll Accrual
GLI,11/30/2020,12205A,184738,GLI113020,GLI113020,535.01,Payroll Accrual
GLI,11/30/2020,12905,184620,GLI113020,GLI113020,14.75,Payroll Accrual
GLI,11/30/2020,12505,184620,GLI113020,GLI113020,75.23,Payroll Accrual
GLI,11/30/2020,124703,184620,GLI113020,GLI113020,839.34,Payroll Accrual
GLI,11/30/2020,12405,184620,GLI113020,GLI113020,144,Payroll Accrual
GLI,11/30/2020,12905,184614,GLI113020,GLI113020,13.58,Payroll Accrual
GLI,11/30/2020,12505,184614,GLI113020,GLI113020,69.23,Payroll Accrual
GLI,11/30/2020,124703,184614,GLI113020,GLI113020,905,Payroll Accrual
GLI,11/30/2020,12405,184614,GLI113020,GLI113020,249.36,Payroll Accrual
GLI,11/30/2020,12504,184612,GLI113020,GLI113020,46.74,Payroll Accrual
GLI,11/30/2020,12404,184612,GLI113020,GLI113020,104,Payroll Accrual
GLI,11/30/2020,12204A,184612,GLI113020,GLI113020,544.18,Payroll Accrual
GLI,11/30/2020,12506,184610,GLI113020,GLI113020,78.36,Payroll Accrual
GLI,11/30/2020,12306B,184610,GLI113020,GLI113020,1123.75,Payroll Accrual
GLI,11/30/2020,12924,184605,GLI113020,GLI113020,10.3,Payroll Accrual
GLI,11/30/2020,12524,184605,GLI113020,GLI113020,52.51,Payroll Accrual
GLI,11/30/2020,124724,184605,GLI113020,GLI113020,463.9,Payroll Accrual
GLI,11/30/2020,12424,184605,GLI113020,GLI113020,222.56,Payroll Accrual
GLI,11/30/2020,12916,182713,GLI113020,GLI113020,11.47,Payroll Accrual
GLI,11/30/2020,12516,182713,GLI113020,GLI113020,44.52,Payroll Accrual
GLI,11/30/2020,12416,182713,GLI113020,GLI113020,142.8,Payroll Accrual
GLI,11/30/2020,12316,182713,GLI113020,GLI113020,621.72,Payroll Accrual
GLI,11/30/2020,12906,181520,GLI113020,GLI113020,3.15,Payroll Accrual
GLI,11/30/2020,12905,181520,GLI113020,GLI113020,2.65,Payroll Accrual
GLI,11/30/2020,12514,181520,GLI113020,GLI113020,9.44,Payroll Accrual
GLI,11/30/2020,12506,181520,GLI113020,GLI113020,0.74,Payroll Accrual
GLI,11/30/2020,12505,181520,GLI113020,GLI113020,0.62,Payroll Accrual
GLI,11/30/2020,12504,181520,GLI113020,GLI113020,7.59,Payroll Accrual
GLI,11/30/2020,12502,181520,GLI113020,GLI113020,6.35,Payroll Accrual
GLI,11/30/2020,12501,181520,GLI113020,GLI113020,6.35,Payroll Accrual
GLI,11/30/2020,12214,181520,GLI113020,GLI113020,177.7,Payroll Accrual
GLI,11/30/2020,12206C,181520,GLI113020,GLI113020,105,Payroll Accrual
GLI,11/30/2020,12205C,181520,GLI113020,GLI113020,96.93,Payroll Accrual
GLI,11/30/2020,12204C,181520,GLI113020,GLI113020,153.46,Payroll Accrual
GLI,11/30/2020,12202C,181520,GLI113020,GLI113020,137.31,Payroll Accrual
GLI,11/30/2020,12201C,181520,GLI113020,GLI113020,137.31,Payroll Accrual
GLI,11/30/2020,12504,18005,GLI113020,GLI113020,134.74,Payroll Accrual
GLI,11/30/2020,124704,18005,GLI113020,GLI113020,1798.5,Payroll Accrual
GLI,11/30/2020,12404,18005,GLI113020,GLI113020,280,Payroll Accrual
GLI,11/30/2020,12906,179775,GLI113020,GLI113020,13.84,Payroll Accrual
GLI,11/30/2020,12506,179775,GLI113020,GLI113020,48.47,Payroll Accrual
GLI,11/30/2020,12306B,179775,GLI113020,GLI113020,692.24,Payroll Accrual
GLI,11/30/2020,12506,179693,GLI113020,GLI113020,8.14,Payroll Accrual
GLI,11/30/2020,12505,179693,GLI113020,GLI113020,8.14,Payroll Accrual
GLI,11/30/2020,12504,179693,GLI113020,GLI113020,8.14,Payroll Accrual
GLI,11/30/2020,12502,179693,GLI113020,GLI113020,8.14,Payroll Accrual
GLI,11/30/2020,12501,179693,GLI113020,GLI113020,8.14,Payroll Accrual
GLI,11/30/2020,12206B,179693,GLI113020,GLI113020,106.49,Payroll Accrual
GLI,11/30/2020,12205B,179693,GLI113020,GLI113020,106.49,Payroll Accrual
GLI,11/30/2020,12204B,179693,GLI113020,GLI113020,106.49,Payroll Accrual
GLI,11/30/2020,12202B,179693,GLI113020,GLI113020,106.49,Payroll Accrual
GLI,11/30/2020,12201B,179693,GLI113020,GLI113020,106.49,Payroll Accrual
GLI,11/30/2020,12528,179307,GLI113020,GLI113020,7.11,Payroll Accrual
GLI,11/30/2020,12527,179307,GLI113020,GLI113020,16.58,Payroll Accrual
GLI,11/30/2020,12328,179307,GLI113020,GLI113020,92.94,Payroll Accrual
GLI,11/30/2020,12327,179307,GLI113020,GLI113020,216.85,Payroll Accrual
GLI,11/30/2020,12503,178323,GLI113020,GLI113020,13.04,Payroll Accrual
GLI,11/30/2020,124723,178323,GLI113020,GLI113020,170.52,Payroll Accrual
GLI,11/30/2020,12504,178079,GLI113020,GLI113020,83.67,Payroll Accrual
GLI,11/30/2020,12404,178079,GLI113020,GLI113020,264,Payroll Accrual
GLI,11/30/2020,12304D,178079,GLI113020,GLI113020,1176,Payroll Accrual
GLI,11/30/2020,12528,178060,GLI113020,GLI113020,15.5,Payroll Accrual
GLI,11/30/2020,12527,178060,GLI113020,GLI113020,36.15,Payroll Accrual
GLI,11/30/2020,12428,178060,GLI113020,GLI113020,33.6,Payroll Accrual
GLI,11/30/2020,12427,178060,GLI113020,GLI113020,78.4,Payroll Accrual
GLI,11/30/2020,12328,178060,GLI113020,GLI113020,168.97,Payroll Accrual
GLI,11/30/2020,12327,178060,GLI113020,GLI113020,394.25,Payroll Accrual
GLI,11/30/2020,12904,178050,GLI113020,GLI113020,12.71,Payroll Accrual
GLI,11/30/2020,12504,178050,GLI113020,GLI113020,61.59,Payroll Accrual
GLI,11/30/2020,124704,178050,GLI113020,GLI113020,847.4,Payroll Accrual
GLI,11/30/2020,12404,178050,GLI113020,GLI113020,307.68,Payroll Accrual
GLI,11/30/2020,12924,176430,GLI113020,GLI113020,10.84,Payroll Accrual
GLI,11/30/2020,12524,176430,GLI113020,GLI113020,53.35,Payroll Accrual
GLI,11/30/2020,12424,176430,GLI113020,GLI113020,104,Payroll Accrual
GLI,11/30/2020,12224,176430,GLI113020,GLI113020,618.54,Payroll Accrual
GLI,11/30/2020,12503,175943,GLI113020,GLI113020,2.21,Payroll Accrual
GLI,11/30/2020,124723,175943,GLI113020,GLI113020,28.84,Payroll Accrual
GLI,11/30/2020,12528,175937,GLI113020,GLI113020,6.9,Payroll Accrual
GLI,11/30/2020,12527,175937,GLI113020,GLI113020,16.08,Payroll Accrual
GLI,11/30/2020,12328,175937,GLI113020,GLI113020,90.09,Payroll Accrual
GLI,11/30/2020,12327,175937,GLI113020,GLI113020,210.21,Payroll Accrual
GLI,11/30/2020,12528,175839,GLI113020,GLI113020,15.42,Payroll Accrual
GLI,11/30/2020,12527,175839,GLI113020,GLI113020,35.98,Payroll Accrual
GLI,11/30/2020,12428,175839,GLI113020,GLI113020,33.6,Payroll Accrual
GLI,11/30/2020,12427,175839,GLI113020,GLI113020,78.4,Payroll Accrual
GLI,11/30/2020,12328,175839,GLI113020,GLI113020,167.96,Payroll Accrual
GLI,11/30/2020,12327,175839,GLI113020,GLI113020,391.9,Payroll Accrual
GLI,11/30/2020,12503,175394,GLI113020,GLI113020,54.64,Payroll Accrual
GLI,11/30/2020,124723,175394,GLI113020,GLI113020,639.38,Payroll Accrual
GLI,11/30/2020,12403,175394,GLI113020,GLI113020,112,Payroll Accrual
GLI,11/30/2020,12524,175323,GLI113020,GLI113020,16.28,Payroll Accrual
GLI,11/30/2020,124724,175323,GLI113020,GLI113020,212.8,Payroll Accrual
GLI,11/30/2020,12506,174836,GLI113020,GLI113020,27.58,Payroll Accrual
GLI,11/30/2020,12306C,174836,GLI113020,GLI113020,360.48,Payroll Accrual
GLI,11/30/2020,12503,174738,GLI113020,GLI113020,39.9,Payroll Accrual
GLI,11/30/2020,124723,174738,GLI113020,GLI113020,425.64,Payroll Accrual
GLI,11/30/2020,12403,174738,GLI113020,GLI113020,96,Payroll Accrual
GLI,11/30/2020,12528,174637,GLI113020,GLI113020,4.87,Payroll Accrual
GLI,11/30/2020,12527,174637,GLI113020,GLI113020,11.38,Payroll Accrual
GLI,11/30/2020,12328,174637,GLI113020,GLI113020,63.77,Payroll Accrual
GLI,11/30/2020,12327,174637,GLI113020,GLI113020,148.79,Payroll Accrual
GLI,11/30/2020,12905,174384,GLI113020,GLI113020,14.33,Payroll Accrual
GLI,11/30/2020,12505,174384,GLI113020,GLI113020,54.57,Payroll Accrual
GLI,11/30/2020,124703,174384,GLI113020,GLI113020,955.15,Payroll Accrual
GLI,11/30/2020,12405,174384,GLI113020,GLI113020,136,Payroll Accrual
GLI,11/30/2020,12506,174123,GLI113020,GLI113020,8.97,Payroll Accrual
GLI,11/30/2020,12505,174123,GLI113020,GLI113020,8.97,Payroll Accrual
GLI,11/30/2020,12504,174123,GLI113020,GLI113020,8.97,Payroll Accrual
GLI,11/30/2020,12502,174123,GLI113020,GLI113020,8.97,Payroll Accrual
GLI,11/30/2020,12501,174123,GLI113020,GLI113020,8.97,Payroll Accrual
GLI,11/30/2020,12206B,174123,GLI113020,GLI113020,117.29,Payroll Accrual
GLI,11/30/2020,12205B,174123,GLI113020,GLI113020,117.29,Payroll Accrual
GLI,11/30/2020,12204B,174123,GLI113020,GLI113020,117.29,Payroll Accrual
GLI,11/30/2020,12202B,174123,GLI113020,GLI113020,117.29,Payroll Accrual
GLI,11/30/2020,12201B,174123,GLI113020,GLI113020,117.29,Payroll Accrual
GLI,11/30/2020,12506,173209,GLI113020,GLI113020,33.35,Payroll Accrual
GLI,11/30/2020,12306D,173209,GLI113020,GLI113020,455.98,Payroll Accrual
GLI,11/30/2020,12504,173110,GLI113020,GLI113020,29.11,Payroll Accrual
GLI,11/30/2020,12404,173110,GLI113020,GLI113020,104,Payroll Accrual
GLI,11/30/2020,12304C,173110,GLI113020,GLI113020,466.05,Payroll Accrual
GLI,11/30/2020,12904,172308,GLI113020,GLI113020,34.74,Payroll Accrual
GLI,11/30/2020,12504,172308,GLI113020,GLI113020,156.73,Payroll Accrual
GLI,11/30/2020,12404,172308,GLI113020,GLI113020,60,Payroll Accrual
GLI,11/30/2020,12304B,172308,GLI113020,GLI113020,2256.24,Payroll Accrual
GLI,11/30/2020,12906,172077,GLI113020,GLI113020,18.51,Payroll Accrual
GLI,11/30/2020,12506,172077,GLI113020,GLI113020,53.69,Payroll Accrual
GLI,11/30/2020,12306B,172077,GLI113020,GLI113020,925.52,Payroll Accrual
GLI,11/30/2020,12505,171055,GLI113020,GLI113020,119.61,Payroll Accrual
GLI,11/30/2020,124703,171055,GLI113020,GLI113020,1831,Payroll Accrual
GLI,11/30/2020,12405,171055,GLI113020,GLI113020,332.48,Payroll Accrual
GLI,11/30/2020,12501,170150,GLI113020,GLI113020,2.68,Payroll Accrual
GLI,11/30/2020,11301C,170150,GLI113020,GLI113020,35,Payroll Accrual
GLI,11/30/2020,12504,169964,GLI113020,GLI113020,50.34,Payroll Accrual
GLI,11/30/2020,12404,169964,GLI113020,GLI113020,112,Payroll Accrual
GLI,11/30/2020,12304B,169964,GLI113020,GLI113020,546.14,Payroll Accrual
GLI,11/30/2020,12505,169873,GLI113020,GLI113020,62.98,Payroll Accrual
GLI,11/30/2020,12405,169873,GLI113020,GLI113020,136,Payroll Accrual
GLI,11/30/2020,12305B,169873,GLI113020,GLI113020,796.11,Payroll Accrual
GLI,11/30/2020,12524,169846,GLI113020,GLI113020,10.02,Payroll Accrual
GLI,11/30/2020,124724,169846,GLI113020,GLI113020,130.9,Payroll Accrual
GLI,11/30/2020,12524,169753,GLI113020,GLI113020,27.53,Payroll Accrual
GLI,11/30/2020,124724,169753,GLI113020,GLI113020,359.8,Payroll Accrual
GLI,11/30/2020,12506,169542,GLI113020,GLI113020,23.39,Payroll Accrual
GLI,11/30/2020,12306D,169542,GLI113020,GLI113020,305.76,Payroll Accrual
GLI,11/30/2020,12524,169345,GLI113020,GLI113020,43.04,Payroll Accrual
GLI,11/30/2020,124724,169345,GLI113020,GLI113020,508.92,Payroll Accrual
GLI,11/30/2020,12424,169345,GLI113020,GLI113020,96,Payroll Accrual
GLI,11/30/2020,12506,168815,GLI113020,GLI113020,9.3,Payroll Accrual
GLI,11/30/2020,12306C,168815,GLI113020,GLI113020,121.66,Payroll Accrual
GLI,11/30/2020,12504,168754,GLI113020,GLI113020,64.32,Payroll Accrual
GLI,11/30/2020,124704,168754,GLI113020,GLI113020,696.78,Payroll Accrual
GLI,11/30/2020,12404,168754,GLI113020,GLI113020,144,Payroll Accrual
GLI,11/30/2020,12904,168753,GLI113020,GLI113020,15.53,Payroll Accrual
GLI,11/30/2020,12504,168753,GLI113020,GLI113020,70.22,Payroll Accrual
GLI,11/30/2020,124704,168753,GLI113020,GLI113020,1035.6,Payroll Accrual
GLI,11/30/2020,12404,168753,GLI113020,GLI113020,187.6,Payroll Accrual
GLI,11/30/2020,12504,168575,GLI113020,GLI113020,3.49,Payroll Accrual
GLI,11/30/2020,12204,168575,GLI113020,GLI113020,45.63,Payroll Accrual
GLI,11/30/2020,12904,168573,GLI113020,GLI113020,12.09,Payroll Accrual
GLI,11/30/2020,12504,168573,GLI113020,GLI113020,61.67,Payroll Accrual
GLI,11/30/2020,124704,168573,GLI113020,GLI113020,670.14,Payroll Accrual
GLI,11/30/2020,12404,168573,GLI113020,GLI113020,136,Payroll Accrual
GLI,11/30/2020,12906,168351,GLI113020,GLI113020,40.96,Payroll Accrual
GLI,11/30/2020,12506,168351,GLI113020,GLI113020,206.83,Payroll Accrual
GLI,11/30/2020,12106,168351,GLI113020,GLI113020,2730.77,Payroll Accrual
GLI,11/30/2020,12524,168264,GLI113020,GLI113020,3.81,Payroll Accrual
GLI,11/30/2020,12505,168264,GLI113020,GLI113020,3.81,Payroll Accrual
GLI,11/30/2020,12504,168264,GLI113020,GLI113020,3.81,Payroll Accrual
GLI,11/30/2020,12502,168264,GLI113020,GLI113020,3.81,Payroll Accrual
GLI,11/30/2020,12501,168264,GLI113020,GLI113020,3.81,Payroll Accrual
GLI,11/30/2020,12324F,168264,GLI113020,GLI113020,49.84,Payroll Accrual
GLI,11/30/2020,12305F,168264,GLI113020,GLI113020,49.84,Payroll Accrual
GLI,11/30/2020,12304F,168264,GLI113020,GLI113020,49.84,Payroll Accrual
GLI,11/30/2020,12302F,168264,GLI113020,GLI113020,49.84,Payroll Accrual
GLI,11/30/2020,12301F,168264,GLI113020,GLI113020,49.84,Payroll Accrual
GLI,11/30/2020,12503,168243,GLI113020,GLI113020,46.69,Payroll Accrual
GLI,11/30/2020,12403,168243,GLI113020,GLI113020,104,Payroll Accrual
GLI,11/30/2020,12203,168243,GLI113020,GLI113020,548.6,Payroll Accrual
GLI,11/30/2020,12506,167906,GLI113020,GLI113020,45.42,Payroll Accrual
GLI,11/30/2020,12306C,167906,GLI113020,GLI113020,630.88,Payroll Accrual
GLI,11/30/2020,12906,167812,GLI113020,GLI113020,0.56,Payroll Accrual
GLI,11/30/2020,12905,167812,GLI113020,GLI113020,0.52,Payroll Accrual
GLI,11/30/2020,12514,167812,GLI113020,GLI113020,1.17,Payroll Accrual
GLI,11/30/2020,12506,167812,GLI113020,GLI113020,0.13,Payroll Accrual
GLI,11/30/2020,12505,167812,GLI113020,GLI113020,0.12,Payroll Accrual
GLI,11/30/2020,12504,167812,GLI113020,GLI113020,1.01,Payroll Accrual
GLI,11/30/2020,12502,167812,GLI113020,GLI113020,0.9,Payroll Accrual
GLI,11/30/2020,12501,167812,GLI113020,GLI113020,0.9,Payroll Accrual
GLI,11/30/2020,12214,167812,GLI113020,GLI113020,15.34,Payroll Accrual
GLI,11/30/2020,12206C,167812,GLI113020,GLI113020,9.06,Payroll Accrual
GLI,11/30/2020,12205C,167812,GLI113020,GLI113020,8.37,Payroll Accrual
GLI,11/30/2020,12204C,167812,GLI113020,GLI113020,13.25,Payroll Accrual
GLI,11/30/2020,12202C,167812,GLI113020,GLI113020,11.85,Payroll Accrual
GLI,11/30/2020,12201C,167812,GLI113020,GLI113020,11.85,Payroll Accrual
GLI,11/30/2020,12504,167580,GLI113020,GLI113020,85.17,Payroll Accrual
GLI,11/30/2020,124704,167580,GLI113020,GLI113020,1337.05,Payroll Accrual
GLI,11/30/2020,12404,167580,GLI113020,GLI113020,425.28,Payroll Accrual
GLI,11/30/2020,12506,167321,GLI113020,GLI113020,7.34,Payroll Accrual
GLI,11/30/2020,12306C,167321,GLI113020,GLI113020,96,Payroll Accrual
GLI,11/30/2020,12503,166873,GLI113020,GLI113020,16.37,Payroll Accrual
GLI,11/30/2020,124723,166873,GLI113020,GLI113020,214.08,Payroll Accrual
GLI,11/30/2020,12503,166584,GLI113020,GLI113020,4.27,Payroll Accrual
GLI,11/30/2020,124723,166584,GLI113020,GLI113020,55.8,Payroll Accrual
GLI,11/30/2020,12528,165985,GLI113020,GLI113020,4.83,Payroll Accrual
GLI,11/30/2020,12527,165985,GLI113020,GLI113020,11.27,Payroll Accrual
GLI,11/30/2020,12328,165985,GLI113020,GLI113020,63.14,Payroll Accrual
GLI,11/30/2020,12327,165985,GLI113020,GLI113020,147.33,Payroll Accrual
GLI,11/30/2020,12906,165980,GLI113020,GLI113020,1.05,Payroll Accrual
GLI,11/30/2020,12905,165980,GLI113020,GLI113020,1.05,Payroll Accrual
GLI,11/30/2020,12904,165980,GLI113020,GLI113020,1.05,Payroll Accrual
GLI,11/30/2020,12902,165980,GLI113020,GLI113020,1.05,Payroll Accrual
GLI,11/30/2020,12901,165980,GLI113020,GLI113020,1.05,Payroll Accrual
GLI,11/30/2020,12506,165980,GLI113020,GLI113020,-3,Payroll Accrual
GLI,11/30/2020,12505,165980,GLI113020,GLI113020,-3,Payroll Accrual
GLI,11/30/2020,12504,165980,GLI113020,GLI113020,-3,Payroll Accrual
GLI,11/30/2020,12502,165980,GLI113020,GLI113020,-3,Payroll Accrual
GLI,11/30/2020,12501,165980,GLI113020,GLI113020,-3,Payroll Accrual
GLI,11/30/2020,12206B,165980,GLI113020,GLI113020,69.67,Payroll Accrual
GLI,11/30/2020,12205B,165980,GLI113020,GLI113020,69.67,Payroll Accrual
GLI,11/30/2020,12204B,165980,GLI113020,GLI113020,69.67,Payroll Accrual
GLI,11/30/2020,12202B,165980,GLI113020,GLI113020,69.67,Payroll Accrual
GLI,11/30/2020,12201B,165980,GLI113020,GLI113020,69.67,Payroll Accrual
GLI,11/30/2020,12911,165972,GLI113020,GLI113020,1.81,Payroll Accrual
GLI,11/30/2020,12906,165972,GLI113020,GLI113020,1.32,Payroll Accrual
GLI,11/30/2020,12905,165972,GLI113020,GLI113020,1.32,Payroll Accrual
GLI,11/30/2020,12904,165972,GLI113020,GLI113020,1.32,Payroll Accrual
GLI,11/30/2020,12902,165972,GLI113020,GLI113020,1.24,Payroll Accrual
GLI,11/30/2020,12901,165972,GLI113020,GLI113020,1.24,Payroll Accrual
GLI,11/30/2020,12511,165972,GLI113020,GLI113020,6.01,Payroll Accrual
GLI,11/30/2020,12506,165972,GLI113020,GLI113020,3.48,Payroll Accrual
GLI,11/30/2020,12505,165972,GLI113020,GLI113020,3.48,Payroll Accrual
GLI,11/30/2020,12504,165972,GLI113020,GLI113020,3.48,Payroll Accrual
GLI,11/30/2020,12502,165972,GLI113020,GLI113020,3.06,Payroll Accrual
GLI,11/30/2020,12501,165972,GLI113020,GLI113020,3.06,Payroll Accrual
GLI,11/30/2020,12411,165972,GLI113020,GLI113020,24.64,Payroll Accrual
GLI,11/30/2020,12406,165972,GLI113020,GLI113020,17.92,Payroll Accrual
GLI,11/30/2020,12405,165972,GLI113020,GLI113020,17.92,Payroll Accrual
GLI,11/30/2020,12404,165972,GLI113020,GLI113020,17.92,Payroll Accrual
GLI,11/30/2020,12402,165972,GLI113020,GLI113020,16.8,Payroll Accrual
GLI,11/30/2020,12401,165972,GLI113020,GLI113020,16.8,Payroll Accrual
GLI,11/30/2020,12311,165972,GLI113020,GLI113020,96.13,Payroll Accrual
GLI,11/30/2020,12306H,165972,GLI113020,GLI113020,69.91,Payroll Accrual
GLI,11/30/2020,12305H,165972,GLI113020,GLI113020,69.91,Payroll Accrual
GLI,11/30/2020,12304H,165972,GLI113020,GLI113020,69.91,Payroll Accrual
GLI,11/30/2020,12302H,165972,GLI113020,GLI113020,65.54,Payroll Accrual
GLI,11/30/2020,12301H,165972,GLI113020,GLI113020,65.54,Payroll Accrual
GLI,11/30/2020,12528,165925,GLI113020,GLI113020,5.68,Payroll Accrual
GLI,11/30/2020,12527,165925,GLI113020,GLI113020,13.25,Payroll Accrual
GLI,11/30/2020,12328,165925,GLI113020,GLI113020,74.22,Payroll Accrual
GLI,11/30/2020,12327,165925,GLI113020,GLI113020,173.17,Payroll Accrual
GLI,11/30/2020,12524,165924,GLI113020,GLI113020,16.49,Payroll Accrual
GLI,11/30/2020,124724,165924,GLI113020,GLI113020,215.52,Payroll Accrual
GLI,11/30/2020,12528,165876,GLI113020,GLI113020,7.87,Payroll Accrual
GLI,11/30/2020,12527,165876,GLI113020,GLI113020,18.36,Payroll Accrual
GLI,11/30/2020,12328,165876,GLI113020,GLI113020,102.84,Payroll Accrual
GLI,11/30/2020,12327,165876,GLI113020,GLI113020,239.97,Payroll Accrual
GLI,11/30/2020,12903,165873,GLI113020,GLI113020,9.2,Payroll Accrual
GLI,11/30/2020,12503,165873,GLI113020,GLI113020,46.94,Payroll Accrual
GLI,11/30/2020,124723,165873,GLI113020,GLI113020,501.62,Payroll Accrual
GLI,11/30/2020,12403,165873,GLI113020,GLI113020,112,Payroll Accrual
GLI,11/30/2020,12503,165848,GLI113020,GLI113020,3.45,Payroll Accrual
GLI,11/30/2020,124723,165848,GLI113020,GLI113020,45.12,Payroll Accrual
GLI,11/30/2020,12528,165826,GLI113020,GLI113020,5.55,Payroll Accrual
GLI,11/30/2020,12527,165826,GLI113020,GLI113020,12.96,Payroll Accrual
GLI,11/30/2020,12328,165826,GLI113020,GLI113020,72.58,Payroll Accrual
GLI,11/30/2020,12327,165826,GLI113020,GLI113020,169.35,Payroll Accrual
GLI,11/30/2020,12524,165780,GLI113020,GLI113020,54.09,Payroll Accrual
GLI,11/30/2020,124724,165780,GLI113020,GLI113020,484.49,Payroll Accrual
GLI,11/30/2020,12424,165780,GLI113020,GLI113020,222.56,Payroll Accrual
GLI,11/30/2020,12502,165748,GLI113020,GLI113020,96.8,Payroll Accrual
GLI,11/30/2020,12501,165748,GLI113020,GLI113020,63.89,Payroll Accrual
GLI,11/30/2020,12402,165748,GLI113020,GLI113020,67.2,Payroll Accrual
GLI,11/30/2020,12401,165748,GLI113020,GLI113020,44.8,Payroll Accrual
GLI,11/30/2020,11102,165748,GLI113020,GLI113020,1223.3,Payroll Accrual
GLI,11/30/2020,11101,165748,GLI113020,GLI113020,815.54,Payroll Accrual
GLI,11/30/2020,12505,165732,GLI113020,GLI113020,58.37,Payroll Accrual
GLI,11/30/2020,124703,165732,GLI113020,GLI113020,651,Payroll Accrual
GLI,11/30/2020,12405,165732,GLI113020,GLI113020,112,Payroll Accrual
GLI,11/30/2020,12504,165645,GLI113020,GLI113020,52.12,Payroll Accrual
GLI,11/30/2020,12404,165645,GLI113020,GLI113020,112,Payroll Accrual
GLI,11/30/2020,12304D,165645,GLI113020,GLI113020,569.25,Payroll Accrual
GLI,11/30/2020,12903,165473,GLI113020,GLI113020,11.79,Payroll Accrual
GLI,11/30/2020,12503,165473,GLI113020,GLI113020,57.3,Payroll Accrual
GLI,11/30/2020,124723,165473,GLI113020,GLI113020,674.1,Payroll Accrual
GLI,11/30/2020,12403,165473,GLI113020,GLI113020,112,Payroll Accrual
GLI,11/30/2020,12506,165432,GLI113020,GLI113020,3.01,Payroll Accrual
GLI,11/30/2020,12505,165432,GLI113020,GLI113020,3.01,Payroll Accrual
GLI,11/30/2020,12504,165432,GLI113020,GLI113020,3.01,Payroll Accrual
GLI,11/30/2020,12502,165432,GLI113020,GLI113020,3.01,Payroll Accrual
GLI,11/30/2020,12501,165432,GLI113020,GLI113020,3.01,Payroll Accrual
GLI,11/30/2020,12206B,165432,GLI113020,GLI113020,39.31,Payroll Accrual
GLI,11/30/2020,12205B,165432,GLI113020,GLI113020,39.31,Payroll Accrual
GLI,11/30/2020,12204B,165432,GLI113020,GLI113020,39.31,Payroll Accrual
GLI,11/30/2020,12202B,165432,GLI113020,GLI113020,39.31,Payroll Accrual
GLI,11/30/2020,12201B,165432,GLI113020,GLI113020,39.31,Payroll Accrual
GLI,11/30/2020,12916,165428,GLI113020,GLI113020,24.37,Payroll Accrual
GLI,11/30/2020,12516,165428,GLI113020,GLI113020,124.29,Payroll Accrual
GLI,11/30/2020,12316,165428,GLI113020,GLI113020,1624.62,Payroll Accrual
GLI,11/30/2020,12905,165357,GLI113020,GLI113020,19.27,Payroll Accrual
GLI,11/30/2020,12505,165357,GLI113020,GLI113020,97.23,Payroll Accrual
GLI,11/30/2020,12405,165357,GLI113020,GLI113020,96,Payroll Accrual
GLI,11/30/2020,12305B,165357,GLI113020,GLI113020,1188.77,Payroll Accrual
GLI,11/30/2020,12506,165321,GLI113020,GLI113020,37.19,Payroll Accrual
GLI,11/30/2020,12306C,165321,GLI113020,GLI113020,486.08,Payroll Accrual
GLI,11/30/2020,12528,165296,GLI113020,GLI113020,2.57,Payroll Accrual
GLI,11/30/2020,12527,165296,GLI113020,GLI113020,6,Payroll Accrual
GLI,11/30/2020,12428,165296,GLI113020,GLI113020,33.6,Payroll Accrual
GLI,11/30/2020,12427,165296,GLI113020,GLI113020,78.4,Payroll Accrual
GLI,11/30/2020,12503,165288,GLI113020,GLI113020,6.38,Payroll Accrual
GLI,11/30/2020,124723,165288,GLI113020,GLI113020,83.35,Payroll Accrual
GLI,11/30/2020,12524,164920,GLI113020,GLI113020,18.3,Payroll Accrual
GLI,11/30/2020,124724,164920,GLI113020,GLI113020,239.2,Payroll Accrual
GLI,11/30/2020,12502,164821,GLI113020,GLI113020,78.45,Payroll Accrual
GLI,11/30/2020,12501,164821,GLI113020,GLI113020,49.01,Payroll Accrual
GLI,11/30/2020,12402,164821,GLI113020,GLI113020,67.2,Payroll Accrual
GLI,11/30/2020,12401,164821,GLI113020,GLI113020,44.8,Payroll Accrual
GLI,11/30/2020,11102,164821,GLI113020,GLI113020,1087.31,Payroll Accrual
GLI,11/30/2020,11101,164821,GLI113020,GLI113020,724.88,Payroll Accrual
GLI,11/30/2020,12524,164785,GLI113020,GLI113020,13,Payroll Accrual
GLI,11/30/2020,12224,164785,GLI113020,GLI113020,169.92,Payroll Accrual
GLI,11/30/2020,12528,164023,GLI113020,GLI113020,6.92,Payroll Accrual
GLI,11/30/2020,12527,164023,GLI113020,GLI113020,16.16,Payroll Accrual
GLI,11/30/2020,12328,164023,GLI113020,GLI113020,90.56,Payroll Accrual
GLI,11/30/2020,12327,164023,GLI113020,GLI113020,211.3,Payroll Accrual
GLI,11/30/2020,12904,164015,GLI113020,GLI113020,33.15,Payroll Accrual
GLI,11/30/2020,12504,164015,GLI113020,GLI113020,124.62,Payroll Accrual
GLI,11/30/2020,124704,164015,GLI113020,GLI113020,1657.3,Payroll Accrual
GLI,11/30/2020,12404,164015,GLI113020,GLI113020,261.68,Payroll Accrual
GLI,11/30/2020,12524,163754,GLI113020,GLI113020,2.93,Payroll Accrual
GLI,11/30/2020,124724,163754,GLI113020,GLI113020,38.28,Payroll Accrual
GLI,11/30/2020,12524,163278,GLI113020,GLI113020,43.32,Payroll Accrual
GLI,11/30/2020,124724,163278,GLI113020,GLI113020,566.3,Payroll Accrual
GLI,11/30/2020,12424,163278,GLI113020,GLI113020,112,Payroll Accrual
GLI,11/30/2020,12503,163245,GLI113020,GLI113020,68.1,Payroll Accrual
GLI,11/30/2020,12403,163245,GLI113020,GLI113020,112,Payroll Accrual
GLI,11/30/2020,12303,163245,GLI113020,GLI113020,795.26,Payroll Accrual
GLI,11/30/2020,12512,163096,GLI113020,GLI113020,9.39,Payroll Accrual
GLI,11/30/2020,12502,163096,GLI113020,GLI113020,19.15,Payroll Accrual
GLI,11/30/2020,12501,163096,GLI113020,GLI113020,19.15,Payroll Accrual
GLI,11/30/2020,12212,163096,GLI113020,GLI113020,165.05,Payroll Accrual
GLI,11/30/2020,12202C,163096,GLI113020,GLI113020,292.59,Payroll Accrual
GLI,11/30/2020,12201C,163096,GLI113020,GLI113020,292.59,Payroll Accrual
GLI,11/30/2020,12501,162962,GLI113020,GLI113020,8.8,Payroll Accrual
GLI,11/30/2020,11301C,162962,GLI113020,GLI113020,115,Payroll Accrual
GLI,11/30/2020,12904,16250,GLI113020,GLI113020,13.34,Payroll Accrual
GLI,11/30/2020,12504,16250,GLI113020,GLI113020,49.56,Payroll Accrual
GLI,11/30/2020,12404,16250,GLI113020,GLI113020,112,Payroll Accrual
GLI,11/30/2020,12304D,16250,GLI113020,GLI113020,777.52,Payroll Accrual
GLI,11/30/2020,12906,162428,GLI113020,GLI113020,19.52,Payroll Accrual
GLI,11/30/2020,12506,162428,GLI113020,GLI113020,94.27,Payroll Accrual
GLI,11/30/2020,12306B,162428,GLI113020,GLI113020,1301.5,Payroll Accrual
GLI,11/30/2020,12903,161010,GLI113020,GLI113020,10.48,Payroll Accrual
GLI,11/30/2020,12503,161010,GLI113020,GLI113020,53.46,Payroll Accrual
GLI,11/30/2020,124723,161010,GLI113020,GLI113020,586.88,Payroll Accrual
GLI,11/30/2020,12403,161010,GLI113020,GLI113020,112,Payroll Accrual
GLI,11/30/2020,12905,160930,GLI113020,GLI113020,23.47,Payroll Accrual
GLI,11/30/2020,12505,160930,GLI113020,GLI113020,89.1,Payroll Accrual
GLI,11/30/2020,12405,160930,GLI113020,GLI113020,80,Payroll Accrual
GLI,11/30/2020,12305C,160930,GLI113020,GLI113020,1093.47,Payroll Accrual
GLI,11/30/2020,12503,159873,GLI113020,GLI113020,36.31,Payroll Accrual
GLI,11/30/2020,124723,159873,GLI113020,GLI113020,362.6,Payroll Accrual
GLI,11/30/2020,12403,159873,GLI113020,GLI113020,112,Payroll Accrual
GLI,11/30/2020,12504,159857,GLI113020,GLI113020,36.93,Payroll Accrual
GLI,11/30/2020,12404,159857,GLI113020,GLI113020,104,Payroll Accrual
GLI,11/30/2020,12304C,159857,GLI113020,GLI113020,421.07,Payroll Accrual
GLI,11/30/2020,12505,1593750,GLI113020,GLI113020,55.8,Payroll Accrual
GLI,11/30/2020,124703,1593750,GLI113020,GLI113020,617.4,Payroll Accrual
GLI,11/30/2020,12405,1593750,GLI113020,GLI113020,112,Payroll Accrual
GLI,11/30/2020,12503,159375,GLI113020,GLI113020,25.95,Payroll Accrual
GLI,11/30/2020,124723,159375,GLI113020,GLI113020,339.12,Payroll Accrual
GLI,11/30/2020,12524,158964,GLI113020,GLI113020,48.41,Payroll Accrual
GLI,11/30/2020,124724,158964,GLI113020,GLI113020,536.76,Payroll Accrual
GLI,11/30/2020,12424,158964,GLI113020,GLI113020,96,Payroll Accrual
GLI,11/30/2020,12924,158963,GLI113020,GLI113020,6.7,Payroll Accrual
GLI,11/30/2020,12524,158963,GLI113020,GLI113020,34.17,Payroll Accrual
GLI,11/30/2020,124724,158963,GLI113020,GLI113020,446.6,Payroll Accrual
GLI,11/30/2020,12424,158963,GLI113020,GLI113020,112,Payroll Accrual
GLI,11/30/2020,12906,1588879,GLI113020,GLI113020,4.55,Payroll Accrual
GLI,11/30/2020,12905,1588879,GLI113020,GLI113020,4.2,Payroll Accrual
GLI,11/30/2020,12514,1588879,GLI113020,GLI113020,9.49,Payroll Accrual
GLI,11/30/2020,12506,1588879,GLI113020,GLI113020,1.06,Payroll Accrual
GLI,11/30/2020,12505,1588879,GLI113020,GLI113020,0.98,Payroll Accrual
GLI,11/30/2020,12504,1588879,GLI113020,GLI113020,8.19,Payroll Accrual
GLI,11/30/2020,12502,1588879,GLI113020,GLI113020,7.34,Payroll Accrual
GLI,11/30/2020,12501,1588879,GLI113020,GLI113020,7.34,Payroll Accrual
GLI,11/30/2020,12214,1588879,GLI113020,GLI113020,124.09,Payroll Accrual
GLI,11/30/2020,12206C,1588879,GLI113020,GLI113020,73.33,Payroll Accrual
GLI,11/30/2020,12205C,1588879,GLI113020,GLI113020,67.69,Payroll Accrual
GLI,11/30/2020,12204C,1588879,GLI113020,GLI113020,107.17,Payroll Accrual
GLI,11/30/2020,12202C,1588879,GLI113020,GLI113020,95.89,Payroll Accrual
GLI,11/30/2020,12201C,1588879,GLI113020,GLI113020,95.89,Payroll Accrual
GLI,11/30/2020,12528,158765,GLI113020,GLI113020,7.26,Payroll Accrual
GLI,11/30/2020,12527,158765,GLI113020,GLI113020,16.93,Payroll Accrual
GLI,11/30/2020,12328,158765,GLI113020,GLI113020,94.85,Payroll Accrual
GLI,11/30/2020,12327,158765,GLI113020,GLI113020,221.31,Payroll Accrual
GLI,11/30/2020,12503,158475,GLI113020,GLI113020,15.53,Payroll Accrual
GLI,11/30/2020,12303,158475,GLI113020,GLI113020,203,Payroll Accrual
GLI,11/30/2020,12914,157995,GLI113020,GLI113020,5.42,Payroll Accrual
GLI,11/30/2020,12906,157995,GLI113020,GLI113020,11.27,Payroll Accrual
GLI,11/30/2020,12905,157995,GLI113020,GLI113020,10.4,Payroll Accrual
GLI,11/30/2020,12904,157995,GLI113020,GLI113020,4.68,Payroll Accrual
GLI,11/30/2020,12902,157995,GLI113020,GLI113020,4.18,Payroll Accrual
GLI,11/30/2020,12901,157995,GLI113020,GLI113020,4.18,Payroll Accrual
GLI,11/30/2020,12514,157995,GLI113020,GLI113020,16.86,Payroll Accrual
GLI,11/30/2020,12506,157995,GLI113020,GLI113020,1.89,Payroll Accrual
GLI,11/30/2020,12505,157995,GLI113020,GLI113020,1.74,Payroll Accrual
GLI,11/30/2020,12504,157995,GLI113020,GLI113020,14.56,Payroll Accrual
GLI,11/30/2020,12502,157995,GLI113020,GLI113020,13.03,Payroll Accrual
GLI,11/30/2020,12501,157995,GLI113020,GLI113020,13.03,Payroll Accrual
GLI,11/30/2020,12214,157995,GLI113020,GLI113020,270.77,Payroll Accrual
GLI,11/30/2020,12206C,157995,GLI113020,GLI113020,160,Payroll Accrual
GLI,11/30/2020,12205C,157995,GLI113020,GLI113020,147.69,Payroll Accrual
GLI,11/30/2020,12204C,157995,GLI113020,GLI113020,233.85,Payroll Accrual
GLI,11/30/2020,12202C,157995,GLI113020,GLI113020,209.23,Payroll Accrual
GLI,11/30/2020,12201C,157995,GLI113020,GLI113020,209.23,Payroll Accrual
GLI,11/30/2020,12905,157953,GLI113020,GLI113020,23.93,Payroll Accrual
GLI,11/30/2020,12505,157953,GLI113020,GLI113020,107.53,Payroll Accrual
GLI,11/30/2020,124703,157953,GLI113020,GLI113020,1595.15,Payroll Accrual
GLI,11/30/2020,12405,157953,GLI113020,GLI113020,266,Payroll Accrual
GLI,11/30/2020,12503,157935,GLI113020,GLI113020,11.39,Payroll Accrual
GLI,11/30/2020,124723,157935,GLI113020,GLI113020,148.8,Payroll Accrual
GLI,11/30/2020,12503,157398,GLI113020,GLI113020,20.31,Payroll Accrual
GLI,11/30/2020,124723,157398,GLI113020,GLI113020,265.44,Payroll Accrual
GLI,11/30/2020,12503,157394,GLI113020,GLI113020,32.71,Payroll Accrual
GLI,11/30/2020,124723,157394,GLI113020,GLI113020,427.56,Payroll Accrual
GLI,11/30/2020,12506,157392,GLI113020,GLI113020,7.54,Payroll Accrual
GLI,11/30/2020,12505,157392,GLI113020,GLI113020,7.54,Payroll Accrual
GLI,11/30/2020,12504,157392,GLI113020,GLI113020,7.54,Payroll Accrual
GLI,11/30/2020,12502,157392,GLI113020,GLI113020,7.54,Payroll Accrual
GLI,11/30/2020,12501,157392,GLI113020,GLI113020,7.54,Payroll Accrual
GLI,11/30/2020,12406,157392,GLI113020,GLI113020,15.6,Payroll Accrual
GLI,11/30/2020,12405,157392,GLI113020,GLI113020,15.6,Payroll Accrual
GLI,11/30/2020,12404,157392,GLI113020,GLI113020,15.6,Payroll Accrual
GLI,11/30/2020,12402,157392,GLI113020,GLI113020,15.6,Payroll Accrual
GLI,11/30/2020,12401,157392,GLI113020,GLI113020,15.6,Payroll Accrual
GLI,11/30/2020,12206B,157392,GLI113020,GLI113020,82.91,Payroll Accrual
GLI,11/30/2020,12205B,157392,GLI113020,GLI113020,82.91,Payroll Accrual
GLI,11/30/2020,12204B,157392,GLI113020,GLI113020,82.91,Payroll Accrual
GLI,11/30/2020,12202B,157392,GLI113020,GLI113020,82.91,Payroll Accrual
GLI,11/30/2020,12201B,157392,GLI113020,GLI113020,82.91,Payroll Accrual
GLI,11/30/2020,12516,156844,GLI113020,GLI113020,61.83,Payroll Accrual
GLI,11/30/2020,12416,156844,GLI113020,GLI113020,912,Payroll Accrual
GLI,11/30/2020,12524,1566882,GLI113020,GLI113020,60.21,Payroll Accrual
GLI,11/30/2020,124724,1566882,GLI113020,GLI113020,829.4,Payroll Accrual
GLI,11/30/2020,12424,1566882,GLI113020,GLI113020,116,Payroll Accrual
GLI,11/30/2020,12903,15668,GLI113020,GLI113020,11.45,Payroll Accrual
GLI,11/30/2020,12503,15668,GLI113020,GLI113020,57.12,Payroll Accrual
GLI,11/30/2020,12403,15668,GLI113020,GLI113020,112,Payroll Accrual
GLI,11/30/2020,12303,15668,GLI113020,GLI113020,651.88,Payroll Accrual
GLI,11/30/2020,12906,15646,GLI113020,GLI113020,7.47,Payroll Accrual
GLI,11/30/2020,12506,15646,GLI113020,GLI113020,34.86,Payroll Accrual
GLI,11/30/2020,12306B,15646,GLI113020,GLI113020,497.98,Payroll Accrual
GLI,11/30/2020,12528,156398,GLI113020,GLI113020,7.54,Payroll Accrual
GLI,11/30/2020,12527,156398,GLI113020,GLI113020,17.6,Payroll Accrual
GLI,11/30/2020,12328,156398,GLI113020,GLI113020,98.59,Payroll Accrual
GLI,11/30/2020,12327,156398,GLI113020,GLI113020,230.05,Payroll Accrual
GLI,11/30/2020,12903,155477,GLI113020,GLI113020,8.44,Payroll Accrual
GLI,11/30/2020,12503,155477,GLI113020,GLI113020,35.77,Payroll Accrual
GLI,11/30/2020,124723,155477,GLI113020,GLI113020,450.94,Payroll Accrual
GLI,11/30/2020,12403,155477,GLI113020,GLI113020,112,Payroll Accrual
GLI,11/30/2020,12504,155214,GLI113020,GLI113020,39.36,Payroll Accrual
GLI,11/30/2020,12204C,155214,GLI113020,GLI113020,514.5,Payroll Accrual
GLI,11/30/2020,12528,154983,GLI113020,GLI113020,2.12,Payroll Accrual
GLI,11/30/2020,12527,154983,GLI113020,GLI113020,4.96,Payroll Accrual
GLI,11/30/2020,12328,154983,GLI113020,GLI113020,27.81,Payroll Accrual
GLI,11/30/2020,12327,154983,GLI113020,GLI113020,64.88,Payroll Accrual
GLI,11/30/2020,12503,154785,GLI113020,GLI113020,15.05,Payroll Accrual
GLI,11/30/2020,12303,154785,GLI113020,GLI113020,196.7,Payroll Accrual
GLI,11/30/2020,12528,154624,GLI113020,GLI113020,9.58,Payroll Accrual
GLI,11/30/2020,12527,154624,GLI113020,GLI113020,22.36,Payroll Accrual
GLI,11/30/2020,12328,154624,GLI113020,GLI113020,125.23,Payroll Accrual
GLI,11/30/2020,12327,154624,GLI113020,GLI113020,292.2,Payroll Accrual
GLI,11/30/2020,12528,154474,GLI113020,GLI113020,1.1,Payroll Accrual
GLI,11/30/2020,12527,154474,GLI113020,GLI113020,2.55,Payroll Accrual
GLI,11/30/2020,12328,154474,GLI113020,GLI113020,14.31,Payroll Accrual
GLI,11/30/2020,12327,154474,GLI113020,GLI113020,33.4,Payroll Accrual
GLI,11/30/2020,12506,154328,GLI113020,GLI113020,27.91,Payroll Accrual
GLI,11/30/2020,12306C,154328,GLI113020,GLI113020,364.9,Payroll Accrual
GLI,11/30/2020,12906,154225,GLI113020,GLI113020,9.44,Payroll Accrual
GLI,11/30/2020,12506,154225,GLI113020,GLI113020,41.1,Payroll Accrual
GLI,11/30/2020,12306D,154225,GLI113020,GLI113020,629.01,Payroll Accrual
GLI,11/30/2020,12928,154219,GLI113020,GLI113020,8.56,Payroll Accrual
GLI,11/30/2020,12927,154219,GLI113020,GLI113020,19.98,Payroll Accrual
GLI,11/30/2020,12528,154219,GLI113020,GLI113020,31.23,Payroll Accrual
GLI,11/30/2020,12527,154219,GLI113020,GLI113020,74.9,Payroll Accrual
GLI,11/30/2020,12428,154219,GLI113020,GLI113020,38.4,Payroll Accrual
GLI,11/30/2020,12427,154219,GLI113020,GLI113020,89.6,Payroll Accrual
GLI,11/30/2020,12128,154219,GLI113020,GLI113020,389.78,Payroll Accrual
GLI,11/30/2020,12127,154219,GLI113020,GLI113020,909.5,Payroll Accrual
GLI,11/30/2020,12904,153865,GLI113020,GLI113020,8.92,Payroll Accrual
GLI,11/30/2020,12504,153865,GLI113020,GLI113020,45.49,Payroll Accrual
GLI,11/30/2020,124704,153865,GLI113020,GLI113020,594.7,Payroll Accrual
GLI,11/30/2020,12404,153865,GLI113020,GLI113020,132,Payroll Accrual
GLI,11/30/2020,12504,153835,GLI113020,GLI113020,9.02,Payroll Accrual
GLI,11/30/2020,12304C,153835,GLI113020,GLI113020,117.91,Payroll Accrual
GLI,11/30/2020,12504,152964,GLI113020,GLI113020,94.03,Payroll Accrual
GLI,11/30/2020,124704,152964,GLI113020,GLI113020,1229.15,Payroll Accrual
GLI,11/30/2020,12404,152964,GLI113020,GLI113020,128,Payroll Accrual
GLI,11/30/2020,12904,152525,GLI113020,GLI113020,10.35,Payroll Accrual
GLI,11/30/2020,12504,152525,GLI113020,GLI113020,33.33,Payroll Accrual
GLI,11/30/2020,124704,152525,GLI113020,GLI113020,689.75,Payroll Accrual
GLI,11/30/2020,12404,152525,GLI113020,GLI113020,596.8,Payroll Accrual
GLI,11/30/2020,12928,152510,GLI113020,GLI113020,2.47,Payroll Accrual
GLI,11/30/2020,12927,152510,GLI113020,GLI113020,5.77,Payroll Accrual
GLI,11/30/2020,12528,152510,GLI113020,GLI113020,4.91,Payroll Accrual
GLI,11/30/2020,12527,152510,GLI113020,GLI113020,21.72,Payroll Accrual
GLI,11/30/2020,12428,152510,GLI113020,GLI113020,65.25,Payroll Accrual
GLI,11/30/2020,12427,152510,GLI113020,GLI113020,152.25,Payroll Accrual
GLI,11/30/2020,12328,152510,GLI113020,GLI113020,99.53,Payroll Accrual
GLI,11/30/2020,12327,152510,GLI113020,GLI113020,232.23,Payroll Accrual
GLI,11/30/2020,12504,152499,GLI113020,GLI113020,196.86,Payroll Accrual
GLI,11/30/2020,12404,152499,GLI113020,GLI113020,60,Payroll Accrual
GLI,11/30/2020,12304B,152499,GLI113020,GLI113020,2513.41,Payroll Accrual
GLI,11/30/2020,12504,152410,GLI113020,GLI113020,76.16,Payroll Accrual
GLI,11/30/2020,124704,152410,GLI113020,GLI113020,1015.55,Payroll Accrual
GLI,11/30/2020,12404,152410,GLI113020,GLI113020,715.2,Payroll Accrual
GLI,11/30/2020,12504,152235,GLI113020,GLI113020,149.01,Payroll Accrual
GLI,11/30/2020,124704,152235,GLI113020,GLI113020,1967.9,Payroll Accrual
GLI,11/30/2020,12404,152235,GLI113020,GLI113020,380.08,Payroll Accrual
GLI,11/30/2020,12504,150126,GLI113020,GLI113020,175.63,Payroll Accrual
GLI,11/30/2020,124704,150126,GLI113020,GLI113020,2295.75,Payroll Accrual
GLI,11/30/2020,12404,150126,GLI113020,GLI113020,626.22,Payroll Accrual
GLI,11/30/2020,12905,150120,GLI113020,GLI113020,20.82,Payroll Accrual
GLI,11/30/2020,12505,150120,GLI113020,GLI113020,100.45,Payroll Accrual
GLI,11/30/2020,12105,150120,GLI113020,GLI113020,1388.31,Payroll Accrual
GLI,11/30/2020,12905,150105,GLI113020,GLI113020,22.14,Payroll Accrual
GLI,11/30/2020,12505,150105,GLI113020,GLI113020,110.56,Payroll Accrual
GLI,11/30/2020,124703,150105,GLI113020,GLI113020,1476.05,Payroll Accrual
GLI,11/30/2020,12405,150105,GLI113020,GLI113020,570.88,Payroll Accrual
GLI,11/30/2020,12904,149878,GLI113020,GLI113020,10.45,Payroll Accrual
GLI,11/30/2020,12504,149878,GLI113020,GLI113020,63.56,Payroll Accrual
GLI,11/30/2020,12404,149878,GLI113020,GLI113020,120,Payroll Accrual
GLI,11/30/2020,12304D,149878,GLI113020,GLI113020,925.43,Payroll Accrual
GLI,11/30/2020,12503,149857,GLI113020,GLI113020,16.83,Payroll Accrual
GLI,11/30/2020,124723,149857,GLI113020,GLI113020,108.08,Payroll Accrual
GLI,11/30/2020,12403,149857,GLI113020,GLI113020,112,Payroll Accrual
GLI,11/30/2020,12503,148467,GLI113020,GLI113020,18.94,Payroll Accrual
GLI,11/30/2020,12203,148467,GLI113020,GLI113020,247.56,Payroll Accrual
GLI,11/30/2020,12902,148080,GLI113020,GLI113020,28.63,Payroll Accrual
GLI,11/30/2020,12901,148080,GLI113020,GLI113020,19.09,Payroll Accrual
GLI,11/30/2020,12502,148080,GLI113020,GLI113020,144.94,Payroll Accrual
GLI,11/30/2020,12501,148080,GLI113020,GLI113020,96.63,Payroll Accrual
GLI,11/30/2020,11102,148080,GLI113020,GLI113020,1908.93,Payroll Accrual
GLI,11/30/2020,11101,148080,GLI113020,GLI113020,1272.62,Payroll Accrual
GLI,11/30/2020,12503,147932,GLI113020,GLI113020,6.12,Payroll Accrual
GLI,11/30/2020,124723,147932,GLI113020,GLI113020,80.04,Payroll Accrual
GLI,11/30/2020,12505,147834,GLI113020,GLI113020,58.39,Payroll Accrual
GLI,11/30/2020,124703,147834,GLI113020,GLI113020,643.2,Payroll Accrual
GLI,11/30/2020,12405,147834,GLI113020,GLI113020,120,Payroll Accrual
GLI,11/30/2020,12524,147832,GLI113020,GLI113020,44.21,Payroll Accrual
GLI,11/30/2020,124724,147832,GLI113020,GLI113020,481.92,Payroll Accrual
GLI,11/30/2020,12424,147832,GLI113020,GLI113020,96,Payroll Accrual
GLI,11/30/2020,12524,146982,GLI113020,GLI113020,22.7,Payroll Accrual
GLI,11/30/2020,124724,146982,GLI113020,GLI113020,296.8,Payroll Accrual
GLI,11/30/2020,12928,145982,GLI113020,GLI113020,6.07,Payroll Accrual
GLI,11/30/2020,12927,145982,GLI113020,GLI113020,14.15,Payroll Accrual
GLI,11/30/2020,12528,145982,GLI113020,GLI113020,23.72,Payroll Accrual
GLI,11/30/2020,12527,145982,GLI113020,GLI113020,64.96,Payroll Accrual
GLI,11/30/2020,12428,145982,GLI113020,GLI113020,38.4,Payroll Accrual
GLI,11/30/2020,12427,145982,GLI113020,GLI113020,89.6,Payroll Accrual
GLI,11/30/2020,12128,145982,GLI113020,GLI113020,365.98,Payroll Accrual
GLI,11/30/2020,12127,145982,GLI113020,GLI113020,853.94,Payroll Accrual
GLI,11/30/2020,12528,145850,GLI113020,GLI113020,6.18,Payroll Accrual
GLI,11/30/2020,12527,145850,GLI113020,GLI113020,14.42,Payroll Accrual
GLI,11/30/2020,12328,145850,GLI113020,GLI113020,80.81,Payroll Accrual
GLI,11/30/2020,12327,145850,GLI113020,GLI113020,188.55,Payroll Accrual
GLI,11/30/2020,12504,145801,GLI113020,GLI113020,75.67,Payroll Accrual
GLI,11/30/2020,124704,145801,GLI113020,GLI113020,1075.85,Payroll Accrual
GLI,11/30/2020,12404,145801,GLI113020,GLI113020,288.72,Payroll Accrual
GLI,11/30/2020,12905,145789,GLI113020,GLI113020,17.7,Payroll Accrual
GLI,11/30/2020,12505,145789,GLI113020,GLI113020,75.76,Payroll Accrual
GLI,11/30/2020,124703,145789,GLI113020,GLI113020,1179.85,Payroll Accrual
GLI,11/30/2020,12405,145789,GLI113020,GLI113020,353.64,Payroll Accrual
GLI,11/30/2020,12506,145087,GLI113020,GLI113020,7.87,Payroll Accrual
GLI,11/30/2020,12505,145087,GLI113020,GLI113020,7.87,Payroll Accrual
GLI,11/30/2020,12504,145087,GLI113020,GLI113020,7.87,Payroll Accrual
GLI,11/30/2020,12502,145087,GLI113020,GLI113020,7.87,Payroll Accrual
GLI,11/30/2020,12501,145087,GLI113020,GLI113020,7.87,Payroll Accrual
GLI,11/30/2020,12406,145087,GLI113020,GLI113020,20.8,Payroll Accrual
GLI,11/30/2020,12405,145087,GLI113020,GLI113020,20.8,Payroll Accrual
GLI,11/30/2020,12404,145087,GLI113020,GLI113020,20.8,Payroll Accrual
GLI,11/30/2020,12402,145087,GLI113020,GLI113020,20.8,Payroll Accrual
GLI,11/30/2020,12401,145087,GLI113020,GLI113020,20.8,Payroll Accrual
GLI,11/30/2020,12206B,145087,GLI113020,GLI113020,82.13,Payroll Accrual
GLI,11/30/2020,12205B,145087,GLI113020,GLI113020,82.13,Payroll Accrual
GLI,11/30/2020,12204B,145087,GLI113020,GLI113020,82.13,Payroll Accrual
GLI,11/30/2020,12202B,145087,GLI113020,GLI113020,82.13,Payroll Accrual
GLI,11/30/2020,12201B,145087,GLI113020,GLI113020,82.13,Payroll Accrual
GLI,11/30/2020,12912,143769,GLI113020,GLI113020,2.21,Payroll Accrual
GLI,11/30/2020,12902,143769,GLI113020,GLI113020,3.91,Payroll Accrual
GLI,11/30/2020,12901,143769,GLI113020,GLI113020,3.91,Payroll Accrual
GLI,11/30/2020,12512,143769,GLI113020,GLI113020,11.24,Payroll Accrual
GLI,11/30/2020,12502,143769,GLI113020,GLI113020,19.94,Payroll Accrual
GLI,11/30/2020,12501,143769,GLI113020,GLI113020,19.94,Payroll Accrual
GLI,11/30/2020,12212,143769,GLI113020,GLI113020,147.02,Payroll Accrual
GLI,11/30/2020,12202C,143769,GLI113020,GLI113020,260.62,Payroll Accrual
GLI,11/30/2020,12201C,143769,GLI113020,GLI113020,260.62,Payroll Accrual
GLI,11/30/2020,12924,143659,GLI113020,GLI113020,3.76,Payroll Accrual
GLI,11/30/2020,12524,143659,GLI113020,GLI113020,19.2,Payroll Accrual
GLI,11/30/2020,124724,143659,GLI113020,GLI113020,250.9,Payroll Accrual
GLI,11/30/2020,12924,143298,GLI113020,GLI113020,0.83,Payroll Accrual
GLI,11/30/2020,12905,143298,GLI113020,GLI113020,0.83,Payroll Accrual
GLI,11/30/2020,12904,143298,GLI113020,GLI113020,0.83,Payroll Accrual
GLI,11/30/2020,12902,143298,GLI113020,GLI113020,0.83,Payroll Accrual
GLI,11/30/2020,12901,143298,GLI113020,GLI113020,0.83,Payroll Accrual
GLI,11/30/2020,12524,143298,GLI113020,GLI113020,4.23,Payroll Accrual
GLI,11/30/2020,12505,143298,GLI113020,GLI113020,4.23,Payroll Accrual
GLI,11/30/2020,12504,143298,GLI113020,GLI113020,4.23,Payroll Accrual
GLI,11/30/2020,12502,143298,GLI113020,GLI113020,4.23,Payroll Accrual
GLI,11/30/2020,12501,143298,GLI113020,GLI113020,4.23,Payroll Accrual
GLI,11/30/2020,12324F,143298,GLI113020,GLI113020,55.38,Payroll Accrual
GLI,11/30/2020,12305F,143298,GLI113020,GLI113020,55.38,Payroll Accrual
GLI,11/30/2020,12304F,143298,GLI113020,GLI113020,55.38,Payroll Accrual
GLI,11/30/2020,12302F,143298,GLI113020,GLI113020,55.38,Payroll Accrual
GLI,11/30/2020,12301F,143298,GLI113020,GLI113020,55.38,Payroll Accrual
GLI,11/30/2020,12505,141069,GLI113020,GLI113020,90.65,Payroll Accrual
GLI,11/30/2020,12405,141069,GLI113020,GLI113020,176,Payroll Accrual
GLI,11/30/2020,12305B,141069,GLI113020,GLI113020,1046.14,Payroll Accrual
GLI,11/30/2020,12504,141060,GLI113020,GLI113020,194.21,Payroll Accrual
GLI,11/30/2020,12404,141060,GLI113020,GLI113020,72,Payroll Accrual
GLI,11/30/2020,12304B,141060,GLI113020,GLI113020,2509.05,Payroll Accrual
GLI,11/30/2020,12904,140790,GLI113020,GLI113020,35.45,Payroll Accrual
GLI,11/30/2020,12504,140790,GLI113020,GLI113020,132.93,Payroll Accrual
GLI,11/30/2020,124704,140790,GLI113020,GLI113020,1772.31,Payroll Accrual
GLI,11/30/2020,12506,139856,GLI113020,GLI113020,44.12,Payroll Accrual
GLI,11/30/2020,12306B,139856,GLI113020,GLI113020,613.92,Payroll Accrual
GLI,11/30/2020,12906,139846,GLI113020,GLI113020,7.19,Payroll Accrual
GLI,11/30/2020,12506,139846,GLI113020,GLI113020,36.65,Payroll Accrual
GLI,11/30/2020,12306C,139846,GLI113020,GLI113020,479.08,Payroll Accrual
GLI,11/30/2020,12903,139475,GLI113020,GLI113020,13.62,Payroll Accrual
GLI,11/30/2020,12503,139475,GLI113020,GLI113020,62.86,Payroll Accrual
GLI,11/30/2020,12403,139475,GLI113020,GLI113020,112,Payroll Accrual
GLI,11/30/2020,12303,139475,GLI113020,GLI113020,796.17,Payroll Accrual
GLI,11/30/2020,12528,138945,GLI113020,GLI113020,5.42,Payroll Accrual
GLI,11/30/2020,12527,138945,GLI113020,GLI113020,12.63,Payroll Accrual
GLI,11/30/2020,12328,138945,GLI113020,GLI113020,70.79,Payroll Accrual
GLI,11/30/2020,12327,138945,GLI113020,GLI113020,165.17,Payroll Accrual
GLI,11/30/2020,12516,138380,GLI113020,GLI113020,26.85,Payroll Accrual
GLI,11/30/2020,12416,138380,GLI113020,GLI113020,120,Payroll Accrual
GLI,11/30/2020,12316,138380,GLI113020,GLI113020,464.25,Payroll Accrual
GLI,11/30/2020,12904,137854,GLI113020,GLI113020,12.08,Payroll Accrual
GLI,11/30/2020,12504,137854,GLI113020,GLI113020,58.35,Payroll Accrual
GLI,11/30/2020,12404,137854,GLI113020,GLI113020,112,Payroll Accrual
GLI,11/30/2020,12304D,137854,GLI113020,GLI113020,693.02,Payroll Accrual
GLI,11/30/2020,12906,137837,GLI113020,GLI113020,-2.09,Payroll Accrual
GLI,11/30/2020,12905,137837,GLI113020,GLI113020,-2.55,Payroll Accrual
GLI,11/30/2020,12514,137837,GLI113020,GLI113020,2.57,Payroll Accrual
GLI,11/30/2020,12506,137837,GLI113020,GLI113020,-0.49,Payroll Accrual
GLI,11/30/2020,12505,137837,GLI113020,GLI113020,-0.6,Payroll Accrual
GLI,11/30/2020,12504,137837,GLI113020,GLI113020,0.85,Payroll Accrual
GLI,11/30/2020,12502,137837,GLI113020,GLI113020,-0.29,Payroll Accrual
GLI,11/30/2020,12501,137837,GLI113020,GLI113020,-0.29,Payroll Accrual
GLI,11/30/2020,12214,137837,GLI113020,GLI113020,164.21,Payroll Accrual
GLI,11/30/2020,12206C,137837,GLI113020,GLI113020,97.03,Payroll Accrual
GLI,11/30/2020,12205C,137837,GLI113020,GLI113020,89.57,Payroll Accrual
GLI,11/30/2020,12204C,137837,GLI113020,GLI113020,141.82,Payroll Accrual
GLI,11/30/2020,12202C,137837,GLI113020,GLI113020,126.89,Payroll Accrual
GLI,11/30/2020,12201C,137837,GLI113020,GLI113020,126.89,Payroll Accrual
GLI,11/30/2020,12503,137826,GLI113020,GLI113020,5.43,Payroll Accrual
GLI,11/30/2020,124723,137826,GLI113020,GLI113020,71.04,Payroll Accrual
GLI,11/30/2020,12506,137593,GLI113020,GLI113020,5.79,Payroll Accrual
GLI,11/30/2020,12505,137593,GLI113020,GLI113020,5.79,Payroll Accrual
GLI,11/30/2020,12504,137593,GLI113020,GLI113020,5.79,Payroll Accrual
GLI,11/30/2020,12502,137593,GLI113020,GLI113020,5.79,Payroll Accrual
GLI,11/30/2020,12501,137593,GLI113020,GLI113020,5.79,Payroll Accrual
GLI,11/30/2020,12406,137593,GLI113020,GLI113020,20.8,Payroll Accrual
GLI,11/30/2020,12405,137593,GLI113020,GLI113020,20.8,Payroll Accrual
GLI,11/30/2020,12404,137593,GLI113020,GLI113020,20.8,Payroll Accrual
GLI,11/30/2020,12402,137593,GLI113020,GLI113020,20.8,Payroll Accrual
GLI,11/30/2020,12401,137593,GLI113020,GLI113020,20.8,Payroll Accrual
GLI,11/30/2020,12206B,137593,GLI113020,GLI113020,80.03,Payroll Accrual
GLI,11/30/2020,12205B,137593,GLI113020,GLI113020,80.03,Payroll Accrual
GLI,11/30/2020,12204B,137593,GLI113020,GLI113020,80.03,Payroll Accrual
GLI,11/30/2020,12202B,137593,GLI113020,GLI113020,80.03,Payroll Accrual
GLI,11/30/2020,12201B,137593,GLI113020,GLI113020,80.03,Payroll Accrual
GLI,11/30/2020,12504,13725,GLI113020,GLI113020,163.86,Payroll Accrual
GLI,11/30/2020,124704,13725,GLI113020,GLI113020,2670.95,Payroll Accrual
GLI,11/30/2020,12404,13725,GLI113020,GLI113020,418.56,Payroll Accrual
GLI,11/30/2020,12905,137101,GLI113020,GLI113020,15.75,Payroll Accrual
GLI,11/30/2020,12505,137101,GLI113020,GLI113020,79.95,Payroll Accrual
GLI,11/30/2020,124703,137101,GLI113020,GLI113020,1050.3,Payroll Accrual
GLI,11/30/2020,12405,137101,GLI113020,GLI113020,165.28,Payroll Accrual
GLI,11/30/2020,12503,136942,GLI113020,GLI113020,45.31,Payroll Accrual
GLI,11/30/2020,124723,136942,GLI113020,GLI113020,480.2,Payroll Accrual
GLI,11/30/2020,12403,136942,GLI113020,GLI113020,112,Payroll Accrual
GLI,11/30/2020,12503,136548,GLI113020,GLI113020,27.37,Payroll Accrual
GLI,11/30/2020,124723,136548,GLI113020,GLI113020,357.72,Payroll Accrual
GLI,11/30/2020,12503,136269,GLI113020,GLI113020,22.77,Payroll Accrual
GLI,11/30/2020,124723,136269,GLI113020,GLI113020,297.6,Payroll Accrual
GLI,11/30/2020,12904,136170,GLI113020,GLI113020,17.05,Payroll Accrual
GLI,11/30/2020,12504,136170,GLI113020,GLI113020,109.32,Payroll Accrual
GLI,11/30/2020,124704,136170,GLI113020,GLI113020,1704.85,Payroll Accrual
GLI,11/30/2020,12404,136170,GLI113020,GLI113020,484.64,Payroll Accrual
GLI,11/30/2020,12903,135987,GLI113020,GLI113020,3.44,Payroll Accrual
GLI,11/30/2020,12503,135987,GLI113020,GLI113020,17.53,Payroll Accrual
GLI,11/30/2020,124723,135987,GLI113020,GLI113020,229.18,Payroll Accrual
GLI,11/30/2020,12504,135946,GLI113020,GLI113020,41.19,Payroll Accrual
GLI,11/30/2020,12404,135946,GLI113020,GLI113020,104,Payroll Accrual
GLI,11/30/2020,12204A,135946,GLI113020,GLI113020,434.46,Payroll Accrual
GLI,11/30/2020,12505,135770,GLI113020,GLI113020,124.55,Payroll Accrual
GLI,11/30/2020,124703,135770,GLI113020,GLI113020,1628.05,Payroll Accrual
GLI,11/30/2020,12405,135770,GLI113020,GLI113020,264.08,Payroll Accrual
GLI,11/30/2020,12528,135629,GLI113020,GLI113020,15.55,Payroll Accrual
GLI,11/30/2020,12527,135629,GLI113020,GLI113020,36.28,Payroll Accrual
GLI,11/30/2020,12428,135629,GLI113020,GLI113020,33.6,Payroll Accrual
GLI,11/30/2020,12427,135629,GLI113020,GLI113020,78.4,Payroll Accrual
GLI,11/30/2020,12328,135629,GLI113020,GLI113020,169.64,Payroll Accrual
GLI,11/30/2020,12327,135629,GLI113020,GLI113020,395.82,Payroll Accrual
GLI,11/30/2020,12528,135625,GLI113020,GLI113020,7.18,Payroll Accrual
GLI,11/30/2020,12527,135625,GLI113020,GLI113020,16.77,Payroll Accrual
GLI,11/30/2020,12328,135625,GLI113020,GLI113020,93.91,Payroll Accrual
GLI,11/30/2020,12327,135625,GLI113020,GLI113020,219.13,Payroll Accrual
GLI,11/30/2020,12503,135289,GLI113020,GLI113020,21.46,Payroll Accrual
GLI,11/30/2020,124723,135289,GLI113020,GLI113020,280.56,Payroll Accrual
GLI,11/30/2020,12904,132987,GLI113020,GLI113020,20.07,Payroll Accrual
GLI,11/30/2020,12504,132987,GLI113020,GLI113020,100.44,Payroll Accrual
GLI,11/30/2020,12404,132987,GLI113020,GLI113020,336,Payroll Accrual
GLI,11/30/2020,12304D,132987,GLI113020,GLI113020,1002.03,Payroll Accrual
GLI,11/30/2020,12528,132655,GLI113020,GLI113020,7.35,Payroll Accrual
GLI,11/30/2020,12527,132655,GLI113020,GLI113020,17.15,Payroll Accrual
GLI,11/30/2020,12328,132655,GLI113020,GLI113020,96.06,Payroll Accrual
GLI,11/30/2020,12327,132655,GLI113020,GLI113020,224.13,Payroll Accrual
GLI,11/30/2020,12903,132584,GLI113020,GLI113020,1.23,Payroll Accrual
GLI,11/30/2020,12503,132584,GLI113020,GLI113020,6.29,Payroll Accrual
GLI,11/30/2020,124723,132584,GLI113020,GLI113020,82.18,Payroll Accrual
GLI,11/30/2020,12528,132547,GLI113020,GLI113020,7.45,Payroll Accrual
GLI,11/30/2020,12527,132547,GLI113020,GLI113020,17.39,Payroll Accrual
GLI,11/30/2020,12328,132547,GLI113020,GLI113020,97.42,Payroll Accrual
GLI,11/30/2020,12327,132547,GLI113020,GLI113020,227.32,Payroll Accrual
GLI,11/30/2020,12528,132546,GLI113020,GLI113020,3.13,Payroll Accrual
GLI,11/30/2020,12527,132546,GLI113020,GLI113020,7.32,Payroll Accrual
GLI,11/30/2020,12328,132546,GLI113020,GLI113020,40.99,Payroll Accrual
GLI,11/30/2020,12327,132546,GLI113020,GLI113020,95.64,Payroll Accrual
GLI,11/30/2020,12515,132500,GLI113020,GLI113020,26.76,Payroll Accrual
GLI,11/30/2020,12506,132500,GLI113020,GLI113020,18.25,Payroll Accrual
GLI,11/30/2020,12505,132500,GLI113020,GLI113020,18.25,Payroll Accrual
GLI,11/30/2020,12504,132500,GLI113020,GLI113020,19.46,Payroll Accrual
GLI,11/30/2020,12502,132500,GLI113020,GLI113020,19.46,Payroll Accrual
GLI,11/30/2020,12501,132500,GLI113020,GLI113020,19.46,Payroll Accrual
GLI,11/30/2020,12315,132500,GLI113020,GLI113020,357.42,Payroll Accrual
GLI,11/30/2020,12306,132500,GLI113020,GLI113020,243.69,Payroll Accrual
GLI,11/30/2020,12305,132500,GLI113020,GLI113020,243.69,Payroll Accrual
GLI,11/30/2020,12304,132500,GLI113020,GLI113020,259.94,Payroll Accrual
GLI,11/30/2020,12302,132500,GLI113020,GLI113020,259.94,Payroll Accrual
GLI,11/30/2020,12301,132500,GLI113020,GLI113020,259.94,Payroll Accrual
GLI,11/30/2020,12503,132489,GLI113020,GLI113020,3.01,Payroll Accrual
GLI,11/30/2020,124723,132489,GLI113020,GLI113020,39.36,Payroll Accrual
GLI,11/30/2020,12904,131370,GLI113020,GLI113020,23.14,Payroll Accrual
GLI,11/30/2020,12504,131370,GLI113020,GLI113020,86.96,Payroll Accrual
GLI,11/30/2020,124704,131370,GLI113020,GLI113020,1156.85,Payroll Accrual
GLI,11/30/2020,12404,131370,GLI113020,GLI113020,194.8,Payroll Accrual
GLI,11/30/2020,12924,131315,GLI113020,GLI113020,18.51,Payroll Accrual
GLI,11/30/2020,12524,131315,GLI113020,GLI113020,68.87,Payroll Accrual
GLI,11/30/2020,124724,131315,GLI113020,GLI113020,925.4,Payroll Accrual
GLI,11/30/2020,12424,131315,GLI113020,GLI113020,112,Payroll Accrual
GLI,11/30/2020,12528,129642,GLI113020,GLI113020,5.29,Payroll Accrual
GLI,11/30/2020,12527,129642,GLI113020,GLI113020,12.36,Payroll Accrual
GLI,11/30/2020,12328,129642,GLI113020,GLI113020,69.26,Payroll Accrual
GLI,11/30/2020,12327,129642,GLI113020,GLI113020,161.62,Payroll Accrual
GLI,11/30/2020,12503,126564,GLI113020,GLI113020,7.98,Payroll Accrual
GLI,11/30/2020,124723,126564,GLI113020,GLI113020,104.28,Payroll Accrual
GLI,11/30/2020,12902,126200,GLI113020,GLI113020,9.97,Payroll Accrual
GLI,11/30/2020,12901,126200,GLI113020,GLI113020,9.97,Payroll Accrual
GLI,11/30/2020,12502,126200,GLI113020,GLI113020,50.85,Payroll Accrual
GLI,11/30/2020,12501,126200,GLI113020,GLI113020,50.85,Payroll Accrual
GLI,11/30/2020,12202A,126200,GLI113020,GLI113020,664.62,Payroll Accrual
GLI,11/30/2020,12201A,126200,GLI113020,GLI113020,664.62,Payroll Accrual
GLI,11/30/2020,12528,123578,GLI113020,GLI113020,15.35,Payroll Accrual
GLI,11/30/2020,12527,123578,GLI113020,GLI113020,35.82,Payroll Accrual
GLI,11/30/2020,12428,123578,GLI113020,GLI113020,33.6,Payroll Accrual
GLI,11/30/2020,12427,123578,GLI113020,GLI113020,78.4,Payroll Accrual
GLI,11/30/2020,12328,123578,GLI113020,GLI113020,167.08,Payroll Accrual
GLI,11/30/2020,12327,123578,GLI113020,GLI113020,389.84,Payroll Accrual
GLI,11/30/2020,12528,123564,GLI113020,GLI113020,0.42,Payroll Accrual
GLI,11/30/2020,12527,123564,GLI113020,GLI113020,0.96,Payroll Accrual
GLI,11/30/2020,12328,123564,GLI113020,GLI113020,5.42,Payroll Accrual
GLI,11/30/2020,12327,123564,GLI113020,GLI113020,12.65,Payroll Accrual
GLI,11/30/2020,12504,123525,GLI113020,GLI113020,27.5,Payroll Accrual
GLI,11/30/2020,12304B,123525,GLI113020,GLI113020,359.55,Payroll Accrual
GLI,11/30/2020,12528,123521,GLI113020,GLI113020,12.19,Payroll Accrual
GLI,11/30/2020,12527,123521,GLI113020,GLI113020,32.75,Payroll Accrual
GLI,11/30/2020,12428,123521,GLI113020,GLI113020,33.6,Payroll Accrual
GLI,11/30/2020,12427,123521,GLI113020,GLI113020,78.4,Payroll Accrual
GLI,11/30/2020,12328,123521,GLI113020,GLI113020,168,Payroll Accrual
GLI,11/30/2020,12327,123521,GLI113020,GLI113020,392,Payroll Accrual
GLI,11/30/2020,12506,123100,GLI113020,GLI113020,100.95,Payroll Accrual
GLI,11/30/2020,12505,123100,GLI113020,GLI113020,100.95,Payroll Accrual
GLI,11/30/2020,12504,123100,GLI113020,GLI113020,100.95,Payroll Accrual
GLI,11/30/2020,12502,123100,GLI113020,GLI113020,100.95,Payroll Accrual
GLI,11/30/2020,12501,123100,GLI113020,GLI113020,100.95,Payroll Accrual
GLI,11/30/2020,12106,123100,GLI113020,GLI113020,1353.85,Payroll Accrual
GLI,11/30/2020,12105,123100,GLI113020,GLI113020,1353.85,Payroll Accrual
GLI,11/30/2020,12104,123100,GLI113020,GLI113020,1353.85,Payroll Accrual
GLI,11/30/2020,12102,123100,GLI113020,GLI113020,1353.85,Payroll Accrual
GLI,11/30/2020,12101,123100,GLI113020,GLI113020,1353.85,Payroll Accrual
GLI,11/30/2020,12905,122558,GLI113020,GLI113020,17.74,Payroll Accrual
GLI,11/30/2020,12505,122558,GLI113020,GLI113020,87.23,Payroll Accrual
GLI,11/30/2020,124703,122558,GLI113020,GLI113020,1182.6,Payroll Accrual
GLI,11/30/2020,12405,122558,GLI113020,GLI113020,197.36,Payroll Accrual
GLI,11/30/2020,12511,12236,GLI113020,GLI113020,27.37,Payroll Accrual
GLI,11/30/2020,12506,12236,GLI113020,GLI113020,19.9,Payroll Accrual
GLI,11/30/2020,12505,12236,GLI113020,GLI113020,19.9,Payroll Accrual
GLI,11/30/2020,12504,12236,GLI113020,GLI113020,19.9,Payroll Accrual
GLI,11/30/2020,12502,12236,GLI113020,GLI113020,18.66,Payroll Accrual
GLI,11/30/2020,12501,12236,GLI113020,GLI113020,18.66,Payroll Accrual
GLI,11/30/2020,12311,12236,GLI113020,GLI113020,389.91,Payroll Accrual
GLI,11/30/2020,12306H,12236,GLI113020,GLI113020,283.57,Payroll Accrual
GLI,11/30/2020,12305H,12236,GLI113020,GLI113020,283.57,Payroll Accrual
GLI,11/30/2020,12304H,12236,GLI113020,GLI113020,283.57,Payroll Accrual
GLI,11/30/2020,12302H,12236,GLI113020,GLI113020,265.85,Payroll Accrual
GLI,11/30/2020,12301H,12236,GLI113020,GLI113020,265.85,Payroll Accrual
GLI,11/30/2020,12906,122332,GLI113020,GLI113020,11.66,Payroll Accrual
GLI,11/30/2020,12506,122332,GLI113020,GLI113020,56.23,Payroll Accrual
GLI,11/30/2020,12306B,122332,GLI113020,GLI113020,777.35,Payroll Accrual
GLI,11/30/2020,12904,118520,GLI113020,GLI113020,16.4,Payroll Accrual
GLI,11/30/2020,12504,118520,GLI113020,GLI113020,82.11,Payroll Accrual
GLI,11/30/2020,12404,118520,GLI113020,GLI113020,112,Payroll Accrual
GLI,11/30/2020,12304B,118520,GLI113020,GLI113020,981.38,Payroll Accrual
GLI,11/30/2020,12501,118030,GLI113020,GLI113020,105.14,Payroll Accrual
GLI,11/30/2020,12301B,118030,GLI113020,GLI113020,1476.93,Payroll Accrual
GLI,11/30/2020,12905,11732,GLI113020,GLI113020,17.09,Payroll Accrual
GLI,11/30/2020,12505,11732,GLI113020,GLI113020,61.5,Payroll Accrual
GLI,11/30/2020,12405,11732,GLI113020,GLI113020,288,Payroll Accrual
GLI,11/30/2020,12205A,11732,GLI113020,GLI113020,566.28,Payroll Accrual
GLI,11/30/2020,12505,11660,GLI113020,GLI113020,101.57,Payroll Accrual
GLI,11/30/2020,124703,11660,GLI113020,GLI113020,1369.95,Payroll Accrual
GLI,11/30/2020,12405,11660,GLI113020,GLI113020,216.96,Payroll Accrual
GLI,11/30/2020,12904,116185,GLI113020,GLI113020,18.57,Payroll Accrual
GLI,11/30/2020,12504,116185,GLI113020,GLI113020,69.49,Payroll Accrual
GLI,11/30/2020,124704,116185,GLI113020,GLI113020,776.34,Payroll Accrual
GLI,11/30/2020,12404,116185,GLI113020,GLI113020,152,Payroll Accrual
GLI,11/30/2020,12506,115255,GLI113020,GLI113020,122.4,Payroll Accrual
GLI,11/30/2020,12306B,115255,GLI113020,GLI113020,1600,Payroll Accrual
GLI,11/30/2020,12906,1150920,GLI113020,GLI113020,2.14,Payroll Accrual
GLI,11/30/2020,12506,1150920,GLI113020,GLI113020,3.6,Payroll Accrual
GLI,11/30/2020,12306D,1150920,GLI113020,GLI113020,142.52,Payroll Accrual
GLI,11/30/2020,12504,115021,GLI113020,GLI113020,56.04,Payroll Accrual
GLI,11/30/2020,12404,115021,GLI113020,GLI113020,112,Payroll Accrual
GLI,11/30/2020,12304C,115021,GLI113020,GLI113020,657.72,Payroll Accrual
GLI,11/30/2020,12504,1149710,GLI113020,GLI113020,46.34,Payroll Accrual
GLI,11/30/2020,12404,1149710,GLI113020,GLI113020,120,Payroll Accrual
GLI,11/30/2020,12304D,1149710,GLI113020,GLI113020,627.35,Payroll Accrual
GLI,11/30/2020,12501,1149160,GLI113020,GLI113020,11.09,Payroll Accrual
GLI,11/30/2020,11301C,1149160,GLI113020,GLI113020,145,Payroll Accrual
GLI,11/30/2020,12505,1147061,GLI113020,GLI113020,101.87,Payroll Accrual
GLI,11/30/2020,124703,1147061,GLI113020,GLI113020,1368.7,Payroll Accrual
GLI,11/30/2020,12405,1147061,GLI113020,GLI113020,507.52,Payroll Accrual
GLI,11/30/2020,12505,1146991,GLI113020,GLI113020,104.37,Payroll Accrual
GLI,11/30/2020,124703,1146991,GLI113020,GLI113020,1463.8,Payroll Accrual
GLI,11/30/2020,12405,1146991,GLI113020,GLI113020,557.76,Payroll Accrual
GLI,11/30/2020,12504,1146989,GLI113020,GLI113020,56.58,Payroll Accrual
GLI,11/30/2020,124704,1146989,GLI113020,GLI113020,781.9,Payroll Accrual
GLI,11/30/2020,12404,1146989,GLI113020,GLI113020,167.28,Payroll Accrual
GLI,11/30/2020,12506,1144265,GLI113020,GLI113020,51.49,Payroll Accrual
GLI,11/30/2020,12306B,1144265,GLI113020,GLI113020,750.31,Payroll Accrual
GLI,11/30/2020,12504,1140870,GLI113020,GLI113020,235.85,Payroll Accrual
GLI,11/30/2020,12404,1140870,GLI113020,GLI113020,240,Payroll Accrual
GLI,11/30/2020,12304B,1140870,GLI113020,GLI113020,2843.05,Payroll Accrual
GLI,11/30/2020,12506,1140521,GLI113020,GLI113020,2.73,Payroll Accrual
GLI,11/30/2020,12505,1140521,GLI113020,GLI113020,2.73,Payroll Accrual
GLI,11/30/2020,12504,1140521,GLI113020,GLI113020,2.73,Payroll Accrual
GLI,11/30/2020,12502,1140521,GLI113020,GLI113020,2.73,Payroll Accrual
GLI,11/30/2020,12501,1140521,GLI113020,GLI113020,2.73,Payroll Accrual
GLI,11/30/2020,12206B,1140521,GLI113020,GLI113020,35.57,Payroll Accrual
GLI,11/30/2020,12205B,1140521,GLI113020,GLI113020,35.57,Payroll Accrual
GLI,11/30/2020,12204B,1140521,GLI113020,GLI113020,35.57,Payroll Accrual
GLI,11/30/2020,12202B,1140521,GLI113020,GLI113020,35.57,Payroll Accrual
GLI,11/30/2020,12201B,1140521,GLI113020,GLI113020,35.57,Payroll Accrual
GLI,11/30/2020,12904,1137590,GLI113020,GLI113020,24.82,Payroll Accrual
GLI,11/30/2020,12504,1137590,GLI113020,GLI113020,91.69,Payroll Accrual
GLI,11/30/2020,124704,1137590,GLI113020,GLI113020,1240.75,Payroll Accrual
GLI,11/30/2020,12404,1137590,GLI113020,GLI113020,472,Payroll Accrual
GLI,11/30/2020,12904,1135410,GLI113020,GLI113020,14.98,Payroll Accrual
GLI,11/30/2020,12504,1135410,GLI113020,GLI113020,99.05,Payroll Accrual
GLI,11/30/2020,124704,1135410,GLI113020,GLI113020,1497.65,Payroll Accrual
GLI,11/30/2020,12404,1135410,GLI113020,GLI113020,238,Payroll Accrual
GLI,11/30/2020,12511,1135260,GLI113020,GLI113020,26.5,Payroll Accrual
GLI,11/30/2020,12506,1135260,GLI113020,GLI113020,19.27,Payroll Accrual
GLI,11/30/2020,12505,1135260,GLI113020,GLI113020,19.27,Payroll Accrual
GLI,11/30/2020,12504,1135260,GLI113020,GLI113020,19.27,Payroll Accrual
GLI,11/30/2020,12502,1135260,GLI113020,GLI113020,18.08,Payroll Accrual
GLI,11/30/2020,12501,1135260,GLI113020,GLI113020,18.08,Payroll Accrual
GLI,11/30/2020,12311,1135260,GLI113020,GLI113020,379.08,Payroll Accrual
GLI,11/30/2020,12306H,1135260,GLI113020,GLI113020,275.69,Payroll Accrual
GLI,11/30/2020,12305H,1135260,GLI113020,GLI113020,275.69,Payroll Accrual
GLI,11/30/2020,12304H,1135260,GLI113020,GLI113020,275.69,Payroll Accrual
GLI,11/30/2020,12302H,1135260,GLI113020,GLI113020,258.46,Payroll Accrual
GLI,11/30/2020,12301H,1135260,GLI113020,GLI113020,258.46,Payroll Accrual
GLI,11/30/2020,12506,1133727,GLI113020,GLI113020,68.46,Payroll Accrual
GLI,11/30/2020,12306D,1133727,GLI113020,GLI113020,894.88,Payroll Accrual
GLI,11/30/2020,12528,113085,GLI113020,GLI113020,32.44,Payroll Accrual
GLI,11/30/2020,12527,113085,GLI113020,GLI113020,75.68,Payroll Accrual
GLI,11/30/2020,12128,113085,GLI113020,GLI113020,443.08,Payroll Accrual
GLI,11/30/2020,12127,113085,GLI113020,GLI113020,1033.85,Payroll Accrual
GLI,11/30/2020,12504,1130700,GLI113020,GLI113020,48.11,Payroll Accrual
GLI,11/30/2020,12404,1130700,GLI113020,GLI113020,104,Payroll Accrual
GLI,11/30/2020,12304C,1130700,GLI113020,GLI113020,533.52,Payroll Accrual
GLI,11/30/2020,12506,113020,GLI113020,GLI113020,119.61,Payroll Accrual
GLI,11/30/2020,12306B,113020,GLI113020,GLI113020,1624.61,Payroll Accrual
GLI,11/30/2020,12506,1130090,GLI113020,GLI113020,27.36,Payroll Accrual
GLI,11/30/2020,12306B,1130090,GLI113020,GLI113020,382.72,Payroll Accrual
GLI,11/30/2020,12516,1126060,GLI113020,GLI113020,46.5,Payroll Accrual
GLI,11/30/2020,12416,1126060,GLI113020,GLI113020,128,Payroll Accrual
GLI,11/30/2020,12316,1126060,GLI113020,GLI113020,499.84,Payroll Accrual
GLI,11/30/2020,12505,1126040,GLI113020,GLI113020,102.86,Payroll Accrual
GLI,11/30/2020,124703,1126040,GLI113020,GLI113020,1408.27,Payroll Accrual
GLI,11/30/2020,12505,1125565,GLI113020,GLI113020,81.67,Payroll Accrual
GLI,11/30/2020,124703,1125565,GLI113020,GLI113020,1208.75,Payroll Accrual
GLI,11/30/2020,12405,1125565,GLI113020,GLI113020,244.96,Payroll Accrual
GLI,11/30/2020,12506,1124875,GLI113020,GLI113020,65.19,Payroll Accrual
GLI,11/30/2020,12306B,1124875,GLI113020,GLI113020,883,Payroll Accrual
GLI,11/30/2020,12504,1124436,GLI113020,GLI113020,123.03,Payroll Accrual
GLI,11/30/2020,124704,1124436,GLI113020,GLI113020,1875.7,Payroll Accrual
GLI,11/30/2020,12404,1124436,GLI113020,GLI113020,309.52,Payroll Accrual
GLI,11/30/2020,12904,1124400,GLI113020,GLI113020,18.04,Payroll Accrual
GLI,11/30/2020,12504,1124400,GLI113020,GLI113020,89.16,Payroll Accrual
GLI,11/30/2020,124704,1124400,GLI113020,GLI113020,1202.6,Payroll Accrual
GLI,11/30/2020,12404,1124400,GLI113020,GLI113020,136,Payroll Accrual
GLI,11/30/2020,12906,1123340,GLI113020,GLI113020,25.6,Payroll Accrual
GLI,11/30/2020,12905,1123340,GLI113020,GLI113020,23.63,Payroll Accrual
GLI,11/30/2020,12514,1123340,GLI113020,GLI113020,53.45,Payroll Accrual
GLI,11/30/2020,12506,1123340,GLI113020,GLI113020,5.99,Payroll Accrual
GLI,11/30/2020,12505,1123340,GLI113020,GLI113020,5.53,Payroll Accrual
GLI,11/30/2020,12504,1123340,GLI113020,GLI113020,46.17,Payroll Accrual
GLI,11/30/2020,12502,1123340,GLI113020,GLI113020,41.31,Payroll Accrual
GLI,11/30/2020,12501,1123340,GLI113020,GLI113020,41.31,Payroll Accrual
GLI,11/30/2020,12214,1123340,GLI113020,GLI113020,704,Payroll Accrual
GLI,11/30/2020,12206C,1123340,GLI113020,GLI113020,416,Payroll Accrual
GLI,11/30/2020,12205C,1123340,GLI113020,GLI113020,384,Payroll Accrual
GLI,11/30/2020,12204C,1123340,GLI113020,GLI113020,608,Payroll Accrual
GLI,11/30/2020,12202C,1123340,GLI113020,GLI113020,544,Payroll Accrual
GLI,11/30/2020,12201C,1123340,GLI113020,GLI113020,544,Payroll Accrual
GLI,11/30/2020,12924,1122352,GLI113020,GLI113020,10.01,Payroll Accrual
GLI,11/30/2020,12524,1122352,GLI113020,GLI113020,48.22,Payroll Accrual
GLI,11/30/2020,124724,1122352,GLI113020,GLI113020,667.5,Payroll Accrual
GLI,11/30/2020,12424,1122352,GLI113020,GLI113020,120,Payroll Accrual
GLI,11/30/2020,12505,1122342,GLI113020,GLI113020,180.75,Payroll Accrual
GLI,11/30/2020,12105,1122342,GLI113020,GLI113020,2363.08,Payroll Accrual
GLI,11/30/2020,12928,1122110,GLI113020,GLI113020,14.18,Payroll Accrual
GLI,11/30/2020,12927,1122110,GLI113020,GLI113020,33.08,Payroll Accrual
GLI,11/30/2020,12528,1122110,GLI113020,GLI113020,51.2,Payroll Accrual
GLI,11/30/2020,12527,1122110,GLI113020,GLI113020,119.46,Payroll Accrual
GLI,11/30/2020,12328,1122110,GLI113020,GLI113020,708.92,Payroll Accrual
GLI,11/30/2020,12327,1122110,GLI113020,GLI113020,1654.15,Payroll Accrual
GLI,11/30/2020,12501,1121240,GLI113020,GLI113020,11.09,Payroll Accrual
GLI,11/30/2020,11301C,1121240,GLI113020,GLI113020,145,Payroll Accrual
GLI,11/30/2020,12506,1120225,GLI113020,GLI113020,87.94,Payroll Accrual
GLI,11/30/2020,12505,1120225,GLI113020,GLI113020,87.94,Payroll Accrual
GLI,11/30/2020,12504,1120225,GLI113020,GLI113020,87.94,Payroll Accrual
GLI,11/30/2020,12502,1120225,GLI113020,GLI113020,87.94,Payroll Accrual
GLI,11/30/2020,12501,1120225,GLI113020,GLI113020,87.94,Payroll Accrual
GLI,11/30/2020,12006,1120225,GLI113020,GLI113020,1181.54,Payroll Accrual
GLI,11/30/2020,12005,1120225,GLI113020,GLI113020,1181.54,Payroll Accrual
GLI,11/30/2020,12004,1120225,GLI113020,GLI113020,1181.54,Payroll Accrual
GLI,11/30/2020,12002,1120225,GLI113020,GLI113020,1181.54,Payroll Accrual
GLI,11/30/2020,12001,1120225,GLI113020,GLI113020,1181.54,Payroll Accrual
GLI,11/30/2020,12906,1120120,GLI113020,GLI113020,7.06,Payroll Accrual
GLI,11/30/2020,12506,1120120,GLI113020,GLI113020,28.07,Payroll Accrual
GLI,11/30/2020,12306B,1120120,GLI113020,GLI113020,470.56,Payroll Accrual
GLI,11/30/2020,12928,1120110,GLI113020,GLI113020,6.65,Payroll Accrual
GLI,11/30/2020,12927,1120110,GLI113020,GLI113020,15.51,Payroll Accrual
GLI,11/30/2020,12528,1120110,GLI113020,GLI113020,33.35,Payroll Accrual
GLI,11/30/2020,12527,1120110,GLI113020,GLI113020,77.82,Payroll Accrual
GLI,11/30/2020,12128,1120110,GLI113020,GLI113020,443.08,Payroll Accrual
GLI,11/30/2020,12127,1120110,GLI113020,GLI113020,1033.85,Payroll Accrual
GLI,11/30/2020,12505,1118722,GLI113020,GLI113020,100.6,Payroll Accrual
GLI,11/30/2020,124703,1118722,GLI113020,GLI113020,1369.2,Payroll Accrual
GLI,11/30/2020,12405,1118722,GLI113020,GLI113020,305.28,Payroll Accrual
GLI,11/30/2020,12904,1117960,GLI113020,GLI113020,24.62,Payroll Accrual
GLI,11/30/2020,12504,1117960,GLI113020,GLI113020,84.04,Payroll Accrual
GLI,11/30/2020,124704,1117960,GLI113020,GLI113020,1230.77,Payroll Accrual
GLI,11/30/2020,12504,1117901,GLI113020,GLI113020,71.05,Payroll Accrual
GLI,11/30/2020,124704,1117901,GLI113020,GLI113020,928.75,Payroll Accrual
GLI,11/30/2020,12404,1117901,GLI113020,GLI113020,396.8,Payroll Accrual
GLI,11/30/2020,12904,1117842,GLI113020,GLI113020,29.42,Payroll Accrual
GLI,11/30/2020,12504,1117842,GLI113020,GLI113020,148.51,Payroll Accrual
GLI,11/30/2020,12404,1117842,GLI113020,GLI113020,60,Payroll Accrual
GLI,11/30/2020,12304B,1117842,GLI113020,GLI113020,1901.35,Payroll Accrual
GLI,11/30/2020,12503,1117600,GLI113020,GLI113020,75.35,Payroll Accrual
GLI,11/30/2020,12403,1117600,GLI113020,GLI113020,124,Payroll Accrual
GLI,11/30/2020,12303,1117600,GLI113020,GLI113020,1116.38,Payroll Accrual
GLI,11/30/2020,12524,1116800,GLI113020,GLI113020,-1.53,Payroll Accrual
GLI,11/30/2020,12424,1116800,GLI113020,GLI113020,560,Payroll Accrual
GLI,11/30/2020,12905,1114921,GLI113020,GLI113020,19.59,Payroll Accrual
GLI,11/30/2020,12505,1114921,GLI113020,GLI113020,69.79,Payroll Accrual
GLI,11/30/2020,124703,1114921,GLI113020,GLI113020,1117.9,Payroll Accrual
GLI,11/30/2020,12405,1114921,GLI113020,GLI113020,188,Payroll Accrual
GLI,11/30/2020,12506,1114860,GLI113020,GLI113020,19.47,Payroll Accrual
GLI,11/30/2020,12306C,1114860,GLI113020,GLI113020,254.52,Payroll Accrual
GLI,11/30/2020,12906,1114831,GLI113020,GLI113020,4.48,Payroll Accrual
GLI,11/30/2020,12506,1114831,GLI113020,GLI113020,22.83,Payroll Accrual
GLI,11/30/2020,12306D,1114831,GLI113020,GLI113020,298.34,Payroll Accrual
GLI,11/30/2020,12504,1113940,GLI113020,GLI113020,9.71,Payroll Accrual
GLI,11/30/2020,12404,1113940,GLI113020,GLI113020,172,Payroll Accrual
GLI,11/30/2020,12904,111210,GLI113020,GLI113020,15.03,Payroll Accrual
GLI,11/30/2020,12504,111210,GLI113020,GLI113020,69.02,Payroll Accrual
GLI,11/30/2020,124704,111210,GLI113020,GLI113020,1001.75,Payroll Accrual
GLI,11/30/2020,12404,111210,GLI113020,GLI113020,209.04,Payroll Accrual
GLI,11/30/2020,12505,1111325,GLI113020,GLI113020,77.33,Payroll Accrual
GLI,11/30/2020,12105,1111325,GLI113020,GLI113020,1033.85,Payroll Accrual
GLI,11/30/2020,12511,1110800,GLI113020,GLI113020,0.78,Payroll Accrual
GLI,11/30/2020,12506,1110800,GLI113020,GLI113020,0.57,Payroll Accrual
GLI,11/30/2020,12505,1110800,GLI113020,GLI113020,0.57,Payroll Accrual
GLI,11/30/2020,12504,1110800,GLI113020,GLI113020,0.57,Payroll Accrual
GLI,11/30/2020,12502,1110800,GLI113020,GLI113020,0.53,Payroll Accrual
GLI,11/30/2020,12501,1110800,GLI113020,GLI113020,0.53,Payroll Accrual
GLI,11/30/2020,12311,1110800,GLI113020,GLI113020,10.2,Payroll Accrual
GLI,11/30/2020,12306H,1110800,GLI113020,GLI113020,7.42,Payroll Accrual
GLI,11/30/2020,12305H,1110800,GLI113020,GLI113020,7.42,Payroll Accrual
GLI,11/30/2020,12304H,1110800,GLI113020,GLI113020,7.42,Payroll Accrual
GLI,11/30/2020,12302H,1110800,GLI113020,GLI113020,6.95,Payroll Accrual
GLI,11/30/2020,12301H,1110800,GLI113020,GLI113020,6.95,Payroll Accrual
GLI,11/30/2020,12511,1110660,GLI113020,GLI113020,14.6,Payroll Accrual
GLI,11/30/2020,12506,1110660,GLI113020,GLI113020,9.73,Payroll Accrual
GLI,11/30/2020,12505,1110660,GLI113020,GLI113020,9.73,Payroll Accrual
GLI,11/30/2020,12504,1110660,GLI113020,GLI113020,9.73,Payroll Accrual
GLI,11/30/2020,12502,1110660,GLI113020,GLI113020,8.92,Payroll Accrual
GLI,11/30/2020,12501,1110660,GLI113020,GLI113020,8.92,Payroll Accrual
GLI,11/30/2020,12411,1110660,GLI113020,GLI113020,29.92,Payroll Accrual
GLI,11/30/2020,12406,1110660,GLI113020,GLI113020,21.76,Payroll Accrual
GLI,11/30/2020,12405,1110660,GLI113020,GLI113020,21.76,Payroll Accrual
GLI,11/30/2020,12404,1110660,GLI113020,GLI113020,21.76,Payroll Accrual
GLI,11/30/2020,12402,1110660,GLI113020,GLI113020,20.4,Payroll Accrual
GLI,11/30/2020,12401,1110660,GLI113020,GLI113020,20.4,Payroll Accrual
GLI,11/30/2020,12311,1110660,GLI113020,GLI113020,203.1,Payroll Accrual
GLI,11/30/2020,12306H,1110660,GLI113020,GLI113020,147.71,Payroll Accrual
GLI,11/30/2020,12305H,1110660,GLI113020,GLI113020,147.71,Payroll Accrual
GLI,11/30/2020,12304H,1110660,GLI113020,GLI113020,147.71,Payroll Accrual
GLI,11/30/2020,12302H,1110660,GLI113020,GLI113020,138.48,Payroll Accrual
GLI,11/30/2020,12301H,1110660,GLI113020,GLI113020,138.48,Payroll Accrual
GLI,11/30/2020,12905,1109700,GLI113020,GLI113020,15.92,Payroll Accrual
GLI,11/30/2020,12505,1109700,GLI113020,GLI113020,78.35,Payroll Accrual
GLI,11/30/2020,12405,1109700,GLI113020,GLI113020,128,Payroll Accrual
GLI,11/30/2020,12305B,1109700,GLI113020,GLI113020,933.29,Payroll Accrual
GLI,11/30/2020,12905,1108200,GLI113020,GLI113020,15.66,Payroll Accrual
GLI,11/30/2020,12505,1108200,GLI113020,GLI113020,79.86,Payroll Accrual
GLI,11/30/2020,12405,1108200,GLI113020,GLI113020,160,Payroll Accrual
GLI,11/30/2020,12305B,1108200,GLI113020,GLI113020,883.89,Payroll Accrual
GLI,11/30/2020,12505,1107950,GLI113020,GLI113020,87.1,Payroll Accrual
GLI,11/30/2020,124703,1107950,GLI113020,GLI113020,856.25,Payroll Accrual
GLI,11/30/2020,12405,1107950,GLI113020,GLI113020,400,Payroll Accrual
GLI,11/30/2020,12904,1106421,GLI113020,GLI113020,31.3,Payroll Accrual
GLI,11/30/2020,12504,1106421,GLI113020,GLI113020,103.31,Payroll Accrual
GLI,11/30/2020,124704,1106421,GLI113020,GLI113020,1565,Payroll Accrual
GLI,11/30/2020,12404,1106421,GLI113020,GLI113020,259.12,Payroll Accrual
GLI,11/30/2020,12905,1106400,GLI113020,GLI113020,18.54,Payroll Accrual
GLI,11/30/2020,12505,1106400,GLI113020,GLI113020,90.41,Payroll Accrual
GLI,11/30/2020,124703,1106400,GLI113020,GLI113020,1236,Payroll Accrual
GLI,11/30/2020,12405,1106400,GLI113020,GLI113020,176.16,Payroll Accrual
GLI,11/30/2020,12904,1106399,GLI113020,GLI113020,28.64,Payroll Accrual
GLI,11/30/2020,12504,1106399,GLI113020,GLI113020,108,Payroll Accrual
GLI,11/30/2020,124704,1106399,GLI113020,GLI113020,1431.75,Payroll Accrual
GLI,11/30/2020,12404,1106399,GLI113020,GLI113020,309.44,Payroll Accrual
GLI,11/30/2020,12524,1103065,GLI113020,GLI113020,8.45,Payroll Accrual
GLI,11/30/2020,12505,1103065,GLI113020,GLI113020,8.45,Payroll Accrual
GLI,11/30/2020,12504,1103065,GLI113020,GLI113020,8.45,Payroll Accrual
GLI,11/30/2020,12502,1103065,GLI113020,GLI113020,8.45,Payroll Accrual
GLI,11/30/2020,12501,1103065,GLI113020,GLI113020,8.45,Payroll Accrual
GLI,11/30/2020,12424,1103065,GLI113020,GLI113020,49.6,Payroll Accrual
GLI,11/30/2020,12405,1103065,GLI113020,GLI113020,49.6,Payroll Accrual
GLI,11/30/2020,12404,1103065,GLI113020,GLI113020,49.6,Payroll Accrual
GLI,11/30/2020,12402,1103065,GLI113020,GLI113020,49.6,Payroll Accrual
GLI,11/30/2020,12401,1103065,GLI113020,GLI113020,49.6,Payroll Accrual
GLI,11/30/2020,12324F,1103065,GLI113020,GLI113020,115.94,Payroll Accrual
GLI,11/30/2020,12305F,1103065,GLI113020,GLI113020,115.94,Payroll Accrual
GLI,11/30/2020,12304F,1103065,GLI113020,GLI113020,115.94,Payroll Accrual
GLI,11/30/2020,12302F,1103065,GLI113020,GLI113020,115.94,Payroll Accrual
GLI,11/30/2020,12301F,1103065,GLI113020,GLI113020,115.94,Payroll Accrual
GLI,11/30/2020,12504,1102198,GLI113020,GLI113020,74.72,Payroll Accrual
GLI,11/30/2020,12503,1102198,GLI113020,GLI113020,74.72,Payroll Accrual
GLI,11/30/2020,12104,1102198,GLI113020,GLI113020,988.46,Payroll Accrual
GLI,11/30/2020,12103,1102198,GLI113020,GLI113020,988.46,Payroll Accrual
GLI,11/30/2020,12504,1102195,GLI113020,GLI113020,167.66,Payroll Accrual
GLI,11/30/2020,12104,1102195,GLI113020,GLI113020,2215.39,Payroll Accrual
GLI,11/30/2020,12905,1100625,GLI113020,GLI113020,21.29,Payroll Accrual
GLI,11/30/2020,12505,1100625,GLI113020,GLI113020,108.58,Payroll Accrual
GLI,11/30/2020,124703,1100625,GLI113020,GLI113020,1419.3,Payroll Accrual
GLI,11/30/2020,12405,1100625,GLI113020,GLI113020,441.92,Payroll Accrual
