journal,date,account,control,document,reference,amount,description
GLI,10/31/2019,232103,GLI103119,GLI103119,GLI103119,-92704.34,Payroll Accrual
GLI,10/31/2019,132101,GLI103119,GLI103119,GLI103119,-631840.87,Payroll Accrual
GLI,10/31/2019,12006,1130426,GLI103119,GLI103119,2118.46,Payroll Accrual
GLI,10/31/2019,12005,1130426,GLI103119,GLI103119,2118.46,Payroll Accrual
GLI,10/31/2019,12004,1130426,GLI103119,GLI103119,2118.46,Payroll Accrual
GLI,10/31/2019,12002,1130426,GLI103119,GLI103119,2118.46,Payroll Accrual
GLI,10/31/2019,12001,1130426,GLI103119,GLI103119,1910.79,Payroll Accrual
GLI,10/31/2019,22510,298567,GLI103119,GLI103119,26.78,Payroll Accrual
GLI,10/31/2019,21301C,298567,GLI103119,GLI103119,350,Payroll Accrual
GLI,10/31/2019,22504,298432,GLI103119,GLI103119,111.6,Payroll Accrual
GLI,10/31/2019,22304B,298432,GLI103119,GLI103119,1537.76,Payroll Accrual
GLI,10/31/2019,22506,296347,GLI103119,GLI103119,116.24,Payroll Accrual
GLI,10/31/2019,22306,296347,GLI103119,GLI103119,1541.74,Payroll Accrual
GLI,10/31/2019,22503,295435,GLI103119,GLI103119,132.69,Payroll Accrual
GLI,10/31/2019,224723,295435,GLI103119,GLI103119,1734.48,Payroll Accrual
GLI,10/31/2019,22904,295148,GLI103119,GLI103119,18.74,Payroll Accrual
GLI,10/31/2019,22504,295148,GLI103119,GLI103119,89.14,Payroll Accrual
GLI,10/31/2019,224704,295148,GLI103119,GLI103119,1249.2,Payroll Accrual
GLI,10/31/2019,22404,295148,GLI103119,GLI103119,390.96,Payroll Accrual
GLI,10/31/2019,22510,291582,GLI103119,GLI103119,44.52,Payroll Accrual
GLI,10/31/2019,21301C,291582,GLI103119,GLI103119,582.01,Payroll Accrual
GLI,10/31/2019,22910,289563,GLI103119,GLI103119,2.57,Payroll Accrual
GLI,10/31/2019,22906,289563,GLI103119,GLI103119,5.36,Payroll Accrual
GLI,10/31/2019,22904,289563,GLI103119,GLI103119,5.36,Payroll Accrual
GLI,10/31/2019,22902,289563,GLI103119,GLI103119,5.36,Payroll Accrual
GLI,10/31/2019,22901,289563,GLI103119,GLI103119,2.79,Payroll Accrual
GLI,10/31/2019,22510,289563,GLI103119,GLI103119,13.12,Payroll Accrual
GLI,10/31/2019,22506,289563,GLI103119,GLI103119,27.33,Payroll Accrual
GLI,10/31/2019,22504,289563,GLI103119,GLI103119,27.33,Payroll Accrual
GLI,10/31/2019,22502,289563,GLI103119,GLI103119,27.33,Payroll Accrual
GLI,10/31/2019,22501,289563,GLI103119,GLI103119,14.21,Payroll Accrual
GLI,10/31/2019,22210B,289563,GLI103119,GLI103119,171.48,Payroll Accrual
GLI,10/31/2019,22206B,289563,GLI103119,GLI103119,357.24,Payroll Accrual
GLI,10/31/2019,22204B,289563,GLI103119,GLI103119,357.24,Payroll Accrual
GLI,10/31/2019,22202B,289563,GLI103119,GLI103119,357.24,Payroll Accrual
GLI,10/31/2019,22201B,289563,GLI103119,GLI103119,185.76,Payroll Accrual
GLI,10/31/2019,22504,279630,GLI103119,GLI103119,317.41,Payroll Accrual
GLI,10/31/2019,224704,279630,GLI103119,GLI103119,4149.2,Payroll Accrual
GLI,10/31/2019,22904,276431,GLI103119,GLI103119,37.26,Payroll Accrual
GLI,10/31/2019,22504,276431,GLI103119,GLI103119,188.35,Payroll Accrual
GLI,10/31/2019,224704,276431,GLI103119,GLI103119,2484.3,Payroll Accrual
GLI,10/31/2019,22510,275934,GLI103119,GLI103119,4.07,Payroll Accrual
GLI,10/31/2019,22506,275934,GLI103119,GLI103119,8.49,Payroll Accrual
GLI,10/31/2019,22504,275934,GLI103119,GLI103119,8.49,Payroll Accrual
GLI,10/31/2019,22502,275934,GLI103119,GLI103119,8.49,Payroll Accrual
GLI,10/31/2019,22501,275934,GLI103119,GLI103119,4.42,Payroll Accrual
GLI,10/31/2019,22210B,275934,GLI103119,GLI103119,53.28,Payroll Accrual
GLI,10/31/2019,22206B,275934,GLI103119,GLI103119,111,Payroll Accrual
GLI,10/31/2019,22204B,275934,GLI103119,GLI103119,111,Payroll Accrual
GLI,10/31/2019,22202B,275934,GLI103119,GLI103119,111,Payroll Accrual
GLI,10/31/2019,22201B,275934,GLI103119,GLI103119,57.72,Payroll Accrual
GLI,10/31/2019,22504,275342,GLI103119,GLI103119,80.31,Payroll Accrual
GLI,10/31/2019,224704,275342,GLI103119,GLI103119,1049.89,Payroll Accrual
GLI,10/31/2019,22506,274225,GLI103119,GLI103119,172.53,Payroll Accrual
GLI,10/31/2019,22406,274225,GLI103119,GLI103119,160,Payroll Accrual
GLI,10/31/2019,22306,274225,GLI103119,GLI103119,2255.6,Payroll Accrual
GLI,10/31/2019,22904,273315,GLI103119,GLI103119,107.46,Payroll Accrual
GLI,10/31/2019,22504,273315,GLI103119,GLI103119,401.35,Payroll Accrual
GLI,10/31/2019,224704,273315,GLI103119,GLI103119,5373,Payroll Accrual
GLI,10/31/2019,22510,269843,GLI103119,GLI103119,10.91,Payroll Accrual
GLI,10/31/2019,22506,269843,GLI103119,GLI103119,23.16,Payroll Accrual
GLI,10/31/2019,22504,269843,GLI103119,GLI103119,23.16,Payroll Accrual
GLI,10/31/2019,22502,269843,GLI103119,GLI103119,23.16,Payroll Accrual
GLI,10/31/2019,22501,269843,GLI103119,GLI103119,11.86,Payroll Accrual
GLI,10/31/2019,22210B,269843,GLI103119,GLI103119,147.77,Payroll Accrual
GLI,10/31/2019,22206B,269843,GLI103119,GLI103119,307.86,Payroll Accrual
GLI,10/31/2019,22204B,269843,GLI103119,GLI103119,307.86,Payroll Accrual
GLI,10/31/2019,22202B,269843,GLI103119,GLI103119,307.86,Payroll Accrual
GLI,10/31/2019,22201B,269843,GLI103119,GLI103119,160.09,Payroll Accrual
GLI,10/31/2019,22503,268753,GLI103119,GLI103119,111.15,Payroll Accrual
GLI,10/31/2019,224723,268753,GLI103119,GLI103119,1458.06,Payroll Accrual
GLI,10/31/2019,22503,268523,GLI103119,GLI103119,107.21,Payroll Accrual
GLI,10/31/2019,224723,268523,GLI103119,GLI103119,1401.42,Payroll Accrual
GLI,10/31/2019,22504,264852,GLI103119,GLI103119,148.74,Payroll Accrual
GLI,10/31/2019,224704,264852,GLI103119,GLI103119,1966.56,Payroll Accrual
GLI,10/31/2019,22503,264387,GLI103119,GLI103119,112.29,Payroll Accrual
GLI,10/31/2019,224723,264387,GLI103119,GLI103119,1467.83,Payroll Accrual
GLI,10/31/2019,22506,264220,GLI103119,GLI103119,91.79,Payroll Accrual
GLI,10/31/2019,22406,264220,GLI103119,GLI103119,174,Payroll Accrual
GLI,10/31/2019,22306,264220,GLI103119,GLI103119,1096.49,Payroll Accrual
GLI,10/31/2019,22510,264110,GLI103119,GLI103119,64.84,Payroll Accrual
GLI,10/31/2019,21301C,264110,GLI103119,GLI103119,847.5,Payroll Accrual
GLI,10/31/2019,22510,263095,GLI103119,GLI103119,11.02,Payroll Accrual
GLI,10/31/2019,21301C,263095,GLI103119,GLI103119,144,Payroll Accrual
GLI,10/31/2019,22503,257932,GLI103119,GLI103119,28.18,Payroll Accrual
GLI,10/31/2019,224723,257932,GLI103119,GLI103119,368.4,Payroll Accrual
GLI,10/31/2019,22904,256984,GLI103119,GLI103119,37.42,Payroll Accrual
GLI,10/31/2019,22504,256984,GLI103119,GLI103119,190.84,Payroll Accrual
GLI,10/31/2019,224704,256984,GLI103119,GLI103119,2494.7,Payroll Accrual
GLI,10/31/2019,22904,256879,GLI103119,GLI103119,9.26,Payroll Accrual
GLI,10/31/2019,22504,256879,GLI103119,GLI103119,47.23,Payroll Accrual
GLI,10/31/2019,22304C,256879,GLI103119,GLI103119,617.4,Payroll Accrual
GLI,10/31/2019,22903,256689,GLI103119,GLI103119,29.01,Payroll Accrual
GLI,10/31/2019,22503,256689,GLI103119,GLI103119,137.74,Payroll Accrual
GLI,10/31/2019,22303,256689,GLI103119,GLI103119,1933.89,Payroll Accrual
GLI,10/31/2019,22503,249315,GLI103119,GLI103119,123.62,Payroll Accrual
GLI,10/31/2019,224723,249315,GLI103119,GLI103119,1633.08,Payroll Accrual
GLI,10/31/2019,22904,247000,GLI103119,GLI103119,39.08,Payroll Accrual
GLI,10/31/2019,22504,247000,GLI103119,GLI103119,199.27,Payroll Accrual
GLI,10/31/2019,22304B,247000,GLI103119,GLI103119,2604.85,Payroll Accrual
GLI,10/31/2019,22903,24665,GLI103119,GLI103119,37.4,Payroll Accrual
GLI,10/31/2019,22503,24665,GLI103119,GLI103119,190.76,Payroll Accrual
GLI,10/31/2019,224723,24665,GLI103119,GLI103119,2493.47,Payroll Accrual
GLI,10/31/2019,22903,24551,GLI103119,GLI103119,26.54,Payroll Accrual
GLI,10/31/2019,22503,24551,GLI103119,GLI103119,135.35,Payroll Accrual
GLI,10/31/2019,224723,24551,GLI103119,GLI103119,1769.34,Payroll Accrual
GLI,10/31/2019,22506,243180,GLI103119,GLI103119,140.19,Payroll Accrual
GLI,10/31/2019,22406,243180,GLI103119,GLI103119,64,Payroll Accrual
GLI,10/31/2019,22306,243180,GLI103119,GLI103119,1929.28,Payroll Accrual
GLI,10/31/2019,22904,241085,GLI103119,GLI103119,33.17,Payroll Accrual
GLI,10/31/2019,22504,241085,GLI103119,GLI103119,167.88,Payroll Accrual
GLI,10/31/2019,224704,241085,GLI103119,GLI103119,2211.6,Payroll Accrual
GLI,10/31/2019,22504,232874,GLI103119,GLI103119,27.5,Payroll Accrual
GLI,10/31/2019,22304C,232874,GLI103119,GLI103119,359.59,Payroll Accrual
GLI,10/31/2019,22504,230810,GLI103119,GLI103119,24.18,Payroll Accrual
GLI,10/31/2019,22304C,230810,GLI103119,GLI103119,316.2,Payroll Accrual
GLI,10/31/2019,22504,230601,GLI103119,GLI103119,308.51,Payroll Accrual
GLI,10/31/2019,22104,230601,GLI103119,GLI103119,4402.15,Payroll Accrual
GLI,10/31/2019,22910,2141225,GLI103119,GLI103119,10.15,Payroll Accrual
GLI,10/31/2019,22902,2141225,GLI103119,GLI103119,10.15,Payroll Accrual
GLI,10/31/2019,22901,2141225,GLI103119,GLI103119,10.45,Payroll Accrual
GLI,10/31/2019,22510,2141225,GLI103119,GLI103119,44.48,Payroll Accrual
GLI,10/31/2019,22502,2141225,GLI103119,GLI103119,44.48,Payroll Accrual
GLI,10/31/2019,22501,2141225,GLI103119,GLI103119,46.05,Payroll Accrual
GLI,10/31/2019,22310,2141225,GLI103119,GLI103119,676.34,Payroll Accrual
GLI,10/31/2019,22302,2141225,GLI103119,GLI103119,676.34,Payroll Accrual
GLI,10/31/2019,22301,2141225,GLI103119,GLI103119,696.84,Payroll Accrual
GLI,10/31/2019,22904,2130150,GLI103119,GLI103119,68.64,Payroll Accrual
GLI,10/31/2019,22504,2130150,GLI103119,GLI103119,262.53,Payroll Accrual
GLI,10/31/2019,224704,2130150,GLI103119,GLI103119,3431.75,Payroll Accrual
GLI,10/31/2019,22404,2130150,GLI103119,GLI103119,1218.88,Payroll Accrual
GLI,10/31/2019,22903,2126055,GLI103119,GLI103119,41.46,Payroll Accrual
GLI,10/31/2019,22503,2126055,GLI103119,GLI103119,158.59,Payroll Accrual
GLI,10/31/2019,22103,2126055,GLI103119,GLI103119,2073.08,Payroll Accrual
GLI,10/31/2019,22504,2126053,GLI103119,GLI103119,26.24,Payroll Accrual
GLI,10/31/2019,22304C,2126053,GLI103119,GLI103119,343.1,Payroll Accrual
GLI,10/31/2019,22903,211568,GLI103119,GLI103119,29.05,Payroll Accrual
GLI,10/31/2019,22503,211568,GLI103119,GLI103119,148.16,Payroll Accrual
GLI,10/31/2019,22303,211568,GLI103119,GLI103119,1936.83,Payroll Accrual
GLI,10/31/2019,22904,2114160,GLI103119,GLI103119,23.79,Payroll Accrual
GLI,10/31/2019,22504,2114160,GLI103119,GLI103119,65.68,Payroll Accrual
GLI,10/31/2019,22404,2114160,GLI103119,GLI103119,80,Payroll Accrual
GLI,10/31/2019,22304B,2114160,GLI103119,GLI103119,1109.55,Payroll Accrual
GLI,10/31/2019,22904,211201,GLI103119,GLI103119,35.26,Payroll Accrual
GLI,10/31/2019,22504,211201,GLI103119,GLI103119,179.82,Payroll Accrual
GLI,10/31/2019,224704,211201,GLI103119,GLI103119,2350.6,Payroll Accrual
GLI,10/31/2019,22404,211201,GLI103119,GLI103119,909.44,Payroll Accrual
GLI,10/31/2019,22504,2106410,GLI103119,GLI103119,420.77,Payroll Accrual
GLI,10/31/2019,22404,2106410,GLI103119,GLI103119,160,Payroll Accrual
GLI,10/31/2019,22304B,2106410,GLI103119,GLI103119,5556.79,Payroll Accrual
GLI,10/31/2019,22506,2106350,GLI103119,GLI103119,255.69,Payroll Accrual
GLI,10/31/2019,22106,2106350,GLI103119,GLI103119,3719.24,Payroll Accrual
GLI,10/31/2019,22904,210123,GLI103119,GLI103119,48.1,Payroll Accrual
GLI,10/31/2019,22504,210123,GLI103119,GLI103119,231.39,Payroll Accrual
GLI,10/31/2019,224704,210123,GLI103119,GLI103119,3206.76,Payroll Accrual
GLI,10/31/2019,12503,198563,GLI103119,GLI103119,128.7,Payroll Accrual
GLI,10/31/2019,124723,198563,GLI103119,GLI103119,1790.28,Payroll Accrual
GLI,10/31/2019,12501,198543,GLI103119,GLI103119,2.68,Payroll Accrual
GLI,10/31/2019,11301C,198543,GLI103119,GLI103119,35,Payroll Accrual
GLI,10/31/2019,12905,198542,GLI103119,GLI103119,47.18,Payroll Accrual
GLI,10/31/2019,12505,198542,GLI103119,GLI103119,237.23,Payroll Accrual
GLI,10/31/2019,12405,198542,GLI103119,GLI103119,162,Payroll Accrual
GLI,10/31/2019,12305B,198542,GLI103119,GLI103119,2983.51,Payroll Accrual
GLI,10/31/2019,12527,198532,GLI103119,GLI103119,45.07,Payroll Accrual
GLI,10/31/2019,12327,198532,GLI103119,GLI103119,589.2,Payroll Accrual
GLI,10/31/2019,12506,198435,GLI103119,GLI103119,4.95,Payroll Accrual
GLI,10/31/2019,12505,198435,GLI103119,GLI103119,4.95,Payroll Accrual
GLI,10/31/2019,12504,198435,GLI103119,GLI103119,4.95,Payroll Accrual
GLI,10/31/2019,12502,198435,GLI103119,GLI103119,4.95,Payroll Accrual
GLI,10/31/2019,12501,198435,GLI103119,GLI103119,4.95,Payroll Accrual
GLI,10/31/2019,12206B,198435,GLI103119,GLI103119,64.7,Payroll Accrual
GLI,10/31/2019,12205B,198435,GLI103119,GLI103119,64.7,Payroll Accrual
GLI,10/31/2019,12204B,198435,GLI103119,GLI103119,64.7,Payroll Accrual
GLI,10/31/2019,12202B,198435,GLI103119,GLI103119,64.7,Payroll Accrual
GLI,10/31/2019,12201B,198435,GLI103119,GLI103119,64.7,Payroll Accrual
GLI,10/31/2019,12904,197643,GLI103119,GLI103119,30.82,Payroll Accrual
GLI,10/31/2019,12504,197643,GLI103119,GLI103119,144.32,Payroll Accrual
GLI,10/31/2019,12404,197643,GLI103119,GLI103119,112,Payroll Accrual
GLI,10/31/2019,12304D,197643,GLI103119,GLI103119,1942.42,Payroll Accrual
GLI,10/31/2019,12516,197642,GLI103119,GLI103119,113.81,Payroll Accrual
GLI,10/31/2019,12316,197642,GLI103119,GLI103119,1504.82,Payroll Accrual
GLI,10/31/2019,12503,197560,GLI103119,GLI103119,63.87,Payroll Accrual
GLI,10/31/2019,12303,197560,GLI103119,GLI103119,834.84,Payroll Accrual
GLI,10/31/2019,12527,197530,GLI103119,GLI103119,18.71,Payroll Accrual
GLI,10/31/2019,12327,197530,GLI103119,GLI103119,244.56,Payroll Accrual
GLI,10/31/2019,12501,197523,GLI103119,GLI103119,126.5,Payroll Accrual
GLI,10/31/2019,12301B,197523,GLI103119,GLI103119,1653.61,Payroll Accrual
GLI,10/31/2019,12906,196341,GLI103119,GLI103119,15.37,Payroll Accrual
GLI,10/31/2019,12905,196341,GLI103119,GLI103119,13.78,Payroll Accrual
GLI,10/31/2019,12514,196341,GLI103119,GLI103119,36.6,Payroll Accrual
GLI,10/31/2019,12506,196341,GLI103119,GLI103119,3.59,Payroll Accrual
GLI,10/31/2019,12505,196341,GLI103119,GLI103119,3.22,Payroll Accrual
GLI,10/31/2019,12504,196341,GLI103119,GLI103119,30.71,Payroll Accrual
GLI,10/31/2019,12502,196341,GLI103119,GLI103119,26.8,Payroll Accrual
GLI,10/31/2019,12501,196341,GLI103119,GLI103119,26.8,Payroll Accrual
GLI,10/31/2019,12414,196341,GLI103119,GLI103119,18.04,Payroll Accrual
GLI,10/31/2019,12406,196341,GLI103119,GLI103119,10.66,Payroll Accrual
GLI,10/31/2019,12405,196341,GLI103119,GLI103119,9.84,Payroll Accrual
GLI,10/31/2019,12404,196341,GLI103119,GLI103119,15.58,Payroll Accrual
GLI,10/31/2019,12402,196341,GLI103119,GLI103119,13.94,Payroll Accrual
GLI,10/31/2019,12401,196341,GLI103119,GLI103119,13.94,Payroll Accrual
GLI,10/31/2019,12214,196341,GLI103119,GLI103119,545.28,Payroll Accrual
GLI,10/31/2019,12206C,196341,GLI103119,GLI103119,322.21,Payroll Accrual
GLI,10/31/2019,12205C,196341,GLI103119,GLI103119,297.43,Payroll Accrual
GLI,10/31/2019,12204C,196341,GLI103119,GLI103119,470.93,Payroll Accrual
GLI,10/31/2019,12202C,196341,GLI103119,GLI103119,421.35,Payroll Accrual
GLI,10/31/2019,12201C,196341,GLI103119,GLI103119,421.35,Payroll Accrual
GLI,10/31/2019,12524,195975,GLI103119,GLI103119,53.3,Payroll Accrual
GLI,10/31/2019,124724,195975,GLI103119,GLI103119,696.78,Payroll Accrual
GLI,10/31/2019,12503,195826,GLI103119,GLI103119,41.47,Payroll Accrual
GLI,10/31/2019,124723,195826,GLI103119,GLI103119,542.12,Payroll Accrual
GLI,10/31/2019,12504,195628,GLI103119,GLI103119,74.55,Payroll Accrual
GLI,10/31/2019,12304B,195628,GLI103119,GLI103119,974.44,Payroll Accrual
GLI,10/31/2019,12503,195436,GLI103119,GLI103119,36.13,Payroll Accrual
GLI,10/31/2019,124723,195436,GLI103119,GLI103119,472.32,Payroll Accrual
GLI,10/31/2019,12506,195401,GLI103119,GLI103119,99.56,Payroll Accrual
GLI,10/31/2019,12306D,195401,GLI103119,GLI103119,1372.06,Payroll Accrual
GLI,10/31/2019,12503,195359,GLI103119,GLI103119,94.23,Payroll Accrual
GLI,10/31/2019,124723,195359,GLI103119,GLI103119,1231.69,Payroll Accrual
GLI,10/31/2019,12506,195123,GLI103119,GLI103119,104.78,Payroll Accrual
GLI,10/31/2019,12306D,195123,GLI103119,GLI103119,1374.88,Payroll Accrual
GLI,10/31/2019,12904,194675,GLI103119,GLI103119,72.95,Payroll Accrual
GLI,10/31/2019,12504,194675,GLI103119,GLI103119,266.1,Payroll Accrual
GLI,10/31/2019,124704,194675,GLI103119,GLI103119,3647.42,Payroll Accrual
GLI,10/31/2019,12505,191350,GLI103119,GLI103119,256.93,Payroll Accrual
GLI,10/31/2019,124703,191350,GLI103119,GLI103119,3358.6,Payroll Accrual
GLI,10/31/2019,12405,191350,GLI103119,GLI103119,238.4,Payroll Accrual
GLI,10/31/2019,12504,191060,GLI103119,GLI103119,206.76,Payroll Accrual
GLI,10/31/2019,12304B,191060,GLI103119,GLI103119,2702.8,Payroll Accrual
GLI,10/31/2019,12924,190910,GLI103119,GLI103119,55.38,Payroll Accrual
GLI,10/31/2019,12524,190910,GLI103119,GLI103119,279.38,Payroll Accrual
GLI,10/31/2019,12124,190910,GLI103119,GLI103119,3692.3,Payroll Accrual
GLI,10/31/2019,12906,190892,GLI103119,GLI103119,45.87,Payroll Accrual
GLI,10/31/2019,12506,190892,GLI103119,GLI103119,173.08,Payroll Accrual
GLI,10/31/2019,12406,190892,GLI103119,GLI103119,272,Payroll Accrual
GLI,10/31/2019,12306C,190892,GLI103119,GLI103119,2021.3,Payroll Accrual
GLI,10/31/2019,12524,190600,GLI103119,GLI103119,184.85,Payroll Accrual
GLI,10/31/2019,124724,190600,GLI103119,GLI103119,2416.23,Payroll Accrual
GLI,10/31/2019,12503,189596,GLI103119,GLI103119,7.8,Payroll Accrual
GLI,10/31/2019,124723,189596,GLI103119,GLI103119,102,Payroll Accrual
GLI,10/31/2019,12905,188338,GLI103119,GLI103119,96.6,Payroll Accrual
GLI,10/31/2019,12505,188338,GLI103119,GLI103119,356.06,Payroll Accrual
GLI,10/31/2019,12305B,188338,GLI103119,GLI103119,4829.63,Payroll Accrual
GLI,10/31/2019,12904,187675,GLI103119,GLI103119,74.77,Payroll Accrual
GLI,10/31/2019,12504,187675,GLI103119,GLI103119,252.66,Payroll Accrual
GLI,10/31/2019,124704,187675,GLI103119,GLI103119,3738.47,Payroll Accrual
GLI,10/31/2019,12516,187526,GLI103119,GLI103119,96.06,Payroll Accrual
GLI,10/31/2019,12316,187526,GLI103119,GLI103119,1255.67,Payroll Accrual
GLI,10/31/2019,12906,187325,GLI103119,GLI103119,7.2,Payroll Accrual
GLI,10/31/2019,12506,187325,GLI103119,GLI103119,36.72,Payroll Accrual
GLI,10/31/2019,12306C,187325,GLI103119,GLI103119,480,Payroll Accrual
GLI,10/31/2019,12512,186753,GLI103119,GLI103119,23.08,Payroll Accrual
GLI,10/31/2019,12502,186753,GLI103119,GLI103119,40.92,Payroll Accrual
GLI,10/31/2019,12501,186753,GLI103119,GLI103119,40.92,Payroll Accrual
GLI,10/31/2019,12212,186753,GLI103119,GLI103119,301.7,Payroll Accrual
GLI,10/31/2019,12202C,186753,GLI103119,GLI103119,534.83,Payroll Accrual
GLI,10/31/2019,12201C,186753,GLI103119,GLI103119,534.83,Payroll Accrual
GLI,10/31/2019,12527,186724,GLI103119,GLI103119,35.03,Payroll Accrual
GLI,10/31/2019,12327,186724,GLI103119,GLI103119,457.92,Payroll Accrual
GLI,10/31/2019,12906,186100,GLI103119,GLI103119,15.58,Payroll Accrual
GLI,10/31/2019,12905,186100,GLI103119,GLI103119,15.58,Payroll Accrual
GLI,10/31/2019,12904,186100,GLI103119,GLI103119,15.58,Payroll Accrual
GLI,10/31/2019,12902,186100,GLI103119,GLI103119,15.58,Payroll Accrual
GLI,10/31/2019,12901,186100,GLI103119,GLI103119,15.58,Payroll Accrual
GLI,10/31/2019,12506,186100,GLI103119,GLI103119,59.13,Payroll Accrual
GLI,10/31/2019,12505,186100,GLI103119,GLI103119,59.13,Payroll Accrual
GLI,10/31/2019,12504,186100,GLI103119,GLI103119,59.13,Payroll Accrual
GLI,10/31/2019,12502,186100,GLI103119,GLI103119,59.13,Payroll Accrual
GLI,10/31/2019,12501,186100,GLI103119,GLI103119,59.13,Payroll Accrual
GLI,10/31/2019,12106,186100,GLI103119,GLI103119,778.85,Payroll Accrual
GLI,10/31/2019,12105,186100,GLI103119,GLI103119,778.85,Payroll Accrual
GLI,10/31/2019,12104,186100,GLI103119,GLI103119,778.85,Payroll Accrual
GLI,10/31/2019,12102,186100,GLI103119,GLI103119,778.85,Payroll Accrual
GLI,10/31/2019,12101,186100,GLI103119,GLI103119,778.85,Payroll Accrual
GLI,10/31/2019,12527,185647,GLI103119,GLI103119,22.22,Payroll Accrual
GLI,10/31/2019,12327,185647,GLI103119,GLI103119,290.52,Payroll Accrual
GLI,10/31/2019,12915,185600,GLI103119,GLI103119,18.19,Payroll Accrual
GLI,10/31/2019,12906,185600,GLI103119,GLI103119,12.4,Payroll Accrual
GLI,10/31/2019,12905,185600,GLI103119,GLI103119,12.4,Payroll Accrual
GLI,10/31/2019,12904,185600,GLI103119,GLI103119,13.23,Payroll Accrual
GLI,10/31/2019,12902,185600,GLI103119,GLI103119,13.23,Payroll Accrual
GLI,10/31/2019,12901,185600,GLI103119,GLI103119,13.23,Payroll Accrual
GLI,10/31/2019,12515,185600,GLI103119,GLI103119,66.59,Payroll Accrual
GLI,10/31/2019,12506,185600,GLI103119,GLI103119,45.4,Payroll Accrual
GLI,10/31/2019,12505,185600,GLI103119,GLI103119,45.4,Payroll Accrual
GLI,10/31/2019,12504,185600,GLI103119,GLI103119,48.43,Payroll Accrual
GLI,10/31/2019,12502,185600,GLI103119,GLI103119,48.43,Payroll Accrual
GLI,10/31/2019,12501,185600,GLI103119,GLI103119,48.43,Payroll Accrual
GLI,10/31/2019,12315,185600,GLI103119,GLI103119,909.62,Payroll Accrual
GLI,10/31/2019,12306,185600,GLI103119,GLI103119,620.19,Payroll Accrual
GLI,10/31/2019,12305,185600,GLI103119,GLI103119,620.19,Payroll Accrual
GLI,10/31/2019,12304,185600,GLI103119,GLI103119,661.54,Payroll Accrual
GLI,10/31/2019,12302,185600,GLI103119,GLI103119,661.54,Payroll Accrual
GLI,10/31/2019,12301,185600,GLI103119,GLI103119,661.54,Payroll Accrual
GLI,10/31/2019,12503,185340,GLI103119,GLI103119,109.21,Payroll Accrual
GLI,10/31/2019,12303,185340,GLI103119,GLI103119,1427.5,Payroll Accrual
GLI,10/31/2019,12505,184920,GLI103119,GLI103119,319.95,Payroll Accrual
GLI,10/31/2019,124703,184920,GLI103119,GLI103119,4204.62,Payroll Accrual
GLI,10/31/2019,12905,184614,GLI103119,GLI103119,60.25,Payroll Accrual
GLI,10/31/2019,12505,184614,GLI103119,GLI103119,307.28,Payroll Accrual
GLI,10/31/2019,124703,184614,GLI103119,GLI103119,4016.74,Payroll Accrual
GLI,10/31/2019,12906,184610,GLI103119,GLI103119,76.29,Payroll Accrual
GLI,10/31/2019,12506,184610,GLI103119,GLI103119,286.02,Payroll Accrual
GLI,10/31/2019,12306B,184610,GLI103119,GLI103119,3814.63,Payroll Accrual
GLI,10/31/2019,12524,184605,GLI103119,GLI103119,129.05,Payroll Accrual
GLI,10/31/2019,124724,184605,GLI103119,GLI103119,1686.95,Payroll Accrual
GLI,10/31/2019,12503,183923,GLI103119,GLI103119,35.58,Payroll Accrual
GLI,10/31/2019,124723,183923,GLI103119,GLI103119,465.11,Payroll Accrual
GLI,10/31/2019,12916,182713,GLI103119,GLI103119,31.53,Payroll Accrual
GLI,10/31/2019,12516,182713,GLI103119,GLI103119,150.58,Payroll Accrual
GLI,10/31/2019,12416,182713,GLI103119,GLI103119,391,Payroll Accrual
GLI,10/31/2019,12316,182713,GLI103119,GLI103119,1710.8,Payroll Accrual
GLI,10/31/2019,12914,181520,GLI103119,GLI103119,10.46,Payroll Accrual
GLI,10/31/2019,12906,181520,GLI103119,GLI103119,21.98,Payroll Accrual
GLI,10/31/2019,12905,181520,GLI103119,GLI103119,20.03,Payroll Accrual
GLI,10/31/2019,12904,181520,GLI103119,GLI103119,9.03,Payroll Accrual
GLI,10/31/2019,12902,181520,GLI103119,GLI103119,8.08,Payroll Accrual
GLI,10/31/2019,12901,181520,GLI103119,GLI103119,8.08,Payroll Accrual
GLI,10/31/2019,12514,181520,GLI103119,GLI103119,35.86,Payroll Accrual
GLI,10/31/2019,12506,181520,GLI103119,GLI103119,3.69,Payroll Accrual
GLI,10/31/2019,12505,181520,GLI103119,GLI103119,3.35,Payroll Accrual
GLI,10/31/2019,12504,181520,GLI103119,GLI103119,30.4,Payroll Accrual
GLI,10/31/2019,12502,181520,GLI103119,GLI103119,26.76,Payroll Accrual
GLI,10/31/2019,12501,181520,GLI103119,GLI103119,26.76,Payroll Accrual
GLI,10/31/2019,12414,181520,GLI103119,GLI103119,16.28,Payroll Accrual
GLI,10/31/2019,12406,181520,GLI103119,GLI103119,9.62,Payroll Accrual
GLI,10/31/2019,12405,181520,GLI103119,GLI103119,8.88,Payroll Accrual
GLI,10/31/2019,12404,181520,GLI103119,GLI103119,14.06,Payroll Accrual
GLI,10/31/2019,12402,181520,GLI103119,GLI103119,12.58,Payroll Accrual
GLI,10/31/2019,12401,181520,GLI103119,GLI103119,12.58,Payroll Accrual
GLI,10/31/2019,12214,181520,GLI103119,GLI103119,506.69,Payroll Accrual
GLI,10/31/2019,12206C,181520,GLI103119,GLI103119,299.41,Payroll Accrual
GLI,10/31/2019,12205C,181520,GLI103119,GLI103119,276.38,Payroll Accrual
GLI,10/31/2019,12204C,181520,GLI103119,GLI103119,437.6,Payroll Accrual
GLI,10/31/2019,12202C,181520,GLI103119,GLI103119,391.54,Payroll Accrual
GLI,10/31/2019,12201C,181520,GLI103119,GLI103119,391.54,Payroll Accrual
GLI,10/31/2019,12904,18005,GLI103119,GLI103119,99.84,Payroll Accrual
GLI,10/31/2019,12504,18005,GLI103119,GLI103119,380.56,Payroll Accrual
GLI,10/31/2019,124704,18005,GLI103119,GLI103119,4991.84,Payroll Accrual
GLI,10/31/2019,12906,179775,GLI103119,GLI103119,39.31,Payroll Accrual
GLI,10/31/2019,12506,179775,GLI103119,GLI103119,147.4,Payroll Accrual
GLI,10/31/2019,12306B,179775,GLI103119,GLI103119,1965.54,Payroll Accrual
GLI,10/31/2019,12506,179693,GLI103119,GLI103119,22.22,Payroll Accrual
GLI,10/31/2019,12505,179693,GLI103119,GLI103119,22.22,Payroll Accrual
GLI,10/31/2019,12504,179693,GLI103119,GLI103119,22.22,Payroll Accrual
GLI,10/31/2019,12502,179693,GLI103119,GLI103119,22.22,Payroll Accrual
GLI,10/31/2019,12501,179693,GLI103119,GLI103119,22.22,Payroll Accrual
GLI,10/31/2019,12406,179693,GLI103119,GLI103119,10.4,Payroll Accrual
GLI,10/31/2019,12405,179693,GLI103119,GLI103119,10.4,Payroll Accrual
GLI,10/31/2019,12404,179693,GLI103119,GLI103119,10.4,Payroll Accrual
GLI,10/31/2019,12402,179693,GLI103119,GLI103119,10.4,Payroll Accrual
GLI,10/31/2019,12401,179693,GLI103119,GLI103119,10.4,Payroll Accrual
GLI,10/31/2019,12206B,179693,GLI103119,GLI103119,280.07,Payroll Accrual
GLI,10/31/2019,12205B,179693,GLI103119,GLI103119,280.07,Payroll Accrual
GLI,10/31/2019,12204B,179693,GLI103119,GLI103119,280.07,Payroll Accrual
GLI,10/31/2019,12202B,179693,GLI103119,GLI103119,280.07,Payroll Accrual
GLI,10/31/2019,12201B,179693,GLI103119,GLI103119,280.07,Payroll Accrual
GLI,10/31/2019,12504,178079,GLI103119,GLI103119,163.45,Payroll Accrual
GLI,10/31/2019,12404,178079,GLI103119,GLI103119,132,Payroll Accrual
GLI,10/31/2019,12304D,178079,GLI103119,GLI103119,2614.21,Payroll Accrual
GLI,10/31/2019,12527,178060,GLI103119,GLI103119,36.33,Payroll Accrual
GLI,10/31/2019,12327,178060,GLI103119,GLI103119,474.84,Payroll Accrual
GLI,10/31/2019,12904,178050,GLI103119,GLI103119,32.14,Payroll Accrual
GLI,10/31/2019,12504,178050,GLI103119,GLI103119,162.22,Payroll Accrual
GLI,10/31/2019,124704,178050,GLI103119,GLI103119,2142.7,Payroll Accrual
GLI,10/31/2019,12924,176430,GLI103119,GLI103119,4.32,Payroll Accrual
GLI,10/31/2019,12905,176430,GLI103119,GLI103119,4.32,Payroll Accrual
GLI,10/31/2019,12904,176430,GLI103119,GLI103119,4.32,Payroll Accrual
GLI,10/31/2019,12902,176430,GLI103119,GLI103119,4.32,Payroll Accrual
GLI,10/31/2019,12901,176430,GLI103119,GLI103119,4.32,Payroll Accrual
GLI,10/31/2019,12524,176430,GLI103119,GLI103119,21.63,Payroll Accrual
GLI,10/31/2019,12505,176430,GLI103119,GLI103119,21.63,Payroll Accrual
GLI,10/31/2019,12504,176430,GLI103119,GLI103119,21.63,Payroll Accrual
GLI,10/31/2019,12502,176430,GLI103119,GLI103119,21.63,Payroll Accrual
GLI,10/31/2019,12501,176430,GLI103119,GLI103119,21.63,Payroll Accrual
GLI,10/31/2019,12324F,176430,GLI103119,GLI103119,287.93,Payroll Accrual
GLI,10/31/2019,12305F,176430,GLI103119,GLI103119,287.93,Payroll Accrual
GLI,10/31/2019,12304F,176430,GLI103119,GLI103119,287.93,Payroll Accrual
GLI,10/31/2019,12302F,176430,GLI103119,GLI103119,287.93,Payroll Accrual
GLI,10/31/2019,12301F,176430,GLI103119,GLI103119,287.93,Payroll Accrual
GLI,10/31/2019,12527,176239,GLI103119,GLI103119,15.48,Payroll Accrual
GLI,10/31/2019,12327,176239,GLI103119,GLI103119,202.41,Payroll Accrual
GLI,10/31/2019,12503,175943,GLI103119,GLI103119,42.46,Payroll Accrual
GLI,10/31/2019,124723,175943,GLI103119,GLI103119,555.04,Payroll Accrual
GLI,10/31/2019,12902,175873,GLI103119,GLI103119,17.21,Payroll Accrual
GLI,10/31/2019,12901,175873,GLI103119,GLI103119,11.48,Payroll Accrual
GLI,10/31/2019,12502,175873,GLI103119,GLI103119,87.8,Payroll Accrual
GLI,10/31/2019,12501,175873,GLI103119,GLI103119,58.54,Payroll Accrual
GLI,10/31/2019,11102,175873,GLI103119,GLI103119,1147.67,Payroll Accrual
GLI,10/31/2019,11101,175873,GLI103119,GLI103119,765.11,Payroll Accrual
GLI,10/31/2019,12527,175843,GLI103119,GLI103119,27.45,Payroll Accrual
GLI,10/31/2019,12327,175843,GLI103119,GLI103119,358.92,Payroll Accrual
GLI,10/31/2019,12903,175642,GLI103119,GLI103119,20.77,Payroll Accrual
GLI,10/31/2019,12503,175642,GLI103119,GLI103119,147.41,Payroll Accrual
GLI,10/31/2019,12103,175642,GLI103119,GLI103119,2076.93,Payroll Accrual
GLI,10/31/2019,12503,175398,GLI103119,GLI103119,49.38,Payroll Accrual
GLI,10/31/2019,124723,175398,GLI103119,GLI103119,645.34,Payroll Accrual
GLI,10/31/2019,12527,175397,GLI103119,GLI103119,131.58,Payroll Accrual
GLI,10/31/2019,12127,175397,GLI103119,GLI103119,1720.06,Payroll Accrual
GLI,10/31/2019,12506,175342,GLI103119,GLI103119,16.53,Payroll Accrual
GLI,10/31/2019,12505,175342,GLI103119,GLI103119,16.53,Payroll Accrual
GLI,10/31/2019,12504,175342,GLI103119,GLI103119,16.53,Payroll Accrual
GLI,10/31/2019,12502,175342,GLI103119,GLI103119,16.53,Payroll Accrual
GLI,10/31/2019,12501,175342,GLI103119,GLI103119,16.53,Payroll Accrual
GLI,10/31/2019,12206B,175342,GLI103119,GLI103119,300.09,Payroll Accrual
GLI,10/31/2019,12205B,175342,GLI103119,GLI103119,300.09,Payroll Accrual
GLI,10/31/2019,12204B,175342,GLI103119,GLI103119,300.09,Payroll Accrual
GLI,10/31/2019,12202B,175342,GLI103119,GLI103119,300.09,Payroll Accrual
GLI,10/31/2019,12201B,175342,GLI103119,GLI103119,300.09,Payroll Accrual
GLI,10/31/2019,12524,175323,GLI103119,GLI103119,51.12,Payroll Accrual
GLI,10/31/2019,124724,175323,GLI103119,GLI103119,668.28,Payroll Accrual
GLI,10/31/2019,12524,174934,GLI103119,GLI103119,55.07,Payroll Accrual
GLI,10/31/2019,12224,174934,GLI103119,GLI103119,719.76,Payroll Accrual
GLI,10/31/2019,12505,174384,GLI103119,GLI103119,183.53,Payroll Accrual
GLI,10/31/2019,124703,174384,GLI103119,GLI103119,2399.04,Payroll Accrual
GLI,10/31/2019,12506,174123,GLI103119,GLI103119,8.11,Payroll Accrual
GLI,10/31/2019,12505,174123,GLI103119,GLI103119,8.11,Payroll Accrual
GLI,10/31/2019,12504,174123,GLI103119,GLI103119,8.11,Payroll Accrual
GLI,10/31/2019,12502,174123,GLI103119,GLI103119,8.11,Payroll Accrual
GLI,10/31/2019,12501,174123,GLI103119,GLI103119,8.11,Payroll Accrual
GLI,10/31/2019,12206B,174123,GLI103119,GLI103119,105.96,Payroll Accrual
GLI,10/31/2019,12205B,174123,GLI103119,GLI103119,105.96,Payroll Accrual
GLI,10/31/2019,12204B,174123,GLI103119,GLI103119,105.96,Payroll Accrual
GLI,10/31/2019,12202B,174123,GLI103119,GLI103119,105.96,Payroll Accrual
GLI,10/31/2019,12201B,174123,GLI103119,GLI103119,105.96,Payroll Accrual
GLI,10/31/2019,12524,173843,GLI103119,GLI103119,72.08,Payroll Accrual
GLI,10/31/2019,124724,173843,GLI103119,GLI103119,942.24,Payroll Accrual
GLI,10/31/2019,12503,173286,GLI103119,GLI103119,119.11,Payroll Accrual
GLI,10/31/2019,124723,173286,GLI103119,GLI103119,1591.19,Payroll Accrual
GLI,10/31/2019,12504,172308,GLI103119,GLI103119,79.98,Payroll Accrual
GLI,10/31/2019,12304B,172308,GLI103119,GLI103119,1249.92,Payroll Accrual
GLI,10/31/2019,12906,172077,GLI103119,GLI103119,52.54,Payroll Accrual
GLI,10/31/2019,12506,172077,GLI103119,GLI103119,188.68,Payroll Accrual
GLI,10/31/2019,12406,172077,GLI103119,GLI103119,368,Payroll Accrual
GLI,10/31/2019,12306B,172077,GLI103119,GLI103119,2259.18,Payroll Accrual
GLI,10/31/2019,12905,171055,GLI103119,GLI103119,114.27,Payroll Accrual
GLI,10/31/2019,12505,171055,GLI103119,GLI103119,421.44,Payroll Accrual
GLI,10/31/2019,124703,171055,GLI103119,GLI103119,5713.54,Payroll Accrual
GLI,10/31/2019,12501,170150,GLI103119,GLI103119,64.07,Payroll Accrual
GLI,10/31/2019,11301C,170150,GLI103119,GLI103119,837.5,Payroll Accrual
GLI,10/31/2019,12515,169542,GLI103119,GLI103119,3.95,Payroll Accrual
GLI,10/31/2019,12506,169542,GLI103119,GLI103119,2.69,Payroll Accrual
GLI,10/31/2019,12505,169542,GLI103119,GLI103119,2.69,Payroll Accrual
GLI,10/31/2019,12504,169542,GLI103119,GLI103119,2.87,Payroll Accrual
GLI,10/31/2019,12502,169542,GLI103119,GLI103119,2.87,Payroll Accrual
GLI,10/31/2019,12501,169542,GLI103119,GLI103119,2.87,Payroll Accrual
GLI,10/31/2019,12315,169542,GLI103119,GLI103119,51.59,Payroll Accrual
GLI,10/31/2019,12306,169542,GLI103119,GLI103119,35.17,Payroll Accrual
GLI,10/31/2019,12305,169542,GLI103119,GLI103119,35.17,Payroll Accrual
GLI,10/31/2019,12304,169542,GLI103119,GLI103119,37.52,Payroll Accrual
GLI,10/31/2019,12302,169542,GLI103119,GLI103119,37.52,Payroll Accrual
GLI,10/31/2019,12301,169542,GLI103119,GLI103119,37.52,Payroll Accrual
GLI,10/31/2019,12506,168815,GLI103119,GLI103119,13.47,Payroll Accrual
GLI,10/31/2019,12306D,168815,GLI103119,GLI103119,176.12,Payroll Accrual
GLI,10/31/2019,12504,168753,GLI103119,GLI103119,248.09,Payroll Accrual
GLI,10/31/2019,124704,168753,GLI103119,GLI103119,3319.26,Payroll Accrual
GLI,10/31/2019,12504,168573,GLI103119,GLI103119,137.4,Payroll Accrual
GLI,10/31/2019,124704,168573,GLI103119,GLI103119,1796.05,Payroll Accrual
GLI,10/31/2019,12906,168351,GLI103119,GLI103119,46.44,Payroll Accrual
GLI,10/31/2019,12506,168351,GLI103119,GLI103119,232.86,Payroll Accrual
GLI,10/31/2019,12106,168351,GLI103119,GLI103119,3096.16,Payroll Accrual
GLI,10/31/2019,12503,168243,GLI103119,GLI103119,111.9,Payroll Accrual
GLI,10/31/2019,12303,168243,GLI103119,GLI103119,1462.68,Payroll Accrual
GLI,10/31/2019,12505,167934,GLI103119,GLI103119,164.67,Payroll Accrual
GLI,10/31/2019,124703,167934,GLI103119,GLI103119,2152.65,Payroll Accrual
GLI,10/31/2019,12506,167932,GLI103119,GLI103119,124.28,Payroll Accrual
GLI,10/31/2019,12306D,167932,GLI103119,GLI103119,1624.56,Payroll Accrual
GLI,10/31/2019,12506,167906,GLI103119,GLI103119,128.35,Payroll Accrual
GLI,10/31/2019,12306C,167906,GLI103119,GLI103119,1694.93,Payroll Accrual
GLI,10/31/2019,12914,167812,GLI103119,GLI103119,0.9,Payroll Accrual
GLI,10/31/2019,12906,167812,GLI103119,GLI103119,2.18,Payroll Accrual
GLI,10/31/2019,12905,167812,GLI103119,GLI103119,2.01,Payroll Accrual
GLI,10/31/2019,12904,167812,GLI103119,GLI103119,0.78,Payroll Accrual
GLI,10/31/2019,12902,167812,GLI103119,GLI103119,0.7,Payroll Accrual
GLI,10/31/2019,12901,167812,GLI103119,GLI103119,0.7,Payroll Accrual
GLI,10/31/2019,12514,167812,GLI103119,GLI103119,3.44,Payroll Accrual
GLI,10/31/2019,12506,167812,GLI103119,GLI103119,0.39,Payroll Accrual
GLI,10/31/2019,12505,167812,GLI103119,GLI103119,0.36,Payroll Accrual
GLI,10/31/2019,12504,167812,GLI103119,GLI103119,2.97,Payroll Accrual
GLI,10/31/2019,12502,167812,GLI103119,GLI103119,2.66,Payroll Accrual
GLI,10/31/2019,12501,167812,GLI103119,GLI103119,2.66,Payroll Accrual
GLI,10/31/2019,12214,167812,GLI103119,GLI103119,45.06,Payroll Accrual
GLI,10/31/2019,12206C,167812,GLI103119,GLI103119,26.63,Payroll Accrual
GLI,10/31/2019,12205C,167812,GLI103119,GLI103119,24.58,Payroll Accrual
GLI,10/31/2019,12204C,167812,GLI103119,GLI103119,38.92,Payroll Accrual
GLI,10/31/2019,12202C,167812,GLI103119,GLI103119,34.82,Payroll Accrual
GLI,10/31/2019,12201C,167812,GLI103119,GLI103119,34.82,Payroll Accrual
GLI,10/31/2019,12504,167580,GLI103119,GLI103119,270.54,Payroll Accrual
GLI,10/31/2019,124704,167580,GLI103119,GLI103119,3697.26,Payroll Accrual
GLI,10/31/2019,12527,165982,GLI103119,GLI103119,44.79,Payroll Accrual
GLI,10/31/2019,12327,165982,GLI103119,GLI103119,585.48,Payroll Accrual
GLI,10/31/2019,12506,165980,GLI103119,GLI103119,12.67,Payroll Accrual
GLI,10/31/2019,12505,165980,GLI103119,GLI103119,12.67,Payroll Accrual
GLI,10/31/2019,12504,165980,GLI103119,GLI103119,12.67,Payroll Accrual
GLI,10/31/2019,12502,165980,GLI103119,GLI103119,12.67,Payroll Accrual
GLI,10/31/2019,12501,165980,GLI103119,GLI103119,12.67,Payroll Accrual
GLI,10/31/2019,12206B,165980,GLI103119,GLI103119,249.58,Payroll Accrual
GLI,10/31/2019,12205B,165980,GLI103119,GLI103119,249.58,Payroll Accrual
GLI,10/31/2019,12204B,165980,GLI103119,GLI103119,249.58,Payroll Accrual
GLI,10/31/2019,12202B,165980,GLI103119,GLI103119,249.58,Payroll Accrual
GLI,10/31/2019,12201B,165980,GLI103119,GLI103119,249.58,Payroll Accrual
GLI,10/31/2019,12511,165972,GLI103119,GLI103119,12.81,Payroll Accrual
GLI,10/31/2019,12506,165972,GLI103119,GLI103119,9.31,Payroll Accrual
GLI,10/31/2019,12505,165972,GLI103119,GLI103119,9.31,Payroll Accrual
GLI,10/31/2019,12504,165972,GLI103119,GLI103119,9.31,Payroll Accrual
GLI,10/31/2019,12502,165972,GLI103119,GLI103119,8.73,Payroll Accrual
GLI,10/31/2019,12501,165972,GLI103119,GLI103119,8.73,Payroll Accrual
GLI,10/31/2019,12311,165972,GLI103119,GLI103119,167.37,Payroll Accrual
GLI,10/31/2019,12306H,165972,GLI103119,GLI103119,121.72,Payroll Accrual
GLI,10/31/2019,12305H,165972,GLI103119,GLI103119,121.72,Payroll Accrual
GLI,10/31/2019,12304H,165972,GLI103119,GLI103119,121.72,Payroll Accrual
GLI,10/31/2019,12302H,165972,GLI103119,GLI103119,114.11,Payroll Accrual
GLI,10/31/2019,12301H,165972,GLI103119,GLI103119,114.11,Payroll Accrual
GLI,10/31/2019,12903,165873,GLI103119,GLI103119,22.81,Payroll Accrual
GLI,10/31/2019,12503,165873,GLI103119,GLI103119,116.33,Payroll Accrual
GLI,10/31/2019,124723,165873,GLI103119,GLI103119,1520.58,Payroll Accrual
GLI,10/31/2019,12504,165823,GLI103119,GLI103119,75.77,Payroll Accrual
GLI,10/31/2019,12304B,165823,GLI103119,GLI103119,1387.26,Payroll Accrual
GLI,10/31/2019,12906,165783,GLI103119,GLI103119,20.11,Payroll Accrual
GLI,10/31/2019,12506,165783,GLI103119,GLI103119,102.58,Payroll Accrual
GLI,10/31/2019,12306C,165783,GLI103119,GLI103119,1340.92,Payroll Accrual
GLI,10/31/2019,12524,165780,GLI103119,GLI103119,57.33,Payroll Accrual
GLI,10/31/2019,124724,165780,GLI103119,GLI103119,749.32,Payroll Accrual
GLI,10/31/2019,12504,165732,GLI103119,GLI103119,138.13,Payroll Accrual
GLI,10/31/2019,12304B,165732,GLI103119,GLI103119,1805.65,Payroll Accrual
GLI,10/31/2019,12503,165478,GLI103119,GLI103119,46.67,Payroll Accrual
GLI,10/31/2019,124723,165478,GLI103119,GLI103119,610.1,Payroll Accrual
GLI,10/31/2019,12903,165473,GLI103119,GLI103119,20.45,Payroll Accrual
GLI,10/31/2019,12503,165473,GLI103119,GLI103119,103,Payroll Accrual
GLI,10/31/2019,124723,165473,GLI103119,GLI103119,1139.53,Payroll Accrual
GLI,10/31/2019,12403,165473,GLI103119,GLI103119,224,Payroll Accrual
GLI,10/31/2019,12516,165428,GLI103119,GLI103119,262.16,Payroll Accrual
GLI,10/31/2019,12316,165428,GLI103119,GLI103119,3426.93,Payroll Accrual
GLI,10/31/2019,12902,165400,GLI103119,GLI103119,6.85,Payroll Accrual
GLI,10/31/2019,12901,165400,GLI103119,GLI103119,4.57,Payroll Accrual
GLI,10/31/2019,12502,165400,GLI103119,GLI103119,88.76,Payroll Accrual
GLI,10/31/2019,12501,165400,GLI103119,GLI103119,55.82,Payroll Accrual
GLI,10/31/2019,12402,165400,GLI103119,GLI103119,201.6,Payroll Accrual
GLI,10/31/2019,12401,165400,GLI103119,GLI103119,134.4,Payroll Accrual
GLI,10/31/2019,11102,165400,GLI103119,GLI103119,1168.85,Payroll Accrual
GLI,10/31/2019,11101,165400,GLI103119,GLI103119,779.23,Payroll Accrual
GLI,10/31/2019,12905,165357,GLI103119,GLI103119,83.93,Payroll Accrual
GLI,10/31/2019,12505,165357,GLI103119,GLI103119,421.28,Payroll Accrual
GLI,10/31/2019,12305B,165357,GLI103119,GLI103119,5595.17,Payroll Accrual
GLI,10/31/2019,12506,165287,GLI103119,GLI103119,135.83,Payroll Accrual
GLI,10/31/2019,12306D,165287,GLI103119,GLI103119,1780.68,Payroll Accrual
GLI,10/31/2019,12905,165275,GLI103119,GLI103119,32.71,Payroll Accrual
GLI,10/31/2019,12505,165275,GLI103119,GLI103119,121.01,Payroll Accrual
GLI,10/31/2019,124703,165275,GLI103119,GLI103119,975.29,Payroll Accrual
GLI,10/31/2019,12405,165275,GLI103119,GLI103119,660,Payroll Accrual
GLI,10/31/2019,12502,164821,GLI103119,GLI103119,88.63,Payroll Accrual
GLI,10/31/2019,12501,164821,GLI103119,GLI103119,56.94,Payroll Accrual
GLI,10/31/2019,11102,164821,GLI103119,GLI103119,1292.89,Payroll Accrual
GLI,10/31/2019,11101,164821,GLI103119,GLI103119,861.93,Payroll Accrual
GLI,10/31/2019,12906,164732,GLI103119,GLI103119,14.05,Payroll Accrual
GLI,10/31/2019,12905,164732,GLI103119,GLI103119,12.87,Payroll Accrual
GLI,10/31/2019,12514,164732,GLI103119,GLI103119,30.53,Payroll Accrual
GLI,10/31/2019,12506,164732,GLI103119,GLI103119,3.29,Payroll Accrual
GLI,10/31/2019,12505,164732,GLI103119,GLI103119,3.01,Payroll Accrual
GLI,10/31/2019,12504,164732,GLI103119,GLI103119,26.13,Payroll Accrual
GLI,10/31/2019,12502,164732,GLI103119,GLI103119,23.2,Payroll Accrual
GLI,10/31/2019,12501,164732,GLI103119,GLI103119,23.2,Payroll Accrual
GLI,10/31/2019,12214,164732,GLI103119,GLI103119,421.28,Payroll Accrual
GLI,10/31/2019,12206C,164732,GLI103119,GLI103119,248.94,Payroll Accrual
GLI,10/31/2019,12205C,164732,GLI103119,GLI103119,229.79,Payroll Accrual
GLI,10/31/2019,12204C,164732,GLI103119,GLI103119,363.83,Payroll Accrual
GLI,10/31/2019,12202C,164732,GLI103119,GLI103119,325.53,Payroll Accrual
GLI,10/31/2019,12201C,164732,GLI103119,GLI103119,325.53,Payroll Accrual
GLI,10/31/2019,12516,164329,GLI103119,GLI103119,4.19,Payroll Accrual
GLI,10/31/2019,12316,164329,GLI103119,GLI103119,54.8,Payroll Accrual
GLI,10/31/2019,12524,164328,GLI103119,GLI103119,8.12,Payroll Accrual
GLI,10/31/2019,12505,164328,GLI103119,GLI103119,8.12,Payroll Accrual
GLI,10/31/2019,12504,164328,GLI103119,GLI103119,8.12,Payroll Accrual
GLI,10/31/2019,12502,164328,GLI103119,GLI103119,8.12,Payroll Accrual
GLI,10/31/2019,12501,164328,GLI103119,GLI103119,8.12,Payroll Accrual
GLI,10/31/2019,12324F,164328,GLI103119,GLI103119,106.18,Payroll Accrual
GLI,10/31/2019,12305F,164328,GLI103119,GLI103119,106.18,Payroll Accrual
GLI,10/31/2019,12304F,164328,GLI103119,GLI103119,106.18,Payroll Accrual
GLI,10/31/2019,12302F,164328,GLI103119,GLI103119,106.18,Payroll Accrual
GLI,10/31/2019,12301F,164328,GLI103119,GLI103119,106.18,Payroll Accrual
GLI,10/31/2019,12527,164286,GLI103119,GLI103119,47,Payroll Accrual
GLI,10/31/2019,12327,164286,GLI103119,GLI103119,614.28,Payroll Accrual
GLI,10/31/2019,12503,164235,GLI103119,GLI103119,74.95,Payroll Accrual
GLI,10/31/2019,124723,164235,GLI103119,GLI103119,979.68,Payroll Accrual
GLI,10/31/2019,12904,164015,GLI103119,GLI103119,96.5,Payroll Accrual
GLI,10/31/2019,12504,164015,GLI103119,GLI103119,368.48,Payroll Accrual
GLI,10/31/2019,124704,164015,GLI103119,GLI103119,4825.1,Payroll Accrual
GLI,10/31/2019,12524,163278,GLI103119,GLI103119,89.78,Payroll Accrual
GLI,10/31/2019,124724,163278,GLI103119,GLI103119,1173.48,Payroll Accrual
GLI,10/31/2019,12912,163096,GLI103119,GLI103119,10.31,Payroll Accrual
GLI,10/31/2019,12902,163096,GLI103119,GLI103119,18.27,Payroll Accrual
GLI,10/31/2019,12901,163096,GLI103119,GLI103119,18.27,Payroll Accrual
GLI,10/31/2019,12512,163096,GLI103119,GLI103119,37.72,Payroll Accrual
GLI,10/31/2019,12502,163096,GLI103119,GLI103119,68.2,Payroll Accrual
GLI,10/31/2019,12501,163096,GLI103119,GLI103119,68.2,Payroll Accrual
GLI,10/31/2019,12412,163096,GLI103119,GLI103119,47.52,Payroll Accrual
GLI,10/31/2019,12402,163096,GLI103119,GLI103119,84.24,Payroll Accrual
GLI,10/31/2019,12401,163096,GLI103119,GLI103119,84.24,Payroll Accrual
GLI,10/31/2019,12212,163096,GLI103119,GLI103119,467.87,Payroll Accrual
GLI,10/31/2019,12202C,163096,GLI103119,GLI103119,829.41,Payroll Accrual
GLI,10/31/2019,12201C,163096,GLI103119,GLI103119,829.41,Payroll Accrual
GLI,10/31/2019,12505,162984,GLI103119,GLI103119,135.96,Payroll Accrual
GLI,10/31/2019,12205A,162984,GLI103119,GLI103119,1777.21,Payroll Accrual
GLI,10/31/2019,12904,16250,GLI103119,GLI103119,25.6,Payroll Accrual
GLI,10/31/2019,12504,16250,GLI103119,GLI103119,101.47,Payroll Accrual
GLI,10/31/2019,12304D,16250,GLI103119,GLI103119,1706.96,Payroll Accrual
GLI,10/31/2019,12906,162428,GLI103119,GLI103119,42.22,Payroll Accrual
GLI,10/31/2019,12506,162428,GLI103119,GLI103119,211.56,Payroll Accrual
GLI,10/31/2019,12306B,162428,GLI103119,GLI103119,2814.72,Payroll Accrual
GLI,10/31/2019,12903,161010,GLI103119,GLI103119,8.42,Payroll Accrual
GLI,10/31/2019,12503,161010,GLI103119,GLI103119,42.96,Payroll Accrual
GLI,10/31/2019,124723,161010,GLI103119,GLI103119,561.7,Payroll Accrual
GLI,10/31/2019,12905,160930,GLI103119,GLI103119,108.45,Payroll Accrual
GLI,10/31/2019,12505,160930,GLI103119,GLI103119,413.48,Payroll Accrual
GLI,10/31/2019,12305C,160930,GLI103119,GLI103119,5422.35,Payroll Accrual
GLI,10/31/2019,12502,159875,GLI103119,GLI103119,36.86,Payroll Accrual
GLI,10/31/2019,12501,159875,GLI103119,GLI103119,24.57,Payroll Accrual
GLI,10/31/2019,11102,159875,GLI103119,GLI103119,481.74,Payroll Accrual
GLI,10/31/2019,11101,159875,GLI103119,GLI103119,321.16,Payroll Accrual
GLI,10/31/2019,12904,159863,GLI103119,GLI103119,51.77,Payroll Accrual
GLI,10/31/2019,12504,159863,GLI103119,GLI103119,264.04,Payroll Accrual
GLI,10/31/2019,124704,159863,GLI103119,GLI103119,3451.42,Payroll Accrual
GLI,10/31/2019,12404,159863,GLI103119,GLI103119,422.4,Payroll Accrual
GLI,10/31/2019,12504,159298,GLI103119,GLI103119,205.41,Payroll Accrual
GLI,10/31/2019,124704,159298,GLI103119,GLI103119,2685.17,Payroll Accrual
GLI,10/31/2019,12524,158963,GLI103119,GLI103119,93.21,Payroll Accrual
GLI,10/31/2019,124724,158963,GLI103119,GLI103119,1218.36,Payroll Accrual
GLI,10/31/2019,12914,1588879,GLI103119,GLI103119,7.97,Payroll Accrual
GLI,10/31/2019,12906,1588879,GLI103119,GLI103119,19.31,Payroll Accrual
GLI,10/31/2019,12905,1588879,GLI103119,GLI103119,17.82,Payroll Accrual
GLI,10/31/2019,12904,1588879,GLI103119,GLI103119,6.88,Payroll Accrual
GLI,10/31/2019,12902,1588879,GLI103119,GLI103119,6.16,Payroll Accrual
GLI,10/31/2019,12901,1588879,GLI103119,GLI103119,6.16,Payroll Accrual
GLI,10/31/2019,12514,1588879,GLI103119,GLI103119,30.48,Payroll Accrual
GLI,10/31/2019,12506,1588879,GLI103119,GLI103119,3.41,Payroll Accrual
GLI,10/31/2019,12505,1588879,GLI103119,GLI103119,3.15,Payroll Accrual
GLI,10/31/2019,12504,1588879,GLI103119,GLI103119,26.32,Payroll Accrual
GLI,10/31/2019,12502,1588879,GLI103119,GLI103119,23.55,Payroll Accrual
GLI,10/31/2019,12501,1588879,GLI103119,GLI103119,23.55,Payroll Accrual
GLI,10/31/2019,12214,1588879,GLI103119,GLI103119,398.41,Payroll Accrual
GLI,10/31/2019,12206C,1588879,GLI103119,GLI103119,235.42,Payroll Accrual
GLI,10/31/2019,12205C,1588879,GLI103119,GLI103119,217.31,Payroll Accrual
GLI,10/31/2019,12204C,1588879,GLI103119,GLI103119,344.08,Payroll Accrual
GLI,10/31/2019,12202C,1588879,GLI103119,GLI103119,307.86,Payroll Accrual
GLI,10/31/2019,12201C,1588879,GLI103119,GLI103119,307.86,Payroll Accrual
GLI,10/31/2019,12914,157995,GLI103119,GLI103119,10.28,Payroll Accrual
GLI,10/31/2019,12906,157995,GLI103119,GLI103119,21.47,Payroll Accrual
GLI,10/31/2019,12905,157995,GLI103119,GLI103119,19.81,Payroll Accrual
GLI,10/31/2019,12904,157995,GLI103119,GLI103119,8.88,Payroll Accrual
GLI,10/31/2019,12902,157995,GLI103119,GLI103119,7.94,Payroll Accrual
GLI,10/31/2019,12901,157995,GLI103119,GLI103119,7.94,Payroll Accrual
GLI,10/31/2019,12514,157995,GLI103119,GLI103119,32.13,Payroll Accrual
GLI,10/31/2019,12506,157995,GLI103119,GLI103119,3.6,Payroll Accrual
GLI,10/31/2019,12505,157995,GLI103119,GLI103119,3.32,Payroll Accrual
GLI,10/31/2019,12504,157995,GLI103119,GLI103119,27.75,Payroll Accrual
GLI,10/31/2019,12502,157995,GLI103119,GLI103119,24.83,Payroll Accrual
GLI,10/31/2019,12501,157995,GLI103119,GLI103119,24.83,Payroll Accrual
GLI,10/31/2019,12214,157995,GLI103119,GLI103119,514.04,Payroll Accrual
GLI,10/31/2019,12206C,157995,GLI103119,GLI103119,303.75,Payroll Accrual
GLI,10/31/2019,12205C,157995,GLI103119,GLI103119,280.38,Payroll Accrual
GLI,10/31/2019,12204C,157995,GLI103119,GLI103119,443.94,Payroll Accrual
GLI,10/31/2019,12202C,157995,GLI103119,GLI103119,397.21,Payroll Accrual
GLI,10/31/2019,12201C,157995,GLI103119,GLI103119,397.21,Payroll Accrual
GLI,10/31/2019,12505,157953,GLI103119,GLI103119,353.15,Payroll Accrual
GLI,10/31/2019,124703,157953,GLI103119,GLI103119,4742.78,Payroll Accrual
GLI,10/31/2019,12405,157953,GLI103119,GLI103119,244,Payroll Accrual
GLI,10/31/2019,12504,157493,GLI103119,GLI103119,128.43,Payroll Accrual
GLI,10/31/2019,12204A,157493,GLI103119,GLI103119,1678.8,Payroll Accrual
GLI,10/31/2019,12503,157394,GLI103119,GLI103119,66.8,Payroll Accrual
GLI,10/31/2019,124723,157394,GLI103119,GLI103119,873.19,Payroll Accrual
GLI,10/31/2019,12504,157385,GLI103119,GLI103119,114.58,Payroll Accrual
GLI,10/31/2019,12304D,157385,GLI103119,GLI103119,1497.79,Payroll Accrual
GLI,10/31/2019,12506,157374,GLI103119,GLI103119,23.89,Payroll Accrual
GLI,10/31/2019,12306C,157374,GLI103119,GLI103119,312.24,Payroll Accrual
GLI,10/31/2019,12914,156988,GLI103119,GLI103119,3.09,Payroll Accrual
GLI,10/31/2019,12906,156988,GLI103119,GLI103119,9.38,Payroll Accrual
GLI,10/31/2019,12905,156988,GLI103119,GLI103119,8.66,Payroll Accrual
GLI,10/31/2019,12904,156988,GLI103119,GLI103119,2.67,Payroll Accrual
GLI,10/31/2019,12902,156988,GLI103119,GLI103119,2.39,Payroll Accrual
GLI,10/31/2019,12901,156988,GLI103119,GLI103119,2.39,Payroll Accrual
GLI,10/31/2019,12514,156988,GLI103119,GLI103119,15.77,Payroll Accrual
GLI,10/31/2019,12506,156988,GLI103119,GLI103119,1.77,Payroll Accrual
GLI,10/31/2019,12505,156988,GLI103119,GLI103119,1.63,Payroll Accrual
GLI,10/31/2019,12504,156988,GLI103119,GLI103119,13.61,Payroll Accrual
GLI,10/31/2019,12502,156988,GLI103119,GLI103119,12.18,Payroll Accrual
GLI,10/31/2019,12501,156988,GLI103119,GLI103119,12.18,Payroll Accrual
GLI,10/31/2019,12214,156988,GLI103119,GLI103119,206.08,Payroll Accrual
GLI,10/31/2019,12206C,156988,GLI103119,GLI103119,121.78,Payroll Accrual
GLI,10/31/2019,12205C,156988,GLI103119,GLI103119,112.41,Payroll Accrual
GLI,10/31/2019,12204C,156988,GLI103119,GLI103119,177.98,Payroll Accrual
GLI,10/31/2019,12202C,156988,GLI103119,GLI103119,159.25,Payroll Accrual
GLI,10/31/2019,12201C,156988,GLI103119,GLI103119,159.25,Payroll Accrual
GLI,10/31/2019,12916,156844,GLI103119,GLI103119,50.21,Payroll Accrual
GLI,10/31/2019,12516,156844,GLI103119,GLI103119,186.03,Payroll Accrual
GLI,10/31/2019,12316,156844,GLI103119,GLI103119,2510.66,Payroll Accrual
GLI,10/31/2019,12903,15668,GLI103119,GLI103119,27.78,Payroll Accrual
GLI,10/31/2019,12503,15668,GLI103119,GLI103119,139.06,Payroll Accrual
GLI,10/31/2019,12303,15668,GLI103119,GLI103119,1852.01,Payroll Accrual
GLI,10/31/2019,12905,15648,GLI103119,GLI103119,38.92,Payroll Accrual
GLI,10/31/2019,12505,15648,GLI103119,GLI103119,192.63,Payroll Accrual
GLI,10/31/2019,124703,15648,GLI103119,GLI103119,2594.34,Payroll Accrual
GLI,10/31/2019,12906,15646,GLI103119,GLI103119,23.76,Payroll Accrual
GLI,10/31/2019,12506,15646,GLI103119,GLI103119,119.46,Payroll Accrual
GLI,10/31/2019,12306B,15646,GLI103119,GLI103119,1583.89,Payroll Accrual
GLI,10/31/2019,12527,156398,GLI103119,GLI103119,31.66,Payroll Accrual
GLI,10/31/2019,12327,156398,GLI103119,GLI103119,413.88,Payroll Accrual
GLI,10/31/2019,12503,155477,GLI103119,GLI103119,127.66,Payroll Accrual
GLI,10/31/2019,124723,155477,GLI103119,GLI103119,1763.72,Payroll Accrual
GLI,10/31/2019,12906,155214,GLI103119,GLI103119,10.08,Payroll Accrual
GLI,10/31/2019,12905,155214,GLI103119,GLI103119,9.3,Payroll Accrual
GLI,10/31/2019,12514,155214,GLI103119,GLI103119,21.04,Payroll Accrual
GLI,10/31/2019,12506,155214,GLI103119,GLI103119,2.36,Payroll Accrual
GLI,10/31/2019,12505,155214,GLI103119,GLI103119,2.18,Payroll Accrual
GLI,10/31/2019,12504,155214,GLI103119,GLI103119,18.17,Payroll Accrual
GLI,10/31/2019,12502,155214,GLI103119,GLI103119,16.26,Payroll Accrual
GLI,10/31/2019,12501,155214,GLI103119,GLI103119,16.26,Payroll Accrual
GLI,10/31/2019,12214,155214,GLI103119,GLI103119,275.01,Payroll Accrual
GLI,10/31/2019,12206C,155214,GLI103119,GLI103119,162.51,Payroll Accrual
GLI,10/31/2019,12205C,155214,GLI103119,GLI103119,150.01,Payroll Accrual
GLI,10/31/2019,12204C,155214,GLI103119,GLI103119,237.51,Payroll Accrual
GLI,10/31/2019,12202C,155214,GLI103119,GLI103119,212.51,Payroll Accrual
GLI,10/31/2019,12201C,155214,GLI103119,GLI103119,212.51,Payroll Accrual
GLI,10/31/2019,12527,154983,GLI103119,GLI103119,9.29,Payroll Accrual
GLI,10/31/2019,12327,154983,GLI103119,GLI103119,121.42,Payroll Accrual
GLI,10/31/2019,12503,154893,GLI103119,GLI103119,136.51,Payroll Accrual
GLI,10/31/2019,12303,154893,GLI103119,GLI103119,1784.42,Payroll Accrual
GLI,10/31/2019,12506,154760,GLI103119,GLI103119,36.19,Payroll Accrual
GLI,10/31/2019,12306D,154760,GLI103119,GLI103119,473.04,Payroll Accrual
GLI,10/31/2019,12527,154474,GLI103119,GLI103119,17.36,Payroll Accrual
GLI,10/31/2019,12327,154474,GLI103119,GLI103119,226.92,Payroll Accrual
GLI,10/31/2019,12506,154328,GLI103119,GLI103119,84.19,Payroll Accrual
GLI,10/31/2019,12306D,154328,GLI103119,GLI103119,1100.52,Payroll Accrual
GLI,10/31/2019,12506,154225,GLI103119,GLI103119,136.8,Payroll Accrual
GLI,10/31/2019,12306D,154225,GLI103119,GLI103119,1855.14,Payroll Accrual
GLI,10/31/2019,12503,153865,GLI103119,GLI103119,102.72,Payroll Accrual
GLI,10/31/2019,124723,153865,GLI103119,GLI103119,1342.75,Payroll Accrual
GLI,10/31/2019,12904,152964,GLI103119,GLI103119,32.02,Payroll Accrual
GLI,10/31/2019,12504,152964,GLI103119,GLI103119,163.32,Payroll Accrual
GLI,10/31/2019,124704,152964,GLI103119,GLI103119,2134.88,Payroll Accrual
GLI,10/31/2019,12904,152525,GLI103119,GLI103119,35.04,Payroll Accrual
GLI,10/31/2019,12504,152525,GLI103119,GLI103119,164.09,Payroll Accrual
GLI,10/31/2019,124704,152525,GLI103119,GLI103119,2336.18,Payroll Accrual
GLI,10/31/2019,12404,152525,GLI103119,GLI103119,74.6,Payroll Accrual
GLI,10/31/2019,12927,152510,GLI103119,GLI103119,23.94,Payroll Accrual
GLI,10/31/2019,12527,152510,GLI103119,GLI103119,117.56,Payroll Accrual
GLI,10/31/2019,12427,152510,GLI103119,GLI103119,116,Payroll Accrual
GLI,10/31/2019,12327,152510,GLI103119,GLI103119,1479.94,Payroll Accrual
GLI,10/31/2019,12504,152499,GLI103119,GLI103119,220.27,Payroll Accrual
GLI,10/31/2019,12404,152499,GLI103119,GLI103119,240,Payroll Accrual
GLI,10/31/2019,12304B,152499,GLI103119,GLI103119,2639.43,Payroll Accrual
GLI,10/31/2019,12527,152490,GLI103119,GLI103119,56.71,Payroll Accrual
GLI,10/31/2019,12327,152490,GLI103119,GLI103119,741.36,Payroll Accrual
GLI,10/31/2019,12903,152432,GLI103119,GLI103119,2.8,Payroll Accrual
GLI,10/31/2019,12503,152432,GLI103119,GLI103119,14.28,Payroll Accrual
GLI,10/31/2019,12303,152432,GLI103119,GLI103119,186.62,Payroll Accrual
GLI,10/31/2019,12904,152410,GLI103119,GLI103119,80.16,Payroll Accrual
GLI,10/31/2019,12504,152410,GLI103119,GLI103119,306.62,Payroll Accrual
GLI,10/31/2019,124704,152410,GLI103119,GLI103119,4008.06,Payroll Accrual
GLI,10/31/2019,12904,152235,GLI103119,GLI103119,102.74,Payroll Accrual
GLI,10/31/2019,12504,152235,GLI103119,GLI103119,392.99,Payroll Accrual
GLI,10/31/2019,124704,152235,GLI103119,GLI103119,5137.16,Payroll Accrual
GLI,10/31/2019,12905,151702,GLI103119,GLI103119,39.98,Payroll Accrual
GLI,10/31/2019,12505,151702,GLI103119,GLI103119,200.78,Payroll Accrual
GLI,10/31/2019,12305B,151702,GLI103119,GLI103119,2665.53,Payroll Accrual
GLI,10/31/2019,12904,150126,GLI103119,GLI103119,110.81,Payroll Accrual
GLI,10/31/2019,12504,150126,GLI103119,GLI103119,423.84,Payroll Accrual
GLI,10/31/2019,124704,150126,GLI103119,GLI103119,5540.36,Payroll Accrual
GLI,10/31/2019,12905,150120,GLI103119,GLI103119,43.93,Payroll Accrual
GLI,10/31/2019,12505,150120,GLI103119,GLI103119,221.73,Payroll Accrual
GLI,10/31/2019,12105,150120,GLI103119,GLI103119,2928.46,Payroll Accrual
GLI,10/31/2019,12905,150105,GLI103119,GLI103119,59.15,Payroll Accrual
GLI,10/31/2019,12505,150105,GLI103119,GLI103119,299.29,Payroll Accrual
GLI,10/31/2019,124703,150105,GLI103119,GLI103119,3943.1,Payroll Accrual
GLI,10/31/2019,12904,149878,GLI103119,GLI103119,21.92,Payroll Accrual
GLI,10/31/2019,12504,149878,GLI103119,GLI103119,142.31,Payroll Accrual
GLI,10/31/2019,12404,149878,GLI103119,GLI103119,180,Payroll Accrual
GLI,10/31/2019,12304D,149878,GLI103119,GLI103119,2011.13,Payroll Accrual
GLI,10/31/2019,12512,149852,GLI103119,GLI103119,9.32,Payroll Accrual
GLI,10/31/2019,12502,149852,GLI103119,GLI103119,16.52,Payroll Accrual
GLI,10/31/2019,12501,149852,GLI103119,GLI103119,16.52,Payroll Accrual
GLI,10/31/2019,12212,149852,GLI103119,GLI103119,121.78,Payroll Accrual
GLI,10/31/2019,12202C,149852,GLI103119,GLI103119,215.89,Payroll Accrual
GLI,10/31/2019,12201C,149852,GLI103119,GLI103119,215.89,Payroll Accrual
GLI,10/31/2019,12524,147832,GLI103119,GLI103119,94.48,Payroll Accrual
GLI,10/31/2019,124724,147832,GLI103119,GLI103119,1234.92,Payroll Accrual
GLI,10/31/2019,12527,145982,GLI103119,GLI103119,105.89,Payroll Accrual
GLI,10/31/2019,12327,145982,GLI103119,GLI103119,1384.26,Payroll Accrual
GLI,10/31/2019,12904,145801,GLI103119,GLI103119,84.31,Payroll Accrual
GLI,10/31/2019,12504,145801,GLI103119,GLI103119,317.75,Payroll Accrual
GLI,10/31/2019,124704,145801,GLI103119,GLI103119,4215.26,Payroll Accrual
GLI,10/31/2019,12905,145789,GLI103119,GLI103119,66.2,Payroll Accrual
GLI,10/31/2019,12505,145789,GLI103119,GLI103119,327.94,Payroll Accrual
GLI,10/31/2019,124703,145789,GLI103119,GLI103119,4413.36,Payroll Accrual
GLI,10/31/2019,12527,145369,GLI103119,GLI103119,13.98,Payroll Accrual
GLI,10/31/2019,12327,145369,GLI103119,GLI103119,182.76,Payroll Accrual
GLI,10/31/2019,12903,144788,GLI103119,GLI103119,34.08,Payroll Accrual
GLI,10/31/2019,12503,144788,GLI103119,GLI103119,173.83,Payroll Accrual
GLI,10/31/2019,12103,144788,GLI103119,GLI103119,2272.16,Payroll Accrual
GLI,10/31/2019,12506,143769,GLI103119,GLI103119,19,Payroll Accrual
GLI,10/31/2019,12505,143769,GLI103119,GLI103119,19,Payroll Accrual
GLI,10/31/2019,12504,143769,GLI103119,GLI103119,19,Payroll Accrual
GLI,10/31/2019,12502,143769,GLI103119,GLI103119,19,Payroll Accrual
GLI,10/31/2019,12501,143769,GLI103119,GLI103119,19,Payroll Accrual
GLI,10/31/2019,12206B,143769,GLI103119,GLI103119,248.33,Payroll Accrual
GLI,10/31/2019,12205B,143769,GLI103119,GLI103119,248.33,Payroll Accrual
GLI,10/31/2019,12204B,143769,GLI103119,GLI103119,248.33,Payroll Accrual
GLI,10/31/2019,12202B,143769,GLI103119,GLI103119,248.33,Payroll Accrual
GLI,10/31/2019,12201B,143769,GLI103119,GLI103119,248.33,Payroll Accrual
GLI,10/31/2019,12524,143298,GLI103119,GLI103119,24.33,Payroll Accrual
GLI,10/31/2019,12505,143298,GLI103119,GLI103119,24.33,Payroll Accrual
GLI,10/31/2019,12504,143298,GLI103119,GLI103119,24.33,Payroll Accrual
GLI,10/31/2019,12502,143298,GLI103119,GLI103119,24.33,Payroll Accrual
GLI,10/31/2019,12501,143298,GLI103119,GLI103119,24.33,Payroll Accrual
GLI,10/31/2019,12324F,143298,GLI103119,GLI103119,317.99,Payroll Accrual
GLI,10/31/2019,12305F,143298,GLI103119,GLI103119,317.99,Payroll Accrual
GLI,10/31/2019,12304F,143298,GLI103119,GLI103119,317.99,Payroll Accrual
GLI,10/31/2019,12302F,143298,GLI103119,GLI103119,317.99,Payroll Accrual
GLI,10/31/2019,12301F,143298,GLI103119,GLI103119,317.99,Payroll Accrual
GLI,10/31/2019,12505,142589,GLI103119,GLI103119,170,Payroll Accrual
GLI,10/31/2019,12205A,142589,GLI103119,GLI103119,2271.51,Payroll Accrual
GLI,10/31/2019,12905,141069,GLI103119,GLI103119,108.24,Payroll Accrual
GLI,10/31/2019,12505,141069,GLI103119,GLI103119,411.42,Payroll Accrual
GLI,10/31/2019,12405,141069,GLI103119,GLI103119,88,Payroll Accrual
GLI,10/31/2019,12305B,141069,GLI103119,GLI103119,5324.29,Payroll Accrual
GLI,10/31/2019,12504,141060,GLI103119,GLI103119,174.78,Payroll Accrual
GLI,10/31/2019,12304B,141060,GLI103119,GLI103119,2329.24,Payroll Accrual
GLI,10/31/2019,12501,140882,GLI103119,GLI103119,4.02,Payroll Accrual
GLI,10/31/2019,11301C,140882,GLI103119,GLI103119,52.5,Payroll Accrual
GLI,10/31/2019,12904,140790,GLI103119,GLI103119,74.77,Payroll Accrual
GLI,10/31/2019,12504,140790,GLI103119,GLI103119,282.46,Payroll Accrual
GLI,10/31/2019,124704,140790,GLI103119,GLI103119,3738.47,Payroll Accrual
GLI,10/31/2019,12506,139846,GLI103119,GLI103119,82.4,Payroll Accrual
GLI,10/31/2019,12306C,139846,GLI103119,GLI103119,1077.16,Payroll Accrual
GLI,10/31/2019,12503,139475,GLI103119,GLI103119,121.92,Payroll Accrual
GLI,10/31/2019,12303,139475,GLI103119,GLI103119,1717.13,Payroll Accrual
GLI,10/31/2019,12916,138380,GLI103119,GLI103119,26.82,Payroll Accrual
GLI,10/31/2019,12516,138380,GLI103119,GLI103119,89.54,Payroll Accrual
GLI,10/31/2019,12316,138380,GLI103119,GLI103119,1340.85,Payroll Accrual
GLI,10/31/2019,12501,13815,GLI103119,GLI103119,58.91,Payroll Accrual
GLI,10/31/2019,11301C,13815,GLI103119,GLI103119,770,Payroll Accrual
GLI,10/31/2019,12506,137854,GLI103119,GLI103119,20.27,Payroll Accrual
GLI,10/31/2019,12505,137854,GLI103119,GLI103119,20.27,Payroll Accrual
GLI,10/31/2019,12504,137854,GLI103119,GLI103119,20.27,Payroll Accrual
GLI,10/31/2019,12502,137854,GLI103119,GLI103119,20.27,Payroll Accrual
GLI,10/31/2019,12501,137854,GLI103119,GLI103119,20.27,Payroll Accrual
GLI,10/31/2019,12206B,137854,GLI103119,GLI103119,287.27,Payroll Accrual
GLI,10/31/2019,12205B,137854,GLI103119,GLI103119,287.27,Payroll Accrual
GLI,10/31/2019,12204B,137854,GLI103119,GLI103119,287.27,Payroll Accrual
GLI,10/31/2019,12202B,137854,GLI103119,GLI103119,287.27,Payroll Accrual
GLI,10/31/2019,12201B,137854,GLI103119,GLI103119,287.27,Payroll Accrual
GLI,10/31/2019,12504,13725,GLI103119,GLI103119,434.1,Payroll Accrual
GLI,10/31/2019,124704,13725,GLI103119,GLI103119,6149.22,Payroll Accrual
GLI,10/31/2019,12905,137101,GLI103119,GLI103119,39.1,Payroll Accrual
GLI,10/31/2019,12505,137101,GLI103119,GLI103119,199.04,Payroll Accrual
GLI,10/31/2019,124703,137101,GLI103119,GLI103119,2606.94,Payroll Accrual
GLI,10/31/2019,12511,136510,GLI103119,GLI103119,8.54,Payroll Accrual
GLI,10/31/2019,12506,136510,GLI103119,GLI103119,6.21,Payroll Accrual
GLI,10/31/2019,12505,136510,GLI103119,GLI103119,6.21,Payroll Accrual
GLI,10/31/2019,12504,136510,GLI103119,GLI103119,6.21,Payroll Accrual
GLI,10/31/2019,12502,136510,GLI103119,GLI103119,5.82,Payroll Accrual
GLI,10/31/2019,12501,136510,GLI103119,GLI103119,5.82,Payroll Accrual
GLI,10/31/2019,12311,136510,GLI103119,GLI103119,111.56,Payroll Accrual
GLI,10/31/2019,12306H,136510,GLI103119,GLI103119,81.13,Payroll Accrual
GLI,10/31/2019,12305H,136510,GLI103119,GLI103119,81.13,Payroll Accrual
GLI,10/31/2019,12304H,136510,GLI103119,GLI103119,81.13,Payroll Accrual
GLI,10/31/2019,12302H,136510,GLI103119,GLI103119,76.06,Payroll Accrual
GLI,10/31/2019,12301H,136510,GLI103119,GLI103119,76.06,Payroll Accrual
GLI,10/31/2019,12904,136170,GLI103119,GLI103119,43.47,Payroll Accrual
GLI,10/31/2019,12504,136170,GLI103119,GLI103119,328.76,Payroll Accrual
GLI,10/31/2019,124704,136170,GLI103119,GLI103119,4347,Payroll Accrual
GLI,10/31/2019,12404,136170,GLI103119,GLI103119,240,Payroll Accrual
GLI,10/31/2019,12903,135987,GLI103119,GLI103119,1.95,Payroll Accrual
GLI,10/31/2019,12503,135987,GLI103119,GLI103119,9.93,Payroll Accrual
GLI,10/31/2019,124723,135987,GLI103119,GLI103119,129.78,Payroll Accrual
GLI,10/31/2019,12505,135770,GLI103119,GLI103119,321.74,Payroll Accrual
GLI,10/31/2019,124703,135770,GLI103119,GLI103119,4205.74,Payroll Accrual
GLI,10/31/2019,12524,134956,GLI103119,GLI103119,22.56,Payroll Accrual
GLI,10/31/2019,124724,134956,GLI103119,GLI103119,294.84,Payroll Accrual
GLI,10/31/2019,12527,134795,GLI103119,GLI103119,14.15,Payroll Accrual
GLI,10/31/2019,12327,134795,GLI103119,GLI103119,185.04,Payroll Accrual
GLI,10/31/2019,12904,132987,GLI103119,GLI103119,33.28,Payroll Accrual
GLI,10/31/2019,12504,132987,GLI103119,GLI103119,168.96,Payroll Accrual
GLI,10/31/2019,12304D,132987,GLI103119,GLI103119,2218.79,Payroll Accrual
GLI,10/31/2019,12501,132963,GLI103119,GLI103119,13.39,Payroll Accrual
GLI,10/31/2019,11301C,132963,GLI103119,GLI103119,175,Payroll Accrual
GLI,10/31/2019,12527,132875,GLI103119,GLI103119,101.52,Payroll Accrual
GLI,10/31/2019,12327,132875,GLI103119,GLI103119,1327.14,Payroll Accrual
GLI,10/31/2019,12527,132854,GLI103119,GLI103119,38.23,Payroll Accrual
GLI,10/31/2019,12327,132854,GLI103119,GLI103119,499.68,Payroll Accrual
GLI,10/31/2019,12503,132584,GLI103119,GLI103119,100.42,Payroll Accrual
GLI,10/31/2019,124723,132584,GLI103119,GLI103119,1312.73,Payroll Accrual
GLI,10/31/2019,12915,132500,GLI103119,GLI103119,15.08,Payroll Accrual
GLI,10/31/2019,12906,132500,GLI103119,GLI103119,10.28,Payroll Accrual
GLI,10/31/2019,12905,132500,GLI103119,GLI103119,10.28,Payroll Accrual
GLI,10/31/2019,12904,132500,GLI103119,GLI103119,10.97,Payroll Accrual
GLI,10/31/2019,12902,132500,GLI103119,GLI103119,10.97,Payroll Accrual
GLI,10/31/2019,12901,132500,GLI103119,GLI103119,10.97,Payroll Accrual
GLI,10/31/2019,12515,132500,GLI103119,GLI103119,56.89,Payroll Accrual
GLI,10/31/2019,12506,132500,GLI103119,GLI103119,38.79,Payroll Accrual
GLI,10/31/2019,12505,132500,GLI103119,GLI103119,38.79,Payroll Accrual
GLI,10/31/2019,12504,132500,GLI103119,GLI103119,41.38,Payroll Accrual
GLI,10/31/2019,12502,132500,GLI103119,GLI103119,41.38,Payroll Accrual
GLI,10/31/2019,12501,132500,GLI103119,GLI103119,41.38,Payroll Accrual
GLI,10/31/2019,12315,132500,GLI103119,GLI103119,753.93,Payroll Accrual
GLI,10/31/2019,12306,132500,GLI103119,GLI103119,514.04,Payroll Accrual
GLI,10/31/2019,12305,132500,GLI103119,GLI103119,514.04,Payroll Accrual
GLI,10/31/2019,12304,132500,GLI103119,GLI103119,548.31,Payroll Accrual
GLI,10/31/2019,12302,132500,GLI103119,GLI103119,548.31,Payroll Accrual
GLI,10/31/2019,12301,132500,GLI103119,GLI103119,548.31,Payroll Accrual
GLI,10/31/2019,12904,131370,GLI103119,GLI103119,62.34,Payroll Accrual
GLI,10/31/2019,12504,131370,GLI103119,GLI103119,238.47,Payroll Accrual
GLI,10/31/2019,124704,131370,GLI103119,GLI103119,3117.24,Payroll Accrual
GLI,10/31/2019,12903,128945,GLI103119,GLI103119,33.49,Payroll Accrual
GLI,10/31/2019,12503,128945,GLI103119,GLI103119,170.81,Payroll Accrual
GLI,10/31/2019,12303,128945,GLI103119,GLI103119,2232.69,Payroll Accrual
GLI,10/31/2019,12903,12725,GLI103119,GLI103119,14.22,Payroll Accrual
GLI,10/31/2019,12503,12725,GLI103119,GLI103119,72.55,Payroll Accrual
GLI,10/31/2019,124723,12725,GLI103119,GLI103119,948.49,Payroll Accrual
GLI,10/31/2019,12504,126547,GLI103119,GLI103119,65.46,Payroll Accrual
GLI,10/31/2019,12304C,126547,GLI103119,GLI103119,855.6,Payroll Accrual
GLI,10/31/2019,12902,126200,GLI103119,GLI103119,21.03,Payroll Accrual
GLI,10/31/2019,12901,126200,GLI103119,GLI103119,21.03,Payroll Accrual
GLI,10/31/2019,12502,126200,GLI103119,GLI103119,107.25,Payroll Accrual
GLI,10/31/2019,12501,126200,GLI103119,GLI103119,107.25,Payroll Accrual
GLI,10/31/2019,12202A,126200,GLI103119,GLI103119,1401.93,Payroll Accrual
GLI,10/31/2019,12201A,126200,GLI103119,GLI103119,1401.93,Payroll Accrual
GLI,10/31/2019,12524,124101,GLI103119,GLI103119,135.78,Payroll Accrual
GLI,10/31/2019,12424,124101,GLI103119,GLI103119,108,Payroll Accrual
GLI,10/31/2019,12224,124101,GLI103119,GLI103119,1666.85,Payroll Accrual
GLI,10/31/2019,12904,123525,GLI103119,GLI103119,17.77,Payroll Accrual
GLI,10/31/2019,12504,123525,GLI103119,GLI103119,67.95,Payroll Accrual
GLI,10/31/2019,12304B,123525,GLI103119,GLI103119,888.3,Payroll Accrual
GLI,10/31/2019,12906,123100,GLI103119,GLI103119,36.14,Payroll Accrual
GLI,10/31/2019,12905,123100,GLI103119,GLI103119,36.14,Payroll Accrual
GLI,10/31/2019,12904,123100,GLI103119,GLI103119,36.14,Payroll Accrual
GLI,10/31/2019,12902,123100,GLI103119,GLI103119,36.14,Payroll Accrual
GLI,10/31/2019,12901,123100,GLI103119,GLI103119,36.14,Payroll Accrual
GLI,10/31/2019,12506,123100,GLI103119,GLI103119,134.01,Payroll Accrual
GLI,10/31/2019,12505,123100,GLI103119,GLI103119,134.01,Payroll Accrual
GLI,10/31/2019,12504,123100,GLI103119,GLI103119,134.01,Payroll Accrual
GLI,10/31/2019,12502,123100,GLI103119,GLI103119,134.01,Payroll Accrual
GLI,10/31/2019,12501,123100,GLI103119,GLI103119,134.01,Payroll Accrual
GLI,10/31/2019,12106,123100,GLI103119,GLI103119,1806.92,Payroll Accrual
GLI,10/31/2019,12105,123100,GLI103119,GLI103119,1806.92,Payroll Accrual
GLI,10/31/2019,12104,123100,GLI103119,GLI103119,1806.92,Payroll Accrual
GLI,10/31/2019,12102,123100,GLI103119,GLI103119,1806.92,Payroll Accrual
GLI,10/31/2019,12101,123100,GLI103119,GLI103119,1806.92,Payroll Accrual
GLI,10/31/2019,12905,122558,GLI103119,GLI103119,43.81,Payroll Accrual
GLI,10/31/2019,12505,122558,GLI103119,GLI103119,221.73,Payroll Accrual
GLI,10/31/2019,124703,122558,GLI103119,GLI103119,2920.68,Payroll Accrual
GLI,10/31/2019,12405,122558,GLI103119,GLI103119,517.68,Payroll Accrual
GLI,10/31/2019,12911,12236,GLI103119,GLI103119,14.26,Payroll Accrual
GLI,10/31/2019,12906,12236,GLI103119,GLI103119,10.37,Payroll Accrual
GLI,10/31/2019,12905,12236,GLI103119,GLI103119,10.37,Payroll Accrual
GLI,10/31/2019,12904,12236,GLI103119,GLI103119,10.37,Payroll Accrual
GLI,10/31/2019,12902,12236,GLI103119,GLI103119,9.72,Payroll Accrual
GLI,10/31/2019,12901,12236,GLI103119,GLI103119,9.72,Payroll Accrual
GLI,10/31/2019,12511,12236,GLI103119,GLI103119,49.4,Payroll Accrual
GLI,10/31/2019,12506,12236,GLI103119,GLI103119,35.93,Payroll Accrual
GLI,10/31/2019,12505,12236,GLI103119,GLI103119,35.93,Payroll Accrual
GLI,10/31/2019,12504,12236,GLI103119,GLI103119,35.93,Payroll Accrual
GLI,10/31/2019,12502,12236,GLI103119,GLI103119,33.68,Payroll Accrual
GLI,10/31/2019,12501,12236,GLI103119,GLI103119,33.68,Payroll Accrual
GLI,10/31/2019,12311,12236,GLI103119,GLI103119,712.8,Payroll Accrual
GLI,10/31/2019,12306H,12236,GLI103119,GLI103119,518.4,Payroll Accrual
GLI,10/31/2019,12305H,12236,GLI103119,GLI103119,518.4,Payroll Accrual
GLI,10/31/2019,12304H,12236,GLI103119,GLI103119,518.4,Payroll Accrual
GLI,10/31/2019,12302H,12236,GLI103119,GLI103119,486,Payroll Accrual
GLI,10/31/2019,12301H,12236,GLI103119,GLI103119,486,Payroll Accrual
GLI,10/31/2019,12906,122332,GLI103119,GLI103119,23.99,Payroll Accrual
GLI,10/31/2019,12506,122332,GLI103119,GLI103119,120.66,Payroll Accrual
GLI,10/31/2019,12306B,122332,GLI103119,GLI103119,1599.57,Payroll Accrual
GLI,10/31/2019,12906,118746,GLI103119,GLI103119,26.38,Payroll Accrual
GLI,10/31/2019,12506,118746,GLI103119,GLI103119,134.52,Payroll Accrual
GLI,10/31/2019,12306B,118746,GLI103119,GLI103119,1758.41,Payroll Accrual
GLI,10/31/2019,12903,118520,GLI103119,GLI103119,35.94,Payroll Accrual
GLI,10/31/2019,12503,118520,GLI103119,GLI103119,183.28,Payroll Accrual
GLI,10/31/2019,12303,118520,GLI103119,GLI103119,2395.8,Payroll Accrual
GLI,10/31/2019,12901,118030,GLI103119,GLI103119,56.08,Payroll Accrual
GLI,10/31/2019,12501,118030,GLI103119,GLI103119,203.02,Payroll Accrual
GLI,10/31/2019,12301B,118030,GLI103119,GLI103119,2803.86,Payroll Accrual
GLI,10/31/2019,12906,118010,GLI103119,GLI103119,27.6,Payroll Accrual
GLI,10/31/2019,12506,118010,GLI103119,GLI103119,129.19,Payroll Accrual
GLI,10/31/2019,12306B,118010,GLI103119,GLI103119,1840.19,Payroll Accrual
GLI,10/31/2019,12905,11732,GLI103119,GLI103119,41.99,Payroll Accrual
GLI,10/31/2019,12505,11732,GLI103119,GLI103119,158.27,Payroll Accrual
GLI,10/31/2019,12405,11732,GLI103119,GLI103119,140,Payroll Accrual
GLI,10/31/2019,12205A,11732,GLI103119,GLI103119,1959.3,Payroll Accrual
GLI,10/31/2019,12905,11660,GLI103119,GLI103119,78.85,Payroll Accrual
GLI,10/31/2019,12505,11660,GLI103119,GLI103119,299.92,Payroll Accrual
GLI,10/31/2019,124703,11660,GLI103119,GLI103119,3942.68,Payroll Accrual
GLI,10/31/2019,12904,116185,GLI103119,GLI103119,48.24,Payroll Accrual
GLI,10/31/2019,12504,116185,GLI103119,GLI103119,184.54,Payroll Accrual
GLI,10/31/2019,124704,116185,GLI103119,GLI103119,2165.16,Payroll Accrual
GLI,10/31/2019,12404,116185,GLI103119,GLI103119,247,Payroll Accrual
GLI,10/31/2019,12904,115896,GLI103119,GLI103119,6.83,Payroll Accrual
GLI,10/31/2019,12504,115896,GLI103119,GLI103119,28.79,Payroll Accrual
GLI,10/31/2019,12304C,115896,GLI103119,GLI103119,455.16,Payroll Accrual
GLI,10/31/2019,12906,115255,GLI103119,GLI103119,67.5,Payroll Accrual
GLI,10/31/2019,12506,115255,GLI103119,GLI103119,258.19,Payroll Accrual
GLI,10/31/2019,12306B,115255,GLI103119,GLI103119,3375,Payroll Accrual
GLI,10/31/2019,12904,1150920,GLI103119,GLI103119,51.4,Payroll Accrual
GLI,10/31/2019,12504,1150920,GLI103119,GLI103119,258.03,Payroll Accrual
GLI,10/31/2019,124704,1150920,GLI103119,GLI103119,3426.92,Payroll Accrual
GLI,10/31/2019,12504,115021,GLI103119,GLI103119,100.56,Payroll Accrual
GLI,10/31/2019,12304B,115021,GLI103119,GLI103119,1331.64,Payroll Accrual
GLI,10/31/2019,12504,1149710,GLI103119,GLI103119,156.51,Payroll Accrual
GLI,10/31/2019,12404,1149710,GLI103119,GLI103119,120,Payroll Accrual
GLI,10/31/2019,12304D,1149710,GLI103119,GLI103119,2126.05,Payroll Accrual
GLI,10/31/2019,12924,1149636,GLI103119,GLI103119,5.47,Payroll Accrual
GLI,10/31/2019,12905,1149636,GLI103119,GLI103119,5.47,Payroll Accrual
GLI,10/31/2019,12904,1149636,GLI103119,GLI103119,5.47,Payroll Accrual
GLI,10/31/2019,12902,1149636,GLI103119,GLI103119,5.47,Payroll Accrual
GLI,10/31/2019,12901,1149636,GLI103119,GLI103119,5.47,Payroll Accrual
GLI,10/31/2019,12524,1149636,GLI103119,GLI103119,22.48,Payroll Accrual
GLI,10/31/2019,12505,1149636,GLI103119,GLI103119,22.48,Payroll Accrual
GLI,10/31/2019,12504,1149636,GLI103119,GLI103119,22.48,Payroll Accrual
GLI,10/31/2019,12502,1149636,GLI103119,GLI103119,22.48,Payroll Accrual
GLI,10/31/2019,12501,1149636,GLI103119,GLI103119,22.48,Payroll Accrual
GLI,10/31/2019,12324F,1149636,GLI103119,GLI103119,364.43,Payroll Accrual
GLI,10/31/2019,12305F,1149636,GLI103119,GLI103119,364.43,Payroll Accrual
GLI,10/31/2019,12304F,1149636,GLI103119,GLI103119,364.43,Payroll Accrual
GLI,10/31/2019,12302F,1149636,GLI103119,GLI103119,364.43,Payroll Accrual
GLI,10/31/2019,12301F,1149636,GLI103119,GLI103119,364.43,Payroll Accrual
GLI,10/31/2019,12504,1149300,GLI103119,GLI103119,304.96,Payroll Accrual
GLI,10/31/2019,124704,1149300,GLI103119,GLI103119,4040.4,Payroll Accrual
GLI,10/31/2019,12501,1149160,GLI103119,GLI103119,35.57,Payroll Accrual
GLI,10/31/2019,11301C,1149160,GLI103119,GLI103119,465,Payroll Accrual
GLI,10/31/2019,12904,1147062,GLI103119,GLI103119,48.81,Payroll Accrual
GLI,10/31/2019,12504,1147062,GLI103119,GLI103119,152.51,Payroll Accrual
GLI,10/31/2019,12204A,1147062,GLI103119,GLI103119,2440.4,Payroll Accrual
GLI,10/31/2019,12505,1147061,GLI103119,GLI103119,251.01,Payroll Accrual
GLI,10/31/2019,124703,1147061,GLI103119,GLI103119,3298.26,Payroll Accrual
GLI,10/31/2019,12905,1146991,GLI103119,GLI103119,86.75,Payroll Accrual
GLI,10/31/2019,12505,1146991,GLI103119,GLI103119,326.01,Payroll Accrual
GLI,10/31/2019,124703,1146991,GLI103119,GLI103119,4337.34,Payroll Accrual
GLI,10/31/2019,12405,1146991,GLI103119,GLI103119,278.88,Payroll Accrual
GLI,10/31/2019,12504,1146989,GLI103119,GLI103119,177,Payroll Accrual
GLI,10/31/2019,124704,1146989,GLI103119,GLI103119,2336.04,Payroll Accrual
GLI,10/31/2019,12404,1146989,GLI103119,GLI103119,77.44,Payroll Accrual
GLI,10/31/2019,12506,1144265,GLI103119,GLI103119,162.19,Payroll Accrual
GLI,10/31/2019,12406,1144265,GLI103119,GLI103119,380,Payroll Accrual
GLI,10/31/2019,12306B,1144265,GLI103119,GLI103119,1793.6,Payroll Accrual
GLI,10/31/2019,12506,1143575,GLI103119,GLI103119,46.53,Payroll Accrual
GLI,10/31/2019,12306C,1143575,GLI103119,GLI103119,608.28,Payroll Accrual
GLI,10/31/2019,12504,1140870,GLI103119,GLI103119,315.93,Payroll Accrual
GLI,10/31/2019,12404,1140870,GLI103119,GLI103119,72,Payroll Accrual
GLI,10/31/2019,12304B,1140870,GLI103119,GLI103119,4057.85,Payroll Accrual
GLI,10/31/2019,12904,1137590,GLI103119,GLI103119,80.73,Payroll Accrual
GLI,10/31/2019,12504,1137590,GLI103119,GLI103119,307.1,Payroll Accrual
GLI,10/31/2019,124704,1137590,GLI103119,GLI103119,4036.62,Payroll Accrual
GLI,10/31/2019,12904,1135410,GLI103119,GLI103119,42.74,Payroll Accrual
GLI,10/31/2019,12504,1135410,GLI103119,GLI103119,316.25,Payroll Accrual
GLI,10/31/2019,124704,1135410,GLI103119,GLI103119,4273.92,Payroll Accrual
GLI,10/31/2019,12511,1135260,GLI103119,GLI103119,56.45,Payroll Accrual
GLI,10/31/2019,12506,1135260,GLI103119,GLI103119,41.06,Payroll Accrual
GLI,10/31/2019,12505,1135260,GLI103119,GLI103119,41.06,Payroll Accrual
GLI,10/31/2019,12504,1135260,GLI103119,GLI103119,41.06,Payroll Accrual
GLI,10/31/2019,12502,1135260,GLI103119,GLI103119,38.5,Payroll Accrual
GLI,10/31/2019,12501,1135260,GLI103119,GLI103119,38.5,Payroll Accrual
GLI,10/31/2019,12311,1135260,GLI103119,GLI103119,799.62,Payroll Accrual
GLI,10/31/2019,12306H,1135260,GLI103119,GLI103119,581.54,Payroll Accrual
GLI,10/31/2019,12305H,1135260,GLI103119,GLI103119,581.54,Payroll Accrual
GLI,10/31/2019,12304H,1135260,GLI103119,GLI103119,581.54,Payroll Accrual
GLI,10/31/2019,12302H,1135260,GLI103119,GLI103119,545.19,Payroll Accrual
GLI,10/31/2019,12301H,1135260,GLI103119,GLI103119,545.19,Payroll Accrual
GLI,10/31/2019,12506,1133727,GLI103119,GLI103119,205.8,Payroll Accrual
GLI,10/31/2019,12306D,1133727,GLI103119,GLI103119,2690.16,Payroll Accrual
GLI,10/31/2019,12504,1133500,GLI103119,GLI103119,195.05,Payroll Accrual
GLI,10/31/2019,124704,1133500,GLI103119,GLI103119,2549.68,Payroll Accrual
GLI,10/31/2019,12906,1132595,GLI103119,GLI103119,92.42,Payroll Accrual
GLI,10/31/2019,12506,1132595,GLI103119,GLI103119,336.96,Payroll Accrual
GLI,10/31/2019,12106,1132595,GLI103119,GLI103119,4621.16,Payroll Accrual
GLI,10/31/2019,12506,1132205,GLI103119,GLI103119,143.86,Payroll Accrual
GLI,10/31/2019,12306D,1132205,GLI103119,GLI103119,1935.53,Payroll Accrual
GLI,10/31/2019,12527,113085,GLI103119,GLI103119,182.85,Payroll Accrual
GLI,10/31/2019,12127,113085,GLI103119,GLI103119,2492.32,Payroll Accrual
GLI,10/31/2019,12504,1130700,GLI103119,GLI103119,107.88,Payroll Accrual
GLI,10/31/2019,12304C,1130700,GLI103119,GLI103119,1418.82,Payroll Accrual
GLI,10/31/2019,12906,113020,GLI103119,GLI103119,68.54,Payroll Accrual
GLI,10/31/2019,12506,113020,GLI103119,GLI103119,256.58,Payroll Accrual
GLI,10/31/2019,12306B,113020,GLI103119,GLI103119,3426.92,Payroll Accrual
GLI,10/31/2019,12901,113011,GLI103119,GLI103119,7.6,Payroll Accrual
GLI,10/31/2019,12501,113011,GLI103119,GLI103119,29.07,Payroll Accrual
GLI,10/31/2019,11301C,113011,GLI103119,GLI103119,380,Payroll Accrual
GLI,10/31/2019,12506,1130090,GLI103119,GLI103119,128.14,Payroll Accrual
GLI,10/31/2019,12306B,1130090,GLI103119,GLI103119,1680.16,Payroll Accrual
GLI,10/31/2019,12927,1129560,GLI103119,GLI103119,11.16,Payroll Accrual
GLI,10/31/2019,12527,1129560,GLI103119,GLI103119,56.94,Payroll Accrual
GLI,10/31/2019,12327,1129560,GLI103119,GLI103119,744.28,Payroll Accrual
GLI,10/31/2019,12516,1126060,GLI103119,GLI103119,175.75,Payroll Accrual
GLI,10/31/2019,12416,1126060,GLI103119,GLI103119,128,Payroll Accrual
GLI,10/31/2019,12316,1126060,GLI103119,GLI103119,2169.44,Payroll Accrual
GLI,10/31/2019,12905,1126040,GLI103119,GLI103119,101.63,Payroll Accrual
GLI,10/31/2019,12505,1126040,GLI103119,GLI103119,375.12,Payroll Accrual
GLI,10/31/2019,124703,1126040,GLI103119,GLI103119,5081.47,Payroll Accrual
GLI,10/31/2019,12905,1125565,GLI103119,GLI103119,72.64,Payroll Accrual
GLI,10/31/2019,12505,1125565,GLI103119,GLI103119,268.63,Payroll Accrual
GLI,10/31/2019,124703,1125565,GLI103119,GLI103119,3632.02,Payroll Accrual
GLI,10/31/2019,12405,1125565,GLI103119,GLI103119,244.96,Payroll Accrual
GLI,10/31/2019,12906,1124875,GLI103119,GLI103119,58.73,Payroll Accrual
GLI,10/31/2019,12506,1124875,GLI103119,GLI103119,222.29,Payroll Accrual
GLI,10/31/2019,12306B,1124875,GLI103119,GLI103119,2936.63,Payroll Accrual
GLI,10/31/2019,12904,1124436,GLI103119,GLI103119,116.34,Payroll Accrual
GLI,10/31/2019,12504,1124436,GLI103119,GLI103119,429.36,Payroll Accrual
GLI,10/31/2019,124704,1124436,GLI103119,GLI103119,5817,Payroll Accrual
GLI,10/31/2019,12404,1124436,GLI103119,GLI103119,304.32,Payroll Accrual
GLI,10/31/2019,12904,1124430,GLI103119,GLI103119,20.03,Payroll Accrual
GLI,10/31/2019,12504,1124430,GLI103119,GLI103119,100.44,Payroll Accrual
GLI,10/31/2019,124704,1124430,GLI103119,GLI103119,1231.23,Payroll Accrual
GLI,10/31/2019,12404,1124430,GLI103119,GLI103119,104,Payroll Accrual
GLI,10/31/2019,12904,1124400,GLI103119,GLI103119,29.53,Payroll Accrual
GLI,10/31/2019,12504,1124400,GLI103119,GLI103119,149.31,Payroll Accrual
GLI,10/31/2019,124704,1124400,GLI103119,GLI103119,1968.86,Payroll Accrual
GLI,10/31/2019,12914,1123340,GLI103119,GLI103119,21.93,Payroll Accrual
GLI,10/31/2019,12906,1123340,GLI103119,GLI103119,52.95,Payroll Accrual
GLI,10/31/2019,12905,1123340,GLI103119,GLI103119,48.87,Payroll Accrual
GLI,10/31/2019,12904,1123340,GLI103119,GLI103119,18.94,Payroll Accrual
GLI,10/31/2019,12902,1123340,GLI103119,GLI103119,16.95,Payroll Accrual
GLI,10/31/2019,12901,1123340,GLI103119,GLI103119,16.95,Payroll Accrual
GLI,10/31/2019,12514,1123340,GLI103119,GLI103119,83.5,Payroll Accrual
GLI,10/31/2019,12506,1123340,GLI103119,GLI103119,9.35,Payroll Accrual
GLI,10/31/2019,12505,1123340,GLI103119,GLI103119,8.63,Payroll Accrual
GLI,10/31/2019,12504,1123340,GLI103119,GLI103119,72.12,Payroll Accrual
GLI,10/31/2019,12502,1123340,GLI103119,GLI103119,64.52,Payroll Accrual
GLI,10/31/2019,12501,1123340,GLI103119,GLI103119,64.52,Payroll Accrual
GLI,10/31/2019,12214,1123340,GLI103119,GLI103119,1096.62,Payroll Accrual
GLI,10/31/2019,12206C,1123340,GLI103119,GLI103119,648,Payroll Accrual
GLI,10/31/2019,12205C,1123340,GLI103119,GLI103119,598.15,Payroll Accrual
GLI,10/31/2019,12204C,1123340,GLI103119,GLI103119,947.08,Payroll Accrual
GLI,10/31/2019,12202C,1123340,GLI103119,GLI103119,847.39,Payroll Accrual
GLI,10/31/2019,12201C,1123340,GLI103119,GLI103119,847.39,Payroll Accrual
GLI,10/31/2019,12503,1122246,GLI103119,GLI103119,112.39,Payroll Accrual
GLI,10/31/2019,12303,1122246,GLI103119,GLI103119,1503.38,Payroll Accrual
GLI,10/31/2019,12927,1122110,GLI103119,GLI103119,99.69,Payroll Accrual
GLI,10/31/2019,12527,1122110,GLI103119,GLI103119,365.09,Payroll Accrual
GLI,10/31/2019,12327,1122110,GLI103119,GLI103119,4984.62,Payroll Accrual
GLI,10/31/2019,12501,1121240,GLI103119,GLI103119,60.44,Payroll Accrual
GLI,10/31/2019,11301C,1121240,GLI103119,GLI103119,790,Payroll Accrual
GLI,10/31/2019,12506,1120225,GLI103119,GLI103119,90.17,Payroll Accrual
GLI,10/31/2019,12505,1120225,GLI103119,GLI103119,90.17,Payroll Accrual
GLI,10/31/2019,12504,1120225,GLI103119,GLI103119,90.17,Payroll Accrual
GLI,10/31/2019,12502,1120225,GLI103119,GLI103119,90.17,Payroll Accrual
GLI,10/31/2019,12501,1120225,GLI103119,GLI103119,90.17,Payroll Accrual
GLI,10/31/2019,12006,1120225,GLI103119,GLI103119,1246.16,Payroll Accrual
GLI,10/31/2019,12005,1120225,GLI103119,GLI103119,1246.16,Payroll Accrual
GLI,10/31/2019,12004,1120225,GLI103119,GLI103119,1246.16,Payroll Accrual
GLI,10/31/2019,12002,1120225,GLI103119,GLI103119,1246.16,Payroll Accrual
GLI,10/31/2019,12001,1120225,GLI103119,GLI103119,1246.16,Payroll Accrual
GLI,10/31/2019,12906,1120120,GLI103119,GLI103119,28.96,Payroll Accrual
GLI,10/31/2019,12506,1120120,GLI103119,GLI103119,142.92,Payroll Accrual
GLI,10/31/2019,12306B,1120120,GLI103119,GLI103119,1930.44,Payroll Accrual
GLI,10/31/2019,12927,1120110,GLI103119,GLI103119,40.5,Payroll Accrual
GLI,10/31/2019,12527,1120110,GLI103119,GLI103119,204.78,Payroll Accrual
GLI,10/31/2019,12127,1120110,GLI103119,GLI103119,2700,Payroll Accrual
GLI,10/31/2019,12505,1118722,GLI103119,GLI103119,398.6,Payroll Accrual
GLI,10/31/2019,124703,1118722,GLI103119,GLI103119,5244.68,Payroll Accrual
GLI,10/31/2019,12904,1117960,GLI103119,GLI103119,51.92,Payroll Accrual
GLI,10/31/2019,12504,1117960,GLI103119,GLI103119,194.38,Payroll Accrual
GLI,10/31/2019,124704,1117960,GLI103119,GLI103119,2596.16,Payroll Accrual
GLI,10/31/2019,12504,1117901,GLI103119,GLI103119,247.99,Payroll Accrual
GLI,10/31/2019,124704,1117901,GLI103119,GLI103119,3241.7,Payroll Accrual
GLI,10/31/2019,12904,1117842,GLI103119,GLI103119,38.42,Payroll Accrual
GLI,10/31/2019,12504,1117842,GLI103119,GLI103119,195.94,Payroll Accrual
GLI,10/31/2019,12404,1117842,GLI103119,GLI103119,112,Payroll Accrual
GLI,10/31/2019,12304B,1117842,GLI103119,GLI103119,2449.24,Payroll Accrual
GLI,10/31/2019,12903,1117600,GLI103119,GLI103119,53.77,Payroll Accrual
GLI,10/31/2019,12503,1117600,GLI103119,GLI103119,170.36,Payroll Accrual
GLI,10/31/2019,12303,1117600,GLI103119,GLI103119,2688.1,Payroll Accrual
GLI,10/31/2019,12905,1114921,GLI103119,GLI103119,49.4,Payroll Accrual
GLI,10/31/2019,12505,1114921,GLI103119,GLI103119,227.51,Payroll Accrual
GLI,10/31/2019,124703,1114921,GLI103119,GLI103119,3293.06,Payroll Accrual
GLI,10/31/2019,12906,1114831,GLI103119,GLI103119,12.51,Payroll Accrual
GLI,10/31/2019,12506,1114831,GLI103119,GLI103119,63.81,Payroll Accrual
GLI,10/31/2019,12306D,1114831,GLI103119,GLI103119,834.12,Payroll Accrual
GLI,10/31/2019,12904,1113940,GLI103119,GLI103119,47.19,Payroll Accrual
GLI,10/31/2019,12504,1113940,GLI103119,GLI103119,177.07,Payroll Accrual
GLI,10/31/2019,124704,1113940,GLI103119,GLI103119,2359.73,Payroll Accrual
GLI,10/31/2019,12501,111250,GLI103119,GLI103119,2.3,Payroll Accrual
GLI,10/31/2019,11301C,111250,GLI103119,GLI103119,30,Payroll Accrual
GLI,10/31/2019,12904,111210,GLI103119,GLI103119,45.12,Payroll Accrual
GLI,10/31/2019,12504,111210,GLI103119,GLI103119,224.34,Payroll Accrual
GLI,10/31/2019,124704,111210,GLI103119,GLI103119,3008.32,Payroll Accrual
GLI,10/31/2019,12905,1111325,GLI103119,GLI103119,55.86,Payroll Accrual
GLI,10/31/2019,12505,1111325,GLI103119,GLI103119,210.92,Payroll Accrual
GLI,10/31/2019,12205A,1111325,GLI103119,GLI103119,2793.08,Payroll Accrual
GLI,10/31/2019,12903,1110800,GLI103119,GLI103119,4.61,Payroll Accrual
GLI,10/31/2019,12503,1110800,GLI103119,GLI103119,17.63,Payroll Accrual
GLI,10/31/2019,12303,1110800,GLI103119,GLI103119,230.55,Payroll Accrual
GLI,10/31/2019,12911,1110660,GLI103119,GLI103119,5.47,Payroll Accrual
GLI,10/31/2019,12906,1110660,GLI103119,GLI103119,3.98,Payroll Accrual
GLI,10/31/2019,12905,1110660,GLI103119,GLI103119,3.98,Payroll Accrual
GLI,10/31/2019,12904,1110660,GLI103119,GLI103119,3.98,Payroll Accrual
GLI,10/31/2019,12902,1110660,GLI103119,GLI103119,3.73,Payroll Accrual
GLI,10/31/2019,12901,1110660,GLI103119,GLI103119,3.73,Payroll Accrual
GLI,10/31/2019,12511,1110660,GLI103119,GLI103119,26.22,Payroll Accrual
GLI,10/31/2019,12506,1110660,GLI103119,GLI103119,18.61,Payroll Accrual
GLI,10/31/2019,12505,1110660,GLI103119,GLI103119,18.61,Payroll Accrual
GLI,10/31/2019,12504,1110660,GLI103119,GLI103119,18.61,Payroll Accrual
GLI,10/31/2019,12502,1110660,GLI103119,GLI103119,17.34,Payroll Accrual
GLI,10/31/2019,12501,1110660,GLI103119,GLI103119,17.34,Payroll Accrual
GLI,10/31/2019,12311,1110660,GLI103119,GLI103119,364.99,Payroll Accrual
GLI,10/31/2019,12306H,1110660,GLI103119,GLI103119,265.44,Payroll Accrual
GLI,10/31/2019,12305H,1110660,GLI103119,GLI103119,265.44,Payroll Accrual
GLI,10/31/2019,12304H,1110660,GLI103119,GLI103119,265.44,Payroll Accrual
GLI,10/31/2019,12302H,1110660,GLI103119,GLI103119,248.85,Payroll Accrual
GLI,10/31/2019,12301H,1110660,GLI103119,GLI103119,248.85,Payroll Accrual
GLI,10/31/2019,12505,1109700,GLI103119,GLI103119,246.68,Payroll Accrual
GLI,10/31/2019,12305B,1109700,GLI103119,GLI103119,3241.74,Payroll Accrual
GLI,10/31/2019,12905,1108200,GLI103119,GLI103119,62.28,Payroll Accrual
GLI,10/31/2019,12505,1108200,GLI103119,GLI103119,317.66,Payroll Accrual
GLI,10/31/2019,12405,1108200,GLI103119,GLI103119,160,Payroll Accrual
GLI,10/31/2019,12305B,1108200,GLI103119,GLI103119,3992.52,Payroll Accrual
GLI,10/31/2019,12505,1107950,GLI103119,GLI103119,254.98,Payroll Accrual
GLI,10/31/2019,124703,1107950,GLI103119,GLI103119,3409.38,Payroll Accrual
GLI,10/31/2019,12904,1106421,GLI103119,GLI103119,81.11,Payroll Accrual
GLI,10/31/2019,12504,1106421,GLI103119,GLI103119,297.6,Payroll Accrual
GLI,10/31/2019,124704,1106421,GLI103119,GLI103119,4055.52,Payroll Accrual
GLI,10/31/2019,12905,1106400,GLI103119,GLI103119,50.91,Payroll Accrual
GLI,10/31/2019,12505,1106400,GLI103119,GLI103119,258.35,Payroll Accrual
GLI,10/31/2019,124703,1106400,GLI103119,GLI103119,3394.3,Payroll Accrual
GLI,10/31/2019,12405,1106400,GLI103119,GLI103119,176.16,Payroll Accrual
GLI,10/31/2019,12904,1106399,GLI103119,GLI103119,110.28,Payroll Accrual
GLI,10/31/2019,12504,1106399,GLI103119,GLI103119,421.82,Payroll Accrual
GLI,10/31/2019,124704,1106399,GLI103119,GLI103119,5514.04,Payroll Accrual
GLI,10/31/2019,12924,1103065,GLI103119,GLI103119,7.49,Payroll Accrual
GLI,10/31/2019,12905,1103065,GLI103119,GLI103119,7.49,Payroll Accrual
GLI,10/31/2019,12904,1103065,GLI103119,GLI103119,7.49,Payroll Accrual
GLI,10/31/2019,12902,1103065,GLI103119,GLI103119,7.49,Payroll Accrual
GLI,10/31/2019,12901,1103065,GLI103119,GLI103119,7.49,Payroll Accrual
GLI,10/31/2019,12524,1103065,GLI103119,GLI103119,24.44,Payroll Accrual
GLI,10/31/2019,12505,1103065,GLI103119,GLI103119,24.44,Payroll Accrual
GLI,10/31/2019,12504,1103065,GLI103119,GLI103119,24.44,Payroll Accrual
GLI,10/31/2019,12502,1103065,GLI103119,GLI103119,24.44,Payroll Accrual
GLI,10/31/2019,12501,1103065,GLI103119,GLI103119,24.44,Payroll Accrual
GLI,10/31/2019,12324F,1103065,GLI103119,GLI103119,374.46,Payroll Accrual
GLI,10/31/2019,12305F,1103065,GLI103119,GLI103119,374.46,Payroll Accrual
GLI,10/31/2019,12304F,1103065,GLI103119,GLI103119,374.46,Payroll Accrual
GLI,10/31/2019,12302F,1103065,GLI103119,GLI103119,374.46,Payroll Accrual
GLI,10/31/2019,12301F,1103065,GLI103119,GLI103119,374.46,Payroll Accrual
GLI,10/31/2019,12504,1102198,GLI103119,GLI103119,118.28,Payroll Accrual
GLI,10/31/2019,12503,1102198,GLI103119,GLI103119,118.28,Payroll Accrual
GLI,10/31/2019,12104,1102198,GLI103119,GLI103119,1557.7,Payroll Accrual
GLI,10/31/2019,12103,1102198,GLI103119,GLI103119,1557.7,Payroll Accrual
GLI,10/31/2019,12504,1102195,GLI103119,GLI103119,392.66,Payroll Accrual
GLI,10/31/2019,12104,1102195,GLI103119,GLI103119,5173.08,Payroll Accrual
GLI,10/31/2019,12905,1100625,GLI103119,GLI103119,57.2,Payroll Accrual
GLI,10/31/2019,12505,1100625,GLI103119,GLI103119,291.7,Payroll Accrual
GLI,10/31/2019,124703,1100625,GLI103119,GLI103119,3813.04,Payroll Accrual
GLI,10/31/2019,12405,1100625,GLI103119,GLI103119,178.48,Payroll Accrual
GLI,10/31/2019,12506,108345,GLI103119,GLI103119,6.22,Payroll Accrual
GLI,10/31/2019,12505,108345,GLI103119,GLI103119,6.22,Payroll Accrual
GLI,10/31/2019,12504,108345,GLI103119,GLI103119,6.22,Payroll Accrual
GLI,10/31/2019,12502,108345,GLI103119,GLI103119,6.22,Payroll Accrual
GLI,10/31/2019,12501,108345,GLI103119,GLI103119,6.22,Payroll Accrual
GLI,10/31/2019,12206B,108345,GLI103119,GLI103119,81.36,Payroll Accrual
GLI,10/31/2019,12205B,108345,GLI103119,GLI103119,81.36,Payroll Accrual
GLI,10/31/2019,12204B,108345,GLI103119,GLI103119,81.36,Payroll Accrual
GLI,10/31/2019,12202B,108345,GLI103119,GLI103119,81.36,Payroll Accrual
GLI,10/31/2019,12201B,108345,GLI103119,GLI103119,81.36,Payroll Accrual
GLI,10/31/2019,12503,10568,GLI103119,GLI103119,182.66,Payroll Accrual
GLI,10/31/2019,124723,10568,GLI103119,GLI103119,2421.91,Payroll Accrual
GLI,10/31/2019,12506,103053,GLI103119,GLI103119,155.38,Payroll Accrual
GLI,10/31/2019,12306D,103053,GLI103119,GLI103119,2031.12,Payroll Accrual
