﻿"journal","date","account","control","document","reference","amount","description"
"GLI","02/28/2017","232103","GLI022817","GLI022817","GLI022817",-30263.27,"Payroll Accrual"
"GLI","02/28/2017","132101","GLI022817","GLI022817","GLI022817",-299016.54,"Payroll Accrual"
"GLI","02/28/2017","12006","1130426","GLI022817","GLI022817",1114.15,"Payroll Accrual"
"GLI","02/28/2017","12005","1130426","GLI022817","GLI022817",1114.15,"Payroll Accrual"
"GLI","02/28/2017","12004","1130426","GLI022817","GLI022817",1114.15,"Payroll Accrual"
"GLI","02/28/2017","12002","1130426","GLI022817","GLI022817",1114.15,"Payroll Accrual"
"GLI","02/28/2017","12001","1130426","GLI022817","GLI022817",1004.93,"Payroll Accrual"
"GLI","02/28/2017","22910","291600","GLI022817","GLI022817",1.57,"Payroll Accrual"
"GLI","02/28/2017","22906","291600","GLI022817","GLI022817",3.27,"Payroll Accrual"
"GLI","02/28/2017","22904","291600","GLI022817","GLI022817",3.27,"Payroll Accrual"
"GLI","02/28/2017","22902","291600","GLI022817","GLI022817",3.27,"Payroll Accrual"
"GLI","02/28/2017","22901","291600","GLI022817","GLI022817",1.7,"Payroll Accrual"
"GLI","02/28/2017","22510","291600","GLI022817","GLI022817",0.7,"Payroll Accrual"
"GLI","02/28/2017","22506","291600","GLI022817","GLI022817",7.21,"Payroll Accrual"
"GLI","02/28/2017","22504","291600","GLI022817","GLI022817",7.21,"Payroll Accrual"
"GLI","02/28/2017","22502","291600","GLI022817","GLI022817",7.21,"Payroll Accrual"
"GLI","02/28/2017","22501","291600","GLI022817","GLI022817",1.2,"Payroll Accrual"
"GLI","02/28/2017","22410","291600","GLI022817","GLI022817",7.2,"Payroll Accrual"
"GLI","02/28/2017","22406","291600","GLI022817","GLI022817",15,"Payroll Accrual"
"GLI","02/28/2017","22404","291600","GLI022817","GLI022817",15,"Payroll Accrual"
"GLI","02/28/2017","22402","291600","GLI022817","GLI022817",15,"Payroll Accrual"
"GLI","02/28/2017","22401","291600","GLI022817","GLI022817",7.8,"Payroll Accrual"
"GLI","02/28/2017","22210B","291600","GLI022817","GLI022817",71.27,"Payroll Accrual"
"GLI","02/28/2017","22206B","291600","GLI022817","GLI022817",148.47,"Payroll Accrual"
"GLI","02/28/2017","22204B","291600","GLI022817","GLI022817",148.47,"Payroll Accrual"
"GLI","02/28/2017","22202B","291600","GLI022817","GLI022817",148.47,"Payroll Accrual"
"GLI","02/28/2017","22201B","291600","GLI022817","GLI022817",77.2,"Payroll Accrual"
"GLI","02/28/2017","22504","291582","GLI022817","GLI022817",32.35,"Payroll Accrual"
"GLI","02/28/2017","22304C","291582","GLI022817","GLI022817",422.9,"Payroll Accrual"
"GLI","02/28/2017","22506","288000","GLI022817","GLI022817",46.53,"Payroll Accrual"
"GLI","02/28/2017","22306","288000","GLI022817","GLI022817",608.28,"Payroll Accrual"
"GLI","02/28/2017","22503","286000","GLI022817","GLI022817",50.61,"Payroll Accrual"
"GLI","02/28/2017","224723","286000","GLI022817","GLI022817",666.84,"Payroll Accrual"
"GLI","02/28/2017","22504","282715","GLI022817","GLI022817",63,"Payroll Accrual"
"GLI","02/28/2017","224704","282715","GLI022817","GLI022817",885.31,"Payroll Accrual"
"GLI","02/28/2017","22504","282713","GLI022817","GLI022817",25.29,"Payroll Accrual"
"GLI","02/28/2017","22503","282713","GLI022817","GLI022817",25.29,"Payroll Accrual"
"GLI","02/28/2017","22304B","282713","GLI022817","GLI022817",389.35,"Payroll Accrual"
"GLI","02/28/2017","22303","282713","GLI022817","GLI022817",389.35,"Payroll Accrual"
"GLI","02/28/2017","22504","279630","GLI022817","GLI022817",102.8,"Payroll Accrual"
"GLI","02/28/2017","224704","279630","GLI022817","GLI022817",1343.74,"Payroll Accrual"
"GLI","02/28/2017","22506","274225","GLI022817","GLI022817",75.87,"Payroll Accrual"
"GLI","02/28/2017","22306","274225","GLI022817","GLI022817",1149.8,"Payroll Accrual"
"GLI","02/28/2017","22904","273315","GLI022817","GLI022817",24.09,"Payroll Accrual"
"GLI","02/28/2017","22504","273315","GLI022817","GLI022817",92.13,"Payroll Accrual"
"GLI","02/28/2017","224704","273315","GLI022817","GLI022817",1204.26,"Payroll Accrual"
"GLI","02/28/2017","22506","264220","GLI022817","GLI022817",56.5,"Payroll Accrual"
"GLI","02/28/2017","22306","264220","GLI022817","GLI022817",807.8,"Payroll Accrual"
"GLI","02/28/2017","22510","264000","GLI022817","GLI022817",4.11,"Payroll Accrual"
"GLI","02/28/2017","22506","264000","GLI022817","GLI022817",8.56,"Payroll Accrual"
"GLI","02/28/2017","22504","264000","GLI022817","GLI022817",8.56,"Payroll Accrual"
"GLI","02/28/2017","22502","264000","GLI022817","GLI022817",8.56,"Payroll Accrual"
"GLI","02/28/2017","22501","264000","GLI022817","GLI022817",4.45,"Payroll Accrual"
"GLI","02/28/2017","22210B","264000","GLI022817","GLI022817",53.7,"Payroll Accrual"
"GLI","02/28/2017","22206B","264000","GLI022817","GLI022817",111.88,"Payroll Accrual"
"GLI","02/28/2017","22204B","264000","GLI022817","GLI022817",111.88,"Payroll Accrual"
"GLI","02/28/2017","22202B","264000","GLI022817","GLI022817",111.88,"Payroll Accrual"
"GLI","02/28/2017","22201B","264000","GLI022817","GLI022817",58.18,"Payroll Accrual"
"GLI","02/28/2017","22503","263840","GLI022817","GLI022817",43.73,"Payroll Accrual"
"GLI","02/28/2017","224723","263840","GLI022817","GLI022817",592.8,"Payroll Accrual"
"GLI","02/28/2017","22504","256879","GLI022817","GLI022817",4.23,"Payroll Accrual"
"GLI","02/28/2017","22304C","256879","GLI022817","GLI022817",55.3,"Payroll Accrual"
"GLI","02/28/2017","22904","252520","GLI022817","GLI022817",12,"Payroll Accrual"
"GLI","02/28/2017","22504","252520","GLI022817","GLI022817",59.58,"Payroll Accrual"
"GLI","02/28/2017","224704","252520","GLI022817","GLI022817",800.04,"Payroll Accrual"
"GLI","02/28/2017","22503","247000","GLI022817","GLI022817",54.09,"Payroll Accrual"
"GLI","02/28/2017","224723","247000","GLI022817","GLI022817",707.04,"Payroll Accrual"
"GLI","02/28/2017","22903","241310","GLI022817","GLI022817",2.96,"Payroll Accrual"
"GLI","02/28/2017","22503","241310","GLI022817","GLI022817",15.11,"Payroll Accrual"
"GLI","02/28/2017","224723","241310","GLI022817","GLI022817",197.54,"Payroll Accrual"
"GLI","02/28/2017","22903","241120","GLI022817","GLI022817",14.34,"Payroll Accrual"
"GLI","02/28/2017","22503","241120","GLI022817","GLI022817",66.7,"Payroll Accrual"
"GLI","02/28/2017","22303","241120","GLI022817","GLI022817",955.51,"Payroll Accrual"
"GLI","02/28/2017","22903","241085","GLI022817","GLI022817",19.12,"Payroll Accrual"
"GLI","02/28/2017","22503","241085","GLI022817","GLI022817",96.29,"Payroll Accrual"
"GLI","02/28/2017","22303","241085","GLI022817","GLI022817",1274.6,"Payroll Accrual"
"GLI","02/28/2017","22504","230810","GLI022817","GLI022817",4.09,"Payroll Accrual"
"GLI","02/28/2017","22304C","230810","GLI022817","GLI022817",53.46,"Payroll Accrual"
"GLI","02/28/2017","22504","230601","GLI022817","GLI022817",116.97,"Payroll Accrual"
"GLI","02/28/2017","22104","230601","GLI022817","GLI022817",1638.47,"Payroll Accrual"
"GLI","02/28/2017","22503","223050","GLI022817","GLI022817",34.23,"Payroll Accrual"
"GLI","02/28/2017","224723","223050","GLI022817","GLI022817",447.44,"Payroll Accrual"
"GLI","02/28/2017","22910","2141225","GLI022817","GLI022817",3.06,"Payroll Accrual"
"GLI","02/28/2017","22902","2141225","GLI022817","GLI022817",3.06,"Payroll Accrual"
"GLI","02/28/2017","22901","2141225","GLI022817","GLI022817",3.16,"Payroll Accrual"
"GLI","02/28/2017","22510","2141225","GLI022817","GLI022817",8.6,"Payroll Accrual"
"GLI","02/28/2017","22502","2141225","GLI022817","GLI022817",8.6,"Payroll Accrual"
"GLI","02/28/2017","22501","2141225","GLI022817","GLI022817",9.08,"Payroll Accrual"
"GLI","02/28/2017","22310","2141225","GLI022817","GLI022817",204.26,"Payroll Accrual"
"GLI","02/28/2017","22302","2141225","GLI022817","GLI022817",204.26,"Payroll Accrual"
"GLI","02/28/2017","22301","2141225","GLI022817","GLI022817",210.45,"Payroll Accrual"
"GLI","02/28/2017","22503","213520","GLI022817","GLI022817",47.65,"Payroll Accrual"
"GLI","02/28/2017","224723","213520","GLI022817","GLI022817",540.13,"Payroll Accrual"
"GLI","02/28/2017","22403","213520","GLI022817","GLI022817",104,"Payroll Accrual"
"GLI","02/28/2017","22910","213406","GLI022817","GLI022817",0.12,"Payroll Accrual"
"GLI","02/28/2017","22906","213406","GLI022817","GLI022817",0.24,"Payroll Accrual"
"GLI","02/28/2017","22904","213406","GLI022817","GLI022817",0.24,"Payroll Accrual"
"GLI","02/28/2017","22902","213406","GLI022817","GLI022817",0.24,"Payroll Accrual"
"GLI","02/28/2017","22901","213406","GLI022817","GLI022817",0.13,"Payroll Accrual"
"GLI","02/28/2017","22510","213406","GLI022817","GLI022817",0.59,"Payroll Accrual"
"GLI","02/28/2017","22506","213406","GLI022817","GLI022817",1.23,"Payroll Accrual"
"GLI","02/28/2017","22504","213406","GLI022817","GLI022817",1.23,"Payroll Accrual"
"GLI","02/28/2017","22502","213406","GLI022817","GLI022817",1.23,"Payroll Accrual"
"GLI","02/28/2017","22501","213406","GLI022817","GLI022817",0.64,"Payroll Accrual"
"GLI","02/28/2017","22210B","213406","GLI022817","GLI022817",7.7,"Payroll Accrual"
"GLI","02/28/2017","22206B","213406","GLI022817","GLI022817",16.05,"Payroll Accrual"
"GLI","02/28/2017","22204B","213406","GLI022817","GLI022817",16.05,"Payroll Accrual"
"GLI","02/28/2017","22202B","213406","GLI022817","GLI022817",16.05,"Payroll Accrual"
"GLI","02/28/2017","22201B","213406","GLI022817","GLI022817",8.35,"Payroll Accrual"
"GLI","02/28/2017","22904","2132360","GLI022817","GLI022817",37.61,"Payroll Accrual"
"GLI","02/28/2017","22504","2132360","GLI022817","GLI022817",138.14,"Payroll Accrual"
"GLI","02/28/2017","224704","2132360","GLI022817","GLI022817",1880.4,"Payroll Accrual"
"GLI","02/28/2017","22904","2130510","GLI022817","GLI022817",22.3,"Payroll Accrual"
"GLI","02/28/2017","22504","2130510","GLI022817","GLI022817",101.66,"Payroll Accrual"
"GLI","02/28/2017","22304B","2130510","GLI022817","GLI022817",1486.98,"Payroll Accrual"
"GLI","02/28/2017","22904","2130150","GLI022817","GLI022817",28.51,"Payroll Accrual"
"GLI","02/28/2017","22504","2130150","GLI022817","GLI022817",109.05,"Payroll Accrual"
"GLI","02/28/2017","224704","2130150","GLI022817","GLI022817",1237.45,"Payroll Accrual"
"GLI","02/28/2017","22404","2130150","GLI022817","GLI022817",188,"Payroll Accrual"
"GLI","02/28/2017","22504","2126053","GLI022817","GLI022817",27.55,"Payroll Accrual"
"GLI","02/28/2017","22304C","2126053","GLI022817","GLI022817",360.2,"Payroll Accrual"
"GLI","02/28/2017","22904","2119120","GLI022817","GLI022817",3.23,"Payroll Accrual"
"GLI","02/28/2017","22504","2119120","GLI022817","GLI022817",43.74,"Payroll Accrual"
"GLI","02/28/2017","224704","2119120","GLI022817","GLI022817",646.44,"Payroll Accrual"
"GLI","02/28/2017","22503","211260","GLI022817","GLI022817",26.59,"Payroll Accrual"
"GLI","02/28/2017","224723","211260","GLI022817","GLI022817",347.64,"Payroll Accrual"
"GLI","02/28/2017","22504","2106410","GLI022817","GLI022817",158.86,"Payroll Accrual"
"GLI","02/28/2017","22404","2106410","GLI022817","GLI022817",80,"Payroll Accrual"
"GLI","02/28/2017","22304B","2106410","GLI022817","GLI022817",1996.59,"Payroll Accrual"
"GLI","02/28/2017","22506","2106350","GLI022817","GLI022817",146.1,"Payroll Accrual"
"GLI","02/28/2017","22106","2106350","GLI022817","GLI022817",1974.62,"Payroll Accrual"
"GLI","02/28/2017","22504","210073","GLI022817","GLI022817",62.83,"Payroll Accrual"
"GLI","02/28/2017","224704","210073","GLI022817","GLI022817",842.43,"Payroll Accrual"
"GLI","02/28/2017","12503","196345","GLI022817","GLI022817",58.26,"Payroll Accrual"
"GLI","02/28/2017","12303","196345","GLI022817","GLI022817",761.6,"Payroll Accrual"
"GLI","02/28/2017","12906","196341","GLI022817","GLI022817",8.42,"Payroll Accrual"
"GLI","02/28/2017","12905","196341","GLI022817","GLI022817",7.38,"Payroll Accrual"
"GLI","02/28/2017","12514","196341","GLI022817","GLI022817",22.01,"Payroll Accrual"
"GLI","02/28/2017","12506","196341","GLI022817","GLI022817",1.97,"Payroll Accrual"
"GLI","02/28/2017","12505","196341","GLI022817","GLI022817",1.73,"Payroll Accrual"
"GLI","02/28/2017","12504","196341","GLI022817","GLI022817",18.14,"Payroll Accrual"
"GLI","02/28/2017","12502","196341","GLI022817","GLI022817",15.56,"Payroll Accrual"
"GLI","02/28/2017","12501","196341","GLI022817","GLI022817",15.56,"Payroll Accrual"
"GLI","02/28/2017","12214","196341","GLI022817","GLI022817",371.21,"Payroll Accrual"
"GLI","02/28/2017","12206C","196341","GLI022817","GLI022817",219.35,"Payroll Accrual"
"GLI","02/28/2017","12205C","196341","GLI022817","GLI022817",202.48,"Payroll Accrual"
"GLI","02/28/2017","12204C","196341","GLI022817","GLI022817",320.59,"Payroll Accrual"
"GLI","02/28/2017","12202C","196341","GLI022817","GLI022817",286.85,"Payroll Accrual"
"GLI","02/28/2017","12201C","196341","GLI022817","GLI022817",286.85,"Payroll Accrual"
"GLI","02/28/2017","12503","196205","GLI022817","GLI022817",27.06,"Payroll Accrual"
"GLI","02/28/2017","124723","196205","GLI022817","GLI022817",353.76,"Payroll Accrual"
"GLI","02/28/2017","12524","195413","GLI022817","GLI022817",39.39,"Payroll Accrual"
"GLI","02/28/2017","124724","195413","GLI022817","GLI022817",514.9,"Payroll Accrual"
"GLI","02/28/2017","12506","195401","GLI022817","GLI022817",75.4,"Payroll Accrual"
"GLI","02/28/2017","12306D","195401","GLI022817","GLI022817",1054.88,"Payroll Accrual"
"GLI","02/28/2017","12504","194675","GLI022817","GLI022817",104.82,"Payroll Accrual"
"GLI","02/28/2017","124704","194675","GLI022817","GLI022817",1438.99,"Payroll Accrual"
"GLI","02/28/2017","12527","193062","GLI022817","GLI022817",19.15,"Payroll Accrual"
"GLI","02/28/2017","12327","193062","GLI022817","GLI022817",250.3,"Payroll Accrual"
"GLI","02/28/2017","12505","191350","GLI022817","GLI022817",142.82,"Payroll Accrual"
"GLI","02/28/2017","124703","191350","GLI022817","GLI022817",1866.97,"Payroll Accrual"
"GLI","02/28/2017","12504","191060","GLI022817","GLI022817",458.5,"Payroll Accrual"
"GLI","02/28/2017","12304B","191060","GLI022817","GLI022817",5993.44,"Payroll Accrual"
"GLI","02/28/2017","12924","190933","GLI022817","GLI022817",11.18,"Payroll Accrual"
"GLI","02/28/2017","12524","190933","GLI022817","GLI022817",52.5,"Payroll Accrual"
"GLI","02/28/2017","124724","190933","GLI022817","GLI022817",745.6,"Payroll Accrual"
"GLI","02/28/2017","12524","190910","GLI022817","GLI022817",153.69,"Payroll Accrual"
"GLI","02/28/2017","124724","190910","GLI022817","GLI022817",2009,"Payroll Accrual"
"GLI","02/28/2017","12906","190892","GLI022817","GLI022817",23.21,"Payroll Accrual"
"GLI","02/28/2017","12506","190892","GLI022817","GLI022817",86.78,"Payroll Accrual"
"GLI","02/28/2017","12306C","190892","GLI022817","GLI022817",1160.25,"Payroll Accrual"
"GLI","02/28/2017","12905","190600","GLI022817","GLI022817",26.69,"Payroll Accrual"
"GLI","02/28/2017","12505","190600","GLI022817","GLI022817",96.79,"Payroll Accrual"
"GLI","02/28/2017","124703","190600","GLI022817","GLI022817",1334.5,"Payroll Accrual"
"GLI","02/28/2017","12905","188338","GLI022817","GLI022817",45.04,"Payroll Accrual"
"GLI","02/28/2017","12505","188338","GLI022817","GLI022817",163.32,"Payroll Accrual"
"GLI","02/28/2017","12305B","188338","GLI022817","GLI022817",2252.06,"Payroll Accrual"
"GLI","02/28/2017","12904","187675","GLI022817","GLI022817",36.15,"Payroll Accrual"
"GLI","02/28/2017","12504","187675","GLI022817","GLI022817",132.48,"Payroll Accrual"
"GLI","02/28/2017","124704","187675","GLI022817","GLI022817",1807.39,"Payroll Accrual"
"GLI","02/28/2017","12905","186210","GLI022817","GLI022817",21.64,"Payroll Accrual"
"GLI","02/28/2017","12505","186210","GLI022817","GLI022817",110.38,"Payroll Accrual"
"GLI","02/28/2017","124703","186210","GLI022817","GLI022817",1442.91,"Payroll Accrual"
"GLI","02/28/2017","12906","186100","GLI022817","GLI022817",8.19,"Payroll Accrual"
"GLI","02/28/2017","12905","186100","GLI022817","GLI022817",8.19,"Payroll Accrual"
"GLI","02/28/2017","12904","186100","GLI022817","GLI022817",8.19,"Payroll Accrual"
"GLI","02/28/2017","12902","186100","GLI022817","GLI022817",8.19,"Payroll Accrual"
"GLI","02/28/2017","12901","186100","GLI022817","GLI022817",8.19,"Payroll Accrual"
"GLI","02/28/2017","12506","186100","GLI022817","GLI022817",31.17,"Payroll Accrual"
"GLI","02/28/2017","12505","186100","GLI022817","GLI022817",31.17,"Payroll Accrual"
"GLI","02/28/2017","12504","186100","GLI022817","GLI022817",31.17,"Payroll Accrual"
"GLI","02/28/2017","12502","186100","GLI022817","GLI022817",31.17,"Payroll Accrual"
"GLI","02/28/2017","12501","186100","GLI022817","GLI022817",31.17,"Payroll Accrual"
"GLI","02/28/2017","12106","186100","GLI022817","GLI022817",409.62,"Payroll Accrual"
"GLI","02/28/2017","12105","186100","GLI022817","GLI022817",409.62,"Payroll Accrual"
"GLI","02/28/2017","12104","186100","GLI022817","GLI022817",409.62,"Payroll Accrual"
"GLI","02/28/2017","12102","186100","GLI022817","GLI022817",409.62,"Payroll Accrual"
"GLI","02/28/2017","12101","186100","GLI022817","GLI022817",409.62,"Payroll Accrual"
"GLI","02/28/2017","12906","185801","GLI022817","GLI022817",14.92,"Payroll Accrual"
"GLI","02/28/2017","12506","185801","GLI022817","GLI022817",74.88,"Payroll Accrual"
"GLI","02/28/2017","12306D","185801","GLI022817","GLI022817",994.7,"Payroll Accrual"
"GLI","02/28/2017","12515","185600","GLI022817","GLI022817",30.69,"Payroll Accrual"
"GLI","02/28/2017","12506","185600","GLI022817","GLI022817",20.93,"Payroll Accrual"
"GLI","02/28/2017","12505","185600","GLI022817","GLI022817",20.93,"Payroll Accrual"
"GLI","02/28/2017","12504","185600","GLI022817","GLI022817",22.32,"Payroll Accrual"
"GLI","02/28/2017","12502","185600","GLI022817","GLI022817",22.32,"Payroll Accrual"
"GLI","02/28/2017","12501","185600","GLI022817","GLI022817",22.32,"Payroll Accrual"
"GLI","02/28/2017","12315","185600","GLI022817","GLI022817",420.54,"Payroll Accrual"
"GLI","02/28/2017","12306","185600","GLI022817","GLI022817",286.73,"Payroll Accrual"
"GLI","02/28/2017","12305","185600","GLI022817","GLI022817",286.73,"Payroll Accrual"
"GLI","02/28/2017","12304","185600","GLI022817","GLI022817",305.85,"Payroll Accrual"
"GLI","02/28/2017","12302","185600","GLI022817","GLI022817",305.85,"Payroll Accrual"
"GLI","02/28/2017","12301","185600","GLI022817","GLI022817",305.85,"Payroll Accrual"
"GLI","02/28/2017","12502","185101","GLI022817","GLI022817",23.38,"Payroll Accrual"
"GLI","02/28/2017","12501","185101","GLI022817","GLI022817",23.38,"Payroll Accrual"
"GLI","02/28/2017","12202A","185101","GLI022817","GLI022817",423.47,"Payroll Accrual"
"GLI","02/28/2017","12201A","185101","GLI022817","GLI022817",423.47,"Payroll Accrual"
"GLI","02/28/2017","12905","184920","GLI022817","GLI022817",39.13,"Payroll Accrual"
"GLI","02/28/2017","12505","184920","GLI022817","GLI022817",193.21,"Payroll Accrual"
"GLI","02/28/2017","124703","184920","GLI022817","GLI022817",2608.48,"Payroll Accrual"
"GLI","02/28/2017","12924","184806","GLI022817","GLI022817",42.64,"Payroll Accrual"
"GLI","02/28/2017","12524","184806","GLI022817","GLI022817",163.09,"Payroll Accrual"
"GLI","02/28/2017","124724","184806","GLI022817","GLI022817",2132,"Payroll Accrual"
"GLI","02/28/2017","12502","184630","GLI022817","GLI022817",173.54,"Payroll Accrual"
"GLI","02/28/2017","12501","184630","GLI022817","GLI022817",173.54,"Payroll Accrual"
"GLI","02/28/2017","12102","184630","GLI022817","GLI022817",2457.69,"Payroll Accrual"
"GLI","02/28/2017","12101","184630","GLI022817","GLI022817",2457.69,"Payroll Accrual"
"GLI","02/28/2017","12502","184625","GLI022817","GLI022817",103.35,"Payroll Accrual"
"GLI","02/28/2017","12501","184625","GLI022817","GLI022817",68.9,"Payroll Accrual"
"GLI","02/28/2017","12102A","184625","GLI022817","GLI022817",1376.31,"Payroll Accrual"
"GLI","02/28/2017","12101A","184625","GLI022817","GLI022817",917.54,"Payroll Accrual"
"GLI","02/28/2017","12504","184620","GLI022817","GLI022817",47.38,"Payroll Accrual"
"GLI","02/28/2017","12304C","184620","GLI022817","GLI022817",619.32,"Payroll Accrual"
"GLI","02/28/2017","12905","184614","GLI022817","GLI022817",16.32,"Payroll Accrual"
"GLI","02/28/2017","12505","184614","GLI022817","GLI022817",83.25,"Payroll Accrual"
"GLI","02/28/2017","124703","184614","GLI022817","GLI022817",1088.22,"Payroll Accrual"
"GLI","02/28/2017","12906","184610","GLI022817","GLI022817",35.05,"Payroll Accrual"
"GLI","02/28/2017","12506","184610","GLI022817","GLI022817",128.78,"Payroll Accrual"
"GLI","02/28/2017","12306B","184610","GLI022817","GLI022817",1752.63,"Payroll Accrual"
"GLI","02/28/2017","12914","181520","GLI022817","GLI022817",4.67,"Payroll Accrual"
"GLI","02/28/2017","12906","181520","GLI022817","GLI022817",4.42,"Payroll Accrual"
"GLI","02/28/2017","12905","181520","GLI022817","GLI022817",3.55,"Payroll Accrual"
"GLI","02/28/2017","12904","181520","GLI022817","GLI022817",4.03,"Payroll Accrual"
"GLI","02/28/2017","12902","181520","GLI022817","GLI022817",3.61,"Payroll Accrual"
"GLI","02/28/2017","12901","181520","GLI022817","GLI022817",3.61,"Payroll Accrual"
"GLI","02/28/2017","12514","181520","GLI022817","GLI022817",9.35,"Payroll Accrual"
"GLI","02/28/2017","12506","181520","GLI022817","GLI022817",0.39,"Payroll Accrual"
"GLI","02/28/2017","12505","181520","GLI022817","GLI022817",0.23,"Payroll Accrual"
"GLI","02/28/2017","12504","181520","GLI022817","GLI022817",6.91,"Payroll Accrual"
"GLI","02/28/2017","12502","181520","GLI022817","GLI022817",5.29,"Payroll Accrual"
"GLI","02/28/2017","12501","181520","GLI022817","GLI022817",5.29,"Payroll Accrual"
"GLI","02/28/2017","12214","181520","GLI022817","GLI022817",233.35,"Payroll Accrual"
"GLI","02/28/2017","12206C","181520","GLI022817","GLI022817",137.89,"Payroll Accrual"
"GLI","02/28/2017","12205C","181520","GLI022817","GLI022817",127.28,"Payroll Accrual"
"GLI","02/28/2017","12204C","181520","GLI022817","GLI022817",201.53,"Payroll Accrual"
"GLI","02/28/2017","12202C","181520","GLI022817","GLI022817",180.31,"Payroll Accrual"
"GLI","02/28/2017","12201C","181520","GLI022817","GLI022817",180.31,"Payroll Accrual"
"GLI","02/28/2017","12527","180626","GLI022817","GLI022817",13.68,"Payroll Accrual"
"GLI","02/28/2017","12327","180626","GLI022817","GLI022817",178.9,"Payroll Accrual"
"GLI","02/28/2017","12904","18005","GLI022817","GLI022817",29.14,"Payroll Accrual"
"GLI","02/28/2017","12504","18005","GLI022817","GLI022817",108.78,"Payroll Accrual"
"GLI","02/28/2017","124704","18005","GLI022817","GLI022817",1457.04,"Payroll Accrual"
"GLI","02/28/2017","12904","179780","GLI022817","GLI022817",17.81,"Payroll Accrual"
"GLI","02/28/2017","12504","179780","GLI022817","GLI022817",86.72,"Payroll Accrual"
"GLI","02/28/2017","124704","179780","GLI022817","GLI022817",1187.06,"Payroll Accrual"
"GLI","02/28/2017","12404","179780","GLI022817","GLI022817",111.92,"Payroll Accrual"
"GLI","02/28/2017","12906","179775","GLI022817","GLI022817",20.85,"Payroll Accrual"
"GLI","02/28/2017","12506","179775","GLI022817","GLI022817",68.57,"Payroll Accrual"
"GLI","02/28/2017","12306B","179775","GLI022817","GLI022817",1042.55,"Payroll Accrual"
"GLI","02/28/2017","12506","179693","GLI022817","GLI022817",9.64,"Payroll Accrual"
"GLI","02/28/2017","12505","179693","GLI022817","GLI022817",9.64,"Payroll Accrual"
"GLI","02/28/2017","12504","179693","GLI022817","GLI022817",9.64,"Payroll Accrual"
"GLI","02/28/2017","12502","179693","GLI022817","GLI022817",9.64,"Payroll Accrual"
"GLI","02/28/2017","12501","179693","GLI022817","GLI022817",9.64,"Payroll Accrual"
"GLI","02/28/2017","12206B","179693","GLI022817","GLI022817",163.63,"Payroll Accrual"
"GLI","02/28/2017","12205B","179693","GLI022817","GLI022817",163.63,"Payroll Accrual"
"GLI","02/28/2017","12204B","179693","GLI022817","GLI022817",163.63,"Payroll Accrual"
"GLI","02/28/2017","12202B","179693","GLI022817","GLI022817",163.63,"Payroll Accrual"
"GLI","02/28/2017","12201B","179693","GLI022817","GLI022817",163.63,"Payroll Accrual"
"GLI","02/28/2017","12504","178079","GLI022817","GLI022817",126.09,"Payroll Accrual"
"GLI","02/28/2017","12304D","178079","GLI022817","GLI022817",1669.39,"Payroll Accrual"
"GLI","02/28/2017","12527","178060","GLI022817","GLI022817",14.91,"Payroll Accrual"
"GLI","02/28/2017","12327","178060","GLI022817","GLI022817",194.9,"Payroll Accrual"
"GLI","02/28/2017","12904","178050","GLI022817","GLI022817",13.25,"Payroll Accrual"
"GLI","02/28/2017","12504","178050","GLI022817","GLI022817",65.96,"Payroll Accrual"
"GLI","02/28/2017","124704","178050","GLI022817","GLI022817",883.47,"Payroll Accrual"
"GLI","02/28/2017","12903","177950","GLI022817","GLI022817",6.58,"Payroll Accrual"
"GLI","02/28/2017","12503","177950","GLI022817","GLI022817",33.55,"Payroll Accrual"
"GLI","02/28/2017","124723","177950","GLI022817","GLI022817",438.62,"Payroll Accrual"
"GLI","02/28/2017","12516","176505","GLI022817","GLI022817",16.46,"Payroll Accrual"
"GLI","02/28/2017","12316","176505","GLI022817","GLI022817",215.2,"Payroll Accrual"
"GLI","02/28/2017","12524","173800","GLI022817","GLI022817",19.42,"Payroll Accrual"
"GLI","02/28/2017","124724","173800","GLI022817","GLI022817",253.8,"Payroll Accrual"
"GLI","02/28/2017","12906","172077","GLI022817","GLI022817",26.43,"Payroll Accrual"
"GLI","02/28/2017","12506","172077","GLI022817","GLI022817",89,"Payroll Accrual"
"GLI","02/28/2017","12306B","172077","GLI022817","GLI022817",1321.47,"Payroll Accrual"
"GLI","02/28/2017","12905","171055","GLI022817","GLI022817",55.58,"Payroll Accrual"
"GLI","02/28/2017","12505","171055","GLI022817","GLI022817",198.97,"Payroll Accrual"
"GLI","02/28/2017","124703","171055","GLI022817","GLI022817",2779.07,"Payroll Accrual"
"GLI","02/28/2017","12904","170101","GLI022817","GLI022817",15.24,"Payroll Accrual"
"GLI","02/28/2017","12504","170101","GLI022817","GLI022817",77.72,"Payroll Accrual"
"GLI","02/28/2017","124704","170101","GLI022817","GLI022817",1015.98,"Payroll Accrual"
"GLI","02/28/2017","12504","169420","GLI022817","GLI022817",67.84,"Payroll Accrual"
"GLI","02/28/2017","124704","169420","GLI022817","GLI022817",902.7,"Payroll Accrual"
"GLI","02/28/2017","12503","168230","GLI022817","GLI022817",26.63,"Payroll Accrual"
"GLI","02/28/2017","124723","168230","GLI022817","GLI022817",348.12,"Payroll Accrual"
"GLI","02/28/2017","12516","167906","GLI022817","GLI022817",68.21,"Payroll Accrual"
"GLI","02/28/2017","12316","167906","GLI022817","GLI022817",907.41,"Payroll Accrual"
"GLI","02/28/2017","12904","167812","GLI022817","GLI022817",1.83,"Payroll Accrual"
"GLI","02/28/2017","12504","167812","GLI022817","GLI022817",7,"Payroll Accrual"
"GLI","02/28/2017","12204C","167812","GLI022817","GLI022817",91.52,"Payroll Accrual"
"GLI","02/28/2017","12504","167580","GLI022817","GLI022817",94.12,"Payroll Accrual"
"GLI","02/28/2017","124704","167580","GLI022817","GLI022817",1265.25,"Payroll Accrual"
"GLI","02/28/2017","12927","165500","GLI022817","GLI022817",8.49,"Payroll Accrual"
"GLI","02/28/2017","12527","165500","GLI022817","GLI022817",37.57,"Payroll Accrual"
"GLI","02/28/2017","12327","165500","GLI022817","GLI022817",565.68,"Payroll Accrual"
"GLI","02/28/2017","12504","165410","GLI022817","GLI022817",74.26,"Payroll Accrual"
"GLI","02/28/2017","12404","165410","GLI022817","GLI022817",224,"Payroll Accrual"
"GLI","02/28/2017","12304D","165410","GLI022817","GLI022817",767.86,"Payroll Accrual"
"GLI","02/28/2017","12524","165400","GLI022817","GLI022817",3.21,"Payroll Accrual"
"GLI","02/28/2017","12505","165400","GLI022817","GLI022817",3.21,"Payroll Accrual"
"GLI","02/28/2017","12504","165400","GLI022817","GLI022817",3.21,"Payroll Accrual"
"GLI","02/28/2017","12501","165400","GLI022817","GLI022817",3.21,"Payroll Accrual"
"GLI","02/28/2017","12324F","165400","GLI022817","GLI022817",171.15,"Payroll Accrual"
"GLI","02/28/2017","12305F","165400","GLI022817","GLI022817",171.15,"Payroll Accrual"
"GLI","02/28/2017","12304F","165400","GLI022817","GLI022817",171.15,"Payroll Accrual"
"GLI","02/28/2017","12301F","165400","GLI022817","GLI022817",171.15,"Payroll Accrual"
"GLI","02/28/2017","12503","165378","GLI022817","GLI022817",68.86,"Payroll Accrual"
"GLI","02/28/2017","124723","165378","GLI022817","GLI022817",900.2,"Payroll Accrual"
"GLI","02/28/2017","12905","165357","GLI022817","GLI022817",38.26,"Payroll Accrual"
"GLI","02/28/2017","12505","165357","GLI022817","GLI022817",191.03,"Payroll Accrual"
"GLI","02/28/2017","12405","165357","GLI022817","GLI022817",78,"Payroll Accrual"
"GLI","02/28/2017","12305B","165357","GLI022817","GLI022817",2472.61,"Payroll Accrual"
"GLI","02/28/2017","12505","165275","GLI022817","GLI022817",64.78,"Payroll Accrual"
"GLI","02/28/2017","124703","165275","GLI022817","GLI022817",900.19,"Payroll Accrual"
"GLI","02/28/2017","12924","164920","GLI022817","GLI022817",7.44,"Payroll Accrual"
"GLI","02/28/2017","12524","164920","GLI022817","GLI022817",37.94,"Payroll Accrual"
"GLI","02/28/2017","124724","164920","GLI022817","GLI022817",496,"Payroll Accrual"
"GLI","02/28/2017","12904","164015","GLI022817","GLI022817",34.35,"Payroll Accrual"
"GLI","02/28/2017","12504","164015","GLI022817","GLI022817",130.35,"Payroll Accrual"
"GLI","02/28/2017","124704","164015","GLI022817","GLI022817",1717.52,"Payroll Accrual"
"GLI","02/28/2017","12912","163096","GLI022817","GLI022817",5.08,"Payroll Accrual"
"GLI","02/28/2017","12902","163096","GLI022817","GLI022817",9,"Payroll Accrual"
"GLI","02/28/2017","12901","163096","GLI022817","GLI022817",9,"Payroll Accrual"
"GLI","02/28/2017","12512","163096","GLI022817","GLI022817",18.21,"Payroll Accrual"
"GLI","02/28/2017","12502","163096","GLI022817","GLI022817",33.23,"Payroll Accrual"
"GLI","02/28/2017","12501","163096","GLI022817","GLI022817",33.23,"Payroll Accrual"
"GLI","02/28/2017","12212","163096","GLI022817","GLI022817",253.94,"Payroll Accrual"
"GLI","02/28/2017","12202C","163096","GLI022817","GLI022817",450.16,"Payroll Accrual"
"GLI","02/28/2017","12201C","163096","GLI022817","GLI022817",450.16,"Payroll Accrual"
"GLI","02/28/2017","12503","162795","GLI022817","GLI022817",50.83,"Payroll Accrual"
"GLI","02/28/2017","12303","162795","GLI022817","GLI022817",664.44,"Payroll Accrual"
"GLI","02/28/2017","12906","16250","GLI022817","GLI022817",4.68,"Payroll Accrual"
"GLI","02/28/2017","12506","16250","GLI022817","GLI022817",7.07,"Payroll Accrual"
"GLI","02/28/2017","12306B","16250","GLI022817","GLI022817",312.2,"Payroll Accrual"
"GLI","02/28/2017","12906","162428","GLI022817","GLI022817",20.48,"Payroll Accrual"
"GLI","02/28/2017","12506","162428","GLI022817","GLI022817",99.99,"Payroll Accrual"
"GLI","02/28/2017","12306B","162428","GLI022817","GLI022817",1365.6,"Payroll Accrual"
"GLI","02/28/2017","12502","161351","GLI022817","GLI022817",47.92,"Payroll Accrual"
"GLI","02/28/2017","12501","161351","GLI022817","GLI022817",34.23,"Payroll Accrual"
"GLI","02/28/2017","11102","161351","GLI022817","GLI022817",728.92,"Payroll Accrual"
"GLI","02/28/2017","11101","161351","GLI022817","GLI022817",549.88,"Payroll Accrual"
"GLI","02/28/2017","12527","161205","GLI022817","GLI022817",14.45,"Payroll Accrual"
"GLI","02/28/2017","12327","161205","GLI022817","GLI022817",188.8,"Payroll Accrual"
"GLI","02/28/2017","12515","161051","GLI022817","GLI022817",-8.99,"Payroll Accrual"
"GLI","02/28/2017","12506","161051","GLI022817","GLI022817",-10.2,"Payroll Accrual"
"GLI","02/28/2017","12505","161051","GLI022817","GLI022817",-10.2,"Payroll Accrual"
"GLI","02/28/2017","12504","161051","GLI022817","GLI022817",-10.03,"Payroll Accrual"
"GLI","02/28/2017","12502","161051","GLI022817","GLI022817",-10.03,"Payroll Accrual"
"GLI","02/28/2017","12501","161051","GLI022817","GLI022817",-10.03,"Payroll Accrual"
"GLI","02/28/2017","12315","161051","GLI022817","GLI022817",49.7,"Payroll Accrual"
"GLI","02/28/2017","12306","161051","GLI022817","GLI022817",33.89,"Payroll Accrual"
"GLI","02/28/2017","12305","161051","GLI022817","GLI022817",33.89,"Payroll Accrual"
"GLI","02/28/2017","12304","161051","GLI022817","GLI022817",36.15,"Payroll Accrual"
"GLI","02/28/2017","12302","161051","GLI022817","GLI022817",36.15,"Payroll Accrual"
"GLI","02/28/2017","12301","161051","GLI022817","GLI022817",36.15,"Payroll Accrual"
"GLI","02/28/2017","12503","161010","GLI022817","GLI022817",18.05,"Payroll Accrual"
"GLI","02/28/2017","124723","161010","GLI022817","GLI022817",236.04,"Payroll Accrual"
"GLI","02/28/2017","12905","160930","GLI022817","GLI022817",24.58,"Payroll Accrual"
"GLI","02/28/2017","12505","160930","GLI022817","GLI022817",89.22,"Payroll Accrual"
"GLI","02/28/2017","12305C","160930","GLI022817","GLI022817",1228.85,"Payroll Accrual"
"GLI","02/28/2017","12503","159100","GLI022817","GLI022817",44.7,"Payroll Accrual"
"GLI","02/28/2017","124723","159100","GLI022817","GLI022817",584.4,"Payroll Accrual"
"GLI","02/28/2017","12506","158820","GLI022817","GLI022817",4.72,"Payroll Accrual"
"GLI","02/28/2017","12505","158820","GLI022817","GLI022817",4.72,"Payroll Accrual"
"GLI","02/28/2017","12504","158820","GLI022817","GLI022817",4.72,"Payroll Accrual"
"GLI","02/28/2017","12502","158820","GLI022817","GLI022817",4.72,"Payroll Accrual"
"GLI","02/28/2017","12501","158820","GLI022817","GLI022817",4.72,"Payroll Accrual"
"GLI","02/28/2017","12206B","158820","GLI022817","GLI022817",61.7,"Payroll Accrual"
"GLI","02/28/2017","12205B","158820","GLI022817","GLI022817",61.7,"Payroll Accrual"
"GLI","02/28/2017","12204B","158820","GLI022817","GLI022817",61.7,"Payroll Accrual"
"GLI","02/28/2017","12202B","158820","GLI022817","GLI022817",61.7,"Payroll Accrual"
"GLI","02/28/2017","12201B","158820","GLI022817","GLI022817",61.7,"Payroll Accrual"
"GLI","02/28/2017","12906","157995","GLI022817","GLI022817",7.42,"Payroll Accrual"
"GLI","02/28/2017","12905","157995","GLI022817","GLI022817",6.85,"Payroll Accrual"
"GLI","02/28/2017","12514","157995","GLI022817","GLI022817",15.5,"Payroll Accrual"
"GLI","02/28/2017","12506","157995","GLI022817","GLI022817",1.74,"Payroll Accrual"
"GLI","02/28/2017","12505","157995","GLI022817","GLI022817",1.6,"Payroll Accrual"
"GLI","02/28/2017","12504","157995","GLI022817","GLI022817",13.39,"Payroll Accrual"
"GLI","02/28/2017","12502","157995","GLI022817","GLI022817",11.98,"Payroll Accrual"
"GLI","02/28/2017","12501","157995","GLI022817","GLI022817",11.98,"Payroll Accrual"
"GLI","02/28/2017","12214","157995","GLI022817","GLI022817",252.32,"Payroll Accrual"
"GLI","02/28/2017","12206C","157995","GLI022817","GLI022817",149.1,"Payroll Accrual"
"GLI","02/28/2017","12205C","157995","GLI022817","GLI022817",137.63,"Payroll Accrual"
"GLI","02/28/2017","12204C","157995","GLI022817","GLI022817",217.92,"Payroll Accrual"
"GLI","02/28/2017","12202C","157995","GLI022817","GLI022817",194.98,"Payroll Accrual"
"GLI","02/28/2017","12201C","157995","GLI022817","GLI022817",194.98,"Payroll Accrual"
"GLI","02/28/2017","12502","155214","GLI022817","GLI022817",1.42,"Payroll Accrual"
"GLI","02/28/2017","12501","155214","GLI022817","GLI022817",1.42,"Payroll Accrual"
"GLI","02/28/2017","12202A","155214","GLI022817","GLI022817",18.55,"Payroll Accrual"
"GLI","02/28/2017","12201A","155214","GLI022817","GLI022817",18.55,"Payroll Accrual"
"GLI","02/28/2017","12904","152525","GLI022817","GLI022817",18.09,"Payroll Accrual"
"GLI","02/28/2017","12504","152525","GLI022817","GLI022817",91.07,"Payroll Accrual"
"GLI","02/28/2017","124704","152525","GLI022817","GLI022817",1206.31,"Payroll Accrual"
"GLI","02/28/2017","12512","152512","GLI022817","GLI022817",6.07,"Payroll Accrual"
"GLI","02/28/2017","12502","152512","GLI022817","GLI022817",10.76,"Payroll Accrual"
"GLI","02/28/2017","12501","152512","GLI022817","GLI022817",10.76,"Payroll Accrual"
"GLI","02/28/2017","12212","152512","GLI022817","GLI022817",79.36,"Payroll Accrual"
"GLI","02/28/2017","12202C","152512","GLI022817","GLI022817",140.69,"Payroll Accrual"
"GLI","02/28/2017","12201C","152512","GLI022817","GLI022817",140.69,"Payroll Accrual"
"GLI","02/28/2017","12927","152510","GLI022817","GLI022817",11.73,"Payroll Accrual"
"GLI","02/28/2017","12527","152510","GLI022817","GLI022817",55.67,"Payroll Accrual"
"GLI","02/28/2017","12327","152510","GLI022817","GLI022817",781.76,"Payroll Accrual"
"GLI","02/28/2017","12503","152499","GLI022817","GLI022817",55.62,"Payroll Accrual"
"GLI","02/28/2017","124723","152499","GLI022817","GLI022817",727.02,"Payroll Accrual"
"GLI","02/28/2017","12924","152495","GLI022817","GLI022817",14.84,"Payroll Accrual"
"GLI","02/28/2017","12524","152495","GLI022817","GLI022817",75.69,"Payroll Accrual"
"GLI","02/28/2017","124724","152495","GLI022817","GLI022817",989.4,"Payroll Accrual"
"GLI","02/28/2017","12503","152432","GLI022817","GLI022817",57.05,"Payroll Accrual"
"GLI","02/28/2017","12303","152432","GLI022817","GLI022817",745.78,"Payroll Accrual"
"GLI","02/28/2017","12904","152410","GLI022817","GLI022817",38.1,"Payroll Accrual"
"GLI","02/28/2017","12504","152410","GLI022817","GLI022817",145.03,"Payroll Accrual"
"GLI","02/28/2017","124704","152410","GLI022817","GLI022817",1904.91,"Payroll Accrual"
"GLI","02/28/2017","12904","152235","GLI022817","GLI022817",52.95,"Payroll Accrual"
"GLI","02/28/2017","12504","152235","GLI022817","GLI022817",201.11,"Payroll Accrual"
"GLI","02/28/2017","124704","152235","GLI022817","GLI022817",2647.33,"Payroll Accrual"
"GLI","02/28/2017","12503","151203","GLI022817","GLI022817",16.15,"Payroll Accrual"
"GLI","02/28/2017","124723","151203","GLI022817","GLI022817",211.2,"Payroll Accrual"
"GLI","02/28/2017","12904","150126","GLI022817","GLI022817",24.63,"Payroll Accrual"
"GLI","02/28/2017","12504","150126","GLI022817","GLI022817",125.6,"Payroll Accrual"
"GLI","02/28/2017","124704","150126","GLI022817","GLI022817",1641.85,"Payroll Accrual"
"GLI","02/28/2017","12924","150120","GLI022817","GLI022817",20.64,"Payroll Accrual"
"GLI","02/28/2017","12524","150120","GLI022817","GLI022817",105.29,"Payroll Accrual"
"GLI","02/28/2017","124724","150120","GLI022817","GLI022817",1376.31,"Payroll Accrual"
"GLI","02/28/2017","12905","150105","GLI022817","GLI022817",36.86,"Payroll Accrual"
"GLI","02/28/2017","12505","150105","GLI022817","GLI022817",186.02,"Payroll Accrual"
"GLI","02/28/2017","124703","150105","GLI022817","GLI022817",2457.56,"Payroll Accrual"
"GLI","02/28/2017","12904","149878","GLI022817","GLI022817",9.43,"Payroll Accrual"
"GLI","02/28/2017","12504","149878","GLI022817","GLI022817",57.73,"Payroll Accrual"
"GLI","02/28/2017","12304D","149878","GLI022817","GLI022817",943.42,"Payroll Accrual"
"GLI","02/28/2017","12502","149507","GLI022817","GLI022817",57.89,"Payroll Accrual"
"GLI","02/28/2017","12501","149507","GLI022817","GLI022817",43.66,"Payroll Accrual"
"GLI","02/28/2017","11102","149507","GLI022817","GLI022817",756.7,"Payroll Accrual"
"GLI","02/28/2017","11101","149507","GLI022817","GLI022817",570.85,"Payroll Accrual"
"GLI","02/28/2017","12916","148275","GLI022817","GLI022817",29.53,"Payroll Accrual"
"GLI","02/28/2017","12516","148275","GLI022817","GLI022817",112.96,"Payroll Accrual"
"GLI","02/28/2017","12316","148275","GLI022817","GLI022817",1476.64,"Payroll Accrual"
"GLI","02/28/2017","12916","147000","GLI022817","GLI022817",40.96,"Payroll Accrual"
"GLI","02/28/2017","12516","147000","GLI022817","GLI022817",152.69,"Payroll Accrual"
"GLI","02/28/2017","12316","147000","GLI022817","GLI022817",2048.08,"Payroll Accrual"
"GLI","02/28/2017","12502","146480","GLI022817","GLI022817",32.62,"Payroll Accrual"
"GLI","02/28/2017","12501","146480","GLI022817","GLI022817",32.62,"Payroll Accrual"
"GLI","02/28/2017","12302","146480","GLI022817","GLI022817",426.41,"Payroll Accrual"
"GLI","02/28/2017","12301","146480","GLI022817","GLI022817",426.41,"Payroll Accrual"
"GLI","02/28/2017","12901","146450","GLI022817","GLI022817",39.32,"Payroll Accrual"
"GLI","02/28/2017","12501","146450","GLI022817","GLI022817",145.79,"Payroll Accrual"
"GLI","02/28/2017","12301B","146450","GLI022817","GLI022817",1966.16,"Payroll Accrual"
"GLI","02/28/2017","12504","145801","GLI022817","GLI022817",107.33,"Payroll Accrual"
"GLI","02/28/2017","124704","145801","GLI022817","GLI022817",1403.08,"Payroll Accrual"
"GLI","02/28/2017","12527","144700","GLI022817","GLI022817",9.33,"Payroll Accrual"
"GLI","02/28/2017","12327","144700","GLI022817","GLI022817",121.9,"Payroll Accrual"
"GLI","02/28/2017","12506","143180","GLI022817","GLI022817",49.95,"Payroll Accrual"
"GLI","02/28/2017","12306B","143180","GLI022817","GLI022817",810.96,"Payroll Accrual"
"GLI","02/28/2017","12905","141069","GLI022817","GLI022817",31.28,"Payroll Accrual"
"GLI","02/28/2017","12505","141069","GLI022817","GLI022817",117.03,"Payroll Accrual"
"GLI","02/28/2017","12405","141069","GLI022817","GLI022817",198,"Payroll Accrual"
"GLI","02/28/2017","12305B","141069","GLI022817","GLI022817",1366.11,"Payroll Accrual"
"GLI","02/28/2017","12904","141060","GLI022817","GLI022817",30.1,"Payroll Accrual"
"GLI","02/28/2017","12504","141060","GLI022817","GLI022817",113.98,"Payroll Accrual"
"GLI","02/28/2017","12304B","141060","GLI022817","GLI022817",1504.93,"Payroll Accrual"
"GLI","02/28/2017","12904","140790","GLI022817","GLI022817",19.66,"Payroll Accrual"
"GLI","02/28/2017","12903","140790","GLI022817","GLI022817",19.66,"Payroll Accrual"
"GLI","02/28/2017","12504","140790","GLI022817","GLI022817",74.36,"Payroll Accrual"
"GLI","02/28/2017","12503","140790","GLI022817","GLI022817",74.36,"Payroll Accrual"
"GLI","02/28/2017","12104","140790","GLI022817","GLI022817",983.08,"Payroll Accrual"
"GLI","02/28/2017","12103","140790","GLI022817","GLI022817",983.08,"Payroll Accrual"
"GLI","02/28/2017","12503","138385","GLI022817","GLI022817",27.12,"Payroll Accrual"
"GLI","02/28/2017","124723","138385","GLI022817","GLI022817",354.48,"Payroll Accrual"
"GLI","02/28/2017","12916","138380","GLI022817","GLI022817",10.06,"Payroll Accrual"
"GLI","02/28/2017","12516","138380","GLI022817","GLI022817",25.65,"Payroll Accrual"
"GLI","02/28/2017","12316","138380","GLI022817","GLI022817",503.1,"Payroll Accrual"
"GLI","02/28/2017","12504","13725","GLI022817","GLI022817",186.78,"Payroll Accrual"
"GLI","02/28/2017","124704","13725","GLI022817","GLI022817",2879.17,"Payroll Accrual"
"GLI","02/28/2017","12404","13725","GLI022817","GLI022817",128.01,"Payroll Accrual"
"GLI","02/28/2017","12505","137101","GLI022817","GLI022817",85.85,"Payroll Accrual"
"GLI","02/28/2017","124703","137101","GLI022817","GLI022817",1122.23,"Payroll Accrual"
"GLI","02/28/2017","12503","13690","GLI022817","GLI022817",51.14,"Payroll Accrual"
"GLI","02/28/2017","124723","13690","GLI022817","GLI022817",668.5,"Payroll Accrual"
"GLI","02/28/2017","12904","136170","GLI022817","GLI022817",13.65,"Payroll Accrual"
"GLI","02/28/2017","12504","136170","GLI022817","GLI022817",100.99,"Payroll Accrual"
"GLI","02/28/2017","124704","136170","GLI022817","GLI022817",1364.64,"Payroll Accrual"
"GLI","02/28/2017","12505","135770","GLI022817","GLI022817",175.88,"Payroll Accrual"
"GLI","02/28/2017","124703","135770","GLI022817","GLI022817",2299.08,"Payroll Accrual"
"GLI","02/28/2017","12503","132654","GLI022817","GLI022817",42.69,"Payroll Accrual"
"GLI","02/28/2017","124723","132654","GLI022817","GLI022817",558,"Payroll Accrual"
"GLI","02/28/2017","12915","132500","GLI022817","GLI022817",7.93,"Payroll Accrual"
"GLI","02/28/2017","12906","132500","GLI022817","GLI022817",5.41,"Payroll Accrual"
"GLI","02/28/2017","12905","132500","GLI022817","GLI022817",5.41,"Payroll Accrual"
"GLI","02/28/2017","12904","132500","GLI022817","GLI022817",5.77,"Payroll Accrual"
"GLI","02/28/2017","12902","132500","GLI022817","GLI022817",5.77,"Payroll Accrual"
"GLI","02/28/2017","12901","132500","GLI022817","GLI022817",5.77,"Payroll Accrual"
"GLI","02/28/2017","12515","132500","GLI022817","GLI022817",29.96,"Payroll Accrual"
"GLI","02/28/2017","12506","132500","GLI022817","GLI022817",20.42,"Payroll Accrual"
"GLI","02/28/2017","12505","132500","GLI022817","GLI022817",20.42,"Payroll Accrual"
"GLI","02/28/2017","12504","132500","GLI022817","GLI022817",21.79,"Payroll Accrual"
"GLI","02/28/2017","12502","132500","GLI022817","GLI022817",21.79,"Payroll Accrual"
"GLI","02/28/2017","12501","132500","GLI022817","GLI022817",21.79,"Payroll Accrual"
"GLI","02/28/2017","12315","132500","GLI022817","GLI022817",396.51,"Payroll Accrual"
"GLI","02/28/2017","12306","132500","GLI022817","GLI022817",270.35,"Payroll Accrual"
"GLI","02/28/2017","12305","132500","GLI022817","GLI022817",270.35,"Payroll Accrual"
"GLI","02/28/2017","12304","132500","GLI022817","GLI022817",288.37,"Payroll Accrual"
"GLI","02/28/2017","12302","132500","GLI022817","GLI022817",288.37,"Payroll Accrual"
"GLI","02/28/2017","12301","132500","GLI022817","GLI022817",288.37,"Payroll Accrual"
"GLI","02/28/2017","12904","131370","GLI022817","GLI022817",26.51,"Payroll Accrual"
"GLI","02/28/2017","12504","131370","GLI022817","GLI022817",101.4,"Payroll Accrual"
"GLI","02/28/2017","124704","131370","GLI022817","GLI022817",1325.45,"Payroll Accrual"
"GLI","02/28/2017","12924","131315","GLI022817","GLI022817",40.34,"Payroll Accrual"
"GLI","02/28/2017","12524","131315","GLI022817","GLI022817",153.9,"Payroll Accrual"
"GLI","02/28/2017","124724","131315","GLI022817","GLI022817",2017,"Payroll Accrual"
"GLI","02/28/2017","12503","130510","GLI022817","GLI022817",37.51,"Payroll Accrual"
"GLI","02/28/2017","124723","130510","GLI022817","GLI022817",490.32,"Payroll Accrual"
"GLI","02/28/2017","12506","12800","GLI022817","GLI022817",10.59,"Payroll Accrual"
"GLI","02/28/2017","12505","12800","GLI022817","GLI022817",10.59,"Payroll Accrual"
"GLI","02/28/2017","12504","12800","GLI022817","GLI022817",10.59,"Payroll Accrual"
"GLI","02/28/2017","12502","12800","GLI022817","GLI022817",10.59,"Payroll Accrual"
"GLI","02/28/2017","12501","12800","GLI022817","GLI022817",10.59,"Payroll Accrual"
"GLI","02/28/2017","12206B","12800","GLI022817","GLI022817",143.6,"Payroll Accrual"
"GLI","02/28/2017","12205B","12800","GLI022817","GLI022817",143.6,"Payroll Accrual"
"GLI","02/28/2017","12204B","12800","GLI022817","GLI022817",143.6,"Payroll Accrual"
"GLI","02/28/2017","12202B","12800","GLI022817","GLI022817",143.6,"Payroll Accrual"
"GLI","02/28/2017","12201B","12800","GLI022817","GLI022817",143.6,"Payroll Accrual"
"GLI","02/28/2017","12503","12725","GLI022817","GLI022817",21.6,"Payroll Accrual"
"GLI","02/28/2017","124723","12725","GLI022817","GLI022817",282.36,"Payroll Accrual"
"GLI","02/28/2017","12902","126200","GLI022817","GLI022817",9.83,"Payroll Accrual"
"GLI","02/28/2017","12901","126200","GLI022817","GLI022817",9.83,"Payroll Accrual"
"GLI","02/28/2017","12502","126200","GLI022817","GLI022817",50.13,"Payroll Accrual"
"GLI","02/28/2017","12501","126200","GLI022817","GLI022817",50.13,"Payroll Accrual"
"GLI","02/28/2017","12202A","126200","GLI022817","GLI022817",655.39,"Payroll Accrual"
"GLI","02/28/2017","12201A","126200","GLI022817","GLI022817",655.39,"Payroll Accrual"
"GLI","02/28/2017","12503","125028","GLI022817","GLI022817",33.68,"Payroll Accrual"
"GLI","02/28/2017","124723","125028","GLI022817","GLI022817",440.3,"Payroll Accrual"
"GLI","02/28/2017","12503","124360","GLI022817","GLI022817",42.84,"Payroll Accrual"
"GLI","02/28/2017","124723","124360","GLI022817","GLI022817",686.56,"Payroll Accrual"
"GLI","02/28/2017","12924","124101","GLI022817","GLI022817",10.29,"Payroll Accrual"
"GLI","02/28/2017","12524","124101","GLI022817","GLI022817",52.45,"Payroll Accrual"
"GLI","02/28/2017","12224","124101","GLI022817","GLI022817",685.68,"Payroll Accrual"
"GLI","02/28/2017","12527","123530","GLI022817","GLI022817",6.09,"Payroll Accrual"
"GLI","02/28/2017","12327","123530","GLI022817","GLI022817",79.6,"Payroll Accrual"
"GLI","02/28/2017","12904","123525","GLI022817","GLI022817",1.11,"Payroll Accrual"
"GLI","02/28/2017","12504","123525","GLI022817","GLI022817",4.26,"Payroll Accrual"
"GLI","02/28/2017","12304B","123525","GLI022817","GLI022817",55.65,"Payroll Accrual"
"GLI","02/28/2017","12906","123100","GLI022817","GLI022817",14.25,"Payroll Accrual"
"GLI","02/28/2017","12905","123100","GLI022817","GLI022817",14.25,"Payroll Accrual"
"GLI","02/28/2017","12904","123100","GLI022817","GLI022817",14.25,"Payroll Accrual"
"GLI","02/28/2017","12902","123100","GLI022817","GLI022817",14.25,"Payroll Accrual"
"GLI","02/28/2017","12901","123100","GLI022817","GLI022817",14.25,"Payroll Accrual"
"GLI","02/28/2017","12506","123100","GLI022817","GLI022817",70.84,"Payroll Accrual"
"GLI","02/28/2017","12505","123100","GLI022817","GLI022817",70.84,"Payroll Accrual"
"GLI","02/28/2017","12504","123100","GLI022817","GLI022817",70.84,"Payroll Accrual"
"GLI","02/28/2017","12502","123100","GLI022817","GLI022817",70.84,"Payroll Accrual"
"GLI","02/28/2017","12501","123100","GLI022817","GLI022817",70.84,"Payroll Accrual"
"GLI","02/28/2017","12106","123100","GLI022817","GLI022817",950.31,"Payroll Accrual"
"GLI","02/28/2017","12105","123100","GLI022817","GLI022817",950.31,"Payroll Accrual"
"GLI","02/28/2017","12104","123100","GLI022817","GLI022817",950.31,"Payroll Accrual"
"GLI","02/28/2017","12102","123100","GLI022817","GLI022817",950.31,"Payroll Accrual"
"GLI","02/28/2017","12101","123100","GLI022817","GLI022817",950.31,"Payroll Accrual"
"GLI","02/28/2017","12904","121362","GLI022817","GLI022817",56.22,"Payroll Accrual"
"GLI","02/28/2017","12504","121362","GLI022817","GLI022817",206.37,"Payroll Accrual"
"GLI","02/28/2017","12304B","121362","GLI022817","GLI022817",2810.86,"Payroll Accrual"
"GLI","02/28/2017","12527","121200","GLI022817","GLI022817",3.83,"Payroll Accrual"
"GLI","02/28/2017","12327","121200","GLI022817","GLI022817",50.04,"Payroll Accrual"
"GLI","02/28/2017","12911","121063","GLI022817","GLI022817",3.77,"Payroll Accrual"
"GLI","02/28/2017","12906","121063","GLI022817","GLI022817",2.74,"Payroll Accrual"
"GLI","02/28/2017","12905","121063","GLI022817","GLI022817",2.74,"Payroll Accrual"
"GLI","02/28/2017","12904","121063","GLI022817","GLI022817",2.74,"Payroll Accrual"
"GLI","02/28/2017","12902","121063","GLI022817","GLI022817",2.57,"Payroll Accrual"
"GLI","02/28/2017","12901","121063","GLI022817","GLI022817",2.57,"Payroll Accrual"
"GLI","02/28/2017","12511","121063","GLI022817","GLI022817",18.83,"Payroll Accrual"
"GLI","02/28/2017","12506","121063","GLI022817","GLI022817",13.58,"Payroll Accrual"
"GLI","02/28/2017","12505","121063","GLI022817","GLI022817",13.58,"Payroll Accrual"
"GLI","02/28/2017","12504","121063","GLI022817","GLI022817",13.58,"Payroll Accrual"
"GLI","02/28/2017","12502","121063","GLI022817","GLI022817",12.71,"Payroll Accrual"
"GLI","02/28/2017","12501","121063","GLI022817","GLI022817",12.71,"Payroll Accrual"
"GLI","02/28/2017","12311","121063","GLI022817","GLI022817",251.43,"Payroll Accrual"
"GLI","02/28/2017","12306H","121063","GLI022817","GLI022817",182.86,"Payroll Accrual"
"GLI","02/28/2017","12305H","121063","GLI022817","GLI022817",182.86,"Payroll Accrual"
"GLI","02/28/2017","12304H","121063","GLI022817","GLI022817",182.86,"Payroll Accrual"
"GLI","02/28/2017","12302H","121063","GLI022817","GLI022817",171.43,"Payroll Accrual"
"GLI","02/28/2017","12301H","121063","GLI022817","GLI022817",171.43,"Payroll Accrual"
"GLI","02/28/2017","12504","118746","GLI022817","GLI022817",26.59,"Payroll Accrual"
"GLI","02/28/2017","12304C","118746","GLI022817","GLI022817",347.55,"Payroll Accrual"
"GLI","02/28/2017","12503","118520","GLI022817","GLI022817",39.53,"Payroll Accrual"
"GLI","02/28/2017","124723","118520","GLI022817","GLI022817",516.72,"Payroll Accrual"
"GLI","02/28/2017","12911","118030","GLI022817","GLI022817",5.77,"Payroll Accrual"
"GLI","02/28/2017","12906","118030","GLI022817","GLI022817",4.19,"Payroll Accrual"
"GLI","02/28/2017","12905","118030","GLI022817","GLI022817",4.19,"Payroll Accrual"
"GLI","02/28/2017","12904","118030","GLI022817","GLI022817",4.19,"Payroll Accrual"
"GLI","02/28/2017","12902","118030","GLI022817","GLI022817",3.93,"Payroll Accrual"
"GLI","02/28/2017","12901","118030","GLI022817","GLI022817",3.93,"Payroll Accrual"
"GLI","02/28/2017","12511","118030","GLI022817","GLI022817",22.06,"Payroll Accrual"
"GLI","02/28/2017","12506","118030","GLI022817","GLI022817",16.04,"Payroll Accrual"
"GLI","02/28/2017","12505","118030","GLI022817","GLI022817",16.04,"Payroll Accrual"
"GLI","02/28/2017","12504","118030","GLI022817","GLI022817",16.04,"Payroll Accrual"
"GLI","02/28/2017","12502","118030","GLI022817","GLI022817",15.04,"Payroll Accrual"
"GLI","02/28/2017","12501","118030","GLI022817","GLI022817",15.04,"Payroll Accrual"
"GLI","02/28/2017","12311","118030","GLI022817","GLI022817",288.37,"Payroll Accrual"
"GLI","02/28/2017","12306H","118030","GLI022817","GLI022817",209.72,"Payroll Accrual"
"GLI","02/28/2017","12305H","118030","GLI022817","GLI022817",209.72,"Payroll Accrual"
"GLI","02/28/2017","12304H","118030","GLI022817","GLI022817",209.72,"Payroll Accrual"
"GLI","02/28/2017","12302H","118030","GLI022817","GLI022817",196.62,"Payroll Accrual"
"GLI","02/28/2017","12301H","118030","GLI022817","GLI022817",196.62,"Payroll Accrual"
"GLI","02/28/2017","12905","11732","GLI022817","GLI022817",18.76,"Payroll Accrual"
"GLI","02/28/2017","12505","11732","GLI022817","GLI022817",69.52,"Payroll Accrual"
"GLI","02/28/2017","12405","11732","GLI022817","GLI022817",272,"Payroll Accrual"
"GLI","02/28/2017","12205A","11732","GLI022817","GLI022817",666.23,"Payroll Accrual"
"GLI","02/28/2017","12505","11660","GLI022817","GLI022817",122.82,"Payroll Accrual"
"GLI","02/28/2017","124703","11660","GLI022817","GLI022817",1626.66,"Payroll Accrual"
"GLI","02/28/2017","12506","116210","GLI022817","GLI022817",39.19,"Payroll Accrual"
"GLI","02/28/2017","12306D","116210","GLI022817","GLI022817",512.2,"Payroll Accrual"
"GLI","02/28/2017","12904","116185","GLI022817","GLI022817",30.59,"Payroll Accrual"
"GLI","02/28/2017","12504","116185","GLI022817","GLI022817",90.73,"Payroll Accrual"
"GLI","02/28/2017","124704","116185","GLI022817","GLI022817",1529.29,"Payroll Accrual"
"GLI","02/28/2017","12527","11542","GLI022817","GLI022817",2.63,"Payroll Accrual"
"GLI","02/28/2017","12327","11542","GLI022817","GLI022817",34.4,"Payroll Accrual"
"GLI","02/28/2017","12906","115255","GLI022817","GLI022817",35.5,"Payroll Accrual"
"GLI","02/28/2017","12506","115255","GLI022817","GLI022817",135.79,"Payroll Accrual"
"GLI","02/28/2017","12306B","115255","GLI022817","GLI022817",1775,"Payroll Accrual"
"GLI","02/28/2017","12504","1152542","GLI022817","GLI022817",57.63,"Payroll Accrual"
"GLI","02/28/2017","12304D","1152542","GLI022817","GLI022817",827.95,"Payroll Accrual"
"GLI","02/28/2017","12904","1150920","GLI022817","GLI022817",23.9,"Payroll Accrual"
"GLI","02/28/2017","12504","1150920","GLI022817","GLI022817",117.76,"Payroll Accrual"
"GLI","02/28/2017","124704","1150920","GLI022817","GLI022817",1593.41,"Payroll Accrual"
"GLI","02/28/2017","12905","1150510","GLI022817","GLI022817",35.99,"Payroll Accrual"
"GLI","02/28/2017","12505","1150510","GLI022817","GLI022817",137.68,"Payroll Accrual"
"GLI","02/28/2017","12305B","1150510","GLI022817","GLI022817",1799.65,"Payroll Accrual"
"GLI","02/28/2017","12504","1149710","GLI022817","GLI022817",63.13,"Payroll Accrual"
"GLI","02/28/2017","12304D","1149710","GLI022817","GLI022817",916.24,"Payroll Accrual"
"GLI","02/28/2017","12906","1149636","GLI022817","GLI022817",13.04,"Payroll Accrual"
"GLI","02/28/2017","12506","1149636","GLI022817","GLI022817",60.15,"Payroll Accrual"
"GLI","02/28/2017","12306C","1149636","GLI022817","GLI022817",869.33,"Payroll Accrual"
"GLI","02/28/2017","12504","1149300","GLI022817","GLI022817",89.96,"Payroll Accrual"
"GLI","02/28/2017","124704","1149300","GLI022817","GLI022817",1176,"Payroll Accrual"
"GLI","02/28/2017","12911","1148720","GLI022817","GLI022817",2.49,"Payroll Accrual"
"GLI","02/28/2017","12906","1148720","GLI022817","GLI022817",1.81,"Payroll Accrual"
"GLI","02/28/2017","12905","1148720","GLI022817","GLI022817",1.81,"Payroll Accrual"
"GLI","02/28/2017","12904","1148720","GLI022817","GLI022817",1.81,"Payroll Accrual"
"GLI","02/28/2017","12902","1148720","GLI022817","GLI022817",1.7,"Payroll Accrual"
"GLI","02/28/2017","12901","1148720","GLI022817","GLI022817",1.7,"Payroll Accrual"
"GLI","02/28/2017","12511","1148720","GLI022817","GLI022817",11.27,"Payroll Accrual"
"GLI","02/28/2017","12506","1148720","GLI022817","GLI022817",7.8,"Payroll Accrual"
"GLI","02/28/2017","12505","1148720","GLI022817","GLI022817",7.8,"Payroll Accrual"
"GLI","02/28/2017","12504","1148720","GLI022817","GLI022817",7.8,"Payroll Accrual"
"GLI","02/28/2017","12502","1148720","GLI022817","GLI022817",7.22,"Payroll Accrual"
"GLI","02/28/2017","12501","1148720","GLI022817","GLI022817",7.22,"Payroll Accrual"
"GLI","02/28/2017","12311","1148720","GLI022817","GLI022817",166.33,"Payroll Accrual"
"GLI","02/28/2017","12306H","1148720","GLI022817","GLI022817",120.96,"Payroll Accrual"
"GLI","02/28/2017","12305H","1148720","GLI022817","GLI022817",120.96,"Payroll Accrual"
"GLI","02/28/2017","12304H","1148720","GLI022817","GLI022817",120.96,"Payroll Accrual"
"GLI","02/28/2017","12302H","1148720","GLI022817","GLI022817",113.4,"Payroll Accrual"
"GLI","02/28/2017","12301H","1148720","GLI022817","GLI022817",113.4,"Payroll Accrual"
"GLI","02/28/2017","12902","1148583","GLI022817","GLI022817",14.75,"Payroll Accrual"
"GLI","02/28/2017","12901","1148583","GLI022817","GLI022817",11.14,"Payroll Accrual"
"GLI","02/28/2017","12502","1148583","GLI022817","GLI022817",73.63,"Payroll Accrual"
"GLI","02/28/2017","12501","1148583","GLI022817","GLI022817",55.15,"Payroll Accrual"
"GLI","02/28/2017","11102","1148583","GLI022817","GLI022817",983.62,"Payroll Accrual"
"GLI","02/28/2017","11101","1148583","GLI022817","GLI022817",742.03,"Payroll Accrual"
"GLI","02/28/2017","12505","1147900","GLI022817","GLI022817",132.46,"Payroll Accrual"
"GLI","02/28/2017","124703","1147900","GLI022817","GLI022817",1931.45,"Payroll Accrual"
"GLI","02/28/2017","12904","1147062","GLI022817","GLI022817",25.67,"Payroll Accrual"
"GLI","02/28/2017","12504","1147062","GLI022817","GLI022817",80.3,"Payroll Accrual"
"GLI","02/28/2017","12204A","1147062","GLI022817","GLI022817",1283.47,"Payroll Accrual"
"GLI","02/28/2017","12505","1147061","GLI022817","GLI022817",160.11,"Payroll Accrual"
"GLI","02/28/2017","124703","1147061","GLI022817","GLI022817",2108.82,"Payroll Accrual"
"GLI","02/28/2017","12905","1146991","GLI022817","GLI022817",41.11,"Payroll Accrual"
"GLI","02/28/2017","12505","1146991","GLI022817","GLI022817",151.53,"Payroll Accrual"
"GLI","02/28/2017","124703","1146991","GLI022817","GLI022817",2055.41,"Payroll Accrual"
"GLI","02/28/2017","12504","1146989","GLI022817","GLI022817",79.83,"Payroll Accrual"
"GLI","02/28/2017","124704","1146989","GLI022817","GLI022817",1078.42,"Payroll Accrual"
"GLI","02/28/2017","12503","1144901","GLI022817","GLI022817",58.89,"Payroll Accrual"
"GLI","02/28/2017","124723","1144901","GLI022817","GLI022817",769.86,"Payroll Accrual"
"GLI","02/28/2017","12506","1144310","GLI022817","GLI022817",9.04,"Payroll Accrual"
"GLI","02/28/2017","12306C","1144310","GLI022817","GLI022817",118.2,"Payroll Accrual"
"GLI","02/28/2017","12506","1144265","GLI022817","GLI022817",70.44,"Payroll Accrual"
"GLI","02/28/2017","12306B","1144265","GLI022817","GLI022817",974.23,"Payroll Accrual"
"GLI","02/28/2017","12506","1143575","GLI022817","GLI022817",2.73,"Payroll Accrual"
"GLI","02/28/2017","12505","1143575","GLI022817","GLI022817",2.73,"Payroll Accrual"
"GLI","02/28/2017","12504","1143575","GLI022817","GLI022817",2.73,"Payroll Accrual"
"GLI","02/28/2017","12502","1143575","GLI022817","GLI022817",2.73,"Payroll Accrual"
"GLI","02/28/2017","12501","1143575","GLI022817","GLI022817",2.73,"Payroll Accrual"
"GLI","02/28/2017","12206B","1143575","GLI022817","GLI022817",35.7,"Payroll Accrual"
"GLI","02/28/2017","12205B","1143575","GLI022817","GLI022817",35.7,"Payroll Accrual"
"GLI","02/28/2017","12204B","1143575","GLI022817","GLI022817",35.7,"Payroll Accrual"
"GLI","02/28/2017","12202B","1143575","GLI022817","GLI022817",35.7,"Payroll Accrual"
"GLI","02/28/2017","12201B","1143575","GLI022817","GLI022817",35.7,"Payroll Accrual"
"GLI","02/28/2017","12527","114204","GLI022817","GLI022817",11.25,"Payroll Accrual"
"GLI","02/28/2017","12327","114204","GLI022817","GLI022817",147.1,"Payroll Accrual"
"GLI","02/28/2017","12503","11420","GLI022817","GLI022817",40.32,"Payroll Accrual"
"GLI","02/28/2017","124723","11420","GLI022817","GLI022817",527.04,"Payroll Accrual"
"GLI","02/28/2017","12914","1141210","GLI022817","GLI022817",2.83,"Payroll Accrual"
"GLI","02/28/2017","12906","1141210","GLI022817","GLI022817",0.33,"Payroll Accrual"
"GLI","02/28/2017","12905","1141210","GLI022817","GLI022817",-0.33,"Payroll Accrual"
"GLI","02/28/2017","12904","1141210","GLI022817","GLI022817",2.44,"Payroll Accrual"
"GLI","02/28/2017","12902","1141210","GLI022817","GLI022817",2.18,"Payroll Accrual"
"GLI","02/28/2017","12901","1141210","GLI022817","GLI022817",2.18,"Payroll Accrual"
"GLI","02/28/2017","12514","1141210","GLI022817","GLI022817",4.24,"Payroll Accrual"
"GLI","02/28/2017","12506","1141210","GLI022817","GLI022817",-0.31,"Payroll Accrual"
"GLI","02/28/2017","12505","1141210","GLI022817","GLI022817",-0.44,"Payroll Accrual"
"GLI","02/28/2017","12504","1141210","GLI022817","GLI022817",2.28,"Payroll Accrual"
"GLI","02/28/2017","12502","1141210","GLI022817","GLI022817",0.97,"Payroll Accrual"
"GLI","02/28/2017","12501","1141210","GLI022817","GLI022817",0.97,"Payroll Accrual"
"GLI","02/28/2017","12214","1141210","GLI022817","GLI022817",188.36,"Payroll Accrual"
"GLI","02/28/2017","12206C","1141210","GLI022817","GLI022817",111.31,"Payroll Accrual"
"GLI","02/28/2017","12205C","1141210","GLI022817","GLI022817",102.74,"Payroll Accrual"
"GLI","02/28/2017","12204C","1141210","GLI022817","GLI022817",162.68,"Payroll Accrual"
"GLI","02/28/2017","12202C","1141210","GLI022817","GLI022817",145.55,"Payroll Accrual"
"GLI","02/28/2017","12201C","1141210","GLI022817","GLI022817",145.55,"Payroll Accrual"
"GLI","02/28/2017","12504","1140870","GLI022817","GLI022817",410.89,"Payroll Accrual"
"GLI","02/28/2017","12304B","1140870","GLI022817","GLI022817",5371.11,"Payroll Accrual"
"GLI","02/28/2017","12527","1137596","GLI022817","GLI022817",6.52,"Payroll Accrual"
"GLI","02/28/2017","12327","1137596","GLI022817","GLI022817",85.2,"Payroll Accrual"
"GLI","02/28/2017","12904","1137590","GLI022817","GLI022817",32.74,"Payroll Accrual"
"GLI","02/28/2017","12504","1137590","GLI022817","GLI022817",121.47,"Payroll Accrual"
"GLI","02/28/2017","124704","1137590","GLI022817","GLI022817",1636.81,"Payroll Accrual"
"GLI","02/28/2017","12527","1135810","GLI022817","GLI022817",51.66,"Payroll Accrual"
"GLI","02/28/2017","12327","1135810","GLI022817","GLI022817",675.36,"Payroll Accrual"
"GLI","02/28/2017","12524","1135710","GLI022817","GLI022817",37.73,"Payroll Accrual"
"GLI","02/28/2017","124724","1135710","GLI022817","GLI022817",493.2,"Payroll Accrual"
"GLI","02/28/2017","12503","1135450","GLI022817","GLI022817",28.65,"Payroll Accrual"
"GLI","02/28/2017","124723","1135450","GLI022817","GLI022817",374.5,"Payroll Accrual"
"GLI","02/28/2017","12504","1135410","GLI022817","GLI022817",89.73,"Payroll Accrual"
"GLI","02/28/2017","124704","1135410","GLI022817","GLI022817",1075.2,"Payroll Accrual"
"GLI","02/28/2017","12404","1135410","GLI022817","GLI022817",127.28,"Payroll Accrual"
"GLI","02/28/2017","12911","1135260","GLI022817","GLI022817",6.31,"Payroll Accrual"
"GLI","02/28/2017","12906","1135260","GLI022817","GLI022817",4.59,"Payroll Accrual"
"GLI","02/28/2017","12905","1135260","GLI022817","GLI022817",4.59,"Payroll Accrual"
"GLI","02/28/2017","12904","1135260","GLI022817","GLI022817",4.59,"Payroll Accrual"
"GLI","02/28/2017","12902","1135260","GLI022817","GLI022817",4.3,"Payroll Accrual"
"GLI","02/28/2017","12901","1135260","GLI022817","GLI022817",4.3,"Payroll Accrual"
"GLI","02/28/2017","12511","1135260","GLI022817","GLI022817",28.69,"Payroll Accrual"
"GLI","02/28/2017","12506","1135260","GLI022817","GLI022817",20.86,"Payroll Accrual"
"GLI","02/28/2017","12505","1135260","GLI022817","GLI022817",20.86,"Payroll Accrual"
"GLI","02/28/2017","12504","1135260","GLI022817","GLI022817",20.86,"Payroll Accrual"
"GLI","02/28/2017","12502","1135260","GLI022817","GLI022817",19.56,"Payroll Accrual"
"GLI","02/28/2017","12501","1135260","GLI022817","GLI022817",19.56,"Payroll Accrual"
"GLI","02/28/2017","12311","1135260","GLI022817","GLI022817",420.54,"Payroll Accrual"
"GLI","02/28/2017","12306H","1135260","GLI022817","GLI022817",305.85,"Payroll Accrual"
"GLI","02/28/2017","12305H","1135260","GLI022817","GLI022817",305.85,"Payroll Accrual"
"GLI","02/28/2017","12304H","1135260","GLI022817","GLI022817",305.85,"Payroll Accrual"
"GLI","02/28/2017","12302H","1135260","GLI022817","GLI022817",286.73,"Payroll Accrual"
"GLI","02/28/2017","12301H","1135260","GLI022817","GLI022817",286.73,"Payroll Accrual"
"GLI","02/28/2017","12905","1134524","GLI022817","GLI022817",14.73,"Payroll Accrual"
"GLI","02/28/2017","12505","1134524","GLI022817","GLI022817",75.14,"Payroll Accrual"
"GLI","02/28/2017","124703","1134524","GLI022817","GLI022817",982.24,"Payroll Accrual"
"GLI","02/28/2017","12506","1133727","GLI022817","GLI022817",75.3,"Payroll Accrual"
"GLI","02/28/2017","12306D","1133727","GLI022817","GLI022817",989.6,"Payroll Accrual"
"GLI","02/28/2017","12504","1133500","GLI022817","GLI022817",61.13,"Payroll Accrual"
"GLI","02/28/2017","124704","1133500","GLI022817","GLI022817",799.05,"Payroll Accrual"
"GLI","02/28/2017","12506","1132600","GLI022817","GLI022817",2.6,"Payroll Accrual"
"GLI","02/28/2017","12505","1132600","GLI022817","GLI022817",2.6,"Payroll Accrual"
"GLI","02/28/2017","12504","1132600","GLI022817","GLI022817",2.6,"Payroll Accrual"
"GLI","02/28/2017","12502","1132600","GLI022817","GLI022817",2.6,"Payroll Accrual"
"GLI","02/28/2017","12501","1132600","GLI022817","GLI022817",2.6,"Payroll Accrual"
"GLI","02/28/2017","12206B","1132600","GLI022817","GLI022817",33.99,"Payroll Accrual"
"GLI","02/28/2017","12205B","1132600","GLI022817","GLI022817",33.99,"Payroll Accrual"
"GLI","02/28/2017","12204B","1132600","GLI022817","GLI022817",33.99,"Payroll Accrual"
"GLI","02/28/2017","12202B","1132600","GLI022817","GLI022817",33.99,"Payroll Accrual"
"GLI","02/28/2017","12201B","1132600","GLI022817","GLI022817",33.99,"Payroll Accrual"
"GLI","02/28/2017","12906","1132595","GLI022817","GLI022817",48.61,"Payroll Accrual"
"GLI","02/28/2017","12506","1132595","GLI022817","GLI022817",182.49,"Payroll Accrual"
"GLI","02/28/2017","12106","1132595","GLI022817","GLI022817",2430.39,"Payroll Accrual"
"GLI","02/28/2017","12906","1132590","GLI022817","GLI022817",10,"Payroll Accrual"
"GLI","02/28/2017","12506","1132590","GLI022817","GLI022817",36.62,"Payroll Accrual"
"GLI","02/28/2017","12306C","1132590","GLI022817","GLI022817",499.8,"Payroll Accrual"
"GLI","02/28/2017","12905","1132218","GLI022817","GLI022817",25.4,"Payroll Accrual"
"GLI","02/28/2017","12505","1132218","GLI022817","GLI022817",94.91,"Payroll Accrual"
"GLI","02/28/2017","12405","1132218","GLI022817","GLI022817",390,"Payroll Accrual"
"GLI","02/28/2017","12305B","1132218","GLI022817","GLI022817",880.25,"Payroll Accrual"
"GLI","02/28/2017","12506","1132205","GLI022817","GLI022817",54.36,"Payroll Accrual"
"GLI","02/28/2017","12306B","1132205","GLI022817","GLI022817",870.03,"Payroll Accrual"
"GLI","02/28/2017","12927","113085","GLI022817","GLI022817",9.83,"Payroll Accrual"
"GLI","02/28/2017","12924","113085","GLI022817","GLI022817",9.83,"Payroll Accrual"
"GLI","02/28/2017","12527","113085","GLI022817","GLI022817",49.56,"Payroll Accrual"
"GLI","02/28/2017","12524","113085","GLI022817","GLI022817",49.56,"Payroll Accrual"
"GLI","02/28/2017","12127","113085","GLI022817","GLI022817",655.39,"Payroll Accrual"
"GLI","02/28/2017","12124","113085","GLI022817","GLI022817",655.39,"Payroll Accrual"
"GLI","02/28/2017","12504","1130700","GLI022817","GLI022817",53.02,"Payroll Accrual"
"GLI","02/28/2017","12304C","1130700","GLI022817","GLI022817",693,"Payroll Accrual"
"GLI","02/28/2017","12503","1130326","GLI022817","GLI022817",27.71,"Payroll Accrual"
"GLI","02/28/2017","124723","1130326","GLI022817","GLI022817",362.28,"Payroll Accrual"
"GLI","02/28/2017","12906","113020","GLI022817","GLI022817",36.05,"Payroll Accrual"
"GLI","02/28/2017","12506","113020","GLI022817","GLI022817",134.95,"Payroll Accrual"
"GLI","02/28/2017","12306B","113020","GLI022817","GLI022817",1802.31,"Payroll Accrual"
"GLI","02/28/2017","12904","113011","GLI022817","GLI022817",10.31,"Payroll Accrual"
"GLI","02/28/2017","12504","113011","GLI022817","GLI022817",39.45,"Payroll Accrual"
"GLI","02/28/2017","12304C","113011","GLI022817","GLI022817",515.68,"Payroll Accrual"
"GLI","02/28/2017","12503","1130101","GLI022817","GLI022817",67.05,"Payroll Accrual"
"GLI","02/28/2017","12303","1130101","GLI022817","GLI022817",876.4,"Payroll Accrual"
"GLI","02/28/2017","12904","1130098","GLI022817","GLI022817",12.56,"Payroll Accrual"
"GLI","02/28/2017","12504","1130098","GLI022817","GLI022817",64.05,"Payroll Accrual"
"GLI","02/28/2017","124704","1130098","GLI022817","GLI022817",837.3,"Payroll Accrual"
"GLI","02/28/2017","12506","1130090","GLI022817","GLI022817",68.82,"Payroll Accrual"
"GLI","02/28/2017","12306C","1130090","GLI022817","GLI022817",899.64,"Payroll Accrual"
"GLI","02/28/2017","12916","113000","GLI022817","GLI022817",23.85,"Payroll Accrual"
"GLI","02/28/2017","12516","113000","GLI022817","GLI022817",91.23,"Payroll Accrual"
"GLI","02/28/2017","12316","113000","GLI022817","GLI022817",1192.55,"Payroll Accrual"
"GLI","02/28/2017","12527","1129560","GLI022817","GLI022817",46.85,"Payroll Accrual"
"GLI","02/28/2017","12327","1129560","GLI022817","GLI022817",612.36,"Payroll Accrual"
"GLI","02/28/2017","12904","1126110","GLI022817","GLI022817",19.12,"Payroll Accrual"
"GLI","02/28/2017","12504","1126110","GLI022817","GLI022817",87.41,"Payroll Accrual"
"GLI","02/28/2017","12304B","1126110","GLI022817","GLI022817",1274.88,"Payroll Accrual"
"GLI","02/28/2017","12916","1126060","GLI022817","GLI022817",14.9,"Payroll Accrual"
"GLI","02/28/2017","12516","1126060","GLI022817","GLI022817",75.57,"Payroll Accrual"
"GLI","02/28/2017","12316","1126060","GLI022817","GLI022817",993.12,"Payroll Accrual"
"GLI","02/28/2017","12904","1126055","GLI022817","GLI022817",16.8,"Payroll Accrual"
"GLI","02/28/2017","12504","1126055","GLI022817","GLI022817",64.25,"Payroll Accrual"
"GLI","02/28/2017","12304C","1126055","GLI022817","GLI022817",839.88,"Payroll Accrual"
"GLI","02/28/2017","12905","1126040","GLI022817","GLI022817",35.94,"Payroll Accrual"
"GLI","02/28/2017","12505","1126040","GLI022817","GLI022817",127.96,"Payroll Accrual"
"GLI","02/28/2017","124703","1126040","GLI022817","GLI022817",1796.85,"Payroll Accrual"
"GLI","02/28/2017","12905","1125565","GLI022817","GLI022817",38.85,"Payroll Accrual"
"GLI","02/28/2017","12505","1125565","GLI022817","GLI022817",136.86,"Payroll Accrual"
"GLI","02/28/2017","124703","1125565","GLI022817","GLI022817",1942.36,"Payroll Accrual"
"GLI","02/28/2017","12906","1124875","GLI022817","GLI022817",28.86,"Payroll Accrual"
"GLI","02/28/2017","12506","1124875","GLI022817","GLI022817",105.83,"Payroll Accrual"
"GLI","02/28/2017","12306B","1124875","GLI022817","GLI022817",1443.13,"Payroll Accrual"
"GLI","02/28/2017","12506","1124700","GLI022817","GLI022817",10.19,"Payroll Accrual"
"GLI","02/28/2017","12505","1124700","GLI022817","GLI022817",10.19,"Payroll Accrual"
"GLI","02/28/2017","12504","1124700","GLI022817","GLI022817",10.19,"Payroll Accrual"
"GLI","02/28/2017","12502","1124700","GLI022817","GLI022817",10.19,"Payroll Accrual"
"GLI","02/28/2017","12501","1124700","GLI022817","GLI022817",10.19,"Payroll Accrual"
"GLI","02/28/2017","12206B","1124700","GLI022817","GLI022817",133.22,"Payroll Accrual"
"GLI","02/28/2017","12205B","1124700","GLI022817","GLI022817",133.22,"Payroll Accrual"
"GLI","02/28/2017","12204B","1124700","GLI022817","GLI022817",133.22,"Payroll Accrual"
"GLI","02/28/2017","12202B","1124700","GLI022817","GLI022817",133.22,"Payroll Accrual"
"GLI","02/28/2017","12201B","1124700","GLI022817","GLI022817",133.22,"Payroll Accrual"
"GLI","02/28/2017","12904","1124436","GLI022817","GLI022817",28.2,"Payroll Accrual"
"GLI","02/28/2017","12504","1124436","GLI022817","GLI022817",143.14,"Payroll Accrual"
"GLI","02/28/2017","124704","1124436","GLI022817","GLI022817",1879.85,"Payroll Accrual"
"GLI","02/28/2017","12904","1124430","GLI022817","GLI022817",13.12,"Payroll Accrual"
"GLI","02/28/2017","12504","1124430","GLI022817","GLI022817",65.32,"Payroll Accrual"
"GLI","02/28/2017","124704","1124430","GLI022817","GLI022817",787,"Payroll Accrual"
"GLI","02/28/2017","12404","1124430","GLI022817","GLI022817",88,"Payroll Accrual"
"GLI","02/28/2017","12904","1124400","GLI022817","GLI022817",11.7,"Payroll Accrual"
"GLI","02/28/2017","12504","1124400","GLI022817","GLI022817",58.47,"Payroll Accrual"
"GLI","02/28/2017","124704","1124400","GLI022817","GLI022817",780.22,"Payroll Accrual"
"GLI","02/28/2017","12527","1123355","GLI022817","GLI022817",46.26,"Payroll Accrual"
"GLI","02/28/2017","12327","1123355","GLI022817","GLI022817",604.63,"Payroll Accrual"
"GLI","02/28/2017","12914","1123340","GLI022817","GLI022817",11.53,"Payroll Accrual"
"GLI","02/28/2017","12906","1123340","GLI022817","GLI022817",27.42,"Payroll Accrual"
"GLI","02/28/2017","12905","1123340","GLI022817","GLI022817",25.31,"Payroll Accrual"
"GLI","02/28/2017","12904","1123340","GLI022817","GLI022817",9.96,"Payroll Accrual"
"GLI","02/28/2017","12902","1123340","GLI022817","GLI022817",8.91,"Payroll Accrual"
"GLI","02/28/2017","12901","1123340","GLI022817","GLI022817",8.91,"Payroll Accrual"
"GLI","02/28/2017","12514","1123340","GLI022817","GLI022817",43.02,"Payroll Accrual"
"GLI","02/28/2017","12506","1123340","GLI022817","GLI022817",4.82,"Payroll Accrual"
"GLI","02/28/2017","12505","1123340","GLI022817","GLI022817",4.45,"Payroll Accrual"
"GLI","02/28/2017","12504","1123340","GLI022817","GLI022817",37.15,"Payroll Accrual"
"GLI","02/28/2017","12502","1123340","GLI022817","GLI022817",33.24,"Payroll Accrual"
"GLI","02/28/2017","12501","1123340","GLI022817","GLI022817",33.24,"Payroll Accrual"
"GLI","02/28/2017","12214","1123340","GLI022817","GLI022817",576.74,"Payroll Accrual"
"GLI","02/28/2017","12206C","1123340","GLI022817","GLI022817",340.8,"Payroll Accrual"
"GLI","02/28/2017","12205C","1123340","GLI022817","GLI022817",314.58,"Payroll Accrual"
"GLI","02/28/2017","12204C","1123340","GLI022817","GLI022817",498.09,"Payroll Accrual"
"GLI","02/28/2017","12202C","1123340","GLI022817","GLI022817",445.66,"Payroll Accrual"
"GLI","02/28/2017","12201C","1123340","GLI022817","GLI022817",445.66,"Payroll Accrual"
"GLI","02/28/2017","12503","1123002","GLI022817","GLI022817",9.23,"Payroll Accrual"
"GLI","02/28/2017","124723","1123002","GLI022817","GLI022817",120.68,"Payroll Accrual"
"GLI","02/28/2017","12905","112273","GLI022817","GLI022817",10.33,"Payroll Accrual"
"GLI","02/28/2017","12505","112273","GLI022817","GLI022817",52.69,"Payroll Accrual"
"GLI","02/28/2017","12205A","112273","GLI022817","GLI022817",688.68,"Payroll Accrual"
"GLI","02/28/2017","12924","1122352","GLI022817","GLI022817",12.78,"Payroll Accrual"
"GLI","02/28/2017","12524","1122352","GLI022817","GLI022817",61.34,"Payroll Accrual"
"GLI","02/28/2017","124724","1122352","GLI022817","GLI022817",851.85,"Payroll Accrual"
"GLI","02/28/2017","12503","1122246","GLI022817","GLI022817",76.52,"Payroll Accrual"
"GLI","02/28/2017","12303","1122246","GLI022817","GLI022817",1019.55,"Payroll Accrual"
"GLI","02/28/2017","12927","1122110","GLI022817","GLI022817",25.92,"Payroll Accrual"
"GLI","02/28/2017","12527","1122110","GLI022817","GLI022817",120.78,"Payroll Accrual"
"GLI","02/28/2017","12427","1122110","GLI022817","GLI022817",320,"Payroll Accrual"
"GLI","02/28/2017","12327","1122110","GLI022817","GLI022817",1407.8,"Payroll Accrual"
"GLI","02/28/2017","12927","1121250","GLI022817","GLI022817",6.5,"Payroll Accrual"
"GLI","02/28/2017","12527","1121250","GLI022817","GLI022817",33.17,"Payroll Accrual"
"GLI","02/28/2017","12327","1121250","GLI022817","GLI022817",433.58,"Payroll Accrual"
"GLI","02/28/2017","12924","1121246","GLI022817","GLI022817",8.72,"Payroll Accrual"
"GLI","02/28/2017","12524","1121246","GLI022817","GLI022817",42.85,"Payroll Accrual"
"GLI","02/28/2017","124724","1121246","GLI022817","GLI022817",477.36,"Payroll Accrual"
"GLI","02/28/2017","12424","1121246","GLI022817","GLI022817",104,"Payroll Accrual"
"GLI","02/28/2017","12527","1121000","GLI022817","GLI022817",21.67,"Payroll Accrual"
"GLI","02/28/2017","12327","1121000","GLI022817","GLI022817",283.3,"Payroll Accrual"
"GLI","02/28/2017","12527","112098","GLI022817","GLI022817",20.66,"Payroll Accrual"
"GLI","02/28/2017","12524","112098","GLI022817","GLI022817",48.21,"Payroll Accrual"
"GLI","02/28/2017","124724","112098","GLI022817","GLI022817",630.08,"Payroll Accrual"
"GLI","02/28/2017","12327","112098","GLI022817","GLI022817",270.04,"Payroll Accrual"
"GLI","02/28/2017","12503","112057","GLI022817","GLI022817",38.03,"Payroll Accrual"
"GLI","02/28/2017","12303","112057","GLI022817","GLI022817",497.14,"Payroll Accrual"
"GLI","02/28/2017","12506","1120225","GLI022817","GLI022817",47.42,"Payroll Accrual"
"GLI","02/28/2017","12505","1120225","GLI022817","GLI022817",47.42,"Payroll Accrual"
"GLI","02/28/2017","12504","1120225","GLI022817","GLI022817",47.42,"Payroll Accrual"
"GLI","02/28/2017","12502","1120225","GLI022817","GLI022817",47.42,"Payroll Accrual"
"GLI","02/28/2017","12501","1120225","GLI022817","GLI022817",47.42,"Payroll Accrual"
"GLI","02/28/2017","12006","1120225","GLI022817","GLI022817",655.39,"Payroll Accrual"
"GLI","02/28/2017","12005","1120225","GLI022817","GLI022817",655.39,"Payroll Accrual"
"GLI","02/28/2017","12004","1120225","GLI022817","GLI022817",655.39,"Payroll Accrual"
"GLI","02/28/2017","12002","1120225","GLI022817","GLI022817",655.39,"Payroll Accrual"
"GLI","02/28/2017","12001","1120225","GLI022817","GLI022817",655.39,"Payroll Accrual"
"GLI","02/28/2017","12906","1120120","GLI022817","GLI022817",11.25,"Payroll Accrual"
"GLI","02/28/2017","12506","1120120","GLI022817","GLI022817",53.25,"Payroll Accrual"
"GLI","02/28/2017","12306B","1120120","GLI022817","GLI022817",750.08,"Payroll Accrual"
"GLI","02/28/2017","12927","1120110","GLI022817","GLI022817",21.3,"Payroll Accrual"
"GLI","02/28/2017","12527","1120110","GLI022817","GLI022817",108.63,"Payroll Accrual"
"GLI","02/28/2017","12127","1120110","GLI022817","GLI022817",1420,"Payroll Accrual"
"GLI","02/28/2017","12503","1119852","GLI022817","GLI022817",41.1,"Payroll Accrual"
"GLI","02/28/2017","124723","1119852","GLI022817","GLI022817",537.18,"Payroll Accrual"
"GLI","02/28/2017","12906","1118800","GLI022817","GLI022817",14.8,"Payroll Accrual"
"GLI","02/28/2017","12506","1118800","GLI022817","GLI022817",67.86,"Payroll Accrual"
"GLI","02/28/2017","12306B","1118800","GLI022817","GLI022817",986.58,"Payroll Accrual"
"GLI","02/28/2017","12505","1118722","GLI022817","GLI022817",171.2,"Payroll Accrual"
"GLI","02/28/2017","124703","1118722","GLI022817","GLI022817",2345.07,"Payroll Accrual"
"GLI","02/28/2017","12904","1117960","GLI022817","GLI022817",27.31,"Payroll Accrual"
"GLI","02/28/2017","12504","1117960","GLI022817","GLI022817",101.87,"Payroll Accrual"
"GLI","02/28/2017","124704","1117960","GLI022817","GLI022817",1365.39,"Payroll Accrual"
"GLI","02/28/2017","12524","1117950","GLI022817","GLI022817",16.34,"Payroll Accrual"
"GLI","02/28/2017","124724","1117950","GLI022817","GLI022817",213.6,"Payroll Accrual"
"GLI","02/28/2017","12504","1117901","GLI022817","GLI022817",87.53,"Payroll Accrual"
"GLI","02/28/2017","124704","1117901","GLI022817","GLI022817",1144.22,"Payroll Accrual"
"GLI","02/28/2017","12503","1117850","GLI022817","GLI022817",34.28,"Payroll Accrual"
"GLI","02/28/2017","124723","1117850","GLI022817","GLI022817",448,"Payroll Accrual"
"GLI","02/28/2017","12503","1117842","GLI022817","GLI022817",49.95,"Payroll Accrual"
"GLI","02/28/2017","12303","1117842","GLI022817","GLI022817",656.32,"Payroll Accrual"
"GLI","02/28/2017","12503","1117600","GLI022817","GLI022817",84.3,"Payroll Accrual"
"GLI","02/28/2017","12303","1117600","GLI022817","GLI022817",1347.65,"Payroll Accrual"
"GLI","02/28/2017","12904","1116963","GLI022817","GLI022817",4.07,"Payroll Accrual"
"GLI","02/28/2017","12504","1116963","GLI022817","GLI022817",20.73,"Payroll Accrual"
"GLI","02/28/2017","12304C","1116963","GLI022817","GLI022817",271,"Payroll Accrual"
"GLI","02/28/2017","12905","1114921","GLI022817","GLI022817",22.05,"Payroll Accrual"
"GLI","02/28/2017","12505","1114921","GLI022817","GLI022817",106.74,"Payroll Accrual"
"GLI","02/28/2017","124703","1114921","GLI022817","GLI022817",1289.93,"Payroll Accrual"
"GLI","02/28/2017","12405","1114921","GLI022817","GLI022817",180,"Payroll Accrual"
"GLI","02/28/2017","12527","1114860","GLI022817","GLI022817",6.23,"Payroll Accrual"
"GLI","02/28/2017","12327","1114860","GLI022817","GLI022817",81.4,"Payroll Accrual"
"GLI","02/28/2017","12906","1114831","GLI022817","GLI022817",11.46,"Payroll Accrual"
"GLI","02/28/2017","12506","1114831","GLI022817","GLI022817",58.46,"Payroll Accrual"
"GLI","02/28/2017","12306D","1114831","GLI022817","GLI022817",764.21,"Payroll Accrual"
"GLI","02/28/2017","12506","1114135","GLI022817","GLI022817",1.31,"Payroll Accrual"
"GLI","02/28/2017","12505","1114135","GLI022817","GLI022817",1.31,"Payroll Accrual"
"GLI","02/28/2017","12504","1114135","GLI022817","GLI022817",1.31,"Payroll Accrual"
"GLI","02/28/2017","12502","1114135","GLI022817","GLI022817",1.31,"Payroll Accrual"
"GLI","02/28/2017","12501","1114135","GLI022817","GLI022817",1.31,"Payroll Accrual"
"GLI","02/28/2017","12206B","1114135","GLI022817","GLI022817",17.04,"Payroll Accrual"
"GLI","02/28/2017","12205B","1114135","GLI022817","GLI022817",17.04,"Payroll Accrual"
"GLI","02/28/2017","12204B","1114135","GLI022817","GLI022817",17.04,"Payroll Accrual"
"GLI","02/28/2017","12202B","1114135","GLI022817","GLI022817",17.04,"Payroll Accrual"
"GLI","02/28/2017","12201B","1114135","GLI022817","GLI022817",17.04,"Payroll Accrual"
"GLI","02/28/2017","12527","1114128","GLI022817","GLI022817",16.56,"Payroll Accrual"
"GLI","02/28/2017","12327","1114128","GLI022817","GLI022817",216.4,"Payroll Accrual"
"GLI","02/28/2017","12904","1114105","GLI022817","GLI022817",57.02,"Payroll Accrual"
"GLI","02/28/2017","12504","1114105","GLI022817","GLI022817",205.52,"Payroll Accrual"
"GLI","02/28/2017","12304B","1114105","GLI022817","GLI022817",2851.23,"Payroll Accrual"
"GLI","02/28/2017","12904","1113940","GLI022817","GLI022817",25.95,"Payroll Accrual"
"GLI","02/28/2017","12504","1113940","GLI022817","GLI022817",95.86,"Payroll Accrual"
"GLI","02/28/2017","124704","1113940","GLI022817","GLI022817",1297.63,"Payroll Accrual"
"GLI","02/28/2017","12904","111210","GLI022817","GLI022817",2.91,"Payroll Accrual"
"GLI","02/28/2017","12504","111210","GLI022817","GLI022817",13.23,"Payroll Accrual"
"GLI","02/28/2017","124704","111210","GLI022817","GLI022817",194.11,"Payroll Accrual"
"GLI","02/28/2017","12905","1111325","GLI022817","GLI022817",23.08,"Payroll Accrual"
"GLI","02/28/2017","12505","1111325","GLI022817","GLI022817",86.31,"Payroll Accrual"
"GLI","02/28/2017","12205A","1111325","GLI022817","GLI022817",1154.16,"Payroll Accrual"
"GLI","02/28/2017","12904","1110800","GLI022817","GLI022817",18.52,"Payroll Accrual"
"GLI","02/28/2017","12504","1110800","GLI022817","GLI022817",80.6,"Payroll Accrual"
"GLI","02/28/2017","12404","1110800","GLI022817","GLI022817",90,"Payroll Accrual"
"GLI","02/28/2017","12304B","1110800","GLI022817","GLI022817",1144.58,"Payroll Accrual"
"GLI","02/28/2017","12911","1110660","GLI022817","GLI022817",2.89,"Payroll Accrual"
"GLI","02/28/2017","12906","1110660","GLI022817","GLI022817",2.1,"Payroll Accrual"
"GLI","02/28/2017","12905","1110660","GLI022817","GLI022817",2.1,"Payroll Accrual"
"GLI","02/28/2017","12904","1110660","GLI022817","GLI022817",2.1,"Payroll Accrual"
"GLI","02/28/2017","12902","1110660","GLI022817","GLI022817",1.97,"Payroll Accrual"
"GLI","02/28/2017","12901","1110660","GLI022817","GLI022817",1.97,"Payroll Accrual"
"GLI","02/28/2017","12511","1110660","GLI022817","GLI022817",14.73,"Payroll Accrual"
"GLI","02/28/2017","12506","1110660","GLI022817","GLI022817",10.71,"Payroll Accrual"
"GLI","02/28/2017","12505","1110660","GLI022817","GLI022817",10.71,"Payroll Accrual"
"GLI","02/28/2017","12504","1110660","GLI022817","GLI022817",10.71,"Payroll Accrual"
"GLI","02/28/2017","12502","1110660","GLI022817","GLI022817",10.04,"Payroll Accrual"
"GLI","02/28/2017","12501","1110660","GLI022817","GLI022817",10.04,"Payroll Accrual"
"GLI","02/28/2017","12311","1110660","GLI022817","GLI022817",192.54,"Payroll Accrual"
"GLI","02/28/2017","12306H","1110660","GLI022817","GLI022817",140.03,"Payroll Accrual"
"GLI","02/28/2017","12305H","1110660","GLI022817","GLI022817",140.03,"Payroll Accrual"
"GLI","02/28/2017","12304H","1110660","GLI022817","GLI022817",140.03,"Payroll Accrual"
"GLI","02/28/2017","12302H","1110660","GLI022817","GLI022817",131.28,"Payroll Accrual"
"GLI","02/28/2017","12301H","1110660","GLI022817","GLI022817",131.28,"Payroll Accrual"
"GLI","02/28/2017","12905","1110650","GLI022817","GLI022817",28.32,"Payroll Accrual"
"GLI","02/28/2017","12505","1110650","GLI022817","GLI022817",144.45,"Payroll Accrual"
"GLI","02/28/2017","124703","1110650","GLI022817","GLI022817",1888.18,"Payroll Accrual"
"GLI","02/28/2017","12504","1109819","GLI022817","GLI022817",49.92,"Payroll Accrual"
"GLI","02/28/2017","12204A","1109819","GLI022817","GLI022817",711.24,"Payroll Accrual"
"GLI","02/28/2017","12527","1109000","GLI022817","GLI022817",16.84,"Payroll Accrual"
"GLI","02/28/2017","12327","1109000","GLI022817","GLI022817",220.1,"Payroll Accrual"
"GLI","02/28/2017","12503","1108452","GLI022817","GLI022817",22.52,"Payroll Accrual"
"GLI","02/28/2017","124723","1108452","GLI022817","GLI022817",294.36,"Payroll Accrual"
"GLI","02/28/2017","12904","1108248","GLI022817","GLI022817",16.03,"Payroll Accrual"
"GLI","02/28/2017","12504","1108248","GLI022817","GLI022817",61.31,"Payroll Accrual"
"GLI","02/28/2017","124704","1108248","GLI022817","GLI022817",801.47,"Payroll Accrual"
"GLI","02/28/2017","12905","1108200","GLI022817","GLI022817",31.31,"Payroll Accrual"
"GLI","02/28/2017","12505","1108200","GLI022817","GLI022817",157.99,"Payroll Accrual"
"GLI","02/28/2017","12305B","1108200","GLI022817","GLI022817",2086.98,"Payroll Accrual"
"GLI","02/28/2017","12904","1107950","GLI022817","GLI022817",13.08,"Payroll Accrual"
"GLI","02/28/2017","12504","1107950","GLI022817","GLI022817",64.03,"Payroll Accrual"
"GLI","02/28/2017","124704","1107950","GLI022817","GLI022817",871.92,"Payroll Accrual"
"GLI","02/28/2017","12904","1106421","GLI022817","GLI022817",28.17,"Payroll Accrual"
"GLI","02/28/2017","12504","1106421","GLI022817","GLI022817",131.21,"Payroll Accrual"
"GLI","02/28/2017","124704","1106421","GLI022817","GLI022817",1877.89,"Payroll Accrual"
"GLI","02/28/2017","12905","1106400","GLI022817","GLI022817",26.8,"Payroll Accrual"
"GLI","02/28/2017","12505","1106400","GLI022817","GLI022817",133.08,"Payroll Accrual"
"GLI","02/28/2017","124703","1106400","GLI022817","GLI022817",1786.4,"Payroll Accrual"
"GLI","02/28/2017","12904","1106399","GLI022817","GLI022817",51.05,"Payroll Accrual"
"GLI","02/28/2017","12504","1106399","GLI022817","GLI022817",195.25,"Payroll Accrual"
"GLI","02/28/2017","124704","1106399","GLI022817","GLI022817",2552.27,"Payroll Accrual"
"GLI","02/28/2017","12924","1103065","GLI022817","GLI022817",4.15,"Payroll Accrual"
"GLI","02/28/2017","12905","1103065","GLI022817","GLI022817",4.15,"Payroll Accrual"
"GLI","02/28/2017","12904","1103065","GLI022817","GLI022817",4.15,"Payroll Accrual"
"GLI","02/28/2017","12901","1103065","GLI022817","GLI022817",4.15,"Payroll Accrual"
"GLI","02/28/2017","12524","1103065","GLI022817","GLI022817",8.66,"Payroll Accrual"
"GLI","02/28/2017","12505","1103065","GLI022817","GLI022817",8.66,"Payroll Accrual"
"GLI","02/28/2017","12504","1103065","GLI022817","GLI022817",8.66,"Payroll Accrual"
"GLI","02/28/2017","12501","1103065","GLI022817","GLI022817",8.66,"Payroll Accrual"
"GLI","02/28/2017","12324F","1103065","GLI022817","GLI022817",207.59,"Payroll Accrual"
"GLI","02/28/2017","12305F","1103065","GLI022817","GLI022817",207.59,"Payroll Accrual"
"GLI","02/28/2017","12304F","1103065","GLI022817","GLI022817",207.59,"Payroll Accrual"
"GLI","02/28/2017","12301F","1103065","GLI022817","GLI022817",207.59,"Payroll Accrual"
"GLI","02/28/2017","12903","1102198","GLI022817","GLI022817",18.43,"Payroll Accrual"
"GLI","02/28/2017","12503","1102198","GLI022817","GLI022817",93.14,"Payroll Accrual"
"GLI","02/28/2017","12103","1102198","GLI022817","GLI022817",1228.85,"Payroll Accrual"
"GLI","02/28/2017","12904","1102195","GLI022817","GLI022817",49.15,"Payroll Accrual"
"GLI","02/28/2017","12504","1102195","GLI022817","GLI022817",184.62,"Payroll Accrual"
"GLI","02/28/2017","12104","1102195","GLI022817","GLI022817",2457.69,"Payroll Accrual"
"GLI","02/28/2017","12503","1101568","GLI022817","GLI022817",20.72,"Payroll Accrual"
"GLI","02/28/2017","124723","1101568","GLI022817","GLI022817",270.84,"Payroll Accrual"
"GLI","02/28/2017","12504","110123","GLI022817","GLI022817",102.47,"Payroll Accrual"
"GLI","02/28/2017","124704","110123","GLI022817","GLI022817",1518.48,"Payroll Accrual"
"GLI","02/28/2017","12524","1100820","GLI022817","GLI022817",36.95,"Payroll Accrual"
"GLI","02/28/2017","124724","1100820","GLI022817","GLI022817",483,"Payroll Accrual"
"GLI","02/28/2017","12505","1100625","GLI022817","GLI022817",73.79,"Payroll Accrual"
"GLI","02/28/2017","124703","1100625","GLI022817","GLI022817",964.56,"Payroll Accrual"
