journal,date,account,control,document,reference,amount,description
GLI,4/30/2018,232103,GLI043018,GLI043018,GLI043018,-58991.87,Payroll Accrual
GLI,4/30/2018,132101,GLI043018,GLI043018,GLI043018,-489264.21,Payroll Accrual
GLI,4/30/2018,12006,1130426,GLI043018,GLI043018,1788.92,Payroll Accrual
GLI,4/30/2018,12005,1130426,GLI043018,GLI043018,1788.92,Payroll Accrual
GLI,4/30/2018,12004,1130426,GLI043018,GLI043018,1788.92,Payroll Accrual
GLI,4/30/2018,12002,1130426,GLI043018,GLI043018,1788.92,Payroll Accrual
GLI,4/30/2018,12001,1130426,GLI043018,GLI043018,1613.56,Payroll Accrual
GLI,4/30/2018,22504,298543,GLI043018,GLI043018,137.59,Payroll Accrual
GLI,4/30/2018,224704,298543,GLI043018,GLI043018,1798.6,Payroll Accrual
GLI,4/30/2018,22504,295148,GLI043018,GLI043018,102.24,Payroll Accrual
GLI,4/30/2018,224704,295148,GLI043018,GLI043018,1505.36,Payroll Accrual
GLI,4/30/2018,22910,291600,GLI043018,GLI043018,2.62,Payroll Accrual
GLI,4/30/2018,22906,291600,GLI043018,GLI043018,5.46,Payroll Accrual
GLI,4/30/2018,22904,291600,GLI043018,GLI043018,5.46,Payroll Accrual
GLI,4/30/2018,22902,291600,GLI043018,GLI043018,5.46,Payroll Accrual
GLI,4/30/2018,22901,291600,GLI043018,GLI043018,2.84,Payroll Accrual
GLI,4/30/2018,22510,291600,GLI043018,GLI043018,4.63,Payroll Accrual
GLI,4/30/2018,22506,291600,GLI043018,GLI043018,15.47,Payroll Accrual
GLI,4/30/2018,22504,291600,GLI043018,GLI043018,15.47,Payroll Accrual
GLI,4/30/2018,22502,291600,GLI043018,GLI043018,15.47,Payroll Accrual
GLI,4/30/2018,22501,291600,GLI043018,GLI043018,5.45,Payroll Accrual
GLI,4/30/2018,22210B,291600,GLI043018,GLI043018,131,Payroll Accrual
GLI,4/30/2018,22206B,291600,GLI043018,GLI043018,272.91,Payroll Accrual
GLI,4/30/2018,22204B,291600,GLI043018,GLI043018,272.91,Payroll Accrual
GLI,4/30/2018,22202B,291600,GLI043018,GLI043018,272.91,Payroll Accrual
GLI,4/30/2018,22201B,291600,GLI043018,GLI043018,141.91,Payroll Accrual
GLI,4/30/2018,22504,291582,GLI043018,GLI043018,32.08,Payroll Accrual
GLI,4/30/2018,22304C,291582,GLI043018,GLI043018,419.43,Payroll Accrual
GLI,4/30/2018,22504,286593,GLI043018,GLI043018,224.08,Payroll Accrual
GLI,4/30/2018,22304B,286593,GLI043018,GLI043018,2929.25,Payroll Accrual
GLI,4/30/2018,22910,284625,GLI043018,GLI043018,15.78,Payroll Accrual
GLI,4/30/2018,22902,284625,GLI043018,GLI043018,31.57,Payroll Accrual
GLI,4/30/2018,22901,284625,GLI043018,GLI043018,15.78,Payroll Accrual
GLI,4/30/2018,22510,284625,GLI043018,GLI043018,79.09,Payroll Accrual
GLI,4/30/2018,22502,284625,GLI043018,GLI043018,158.18,Payroll Accrual
GLI,4/30/2018,22501,284625,GLI043018,GLI043018,79.09,Payroll Accrual
GLI,4/30/2018,22110,284625,GLI043018,GLI043018,1052.31,Payroll Accrual
GLI,4/30/2018,22102,284625,GLI043018,GLI043018,2104.62,Payroll Accrual
GLI,4/30/2018,22101,284625,GLI043018,GLI043018,1052.31,Payroll Accrual
GLI,4/30/2018,22904,282713,GLI043018,GLI043018,9.3,Payroll Accrual
GLI,4/30/2018,22903,282713,GLI043018,GLI043018,9.3,Payroll Accrual
GLI,4/30/2018,22504,282713,GLI043018,GLI043018,40.66,Payroll Accrual
GLI,4/30/2018,22503,282713,GLI043018,GLI043018,40.66,Payroll Accrual
GLI,4/30/2018,22404,282713,GLI043018,GLI043018,112,Payroll Accrual
GLI,4/30/2018,22403,282713,GLI043018,GLI043018,112,Payroll Accrual
GLI,4/30/2018,22304B,282713,GLI043018,GLI043018,507.95,Payroll Accrual
GLI,4/30/2018,22303,282713,GLI043018,GLI043018,507.95,Payroll Accrual
GLI,4/30/2018,22504,279630,GLI043018,GLI043018,148.45,Payroll Accrual
GLI,4/30/2018,224704,279630,GLI043018,GLI043018,1940.5,Payroll Accrual
GLI,4/30/2018,22506,274225,GLI043018,GLI043018,130.74,Payroll Accrual
GLI,4/30/2018,22406,274225,GLI043018,GLI043018,320,Payroll Accrual
GLI,4/30/2018,22306,274225,GLI043018,GLI043018,1550.7,Payroll Accrual
GLI,4/30/2018,22904,273315,GLI043018,GLI043018,48.89,Payroll Accrual
GLI,4/30/2018,22504,273315,GLI043018,GLI043018,186.99,Payroll Accrual
GLI,4/30/2018,224704,273315,GLI043018,GLI043018,2444.51,Payroll Accrual
GLI,4/30/2018,22510,265874,GLI043018,GLI043018,5.08,Payroll Accrual
GLI,4/30/2018,21301C,265874,GLI043018,GLI043018,66.5,Payroll Accrual
GLI,4/30/2018,22510,265873,GLI043018,GLI043018,4.11,Payroll Accrual
GLI,4/30/2018,22506,265873,GLI043018,GLI043018,8.56,Payroll Accrual
GLI,4/30/2018,22504,265873,GLI043018,GLI043018,8.56,Payroll Accrual
GLI,4/30/2018,22502,265873,GLI043018,GLI043018,8.56,Payroll Accrual
GLI,4/30/2018,22501,265873,GLI043018,GLI043018,4.45,Payroll Accrual
GLI,4/30/2018,22210B,265873,GLI043018,GLI043018,53.75,Payroll Accrual
GLI,4/30/2018,22206B,265873,GLI043018,GLI043018,111.98,Payroll Accrual
GLI,4/30/2018,22204B,265873,GLI043018,GLI043018,111.98,Payroll Accrual
GLI,4/30/2018,22202B,265873,GLI043018,GLI043018,111.98,Payroll Accrual
GLI,4/30/2018,22201B,265873,GLI043018,GLI043018,58.23,Payroll Accrual
GLI,4/30/2018,22503,265849,GLI043018,GLI043018,65.86,Payroll Accrual
GLI,4/30/2018,224723,265849,GLI043018,GLI043018,861,Payroll Accrual
GLI,4/30/2018,22504,265348,GLI043018,GLI043018,138.72,Payroll Accrual
GLI,4/30/2018,224704,265348,GLI043018,GLI043018,1858.74,Payroll Accrual
GLI,4/30/2018,22503,26442,GLI043018,GLI043018,82.6,Payroll Accrual
GLI,4/30/2018,224723,26442,GLI043018,GLI043018,1079.71,Payroll Accrual
GLI,4/30/2018,22506,264220,GLI043018,GLI043018,97.15,Payroll Accrual
GLI,4/30/2018,22306,264220,GLI043018,GLI043018,1340.53,Payroll Accrual
GLI,4/30/2018,22510,264110,GLI043018,GLI043018,57.38,Payroll Accrual
GLI,4/30/2018,21301C,264110,GLI043018,GLI043018,750,Payroll Accrual
GLI,4/30/2018,22504,256879,GLI043018,GLI043018,28.93,Payroll Accrual
GLI,4/30/2018,22304C,256879,GLI043018,GLI043018,378.2,Payroll Accrual
GLI,4/30/2018,22510,256845,GLI043018,GLI043018,35.83,Payroll Accrual
GLI,4/30/2018,22502,256845,GLI043018,GLI043018,35.83,Payroll Accrual
GLI,4/30/2018,22501,256845,GLI043018,GLI043018,36.92,Payroll Accrual
GLI,4/30/2018,22310,256845,GLI043018,GLI043018,468.34,Payroll Accrual
GLI,4/30/2018,22302,256845,GLI043018,GLI043018,468.34,Payroll Accrual
GLI,4/30/2018,22301,256845,GLI043018,GLI043018,482.54,Payroll Accrual
GLI,4/30/2018,22503,256689,GLI043018,GLI043018,84.84,Payroll Accrual
GLI,4/30/2018,224723,256689,GLI043018,GLI043018,1185.15,Payroll Accrual
GLI,4/30/2018,22903,247000,GLI043018,GLI043018,19.01,Payroll Accrual
GLI,4/30/2018,22503,247000,GLI043018,GLI043018,96.96,Payroll Accrual
GLI,4/30/2018,22403,247000,GLI043018,GLI043018,112,Payroll Accrual
GLI,4/30/2018,22303,247000,GLI043018,GLI043018,1155.42,Payroll Accrual
GLI,4/30/2018,22503,24665,GLI043018,GLI043018,85.08,Payroll Accrual
GLI,4/30/2018,224723,24665,GLI043018,GLI043018,1112.1,Payroll Accrual
GLI,4/30/2018,22503,24551,GLI043018,GLI043018,32.46,Payroll Accrual
GLI,4/30/2018,224723,24551,GLI043018,GLI043018,424.32,Payroll Accrual
GLI,4/30/2018,22506,243180,GLI043018,GLI043018,97.8,Payroll Accrual
GLI,4/30/2018,22406,243180,GLI043018,GLI043018,128,Payroll Accrual
GLI,4/30/2018,22306,243180,GLI043018,GLI043018,1311.2,Payroll Accrual
GLI,4/30/2018,22903,241120,GLI043018,GLI043018,19.37,Payroll Accrual
GLI,4/30/2018,22503,241120,GLI043018,GLI043018,85.68,Payroll Accrual
GLI,4/30/2018,22403,241120,GLI043018,GLI043018,120,Payroll Accrual
GLI,4/30/2018,22303,241120,GLI043018,GLI043018,1171.18,Payroll Accrual
GLI,4/30/2018,22904,241085,GLI043018,GLI043018,22.91,Payroll Accrual
GLI,4/30/2018,22504,241085,GLI043018,GLI043018,114.24,Payroll Accrual
GLI,4/30/2018,224704,241085,GLI043018,GLI043018,1459.6,Payroll Accrual
GLI,4/30/2018,22404,241085,GLI043018,GLI043018,68,Payroll Accrual
GLI,4/30/2018,22504,230810,GLI043018,GLI043018,30.11,Payroll Accrual
GLI,4/30/2018,22304C,230810,GLI043018,GLI043018,393.5,Payroll Accrual
GLI,4/30/2018,22504,230601,GLI043018,GLI043018,248.13,Payroll Accrual
GLI,4/30/2018,22104,230601,GLI043018,GLI043018,3580.78,Payroll Accrual
GLI,4/30/2018,22510,22358,GLI043018,GLI043018,2.95,Payroll Accrual
GLI,4/30/2018,22506,22358,GLI043018,GLI043018,6.14,Payroll Accrual
GLI,4/30/2018,22504,22358,GLI043018,GLI043018,6.14,Payroll Accrual
GLI,4/30/2018,22502,22358,GLI043018,GLI043018,6.14,Payroll Accrual
GLI,4/30/2018,22501,22358,GLI043018,GLI043018,3.2,Payroll Accrual
GLI,4/30/2018,22210B,22358,GLI043018,GLI043018,38.53,Payroll Accrual
GLI,4/30/2018,22206B,22358,GLI043018,GLI043018,80.28,Payroll Accrual
GLI,4/30/2018,22204B,22358,GLI043018,GLI043018,80.28,Payroll Accrual
GLI,4/30/2018,22202B,22358,GLI043018,GLI043018,80.28,Payroll Accrual
GLI,4/30/2018,22201B,22358,GLI043018,GLI043018,41.74,Payroll Accrual
GLI,4/30/2018,22503,223050,GLI043018,GLI043018,58.3,Payroll Accrual
GLI,4/30/2018,224723,223050,GLI043018,GLI043018,762.02,Payroll Accrual
GLI,4/30/2018,22910,2141225,GLI043018,GLI043018,6.43,Payroll Accrual
GLI,4/30/2018,22902,2141225,GLI043018,GLI043018,6.43,Payroll Accrual
GLI,4/30/2018,22901,2141225,GLI043018,GLI043018,6.63,Payroll Accrual
GLI,4/30/2018,22510,2141225,GLI043018,GLI043018,25.55,Payroll Accrual
GLI,4/30/2018,22502,2141225,GLI043018,GLI043018,25.55,Payroll Accrual
GLI,4/30/2018,22501,2141225,GLI043018,GLI043018,26.54,Payroll Accrual
GLI,4/30/2018,22310,2141225,GLI043018,GLI043018,428.92,Payroll Accrual
GLI,4/30/2018,22302,2141225,GLI043018,GLI043018,428.92,Payroll Accrual
GLI,4/30/2018,22301,2141225,GLI043018,GLI043018,441.92,Payroll Accrual
GLI,4/30/2018,22903,213520,GLI043018,GLI043018,11.46,Payroll Accrual
GLI,4/30/2018,22503,213520,GLI043018,GLI043018,58.45,Payroll Accrual
GLI,4/30/2018,224723,213520,GLI043018,GLI043018,763.98,Payroll Accrual
GLI,4/30/2018,22904,2130150,GLI043018,GLI043018,49.8,Payroll Accrual
GLI,4/30/2018,22504,2130150,GLI043018,GLI043018,190.51,Payroll Accrual
GLI,4/30/2018,224704,2130150,GLI043018,GLI043018,2082.35,Payroll Accrual
GLI,4/30/2018,22404,2130150,GLI043018,GLI043018,408,Payroll Accrual
GLI,4/30/2018,22504,2126053,GLI043018,GLI043018,25.69,Payroll Accrual
GLI,4/30/2018,22304C,2126053,GLI043018,GLI043018,335.8,Payroll Accrual
GLI,4/30/2018,22503,211260,GLI043018,GLI043018,91.86,Payroll Accrual
GLI,4/30/2018,224723,211260,GLI043018,GLI043018,1217.91,Payroll Accrual
GLI,4/30/2018,22504,211201,GLI043018,GLI043018,134.64,Payroll Accrual
GLI,4/30/2018,224704,211201,GLI043018,GLI043018,1759.96,Payroll Accrual
GLI,4/30/2018,22504,2106410,GLI043018,GLI043018,112.23,Payroll Accrual
GLI,4/30/2018,22304B,2106410,GLI043018,GLI043018,1467.07,Payroll Accrual
GLI,4/30/2018,22506,2106350,GLI043018,GLI043018,206.63,Payroll Accrual
GLI,4/30/2018,22106,2106350,GLI043018,GLI043018,2809.3,Payroll Accrual
GLI,4/30/2018,22504,210073,GLI043018,GLI043018,118.09,Payroll Accrual
GLI,4/30/2018,224704,210073,GLI043018,GLI043018,1589.17,Payroll Accrual
GLI,4/30/2018,12503,19856,GLI043018,GLI043018,26.24,Payroll Accrual
GLI,4/30/2018,124723,19856,GLI043018,GLI043018,343.08,Payroll Accrual
GLI,4/30/2018,12903,196345,GLI043018,GLI043018,26.93,Payroll Accrual
GLI,4/30/2018,12503,196345,GLI043018,GLI043018,103.03,Payroll Accrual
GLI,4/30/2018,12303,196345,GLI043018,GLI043018,1346.82,Payroll Accrual
GLI,4/30/2018,12906,196341,GLI043018,GLI043018,8.93,Payroll Accrual
GLI,4/30/2018,12905,196341,GLI043018,GLI043018,7.83,Payroll Accrual
GLI,4/30/2018,12514,196341,GLI043018,GLI043018,23.14,Payroll Accrual
GLI,4/30/2018,12506,196341,GLI043018,GLI043018,2.09,Payroll Accrual
GLI,4/30/2018,12505,196341,GLI043018,GLI043018,1.83,Payroll Accrual
GLI,4/30/2018,12504,196341,GLI043018,GLI043018,19.1,Payroll Accrual
GLI,4/30/2018,12502,196341,GLI043018,GLI043018,16.4,Payroll Accrual
GLI,4/30/2018,12501,196341,GLI043018,GLI043018,16.4,Payroll Accrual
GLI,4/30/2018,12214,196341,GLI043018,GLI043018,387.47,Payroll Accrual
GLI,4/30/2018,12206C,196341,GLI043018,GLI043018,228.96,Payroll Accrual
GLI,4/30/2018,12205C,196341,GLI043018,GLI043018,211.35,Payroll Accrual
GLI,4/30/2018,12204C,196341,GLI043018,GLI043018,334.64,Payroll Accrual
GLI,4/30/2018,12202C,196341,GLI043018,GLI043018,299.41,Payroll Accrual
GLI,4/30/2018,12201C,196341,GLI043018,GLI043018,299.41,Payroll Accrual
GLI,4/30/2018,12503,196205,GLI043018,GLI043018,88.3,Payroll Accrual
GLI,4/30/2018,124723,196205,GLI043018,GLI043018,1154.16,Payroll Accrual
GLI,4/30/2018,12527,195876,GLI043018,GLI043018,15.99,Payroll Accrual
GLI,4/30/2018,12327,195876,GLI043018,GLI043018,209,Payroll Accrual
GLI,4/30/2018,12506,195413,GLI043018,GLI043018,19.69,Payroll Accrual
GLI,4/30/2018,12306C,195413,GLI043018,GLI043018,257.4,Payroll Accrual
GLI,4/30/2018,12506,195401,GLI043018,GLI043018,92.91,Payroll Accrual
GLI,4/30/2018,12306D,195401,GLI043018,GLI043018,1285.06,Payroll Accrual
GLI,4/30/2018,12504,194675,GLI043018,GLI043018,216.51,Payroll Accrual
GLI,4/30/2018,124704,194675,GLI043018,GLI043018,2873.97,Payroll Accrual
GLI,4/30/2018,12527,193062,GLI043018,GLI043018,26.11,Payroll Accrual
GLI,4/30/2018,12327,193062,GLI043018,GLI043018,341.22,Payroll Accrual
GLI,4/30/2018,12505,191350,GLI043018,GLI043018,239.27,Payroll Accrual
GLI,4/30/2018,124703,191350,GLI043018,GLI043018,3127.74,Payroll Accrual
GLI,4/30/2018,12405,191350,GLI043018,GLI043018,468.48,Payroll Accrual
GLI,4/30/2018,12504,191060,GLI043018,GLI043018,305.21,Payroll Accrual
GLI,4/30/2018,12304B,191060,GLI043018,GLI043018,3989.81,Payroll Accrual
GLI,4/30/2018,12505,190910,GLI043018,GLI043018,208.57,Payroll Accrual
GLI,4/30/2018,12305B,190910,GLI043018,GLI043018,2760.71,Payroll Accrual
GLI,4/30/2018,12906,190892,GLI043018,GLI043018,35.03,Payroll Accrual
GLI,4/30/2018,12506,190892,GLI043018,GLI043018,131.63,Payroll Accrual
GLI,4/30/2018,12306C,190892,GLI043018,GLI043018,1751.6,Payroll Accrual
GLI,4/30/2018,12505,190600,GLI043018,GLI043018,125.6,Payroll Accrual
GLI,4/30/2018,124703,190600,GLI043018,GLI043018,1752.9,Payroll Accrual
GLI,4/30/2018,12905,188338,GLI043018,GLI043018,51.01,Payroll Accrual
GLI,4/30/2018,12505,188338,GLI043018,GLI043018,181.74,Payroll Accrual
GLI,4/30/2018,12405,188338,GLI043018,GLI043018,80,Payroll Accrual
GLI,4/30/2018,12305B,188338,GLI043018,GLI043018,2470.85,Payroll Accrual
GLI,4/30/2018,12503,187934,GLI043018,GLI043018,73.45,Payroll Accrual
GLI,4/30/2018,124723,187934,GLI043018,GLI043018,960.12,Payroll Accrual
GLI,4/30/2018,12904,187675,GLI043018,GLI043018,63.14,Payroll Accrual
GLI,4/30/2018,12504,187675,GLI043018,GLI043018,235.35,Payroll Accrual
GLI,4/30/2018,124704,187675,GLI043018,GLI043018,3156.93,Payroll Accrual
GLI,4/30/2018,12905,186210,GLI043018,GLI043018,42.18,Payroll Accrual
GLI,4/30/2018,12505,186210,GLI043018,GLI043018,215.14,Payroll Accrual
GLI,4/30/2018,124703,186210,GLI043018,GLI043018,2812.26,Payroll Accrual
GLI,4/30/2018,12906,186100,GLI043018,GLI043018,13.15,Payroll Accrual
GLI,4/30/2018,12905,186100,GLI043018,GLI043018,13.15,Payroll Accrual
GLI,4/30/2018,12904,186100,GLI043018,GLI043018,13.15,Payroll Accrual
GLI,4/30/2018,12902,186100,GLI043018,GLI043018,13.15,Payroll Accrual
GLI,4/30/2018,12901,186100,GLI043018,GLI043018,13.15,Payroll Accrual
GLI,4/30/2018,12506,186100,GLI043018,GLI043018,50.01,Payroll Accrual
GLI,4/30/2018,12505,186100,GLI043018,GLI043018,50.01,Payroll Accrual
GLI,4/30/2018,12504,186100,GLI043018,GLI043018,50.01,Payroll Accrual
GLI,4/30/2018,12502,186100,GLI043018,GLI043018,50.01,Payroll Accrual
GLI,4/30/2018,12501,186100,GLI043018,GLI043018,50.01,Payroll Accrual
GLI,4/30/2018,12106,186100,GLI043018,GLI043018,657.69,Payroll Accrual
GLI,4/30/2018,12105,186100,GLI043018,GLI043018,657.69,Payroll Accrual
GLI,4/30/2018,12104,186100,GLI043018,GLI043018,657.69,Payroll Accrual
GLI,4/30/2018,12102,186100,GLI043018,GLI043018,657.69,Payroll Accrual
GLI,4/30/2018,12101,186100,GLI043018,GLI043018,657.69,Payroll Accrual
GLI,4/30/2018,12906,185801,GLI043018,GLI043018,1.33,Payroll Accrual
GLI,4/30/2018,12506,185801,GLI043018,GLI043018,6.79,Payroll Accrual
GLI,4/30/2018,12306C,185801,GLI043018,GLI043018,88.68,Payroll Accrual
GLI,4/30/2018,12503,185624,GLI043018,GLI043018,29.97,Payroll Accrual
GLI,4/30/2018,124723,185624,GLI043018,GLI043018,391.8,Payroll Accrual
GLI,4/30/2018,12915,185600,GLI043018,GLI043018,13.5,Payroll Accrual
GLI,4/30/2018,12906,185600,GLI043018,GLI043018,9.21,Payroll Accrual
GLI,4/30/2018,12905,185600,GLI043018,GLI043018,9.21,Payroll Accrual
GLI,4/30/2018,12904,185600,GLI043018,GLI043018,9.82,Payroll Accrual
GLI,4/30/2018,12902,185600,GLI043018,GLI043018,9.82,Payroll Accrual
GLI,4/30/2018,12901,185600,GLI043018,GLI043018,9.82,Payroll Accrual
GLI,4/30/2018,12515,185600,GLI043018,GLI043018,50.3,Payroll Accrual
GLI,4/30/2018,12506,185600,GLI043018,GLI043018,34.3,Payroll Accrual
GLI,4/30/2018,12505,185600,GLI043018,GLI043018,34.3,Payroll Accrual
GLI,4/30/2018,12504,185600,GLI043018,GLI043018,36.58,Payroll Accrual
GLI,4/30/2018,12502,185600,GLI043018,GLI043018,36.58,Payroll Accrual
GLI,4/30/2018,12501,185600,GLI043018,GLI043018,36.58,Payroll Accrual
GLI,4/30/2018,12315,185600,GLI043018,GLI043018,675.23,Payroll Accrual
GLI,4/30/2018,12306,185600,GLI043018,GLI043018,460.39,Payroll Accrual
GLI,4/30/2018,12305,185600,GLI043018,GLI043018,460.39,Payroll Accrual
GLI,4/30/2018,12304,185600,GLI043018,GLI043018,491.08,Payroll Accrual
GLI,4/30/2018,12302,185600,GLI043018,GLI043018,491.08,Payroll Accrual
GLI,4/30/2018,12301,185600,GLI043018,GLI043018,491.08,Payroll Accrual
GLI,4/30/2018,12905,184920,GLI043018,GLI043018,63.12,Payroll Accrual
GLI,4/30/2018,12505,184920,GLI043018,GLI043018,320.18,Payroll Accrual
GLI,4/30/2018,124703,184920,GLI043018,GLI043018,4207.94,Payroll Accrual
GLI,4/30/2018,12924,184806,GLI043018,GLI043018,79.42,Payroll Accrual
GLI,4/30/2018,12524,184806,GLI043018,GLI043018,303.78,Payroll Accrual
GLI,4/30/2018,124724,184806,GLI043018,GLI043018,3971,Payroll Accrual
GLI,4/30/2018,12524,184620,GLI043018,GLI043018,126.15,Payroll Accrual
GLI,4/30/2018,124724,184620,GLI043018,GLI043018,1648.96,Payroll Accrual
GLI,4/30/2018,12905,184614,GLI043018,GLI043018,51.53,Payroll Accrual
GLI,4/30/2018,12505,184614,GLI043018,GLI043018,262.79,Payroll Accrual
GLI,4/30/2018,124703,184614,GLI043018,GLI043018,3435.19,Payroll Accrual
GLI,4/30/2018,12906,184610,GLI043018,GLI043018,51.79,Payroll Accrual
GLI,4/30/2018,12506,184610,GLI043018,GLI043018,192.71,Payroll Accrual
GLI,4/30/2018,12306B,184610,GLI043018,GLI043018,2589.63,Payroll Accrual
GLI,4/30/2018,12914,181520,GLI043018,GLI043018,6.75,Payroll Accrual
GLI,4/30/2018,12906,181520,GLI043018,GLI043018,6.03,Payroll Accrual
GLI,4/30/2018,12905,181520,GLI043018,GLI043018,4.77,Payroll Accrual
GLI,4/30/2018,12904,181520,GLI043018,GLI043018,5.83,Payroll Accrual
GLI,4/30/2018,12902,181520,GLI043018,GLI043018,5.21,Payroll Accrual
GLI,4/30/2018,12901,181520,GLI043018,GLI043018,5.21,Payroll Accrual
GLI,4/30/2018,12514,181520,GLI043018,GLI043018,13.08,Payroll Accrual
GLI,4/30/2018,12506,181520,GLI043018,GLI043018,0.48,Payroll Accrual
GLI,4/30/2018,12505,181520,GLI043018,GLI043018,0.25,Payroll Accrual
GLI,4/30/2018,12504,181520,GLI043018,GLI043018,9.55,Payroll Accrual
GLI,4/30/2018,12502,181520,GLI043018,GLI043018,7.21,Payroll Accrual
GLI,4/30/2018,12501,181520,GLI043018,GLI043018,7.21,Payroll Accrual
GLI,4/30/2018,12214,181520,GLI043018,GLI043018,337.4,Payroll Accrual
GLI,4/30/2018,12206C,181520,GLI043018,GLI043018,199.38,Payroll Accrual
GLI,4/30/2018,12205C,181520,GLI043018,GLI043018,184.04,Payroll Accrual
GLI,4/30/2018,12204C,181520,GLI043018,GLI043018,291.39,Payroll Accrual
GLI,4/30/2018,12202C,181520,GLI043018,GLI043018,260.72,Payroll Accrual
GLI,4/30/2018,12201C,181520,GLI043018,GLI043018,260.72,Payroll Accrual
GLI,4/30/2018,12501,181310,GLI043018,GLI043018,17.03,Payroll Accrual
GLI,4/30/2018,11301C,181310,GLI043018,GLI043018,222.5,Payroll Accrual
GLI,4/30/2018,12904,18005,GLI043018,GLI043018,47.3,Payroll Accrual
GLI,4/30/2018,12504,18005,GLI043018,GLI043018,179.6,Payroll Accrual
GLI,4/30/2018,124704,18005,GLI043018,GLI043018,1324.83,Payroll Accrual
GLI,4/30/2018,12404,18005,GLI043018,GLI043018,1040,Payroll Accrual
GLI,4/30/2018,12906,179775,GLI043018,GLI043018,32.43,Payroll Accrual
GLI,4/30/2018,12506,179775,GLI043018,GLI043018,121.49,Payroll Accrual
GLI,4/30/2018,12406,179775,GLI043018,GLI043018,528,Payroll Accrual
GLI,4/30/2018,12306B,179775,GLI043018,GLI043018,1093.62,Payroll Accrual
GLI,4/30/2018,12506,179693,GLI043018,GLI043018,18.37,Payroll Accrual
GLI,4/30/2018,12505,179693,GLI043018,GLI043018,18.37,Payroll Accrual
GLI,4/30/2018,12504,179693,GLI043018,GLI043018,18.37,Payroll Accrual
GLI,4/30/2018,12502,179693,GLI043018,GLI043018,18.37,Payroll Accrual
GLI,4/30/2018,12501,179693,GLI043018,GLI043018,18.37,Payroll Accrual
GLI,4/30/2018,12206B,179693,GLI043018,GLI043018,240.15,Payroll Accrual
GLI,4/30/2018,12205B,179693,GLI043018,GLI043018,240.15,Payroll Accrual
GLI,4/30/2018,12204B,179693,GLI043018,GLI043018,240.15,Payroll Accrual
GLI,4/30/2018,12202B,179693,GLI043018,GLI043018,240.15,Payroll Accrual
GLI,4/30/2018,12201B,179693,GLI043018,GLI043018,240.15,Payroll Accrual
GLI,4/30/2018,12504,178079,GLI043018,GLI043018,161.38,Payroll Accrual
GLI,4/30/2018,12304D,178079,GLI043018,GLI043018,2546.55,Payroll Accrual
GLI,4/30/2018,12904,178050,GLI043018,GLI043018,23.79,Payroll Accrual
GLI,4/30/2018,12504,178050,GLI043018,GLI043018,119.62,Payroll Accrual
GLI,4/30/2018,124704,178050,GLI043018,GLI043018,1586.31,Payroll Accrual
GLI,4/30/2018,12404,178050,GLI043018,GLI043018,407.28,Payroll Accrual
GLI,4/30/2018,12903,177950,GLI043018,GLI043018,24.08,Payroll Accrual
GLI,4/30/2018,12503,177950,GLI043018,GLI043018,122.83,Payroll Accrual
GLI,4/30/2018,124723,177950,GLI043018,GLI043018,1605.67,Payroll Accrual
GLI,4/30/2018,12516,176505,GLI043018,GLI043018,13.18,Payroll Accrual
GLI,4/30/2018,12316,176505,GLI043018,GLI043018,172.2,Payroll Accrual
GLI,4/30/2018,12906,172077,GLI043018,GLI043018,41.75,Payroll Accrual
GLI,4/30/2018,12506,172077,GLI043018,GLI043018,147.41,Payroll Accrual
GLI,4/30/2018,12306B,172077,GLI043018,GLI043018,2087.71,Payroll Accrual
GLI,4/30/2018,12905,171055,GLI043018,GLI043018,96.47,Payroll Accrual
GLI,4/30/2018,12505,171055,GLI043018,GLI043018,356.18,Payroll Accrual
GLI,4/30/2018,124703,171055,GLI043018,GLI043018,4823.39,Payroll Accrual
GLI,4/30/2018,12527,168942,GLI043018,GLI043018,16.23,Payroll Accrual
GLI,4/30/2018,12327,168942,GLI043018,GLI043018,212.1,Payroll Accrual
GLI,4/30/2018,12516,167906,GLI043018,GLI043018,118.16,Payroll Accrual
GLI,4/30/2018,12316,167906,GLI043018,GLI043018,1561.63,Payroll Accrual
GLI,4/30/2018,12524,167834,GLI043018,GLI043018,82.63,Payroll Accrual
GLI,4/30/2018,124724,167834,GLI043018,GLI043018,1080.12,Payroll Accrual
GLI,4/30/2018,12914,167812,GLI043018,GLI043018,0.76,Payroll Accrual
GLI,4/30/2018,12906,167812,GLI043018,GLI043018,1.83,Payroll Accrual
GLI,4/30/2018,12905,167812,GLI043018,GLI043018,1.69,Payroll Accrual
GLI,4/30/2018,12904,167812,GLI043018,GLI043018,0.65,Payroll Accrual
GLI,4/30/2018,12902,167812,GLI043018,GLI043018,0.58,Payroll Accrual
GLI,4/30/2018,12901,167812,GLI043018,GLI043018,0.58,Payroll Accrual
GLI,4/30/2018,12514,167812,GLI043018,GLI043018,2.89,Payroll Accrual
GLI,4/30/2018,12506,167812,GLI043018,GLI043018,0.32,Payroll Accrual
GLI,4/30/2018,12505,167812,GLI043018,GLI043018,0.3,Payroll Accrual
GLI,4/30/2018,12504,167812,GLI043018,GLI043018,2.49,Payroll Accrual
GLI,4/30/2018,12502,167812,GLI043018,GLI043018,2.23,Payroll Accrual
GLI,4/30/2018,12501,167812,GLI043018,GLI043018,2.23,Payroll Accrual
GLI,4/30/2018,12214,167812,GLI043018,GLI043018,37.76,Payroll Accrual
GLI,4/30/2018,12206C,167812,GLI043018,GLI043018,22.31,Payroll Accrual
GLI,4/30/2018,12205C,167812,GLI043018,GLI043018,20.6,Payroll Accrual
GLI,4/30/2018,12204C,167812,GLI043018,GLI043018,32.61,Payroll Accrual
GLI,4/30/2018,12202C,167812,GLI043018,GLI043018,29.18,Payroll Accrual
GLI,4/30/2018,12201C,167812,GLI043018,GLI043018,29.18,Payroll Accrual
GLI,4/30/2018,12504,167580,GLI043018,GLI043018,167.32,Payroll Accrual
GLI,4/30/2018,124704,167580,GLI043018,GLI043018,2209.9,Payroll Accrual
GLI,4/30/2018,12404,167580,GLI043018,GLI043018,157.36,Payroll Accrual
GLI,4/30/2018,12504,165987,GLI043018,GLI043018,63.74,Payroll Accrual
GLI,4/30/2018,12304C,165987,GLI043018,GLI043018,833.22,Payroll Accrual
GLI,4/30/2018,12503,165473,GLI043018,GLI043018,38.39,Payroll Accrual
GLI,4/30/2018,124723,165473,GLI043018,GLI043018,501.84,Payroll Accrual
GLI,4/30/2018,12502,165400,GLI043018,GLI043018,36.9,Payroll Accrual
GLI,4/30/2018,12501,165400,GLI043018,GLI043018,36.9,Payroll Accrual
GLI,4/30/2018,12302,165400,GLI043018,GLI043018,561.4,Payroll Accrual
GLI,4/30/2018,12301,165400,GLI043018,GLI043018,561.4,Payroll Accrual
GLI,4/30/2018,12503,165378,GLI043018,GLI043018,98.8,Payroll Accrual
GLI,4/30/2018,124723,165378,GLI043018,GLI043018,1291.43,Payroll Accrual
GLI,4/30/2018,12905,165357,GLI043018,GLI043018,44.46,Payroll Accrual
GLI,4/30/2018,12505,165357,GLI043018,GLI043018,219.8,Payroll Accrual
GLI,4/30/2018,12405,165357,GLI043018,GLI043018,96,Payroll Accrual
GLI,4/30/2018,12305B,165357,GLI043018,GLI043018,2867.9,Payroll Accrual
GLI,4/30/2018,12905,165275,GLI043018,GLI043018,21.34,Payroll Accrual
GLI,4/30/2018,12505,165275,GLI043018,GLI043018,77.55,Payroll Accrual
GLI,4/30/2018,124703,165275,GLI043018,GLI043018,1067.11,Payroll Accrual
GLI,4/30/2018,12524,164920,GLI043018,GLI043018,99.05,Payroll Accrual
GLI,4/30/2018,124724,164920,GLI043018,GLI043018,1294.8,Payroll Accrual
GLI,4/30/2018,12904,164015,GLI043018,GLI043018,71.92,Payroll Accrual
GLI,4/30/2018,12504,164015,GLI043018,GLI043018,273.98,Payroll Accrual
GLI,4/30/2018,124704,164015,GLI043018,GLI043018,3595.79,Payroll Accrual
GLI,4/30/2018,12912,163096,GLI043018,GLI043018,7.64,Payroll Accrual
GLI,4/30/2018,12902,163096,GLI043018,GLI043018,13.55,Payroll Accrual
GLI,4/30/2018,12901,163096,GLI043018,GLI043018,13.55,Payroll Accrual
GLI,4/30/2018,12512,163096,GLI043018,GLI043018,27.92,Payroll Accrual
GLI,4/30/2018,12502,163096,GLI043018,GLI043018,50.51,Payroll Accrual
GLI,4/30/2018,12501,163096,GLI043018,GLI043018,50.51,Payroll Accrual
GLI,4/30/2018,12212,163096,GLI043018,GLI043018,382.16,Payroll Accrual
GLI,4/30/2018,12202C,163096,GLI043018,GLI043018,677.47,Payroll Accrual
GLI,4/30/2018,12201C,163096,GLI043018,GLI043018,677.47,Payroll Accrual
GLI,4/30/2018,12501,162800,GLI043018,GLI043018,18.36,Payroll Accrual
GLI,4/30/2018,11301C,162800,GLI043018,GLI043018,240,Payroll Accrual
GLI,4/30/2018,12906,16250,GLI043018,GLI043018,17.29,Payroll Accrual
GLI,4/30/2018,12506,16250,GLI043018,GLI043018,73.85,Payroll Accrual
GLI,4/30/2018,12406,16250,GLI043018,GLI043018,112,Payroll Accrual
GLI,4/30/2018,12306B,16250,GLI043018,GLI043018,1040.9,Payroll Accrual
GLI,4/30/2018,12906,162428,GLI043018,GLI043018,34.51,Payroll Accrual
GLI,4/30/2018,12506,162428,GLI043018,GLI043018,172.85,Payroll Accrual
GLI,4/30/2018,12306B,162428,GLI043018,GLI043018,2300.4,Payroll Accrual
GLI,4/30/2018,12902,161351,GLI043018,GLI043018,12.6,Payroll Accrual
GLI,4/30/2018,12901,161351,GLI043018,GLI043018,8.4,Payroll Accrual
GLI,4/30/2018,12502,161351,GLI043018,GLI043018,56.94,Payroll Accrual
GLI,4/30/2018,12501,161351,GLI043018,GLI043018,35.51,Payroll Accrual
GLI,4/30/2018,11102,161351,GLI043018,GLI043018,840.28,Payroll Accrual
GLI,4/30/2018,11101,161351,GLI043018,GLI043018,560.18,Payroll Accrual
GLI,4/30/2018,12506,161205,GLI043018,GLI043018,76.35,Payroll Accrual
GLI,4/30/2018,12306C,161205,GLI043018,GLI043018,998.04,Payroll Accrual
GLI,4/30/2018,12503,161010,GLI043018,GLI043018,28.74,Payroll Accrual
GLI,4/30/2018,124723,161010,GLI043018,GLI043018,375.62,Payroll Accrual
GLI,4/30/2018,12905,160930,GLI043018,GLI043018,60,Payroll Accrual
GLI,4/30/2018,12505,160930,GLI043018,GLI043018,222.58,Payroll Accrual
GLI,4/30/2018,12305C,160930,GLI043018,GLI043018,2999.95,Payroll Accrual
GLI,4/30/2018,12504,159863,GLI043018,GLI043018,142.14,Payroll Accrual
GLI,4/30/2018,124704,159863,GLI043018,GLI043018,1858.02,Payroll Accrual
GLI,4/30/2018,12503,159100,GLI043018,GLI043018,31.03,Payroll Accrual
GLI,4/30/2018,124723,159100,GLI043018,GLI043018,405.72,Payroll Accrual
GLI,4/30/2018,12906,1588879,GLI043018,GLI043018,10.74,Payroll Accrual
GLI,4/30/2018,12905,1588879,GLI043018,GLI043018,9.92,Payroll Accrual
GLI,4/30/2018,12514,1588879,GLI043018,GLI043018,22.43,Payroll Accrual
GLI,4/30/2018,12506,1588879,GLI043018,GLI043018,2.51,Payroll Accrual
GLI,4/30/2018,12505,1588879,GLI043018,GLI043018,2.32,Payroll Accrual
GLI,4/30/2018,12504,1588879,GLI043018,GLI043018,19.37,Payroll Accrual
GLI,4/30/2018,12502,1588879,GLI043018,GLI043018,17.34,Payroll Accrual
GLI,4/30/2018,12501,1588879,GLI043018,GLI043018,17.34,Payroll Accrual
GLI,4/30/2018,12214,1588879,GLI043018,GLI043018,293.23,Payroll Accrual
GLI,4/30/2018,12206C,1588879,GLI043018,GLI043018,173.27,Payroll Accrual
GLI,4/30/2018,12205C,1588879,GLI043018,GLI043018,159.94,Payroll Accrual
GLI,4/30/2018,12204C,1588879,GLI043018,GLI043018,253.25,Payroll Accrual
GLI,4/30/2018,12202C,1588879,GLI043018,GLI043018,226.59,Payroll Accrual
GLI,4/30/2018,12201C,1588879,GLI043018,GLI043018,226.59,Payroll Accrual
GLI,4/30/2018,12506,158820,GLI043018,GLI043018,6.63,Payroll Accrual
GLI,4/30/2018,12505,158820,GLI043018,GLI043018,6.63,Payroll Accrual
GLI,4/30/2018,12504,158820,GLI043018,GLI043018,6.63,Payroll Accrual
GLI,4/30/2018,12502,158820,GLI043018,GLI043018,6.63,Payroll Accrual
GLI,4/30/2018,12501,158820,GLI043018,GLI043018,6.63,Payroll Accrual
GLI,4/30/2018,12206B,158820,GLI043018,GLI043018,86.61,Payroll Accrual
GLI,4/30/2018,12205B,158820,GLI043018,GLI043018,86.61,Payroll Accrual
GLI,4/30/2018,12204B,158820,GLI043018,GLI043018,86.61,Payroll Accrual
GLI,4/30/2018,12202B,158820,GLI043018,GLI043018,86.61,Payroll Accrual
GLI,4/30/2018,12201B,158820,GLI043018,GLI043018,86.61,Payroll Accrual
GLI,4/30/2018,12527,158668,GLI043018,GLI043018,37.52,Payroll Accrual
GLI,4/30/2018,12327,158668,GLI043018,GLI043018,490.49,Payroll Accrual
GLI,4/30/2018,12914,157995,GLI043018,GLI043018,8.1,Payroll Accrual
GLI,4/30/2018,12906,157995,GLI043018,GLI043018,16.48,Payroll Accrual
GLI,4/30/2018,12905,157995,GLI043018,GLI043018,15.21,Payroll Accrual
GLI,4/30/2018,12904,157995,GLI043018,GLI043018,7,Payroll Accrual
GLI,4/30/2018,12902,157995,GLI043018,GLI043018,6.26,Payroll Accrual
GLI,4/30/2018,12901,157995,GLI043018,GLI043018,6.26,Payroll Accrual
GLI,4/30/2018,12514,157995,GLI043018,GLI043018,24.42,Payroll Accrual
GLI,4/30/2018,12506,157995,GLI043018,GLI043018,2.73,Payroll Accrual
GLI,4/30/2018,12505,157995,GLI043018,GLI043018,2.52,Payroll Accrual
GLI,4/30/2018,12504,157995,GLI043018,GLI043018,21.09,Payroll Accrual
GLI,4/30/2018,12502,157995,GLI043018,GLI043018,18.87,Payroll Accrual
GLI,4/30/2018,12501,157995,GLI043018,GLI043018,18.87,Payroll Accrual
GLI,4/30/2018,12214,157995,GLI043018,GLI043018,405.14,Payroll Accrual
GLI,4/30/2018,12206C,157995,GLI043018,GLI043018,239.4,Payroll Accrual
GLI,4/30/2018,12205C,157995,GLI043018,GLI043018,220.99,Payroll Accrual
GLI,4/30/2018,12204C,157995,GLI043018,GLI043018,349.89,Payroll Accrual
GLI,4/30/2018,12202C,157995,GLI043018,GLI043018,313.06,Payroll Accrual
GLI,4/30/2018,12201C,157995,GLI043018,GLI043018,313.06,Payroll Accrual
GLI,4/30/2018,12527,156988,GLI043018,GLI043018,30.19,Payroll Accrual
GLI,4/30/2018,12327,156988,GLI043018,GLI043018,394.6,Payroll Accrual
GLI,4/30/2018,12503,156894,GLI043018,GLI043018,26.82,Payroll Accrual
GLI,4/30/2018,124723,156894,GLI043018,GLI043018,350.64,Payroll Accrual
GLI,4/30/2018,12516,156874,GLI043018,GLI043018,201.26,Payroll Accrual
GLI,4/30/2018,12316,156874,GLI043018,GLI043018,2630.78,Payroll Accrual
GLI,4/30/2018,12516,156844,GLI043018,GLI043018,128.56,Payroll Accrual
GLI,4/30/2018,12316,156844,GLI043018,GLI043018,1759.42,Payroll Accrual
GLI,4/30/2018,12504,15668,GLI043018,GLI043018,84.2,Payroll Accrual
GLI,4/30/2018,12204A,15668,GLI043018,GLI043018,1117.74,Payroll Accrual
GLI,4/30/2018,12504,15654,GLI043018,GLI043018,44.03,Payroll Accrual
GLI,4/30/2018,12304C,15654,GLI043018,GLI043018,575.52,Payroll Accrual
GLI,4/30/2018,12506,15646,GLI043018,GLI043018,78.88,Payroll Accrual
GLI,4/30/2018,12306C,15646,GLI043018,GLI043018,1053.84,Payroll Accrual
GLI,4/30/2018,12506,155872,GLI043018,GLI043018,5.23,Payroll Accrual
GLI,4/30/2018,12505,155872,GLI043018,GLI043018,5.23,Payroll Accrual
GLI,4/30/2018,12504,155872,GLI043018,GLI043018,5.23,Payroll Accrual
GLI,4/30/2018,12502,155872,GLI043018,GLI043018,5.23,Payroll Accrual
GLI,4/30/2018,12501,155872,GLI043018,GLI043018,5.23,Payroll Accrual
GLI,4/30/2018,12206B,155872,GLI043018,GLI043018,68.34,Payroll Accrual
GLI,4/30/2018,12205B,155872,GLI043018,GLI043018,68.34,Payroll Accrual
GLI,4/30/2018,12204B,155872,GLI043018,GLI043018,68.34,Payroll Accrual
GLI,4/30/2018,12202B,155872,GLI043018,GLI043018,68.34,Payroll Accrual
GLI,4/30/2018,12201B,155872,GLI043018,GLI043018,68.34,Payroll Accrual
GLI,4/30/2018,12503,155477,GLI043018,GLI043018,63.59,Payroll Accrual
GLI,4/30/2018,124723,155477,GLI043018,GLI043018,935.9,Payroll Accrual
GLI,4/30/2018,12527,154474,GLI043018,GLI043018,8.18,Payroll Accrual
GLI,4/30/2018,12327,154474,GLI043018,GLI043018,107,Payroll Accrual
GLI,4/30/2018,12904,152525,GLI043018,GLI043018,31.18,Payroll Accrual
GLI,4/30/2018,12504,152525,GLI043018,GLI043018,144.39,Payroll Accrual
GLI,4/30/2018,124704,152525,GLI043018,GLI043018,2078.56,Payroll Accrual
GLI,4/30/2018,12512,152512,GLI043018,GLI043018,9.45,Payroll Accrual
GLI,4/30/2018,12502,152512,GLI043018,GLI043018,16.76,Payroll Accrual
GLI,4/30/2018,12501,152512,GLI043018,GLI043018,16.76,Payroll Accrual
GLI,4/30/2018,12212,152512,GLI043018,GLI043018,123.6,Payroll Accrual
GLI,4/30/2018,12202C,152512,GLI043018,GLI043018,219.11,Payroll Accrual
GLI,4/30/2018,12201C,152512,GLI043018,GLI043018,219.11,Payroll Accrual
GLI,4/30/2018,12927,152510,GLI043018,GLI043018,18.51,Payroll Accrual
GLI,4/30/2018,12527,152510,GLI043018,GLI043018,89.83,Payroll Accrual
GLI,4/30/2018,12327,152510,GLI043018,GLI043018,1233.75,Payroll Accrual
GLI,4/30/2018,12503,152499,GLI043018,GLI043018,96.18,Payroll Accrual
GLI,4/30/2018,12303,152499,GLI043018,GLI043018,1257.24,Payroll Accrual
GLI,4/30/2018,12924,152495,GLI043018,GLI043018,34.1,Payroll Accrual
GLI,4/30/2018,12524,152495,GLI043018,GLI043018,173.93,Payroll Accrual
GLI,4/30/2018,124724,152495,GLI043018,GLI043018,2273.6,Payroll Accrual
GLI,4/30/2018,12903,152432,GLI043018,GLI043018,13.23,Payroll Accrual
GLI,4/30/2018,12503,152432,GLI043018,GLI043018,67.49,Payroll Accrual
GLI,4/30/2018,12303,152432,GLI043018,GLI043018,882.19,Payroll Accrual
GLI,4/30/2018,12904,152410,GLI043018,GLI043018,62.77,Payroll Accrual
GLI,4/30/2018,12504,152410,GLI043018,GLI043018,239.36,Payroll Accrual
GLI,4/30/2018,124704,152410,GLI043018,GLI043018,3138.41,Payroll Accrual
GLI,4/30/2018,12904,152235,GLI043018,GLI043018,86.04,Payroll Accrual
GLI,4/30/2018,12504,152235,GLI043018,GLI043018,329.12,Payroll Accrual
GLI,4/30/2018,124704,152235,GLI043018,GLI043018,4302.21,Payroll Accrual
GLI,4/30/2018,12404,152235,GLI043018,GLI043018,1360,Payroll Accrual
GLI,4/30/2018,12904,151410,GLI043018,GLI043018,19.85,Payroll Accrual
GLI,4/30/2018,12504,151410,GLI043018,GLI043018,95.4,Payroll Accrual
GLI,4/30/2018,12404,151410,GLI043018,GLI043018,476,Payroll Accrual
GLI,4/30/2018,12204C,151410,GLI043018,GLI043018,847.28,Payroll Accrual
GLI,4/30/2018,12503,151203,GLI043018,GLI043018,16.29,Payroll Accrual
GLI,4/30/2018,124723,151203,GLI043018,GLI043018,212.88,Payroll Accrual
GLI,4/30/2018,12904,150126,GLI043018,GLI043018,55.29,Payroll Accrual
GLI,4/30/2018,12504,150126,GLI043018,GLI043018,281.97,Payroll Accrual
GLI,4/30/2018,124704,150126,GLI043018,GLI043018,3685.88,Payroll Accrual
GLI,4/30/2018,12404,150126,GLI043018,GLI043018,243.84,Payroll Accrual
GLI,4/30/2018,12905,150120,GLI043018,GLI043018,37.09,Payroll Accrual
GLI,4/30/2018,12505,150120,GLI043018,GLI043018,187.2,Payroll Accrual
GLI,4/30/2018,12105,150120,GLI043018,GLI043018,2472.92,Payroll Accrual
GLI,4/30/2018,12905,150105,GLI043018,GLI043018,57.83,Payroll Accrual
GLI,4/30/2018,12505,150105,GLI043018,GLI043018,292.56,Payroll Accrual
GLI,4/30/2018,124703,150105,GLI043018,GLI043018,3855.17,Payroll Accrual
GLI,4/30/2018,12904,149878,GLI043018,GLI043018,16.09,Payroll Accrual
GLI,4/30/2018,12504,149878,GLI043018,GLI043018,97.64,Payroll Accrual
GLI,4/30/2018,12304D,149878,GLI043018,GLI043018,1609.22,Payroll Accrual
GLI,4/30/2018,12901,148050,GLI043018,GLI043018,65.77,Payroll Accrual
GLI,4/30/2018,12501,148050,GLI043018,GLI043018,324.37,Payroll Accrual
GLI,4/30/2018,12101,148050,GLI043018,GLI043018,4384.44,Payroll Accrual
GLI,4/30/2018,12902,146480,GLI043018,GLI043018,13.33,Payroll Accrual
GLI,4/30/2018,12901,146480,GLI043018,GLI043018,13.33,Payroll Accrual
GLI,4/30/2018,12502,146480,GLI043018,GLI043018,51,Payroll Accrual
GLI,4/30/2018,12501,146480,GLI043018,GLI043018,51,Payroll Accrual
GLI,4/30/2018,12302,146480,GLI043018,GLI043018,666.66,Payroll Accrual
GLI,4/30/2018,12301,146480,GLI043018,GLI043018,666.66,Payroll Accrual
GLI,4/30/2018,12901,146450,GLI043018,GLI043018,63.14,Payroll Accrual
GLI,4/30/2018,12501,146450,GLI043018,GLI043018,233.86,Payroll Accrual
GLI,4/30/2018,12301B,146450,GLI043018,GLI043018,3156.93,Payroll Accrual
GLI,4/30/2018,12505,145972,GLI043018,GLI043018,23.14,Payroll Accrual
GLI,4/30/2018,12504,145972,GLI043018,GLI043018,23.14,Payroll Accrual
GLI,4/30/2018,12502,145972,GLI043018,GLI043018,23.14,Payroll Accrual
GLI,4/30/2018,12501,145972,GLI043018,GLI043018,23.14,Payroll Accrual
GLI,4/30/2018,12305F,145972,GLI043018,GLI043018,302.48,Payroll Accrual
GLI,4/30/2018,12304F,145972,GLI043018,GLI043018,302.48,Payroll Accrual
GLI,4/30/2018,12302F,145972,GLI043018,GLI043018,302.48,Payroll Accrual
GLI,4/30/2018,12301F,145972,GLI043018,GLI043018,302.48,Payroll Accrual
GLI,4/30/2018,12904,145801,GLI043018,GLI043018,47.14,Payroll Accrual
GLI,4/30/2018,12504,145801,GLI043018,GLI043018,235.71,Payroll Accrual
GLI,4/30/2018,124704,145801,GLI043018,GLI043018,3142.92,Payroll Accrual
GLI,4/30/2018,12505,145789,GLI043018,GLI043018,279.44,Payroll Accrual
GLI,4/30/2018,124703,145789,GLI043018,GLI043018,3652.77,Payroll Accrual
GLI,4/30/2018,12503,144788,GLI043018,GLI043018,122.78,Payroll Accrual
GLI,4/30/2018,12303,144788,GLI043018,GLI043018,1604.93,Payroll Accrual
GLI,4/30/2018,12503,143895,GLI043018,GLI043018,72.65,Payroll Accrual
GLI,4/30/2018,124723,143895,GLI043018,GLI043018,949.68,Payroll Accrual
GLI,4/30/2018,12524,143659,GLI043018,GLI043018,26.89,Payroll Accrual
GLI,4/30/2018,124724,143659,GLI043018,GLI043018,351.48,Payroll Accrual
GLI,4/30/2018,12905,141069,GLI043018,GLI043018,59.71,Payroll Accrual
GLI,4/30/2018,12505,141069,GLI043018,GLI043018,225.75,Payroll Accrual
GLI,4/30/2018,12305B,141069,GLI043018,GLI043018,2985.17,Payroll Accrual
GLI,4/30/2018,12504,141060,GLI043018,GLI043018,225.08,Payroll Accrual
GLI,4/30/2018,12304B,141060,GLI043018,GLI043018,2987.54,Payroll Accrual
GLI,4/30/2018,12904,140790,GLI043018,GLI043018,31.57,Payroll Accrual
GLI,4/30/2018,12903,140790,GLI043018,GLI043018,31.57,Payroll Accrual
GLI,4/30/2018,12504,140790,GLI043018,GLI043018,119.27,Payroll Accrual
GLI,4/30/2018,12503,140790,GLI043018,GLI043018,119.27,Payroll Accrual
GLI,4/30/2018,12104,140790,GLI043018,GLI043018,1578.47,Payroll Accrual
GLI,4/30/2018,12103,140790,GLI043018,GLI043018,1578.47,Payroll Accrual
GLI,4/30/2018,12916,138380,GLI043018,GLI043018,19.71,Payroll Accrual
GLI,4/30/2018,12516,138380,GLI043018,GLI043018,62.37,Payroll Accrual
GLI,4/30/2018,12316,138380,GLI043018,GLI043018,985.74,Payroll Accrual
GLI,4/30/2018,12501,13815,GLI043018,GLI043018,49.16,Payroll Accrual
GLI,4/30/2018,11301C,13815,GLI043018,GLI043018,642.5,Payroll Accrual
GLI,4/30/2018,12504,13725,GLI043018,GLI043018,357.14,Payroll Accrual
GLI,4/30/2018,124704,13725,GLI043018,GLI043018,5139.53,Payroll Accrual
GLI,4/30/2018,12905,137101,GLI043018,GLI043018,29.67,Payroll Accrual
GLI,4/30/2018,12505,137101,GLI043018,GLI043018,151.32,Payroll Accrual
GLI,4/30/2018,124703,137101,GLI043018,GLI043018,1978.02,Payroll Accrual
GLI,4/30/2018,12405,137101,GLI043018,GLI043018,144,Payroll Accrual
GLI,4/30/2018,12904,136170,GLI043018,GLI043018,20.35,Payroll Accrual
GLI,4/30/2018,12504,136170,GLI043018,GLI043018,151.9,Payroll Accrual
GLI,4/30/2018,124704,136170,GLI043018,GLI043018,2035.2,Payroll Accrual
GLI,4/30/2018,12503,135987,GLI043018,GLI043018,32.64,Payroll Accrual
GLI,4/30/2018,124723,135987,GLI043018,GLI043018,426.6,Payroll Accrual
GLI,4/30/2018,12505,135770,GLI043018,GLI043018,323.9,Payroll Accrual
GLI,4/30/2018,124703,135770,GLI043018,GLI043018,4234.01,Payroll Accrual
GLI,4/30/2018,12506,132987,GLI043018,GLI043018,15.65,Payroll Accrual
GLI,4/30/2018,12505,132987,GLI043018,GLI043018,15.65,Payroll Accrual
GLI,4/30/2018,12504,132987,GLI043018,GLI043018,15.65,Payroll Accrual
GLI,4/30/2018,12502,132987,GLI043018,GLI043018,15.65,Payroll Accrual
GLI,4/30/2018,12501,132987,GLI043018,GLI043018,15.65,Payroll Accrual
GLI,4/30/2018,12206B,132987,GLI043018,GLI043018,210.09,Payroll Accrual
GLI,4/30/2018,12205B,132987,GLI043018,GLI043018,210.09,Payroll Accrual
GLI,4/30/2018,12204B,132987,GLI043018,GLI043018,210.09,Payroll Accrual
GLI,4/30/2018,12202B,132987,GLI043018,GLI043018,210.09,Payroll Accrual
GLI,4/30/2018,12201B,132987,GLI043018,GLI043018,210.09,Payroll Accrual
GLI,4/30/2018,12915,132500,GLI043018,GLI043018,12.73,Payroll Accrual
GLI,4/30/2018,12906,132500,GLI043018,GLI043018,8.68,Payroll Accrual
GLI,4/30/2018,12905,132500,GLI043018,GLI043018,8.68,Payroll Accrual
GLI,4/30/2018,12904,132500,GLI043018,GLI043018,9.26,Payroll Accrual
GLI,4/30/2018,12902,132500,GLI043018,GLI043018,9.26,Payroll Accrual
GLI,4/30/2018,12901,132500,GLI043018,GLI043018,9.26,Payroll Accrual
GLI,4/30/2018,12515,132500,GLI043018,GLI043018,48.05,Payroll Accrual
GLI,4/30/2018,12506,132500,GLI043018,GLI043018,32.76,Payroll Accrual
GLI,4/30/2018,12505,132500,GLI043018,GLI043018,32.76,Payroll Accrual
GLI,4/30/2018,12504,132500,GLI043018,GLI043018,34.94,Payroll Accrual
GLI,4/30/2018,12502,132500,GLI043018,GLI043018,34.94,Payroll Accrual
GLI,4/30/2018,12501,132500,GLI043018,GLI043018,34.94,Payroll Accrual
GLI,4/30/2018,12315,132500,GLI043018,GLI043018,636.65,Payroll Accrual
GLI,4/30/2018,12306,132500,GLI043018,GLI043018,434.08,Payroll Accrual
GLI,4/30/2018,12305,132500,GLI043018,GLI043018,434.08,Payroll Accrual
GLI,4/30/2018,12304,132500,GLI043018,GLI043018,463.02,Payroll Accrual
GLI,4/30/2018,12302,132500,GLI043018,GLI043018,463.02,Payroll Accrual
GLI,4/30/2018,12301,132500,GLI043018,GLI043018,463.02,Payroll Accrual
GLI,4/30/2018,12904,131370,GLI043018,GLI043018,46.01,Payroll Accrual
GLI,4/30/2018,12504,131370,GLI043018,GLI043018,176,Payroll Accrual
GLI,4/30/2018,124704,131370,GLI043018,GLI043018,2300.65,Payroll Accrual
GLI,4/30/2018,12924,131315,GLI043018,GLI043018,58.9,Payroll Accrual
GLI,4/30/2018,12524,131315,GLI043018,GLI043018,224.86,Payroll Accrual
GLI,4/30/2018,124724,131315,GLI043018,GLI043018,2944.9,Payroll Accrual
GLI,4/30/2018,12904,12800,GLI043018,GLI043018,24.51,Payroll Accrual
GLI,4/30/2018,12504,12800,GLI043018,GLI043018,113.37,Payroll Accrual
GLI,4/30/2018,12404,12800,GLI043018,GLI043018,56,Payroll Accrual
GLI,4/30/2018,12304D,12800,GLI043018,GLI043018,1578.29,Payroll Accrual
GLI,4/30/2018,12903,12725,GLI043018,GLI043018,9.05,Payroll Accrual
GLI,4/30/2018,12503,12725,GLI043018,GLI043018,46.16,Payroll Accrual
GLI,4/30/2018,124723,12725,GLI043018,GLI043018,603.4,Payroll Accrual
GLI,4/30/2018,12504,126887,GLI043018,GLI043018,161.01,Payroll Accrual
GLI,4/30/2018,12304B,126887,GLI043018,GLI043018,2104.62,Payroll Accrual
GLI,4/30/2018,12902,126200,GLI043018,GLI043018,17.76,Payroll Accrual
GLI,4/30/2018,12901,126200,GLI043018,GLI043018,17.76,Payroll Accrual
GLI,4/30/2018,12502,126200,GLI043018,GLI043018,90.57,Payroll Accrual
GLI,4/30/2018,12501,126200,GLI043018,GLI043018,90.57,Payroll Accrual
GLI,4/30/2018,12202A,126200,GLI043018,GLI043018,1183.85,Payroll Accrual
GLI,4/30/2018,12201A,126200,GLI043018,GLI043018,1183.85,Payroll Accrual
GLI,4/30/2018,12505,125888,GLI043018,GLI043018,9.77,Payroll Accrual
GLI,4/30/2018,12504,125888,GLI043018,GLI043018,9.77,Payroll Accrual
GLI,4/30/2018,12502,125888,GLI043018,GLI043018,9.77,Payroll Accrual
GLI,4/30/2018,12501,125888,GLI043018,GLI043018,9.77,Payroll Accrual
GLI,4/30/2018,12305F,125888,GLI043018,GLI043018,127.74,Payroll Accrual
GLI,4/30/2018,12304F,125888,GLI043018,GLI043018,127.74,Payroll Accrual
GLI,4/30/2018,12302F,125888,GLI043018,GLI043018,127.74,Payroll Accrual
GLI,4/30/2018,12301F,125888,GLI043018,GLI043018,127.74,Payroll Accrual
GLI,4/30/2018,12906,125774,GLI043018,GLI043018,10.12,Payroll Accrual
GLI,4/30/2018,12905,125774,GLI043018,GLI043018,9.35,Payroll Accrual
GLI,4/30/2018,12514,125774,GLI043018,GLI043018,21.14,Payroll Accrual
GLI,4/30/2018,12506,125774,GLI043018,GLI043018,2.37,Payroll Accrual
GLI,4/30/2018,12505,125774,GLI043018,GLI043018,2.19,Payroll Accrual
GLI,4/30/2018,12504,125774,GLI043018,GLI043018,18.26,Payroll Accrual
GLI,4/30/2018,12502,125774,GLI043018,GLI043018,16.34,Payroll Accrual
GLI,4/30/2018,12501,125774,GLI043018,GLI043018,16.34,Payroll Accrual
GLI,4/30/2018,12214,125774,GLI043018,GLI043018,276.33,Payroll Accrual
GLI,4/30/2018,12206C,125774,GLI043018,GLI043018,163.29,Payroll Accrual
GLI,4/30/2018,12205C,125774,GLI043018,GLI043018,150.73,Payroll Accrual
GLI,4/30/2018,12204C,125774,GLI043018,GLI043018,238.65,Payroll Accrual
GLI,4/30/2018,12202C,125774,GLI043018,GLI043018,213.53,Payroll Accrual
GLI,4/30/2018,12201C,125774,GLI043018,GLI043018,213.53,Payroll Accrual
GLI,4/30/2018,12527,12555,GLI043018,GLI043018,12.63,Payroll Accrual
GLI,4/30/2018,12327,12555,GLI043018,GLI043018,165.1,Payroll Accrual
GLI,4/30/2018,12506,12544,GLI043018,GLI043018,11.96,Payroll Accrual
GLI,4/30/2018,12505,12544,GLI043018,GLI043018,11.96,Payroll Accrual
GLI,4/30/2018,12504,12544,GLI043018,GLI043018,11.96,Payroll Accrual
GLI,4/30/2018,12502,12544,GLI043018,GLI043018,11.96,Payroll Accrual
GLI,4/30/2018,12501,12544,GLI043018,GLI043018,11.96,Payroll Accrual
GLI,4/30/2018,12206B,12544,GLI043018,GLI043018,179.01,Payroll Accrual
GLI,4/30/2018,12205B,12544,GLI043018,GLI043018,179.01,Payroll Accrual
GLI,4/30/2018,12204B,12544,GLI043018,GLI043018,179.01,Payroll Accrual
GLI,4/30/2018,12202B,12544,GLI043018,GLI043018,179.01,Payroll Accrual
GLI,4/30/2018,12201B,12544,GLI043018,GLI043018,179.01,Payroll Accrual
GLI,4/30/2018,12503,125028,GLI043018,GLI043018,99.15,Payroll Accrual
GLI,4/30/2018,124723,125028,GLI043018,GLI043018,1296.12,Payroll Accrual
GLI,4/30/2018,12503,12447,GLI043018,GLI043018,92.57,Payroll Accrual
GLI,4/30/2018,124723,12447,GLI043018,GLI043018,1210.02,Payroll Accrual
GLI,4/30/2018,12504,1244452,GLI043018,GLI043018,97.98,Payroll Accrual
GLI,4/30/2018,12304D,1244452,GLI043018,GLI043018,1280.91,Payroll Accrual
GLI,4/30/2018,12903,124360,GLI043018,GLI043018,20.47,Payroll Accrual
GLI,4/30/2018,12503,124360,GLI043018,GLI043018,72.93,Payroll Accrual
GLI,4/30/2018,12303,124360,GLI043018,GLI043018,1364.52,Payroll Accrual
GLI,4/30/2018,12924,124101,GLI043018,GLI043018,25.07,Payroll Accrual
GLI,4/30/2018,12524,124101,GLI043018,GLI043018,127.85,Payroll Accrual
GLI,4/30/2018,12424,124101,GLI043018,GLI043018,54,Payroll Accrual
GLI,4/30/2018,12224,124101,GLI043018,GLI043018,1617.37,Payroll Accrual
GLI,4/30/2018,12527,123564,GLI043018,GLI043018,37.77,Payroll Accrual
GLI,4/30/2018,12327,123564,GLI043018,GLI043018,493.7,Payroll Accrual
GLI,4/30/2018,12904,123525,GLI043018,GLI043018,4.38,Payroll Accrual
GLI,4/30/2018,12504,123525,GLI043018,GLI043018,16.74,Payroll Accrual
GLI,4/30/2018,12304B,123525,GLI043018,GLI043018,218.85,Payroll Accrual
GLI,4/30/2018,12906,123100,GLI043018,GLI043018,22.89,Payroll Accrual
GLI,4/30/2018,12905,123100,GLI043018,GLI043018,22.89,Payroll Accrual
GLI,4/30/2018,12904,123100,GLI043018,GLI043018,22.89,Payroll Accrual
GLI,4/30/2018,12902,123100,GLI043018,GLI043018,22.89,Payroll Accrual
GLI,4/30/2018,12901,123100,GLI043018,GLI043018,22.89,Payroll Accrual
GLI,4/30/2018,12506,123100,GLI043018,GLI043018,113.68,Payroll Accrual
GLI,4/30/2018,12505,123100,GLI043018,GLI043018,113.68,Payroll Accrual
GLI,4/30/2018,12504,123100,GLI043018,GLI043018,113.68,Payroll Accrual
GLI,4/30/2018,12502,123100,GLI043018,GLI043018,113.68,Payroll Accrual
GLI,4/30/2018,12501,123100,GLI043018,GLI043018,113.68,Payroll Accrual
GLI,4/30/2018,12106,123100,GLI043018,GLI043018,1525.84,Payroll Accrual
GLI,4/30/2018,12105,123100,GLI043018,GLI043018,1525.84,Payroll Accrual
GLI,4/30/2018,12104,123100,GLI043018,GLI043018,1525.84,Payroll Accrual
GLI,4/30/2018,12102,123100,GLI043018,GLI043018,1525.84,Payroll Accrual
GLI,4/30/2018,12101,123100,GLI043018,GLI043018,1525.84,Payroll Accrual
GLI,4/30/2018,12505,122558,GLI043018,GLI043018,24.01,Payroll Accrual
GLI,4/30/2018,124703,122558,GLI043018,GLI043018,313.8,Payroll Accrual
GLI,4/30/2018,12524,122369,GLI043018,GLI043018,73.49,Payroll Accrual
GLI,4/30/2018,124724,122369,GLI043018,GLI043018,960.6,Payroll Accrual
GLI,4/30/2018,12511,12236,GLI043018,GLI043018,38.93,Payroll Accrual
GLI,4/30/2018,12506,12236,GLI043018,GLI043018,28.31,Payroll Accrual
GLI,4/30/2018,12505,12236,GLI043018,GLI043018,28.31,Payroll Accrual
GLI,4/30/2018,12504,12236,GLI043018,GLI043018,28.31,Payroll Accrual
GLI,4/30/2018,12502,12236,GLI043018,GLI043018,26.54,Payroll Accrual
GLI,4/30/2018,12501,12236,GLI043018,GLI043018,26.54,Payroll Accrual
GLI,4/30/2018,12311,12236,GLI043018,GLI043018,578.77,Payroll Accrual
GLI,4/30/2018,12306H,12236,GLI043018,GLI043018,420.92,Payroll Accrual
GLI,4/30/2018,12305H,12236,GLI043018,GLI043018,420.92,Payroll Accrual
GLI,4/30/2018,12304H,12236,GLI043018,GLI043018,420.92,Payroll Accrual
GLI,4/30/2018,12302H,12236,GLI043018,GLI043018,394.62,Payroll Accrual
GLI,4/30/2018,12301H,12236,GLI043018,GLI043018,394.62,Payroll Accrual
GLI,4/30/2018,12506,122332,GLI043018,GLI043018,91.64,Payroll Accrual
GLI,4/30/2018,12306C,122332,GLI043018,GLI043018,1220.59,Payroll Accrual
GLI,4/30/2018,12904,121362,GLI043018,GLI043018,40.42,Payroll Accrual
GLI,4/30/2018,12504,121362,GLI043018,GLI043018,144.72,Payroll Accrual
GLI,4/30/2018,12304B,121362,GLI043018,GLI043018,2021.07,Payroll Accrual
GLI,4/30/2018,12504,118746,GLI043018,GLI043018,100.41,Payroll Accrual
GLI,4/30/2018,12304C,118746,GLI043018,GLI043018,1312.56,Payroll Accrual
GLI,4/30/2018,12503,118520,GLI043018,GLI043018,79.77,Payroll Accrual
GLI,4/30/2018,124723,118520,GLI043018,GLI043018,1042.72,Payroll Accrual
GLI,4/30/2018,12901,118030,GLI043018,GLI043018,47.35,Payroll Accrual
GLI,4/30/2018,12501,118030,GLI043018,GLI043018,171.43,Payroll Accrual
GLI,4/30/2018,12301B,118030,GLI043018,GLI043018,2367.7,Payroll Accrual
GLI,4/30/2018,12906,118010,GLI043018,GLI043018,28.45,Payroll Accrual
GLI,4/30/2018,12506,118010,GLI043018,GLI043018,139.25,Payroll Accrual
GLI,4/30/2018,12306B,118010,GLI043018,GLI043018,1896.38,Payroll Accrual
GLI,4/30/2018,12905,11732,GLI043018,GLI043018,31.51,Payroll Accrual
GLI,4/30/2018,12505,11732,GLI043018,GLI043018,118.12,Payroll Accrual
GLI,4/30/2018,12205A,11732,GLI043018,GLI043018,1575.65,Payroll Accrual
GLI,4/30/2018,12902,117205,GLI043018,GLI043018,14.67,Payroll Accrual
GLI,4/30/2018,12901,117205,GLI043018,GLI043018,14.67,Payroll Accrual
GLI,4/30/2018,12502,117205,GLI043018,GLI043018,74.82,Payroll Accrual
GLI,4/30/2018,12501,117205,GLI043018,GLI043018,74.82,Payroll Accrual
GLI,4/30/2018,12302,117205,GLI043018,GLI043018,978.03,Payroll Accrual
GLI,4/30/2018,12301,117205,GLI043018,GLI043018,978.03,Payroll Accrual
GLI,4/30/2018,12905,11660,GLI043018,GLI043018,70.6,Payroll Accrual
GLI,4/30/2018,12505,11660,GLI043018,GLI043018,268.31,Payroll Accrual
GLI,4/30/2018,124703,11660,GLI043018,GLI043018,3530.01,Payroll Accrual
GLI,4/30/2018,12904,116185,GLI043018,GLI043018,51.16,Payroll Accrual
GLI,4/30/2018,12504,116185,GLI043018,GLI043018,195.68,Payroll Accrual
GLI,4/30/2018,12304C,116185,GLI043018,GLI043018,2558,Payroll Accrual
GLI,4/30/2018,12504,115896,GLI043018,GLI043018,77.29,Payroll Accrual
GLI,4/30/2018,12304C,115896,GLI043018,GLI043018,1089.11,Payroll Accrual
GLI,4/30/2018,12506,1158850,GLI043018,GLI043018,16.9,Payroll Accrual
GLI,4/30/2018,12306C,1158850,GLI043018,GLI043018,220.92,Payroll Accrual
GLI,4/30/2018,12527,115676,GLI043018,GLI043018,44.2,Payroll Accrual
GLI,4/30/2018,12327,115676,GLI043018,GLI043018,577.68,Payroll Accrual
GLI,4/30/2018,12527,115355,GLI043018,GLI043018,18.63,Payroll Accrual
GLI,4/30/2018,12327,115355,GLI043018,GLI043018,243.6,Payroll Accrual
GLI,4/30/2018,12906,115255,GLI043018,GLI043018,57,Payroll Accrual
GLI,4/30/2018,12506,115255,GLI043018,GLI043018,218.03,Payroll Accrual
GLI,4/30/2018,12306B,115255,GLI043018,GLI043018,2850,Payroll Accrual
GLI,4/30/2018,12902,1151450,GLI043018,GLI043018,8.04,Payroll Accrual
GLI,4/30/2018,12901,1151450,GLI043018,GLI043018,5.36,Payroll Accrual
GLI,4/30/2018,12502,1151450,GLI043018,GLI043018,36.94,Payroll Accrual
GLI,4/30/2018,12501,1151450,GLI043018,GLI043018,23.26,Payroll Accrual
GLI,4/30/2018,11102,1151450,GLI043018,GLI043018,536.33,Payroll Accrual
GLI,4/30/2018,11101,1151450,GLI043018,GLI043018,357.55,Payroll Accrual
GLI,4/30/2018,12904,1150920,GLI043018,GLI043018,36.33,Payroll Accrual
GLI,4/30/2018,12504,1150920,GLI043018,GLI043018,181.13,Payroll Accrual
GLI,4/30/2018,124704,1150920,GLI043018,GLI043018,2421.76,Payroll Accrual
GLI,4/30/2018,12915,1150510,GLI043018,GLI043018,9.26,Payroll Accrual
GLI,4/30/2018,12906,1150510,GLI043018,GLI043018,6.31,Payroll Accrual
GLI,4/30/2018,12905,1150510,GLI043018,GLI043018,6.31,Payroll Accrual
GLI,4/30/2018,12904,1150510,GLI043018,GLI043018,6.73,Payroll Accrual
GLI,4/30/2018,12902,1150510,GLI043018,GLI043018,6.73,Payroll Accrual
GLI,4/30/2018,12901,1150510,GLI043018,GLI043018,6.73,Payroll Accrual
GLI,4/30/2018,12515,1150510,GLI043018,GLI043018,35.09,Payroll Accrual
GLI,4/30/2018,12506,1150510,GLI043018,GLI043018,23.92,Payroll Accrual
GLI,4/30/2018,12505,1150510,GLI043018,GLI043018,23.92,Payroll Accrual
GLI,4/30/2018,12504,1150510,GLI043018,GLI043018,25.52,Payroll Accrual
GLI,4/30/2018,12502,1150510,GLI043018,GLI043018,25.52,Payroll Accrual
GLI,4/30/2018,12501,1150510,GLI043018,GLI043018,25.52,Payroll Accrual
GLI,4/30/2018,12315,1150510,GLI043018,GLI043018,463.02,Payroll Accrual
GLI,4/30/2018,12306,1150510,GLI043018,GLI043018,315.69,Payroll Accrual
GLI,4/30/2018,12305,1150510,GLI043018,GLI043018,315.69,Payroll Accrual
GLI,4/30/2018,12304,1150510,GLI043018,GLI043018,336.74,Payroll Accrual
GLI,4/30/2018,12302,1150510,GLI043018,GLI043018,336.74,Payroll Accrual
GLI,4/30/2018,12301,1150510,GLI043018,GLI043018,336.74,Payroll Accrual
GLI,4/30/2018,12504,1149710,GLI043018,GLI043018,127.74,Payroll Accrual
GLI,4/30/2018,12304D,1149710,GLI043018,GLI043018,1870.71,Payroll Accrual
GLI,4/30/2018,12906,1149636,GLI043018,GLI043018,21.65,Payroll Accrual
GLI,4/30/2018,12506,1149636,GLI043018,GLI043018,105,Payroll Accrual
GLI,4/30/2018,12306C,1149636,GLI043018,GLI043018,1443.12,Payroll Accrual
GLI,4/30/2018,12504,1149300,GLI043018,GLI043018,133.7,Payroll Accrual
GLI,4/30/2018,124704,1149300,GLI043018,GLI043018,1801.69,Payroll Accrual
GLI,4/30/2018,12501,1149160,GLI043018,GLI043018,9.95,Payroll Accrual
GLI,4/30/2018,11301C,1149160,GLI043018,GLI043018,130,Payroll Accrual
GLI,4/30/2018,12904,1147062,GLI043018,GLI043018,41.22,Payroll Accrual
GLI,4/30/2018,12504,1147062,GLI043018,GLI043018,128.67,Payroll Accrual
GLI,4/30/2018,12204A,1147062,GLI043018,GLI043018,2060.78,Payroll Accrual
GLI,4/30/2018,12505,1147061,GLI043018,GLI043018,296.66,Payroll Accrual
GLI,4/30/2018,124703,1147061,GLI043018,GLI043018,3895.1,Payroll Accrual
GLI,4/30/2018,12905,1146991,GLI043018,GLI043018,74.48,Payroll Accrual
GLI,4/30/2018,12505,1146991,GLI043018,GLI043018,279.05,Payroll Accrual
GLI,4/30/2018,124703,1146991,GLI043018,GLI043018,3723.94,Payroll Accrual
GLI,4/30/2018,12504,1146989,GLI043018,GLI043018,152.2,Payroll Accrual
GLI,4/30/2018,124704,1146989,GLI043018,GLI043018,2012.12,Payroll Accrual
GLI,4/30/2018,12503,1144901,GLI043018,GLI043018,85.85,Payroll Accrual
GLI,4/30/2018,124723,1144901,GLI043018,GLI043018,1122.31,Payroll Accrual
GLI,4/30/2018,12503,114444,GLI043018,GLI043018,64.46,Payroll Accrual
GLI,4/30/2018,124723,114444,GLI043018,GLI043018,842.66,Payroll Accrual
GLI,4/30/2018,12506,1144265,GLI043018,GLI043018,118.23,Payroll Accrual
GLI,4/30/2018,12306B,1144265,GLI043018,GLI043018,1598.98,Payroll Accrual
GLI,4/30/2018,12506,1143575,GLI043018,GLI043018,6.03,Payroll Accrual
GLI,4/30/2018,12505,1143575,GLI043018,GLI043018,6.03,Payroll Accrual
GLI,4/30/2018,12504,1143575,GLI043018,GLI043018,6.03,Payroll Accrual
GLI,4/30/2018,12502,1143575,GLI043018,GLI043018,6.03,Payroll Accrual
GLI,4/30/2018,12501,1143575,GLI043018,GLI043018,6.03,Payroll Accrual
GLI,4/30/2018,12206B,1143575,GLI043018,GLI043018,78.79,Payroll Accrual
GLI,4/30/2018,12205B,1143575,GLI043018,GLI043018,78.79,Payroll Accrual
GLI,4/30/2018,12204B,1143575,GLI043018,GLI043018,78.79,Payroll Accrual
GLI,4/30/2018,12202B,1143575,GLI043018,GLI043018,78.79,Payroll Accrual
GLI,4/30/2018,12201B,1143575,GLI043018,GLI043018,78.79,Payroll Accrual
GLI,4/30/2018,12903,11420,GLI043018,GLI043018,18.18,Payroll Accrual
GLI,4/30/2018,12503,11420,GLI043018,GLI043018,92.73,Payroll Accrual
GLI,4/30/2018,124723,11420,GLI043018,GLI043018,1100.12,Payroll Accrual
GLI,4/30/2018,12403,11420,GLI043018,GLI043018,112,Payroll Accrual
GLI,4/30/2018,12914,1141210,GLI043018,GLI043018,6.14,Payroll Accrual
GLI,4/30/2018,12906,1141210,GLI043018,GLI043018,1.62,Payroll Accrual
GLI,4/30/2018,12905,1141210,GLI043018,GLI043018,0.47,Payroll Accrual
GLI,4/30/2018,12904,1141210,GLI043018,GLI043018,5.3,Payroll Accrual
GLI,4/30/2018,12902,1141210,GLI043018,GLI043018,4.74,Payroll Accrual
GLI,4/30/2018,12901,1141210,GLI043018,GLI043018,4.74,Payroll Accrual
GLI,4/30/2018,12514,1141210,GLI043018,GLI043018,7.12,Payroll Accrual
GLI,4/30/2018,12506,1141210,GLI043018,GLI043018,-0.47,Payroll Accrual
GLI,4/30/2018,12505,1141210,GLI043018,GLI043018,-0.67,Payroll Accrual
GLI,4/30/2018,12504,1141210,GLI043018,GLI043018,3.91,Payroll Accrual
GLI,4/30/2018,12502,1141210,GLI043018,GLI043018,1.78,Payroll Accrual
GLI,4/30/2018,12501,1141210,GLI043018,GLI043018,1.78,Payroll Accrual
GLI,4/30/2018,12214,1141210,GLI043018,GLI043018,306.8,Payroll Accrual
GLI,4/30/2018,12206C,1141210,GLI043018,GLI043018,181.29,Payroll Accrual
GLI,4/30/2018,12205C,1141210,GLI043018,GLI043018,167.35,Payroll Accrual
GLI,4/30/2018,12204C,1141210,GLI043018,GLI043018,264.97,Payroll Accrual
GLI,4/30/2018,12202C,1141210,GLI043018,GLI043018,237.08,Payroll Accrual
GLI,4/30/2018,12201C,1141210,GLI043018,GLI043018,237.08,Payroll Accrual
GLI,4/30/2018,12504,1140870,GLI043018,GLI043018,241.83,Payroll Accrual
GLI,4/30/2018,12404,1140870,GLI043018,GLI043018,72,Payroll Accrual
GLI,4/30/2018,12304B,1140870,GLI043018,GLI043018,3089.13,Payroll Accrual
GLI,4/30/2018,12501,1138125,GLI043018,GLI043018,5.74,Payroll Accrual
GLI,4/30/2018,11301C,1138125,GLI043018,GLI043018,75,Payroll Accrual
GLI,4/30/2018,12904,1137590,GLI043018,GLI043018,56.34,Payroll Accrual
GLI,4/30/2018,12504,1137590,GLI043018,GLI043018,213.74,Payroll Accrual
GLI,4/30/2018,124704,1137590,GLI043018,GLI043018,2816.77,Payroll Accrual
GLI,4/30/2018,12524,1135710,GLI043018,GLI043018,277.76,Payroll Accrual
GLI,4/30/2018,124724,1135710,GLI043018,GLI043018,3630.82,Payroll Accrual
GLI,4/30/2018,12504,1135410,GLI043018,GLI043018,201.71,Payroll Accrual
GLI,4/30/2018,124704,1135410,GLI043018,GLI043018,2777.72,Payroll Accrual
GLI,4/30/2018,12911,1135260,GLI043018,GLI043018,10.13,Payroll Accrual
GLI,4/30/2018,12906,1135260,GLI043018,GLI043018,7.37,Payroll Accrual
GLI,4/30/2018,12905,1135260,GLI043018,GLI043018,7.37,Payroll Accrual
GLI,4/30/2018,12904,1135260,GLI043018,GLI043018,7.37,Payroll Accrual
GLI,4/30/2018,12902,1135260,GLI043018,GLI043018,6.91,Payroll Accrual
GLI,4/30/2018,12901,1135260,GLI043018,GLI043018,6.91,Payroll Accrual
GLI,4/30/2018,12511,1135260,GLI043018,GLI043018,47.87,Payroll Accrual
GLI,4/30/2018,12506,1135260,GLI043018,GLI043018,34.82,Payroll Accrual
GLI,4/30/2018,12505,1135260,GLI043018,GLI043018,34.82,Payroll Accrual
GLI,4/30/2018,12504,1135260,GLI043018,GLI043018,34.82,Payroll Accrual
GLI,4/30/2018,12502,1135260,GLI043018,GLI043018,32.65,Payroll Accrual
GLI,4/30/2018,12501,1135260,GLI043018,GLI043018,32.65,Payroll Accrual
GLI,4/30/2018,12311,1135260,GLI043018,GLI043018,675.23,Payroll Accrual
GLI,4/30/2018,12306H,1135260,GLI043018,GLI043018,491.08,Payroll Accrual
GLI,4/30/2018,12305H,1135260,GLI043018,GLI043018,491.08,Payroll Accrual
GLI,4/30/2018,12304H,1135260,GLI043018,GLI043018,491.08,Payroll Accrual
GLI,4/30/2018,12302H,1135260,GLI043018,GLI043018,460.39,Payroll Accrual
GLI,4/30/2018,12301H,1135260,GLI043018,GLI043018,460.39,Payroll Accrual
GLI,4/30/2018,12506,1133727,GLI043018,GLI043018,133.29,Payroll Accrual
GLI,4/30/2018,12306D,1133727,GLI043018,GLI043018,1742.4,Payroll Accrual
GLI,4/30/2018,12504,1133500,GLI043018,GLI043018,135.44,Payroll Accrual
GLI,4/30/2018,124704,1133500,GLI043018,GLI043018,1770.45,Payroll Accrual
GLI,4/30/2018,12404,1133500,GLI043018,GLI043018,284.16,Payroll Accrual
GLI,4/30/2018,12506,1132600,GLI043018,GLI043018,7.97,Payroll Accrual
GLI,4/30/2018,12505,1132600,GLI043018,GLI043018,7.97,Payroll Accrual
GLI,4/30/2018,12504,1132600,GLI043018,GLI043018,7.97,Payroll Accrual
GLI,4/30/2018,12502,1132600,GLI043018,GLI043018,7.97,Payroll Accrual
GLI,4/30/2018,12501,1132600,GLI043018,GLI043018,7.97,Payroll Accrual
GLI,4/30/2018,12206B,1132600,GLI043018,GLI043018,104.23,Payroll Accrual
GLI,4/30/2018,12205B,1132600,GLI043018,GLI043018,104.23,Payroll Accrual
GLI,4/30/2018,12204B,1132600,GLI043018,GLI043018,104.23,Payroll Accrual
GLI,4/30/2018,12202B,1132600,GLI043018,GLI043018,104.23,Payroll Accrual
GLI,4/30/2018,12201B,1132600,GLI043018,GLI043018,104.23,Payroll Accrual
GLI,4/30/2018,12906,1132595,GLI043018,GLI043018,78.05,Payroll Accrual
GLI,4/30/2018,12506,1132595,GLI043018,GLI043018,292.98,Payroll Accrual
GLI,4/30/2018,12106,1132595,GLI043018,GLI043018,3902.31,Payroll Accrual
GLI,4/30/2018,12904,1132590,GLI043018,GLI043018,46.35,Payroll Accrual
GLI,4/30/2018,12504,1132590,GLI043018,GLI043018,173.83,Payroll Accrual
GLI,4/30/2018,12304B,1132590,GLI043018,GLI043018,2317.51,Payroll Accrual
GLI,4/30/2018,12905,1132218,GLI043018,GLI043018,55.94,Payroll Accrual
GLI,4/30/2018,12505,1132218,GLI043018,GLI043018,211.34,Payroll Accrual
GLI,4/30/2018,12305B,1132218,GLI043018,GLI043018,2796.93,Payroll Accrual
GLI,4/30/2018,12506,1132205,GLI043018,GLI043018,95.9,Payroll Accrual
GLI,4/30/2018,12306B,1132205,GLI043018,GLI043018,1309.56,Payroll Accrual
GLI,4/30/2018,12927,113085,GLI043018,GLI043018,15.78,Payroll Accrual
GLI,4/30/2018,12924,113085,GLI043018,GLI043018,15.78,Payroll Accrual
GLI,4/30/2018,12527,113085,GLI043018,GLI043018,79.51,Payroll Accrual
GLI,4/30/2018,12524,113085,GLI043018,GLI043018,79.51,Payroll Accrual
GLI,4/30/2018,12127,113085,GLI043018,GLI043018,1052.31,Payroll Accrual
GLI,4/30/2018,12124,113085,GLI043018,GLI043018,1052.31,Payroll Accrual
GLI,4/30/2018,12504,1130700,GLI043018,GLI043018,82.25,Payroll Accrual
GLI,4/30/2018,12404,1130700,GLI043018,GLI043018,672,Payroll Accrual
GLI,4/30/2018,12304C,1130700,GLI043018,GLI043018,403.56,Payroll Accrual
GLI,4/30/2018,12906,113020,GLI043018,GLI043018,57.88,Payroll Accrual
GLI,4/30/2018,12506,113020,GLI043018,GLI043018,216.67,Payroll Accrual
GLI,4/30/2018,12306B,113020,GLI043018,GLI043018,2893.84,Payroll Accrual
GLI,4/30/2018,12904,113011,GLI043018,GLI043018,19.68,Payroll Accrual
GLI,4/30/2018,12504,113011,GLI043018,GLI043018,75.28,Payroll Accrual
GLI,4/30/2018,12304C,113011,GLI043018,GLI043018,984,Payroll Accrual
GLI,4/30/2018,12506,1130090,GLI043018,GLI043018,106.46,Payroll Accrual
GLI,4/30/2018,12306B,1130090,GLI043018,GLI043018,1397.12,Payroll Accrual
GLI,4/30/2018,12904,113000,GLI043018,GLI043018,11.76,Payroll Accrual
GLI,4/30/2018,12504,113000,GLI043018,GLI043018,44.99,Payroll Accrual
GLI,4/30/2018,12304C,113000,GLI043018,GLI043018,588,Payroll Accrual
GLI,4/30/2018,12927,1129560,GLI043018,GLI043018,10.11,Payroll Accrual
GLI,4/30/2018,12527,1129560,GLI043018,GLI043018,51.55,Payroll Accrual
GLI,4/30/2018,12327,1129560,GLI043018,GLI043018,673.92,Payroll Accrual
GLI,4/30/2018,12916,1126060,GLI043018,GLI043018,26.3,Payroll Accrual
GLI,4/30/2018,12516,1126060,GLI043018,GLI043018,133.69,Payroll Accrual
GLI,4/30/2018,12316,1126060,GLI043018,GLI043018,1753.2,Payroll Accrual
GLI,4/30/2018,12506,1126055,GLI043018,GLI043018,106.78,Payroll Accrual
GLI,4/30/2018,12306C,1126055,GLI043018,GLI043018,1395.87,Payroll Accrual
GLI,4/30/2018,12905,1126040,GLI043018,GLI043018,62.24,Payroll Accrual
GLI,4/30/2018,12505,1126040,GLI043018,GLI043018,225.62,Payroll Accrual
GLI,4/30/2018,124703,1126040,GLI043018,GLI043018,3112.19,Payroll Accrual
GLI,4/30/2018,12905,1125565,GLI043018,GLI043018,75.15,Payroll Accrual
GLI,4/30/2018,12505,1125565,GLI043018,GLI043018,278.53,Payroll Accrual
GLI,4/30/2018,124703,1125565,GLI043018,GLI043018,3757.38,Payroll Accrual
GLI,4/30/2018,12906,1124875,GLI043018,GLI043018,44.43,Payroll Accrual
GLI,4/30/2018,12506,1124875,GLI043018,GLI043018,167.58,Payroll Accrual
GLI,4/30/2018,12406,1124875,GLI043018,GLI043018,200,Payroll Accrual
GLI,4/30/2018,12306B,1124875,GLI043018,GLI043018,2021.5,Payroll Accrual
GLI,4/30/2018,12904,1124436,GLI043018,GLI043018,63.46,Payroll Accrual
GLI,4/30/2018,12504,1124436,GLI043018,GLI043018,307.94,Payroll Accrual
GLI,4/30/2018,124704,1124436,GLI043018,GLI043018,4230.82,Payroll Accrual
GLI,4/30/2018,12904,1124430,GLI043018,GLI043018,21.13,Payroll Accrual
GLI,4/30/2018,12504,1124430,GLI043018,GLI043018,106.01,Payroll Accrual
GLI,4/30/2018,124704,1124430,GLI043018,GLI043018,1408.49,Payroll Accrual
GLI,4/30/2018,12904,1124400,GLI043018,GLI043018,22.08,Payroll Accrual
GLI,4/30/2018,12504,1124400,GLI043018,GLI043018,111.31,Payroll Accrual
GLI,4/30/2018,124704,1124400,GLI043018,GLI043018,1234.2,Payroll Accrual
GLI,4/30/2018,12404,1124400,GLI043018,GLI043018,238,Payroll Accrual
GLI,4/30/2018,12527,1123355,GLI043018,GLI043018,114.85,Payroll Accrual
GLI,4/30/2018,12327,1123355,GLI043018,GLI043018,1501.35,Payroll Accrual
GLI,4/30/2018,12914,1123340,GLI043018,GLI043018,18.52,Payroll Accrual
GLI,4/30/2018,12906,1123340,GLI043018,GLI043018,43.99,Payroll Accrual
GLI,4/30/2018,12905,1123340,GLI043018,GLI043018,40.61,Payroll Accrual
GLI,4/30/2018,12904,1123340,GLI043018,GLI043018,16,Payroll Accrual
GLI,4/30/2018,12902,1123340,GLI043018,GLI043018,14.31,Payroll Accrual
GLI,4/30/2018,12901,1123340,GLI043018,GLI043018,14.31,Payroll Accrual
GLI,4/30/2018,12514,1123340,GLI043018,GLI043018,69.02,Payroll Accrual
GLI,4/30/2018,12506,1123340,GLI043018,GLI043018,7.73,Payroll Accrual
GLI,4/30/2018,12505,1123340,GLI043018,GLI043018,7.14,Payroll Accrual
GLI,4/30/2018,12504,1123340,GLI043018,GLI043018,59.61,Payroll Accrual
GLI,4/30/2018,12502,1123340,GLI043018,GLI043018,53.33,Payroll Accrual
GLI,4/30/2018,12501,1123340,GLI043018,GLI043018,53.33,Payroll Accrual
GLI,4/30/2018,12214,1123340,GLI043018,GLI043018,926.03,Payroll Accrual
GLI,4/30/2018,12206C,1123340,GLI043018,GLI043018,547.2,Payroll Accrual
GLI,4/30/2018,12205C,1123340,GLI043018,GLI043018,505.11,Payroll Accrual
GLI,4/30/2018,12204C,1123340,GLI043018,GLI043018,799.75,Payroll Accrual
GLI,4/30/2018,12202C,1123340,GLI043018,GLI043018,715.57,Payroll Accrual
GLI,4/30/2018,12201C,1123340,GLI043018,GLI043018,715.57,Payroll Accrual
GLI,4/30/2018,12905,112273,GLI043018,GLI043018,16.68,Payroll Accrual
GLI,4/30/2018,12505,112273,GLI043018,GLI043018,85.09,Payroll Accrual
GLI,4/30/2018,12405,112273,GLI043018,GLI043018,96,Payroll Accrual
GLI,4/30/2018,12205A,112273,GLI043018,GLI043018,1016.28,Payroll Accrual
GLI,4/30/2018,12503,1122445,GLI043018,GLI043018,28.06,Payroll Accrual
GLI,4/30/2018,124723,1122445,GLI043018,GLI043018,366.72,Payroll Accrual
GLI,4/30/2018,12905,1122352,GLI043018,GLI043018,28.71,Payroll Accrual
GLI,4/30/2018,12505,1122352,GLI043018,GLI043018,145.09,Payroll Accrual
GLI,4/30/2018,124703,1122352,GLI043018,GLI043018,1593.7,Payroll Accrual
GLI,4/30/2018,12405,1122352,GLI043018,GLI043018,320,Payroll Accrual
GLI,4/30/2018,12503,1122246,GLI043018,GLI043018,109.2,Payroll Accrual
GLI,4/30/2018,12303,1122246,GLI043018,GLI043018,1472.87,Payroll Accrual
GLI,4/30/2018,12927,1122110,GLI043018,GLI043018,84.18,Payroll Accrual
GLI,4/30/2018,12527,1122110,GLI043018,GLI043018,308.74,Payroll Accrual
GLI,4/30/2018,12327,1122110,GLI043018,GLI043018,4209.23,Payroll Accrual
GLI,4/30/2018,12927,1121250,GLI043018,GLI043018,14.63,Payroll Accrual
GLI,4/30/2018,12527,1121250,GLI043018,GLI043018,74.61,Payroll Accrual
GLI,4/30/2018,12327,1121250,GLI043018,GLI043018,975.38,Payroll Accrual
GLI,4/30/2018,12501,1121240,GLI043018,GLI043018,31.37,Payroll Accrual
GLI,4/30/2018,11301C,1121240,GLI043018,GLI043018,410,Payroll Accrual
GLI,4/30/2018,12524,112098,GLI043018,GLI043018,26.58,Payroll Accrual
GLI,4/30/2018,12505,112098,GLI043018,GLI043018,26.58,Payroll Accrual
GLI,4/30/2018,12504,112098,GLI043018,GLI043018,26.58,Payroll Accrual
GLI,4/30/2018,12501,112098,GLI043018,GLI043018,26.58,Payroll Accrual
GLI,4/30/2018,12424,112098,GLI043018,GLI043018,28,Payroll Accrual
GLI,4/30/2018,12405,112098,GLI043018,GLI043018,28,Payroll Accrual
GLI,4/30/2018,12404,112098,GLI043018,GLI043018,28,Payroll Accrual
GLI,4/30/2018,12401,112098,GLI043018,GLI043018,28,Payroll Accrual
GLI,4/30/2018,12324F,112098,GLI043018,GLI043018,319.45,Payroll Accrual
GLI,4/30/2018,12305F,112098,GLI043018,GLI043018,319.45,Payroll Accrual
GLI,4/30/2018,12304F,112098,GLI043018,GLI043018,319.45,Payroll Accrual
GLI,4/30/2018,12301F,112098,GLI043018,GLI043018,319.45,Payroll Accrual
GLI,4/30/2018,12506,1120225,GLI043018,GLI043018,76.14,Payroll Accrual
GLI,4/30/2018,12505,1120225,GLI043018,GLI043018,76.14,Payroll Accrual
GLI,4/30/2018,12504,1120225,GLI043018,GLI043018,76.14,Payroll Accrual
GLI,4/30/2018,12502,1120225,GLI043018,GLI043018,76.14,Payroll Accrual
GLI,4/30/2018,12501,1120225,GLI043018,GLI043018,76.14,Payroll Accrual
GLI,4/30/2018,12006,1120225,GLI043018,GLI043018,1052.31,Payroll Accrual
GLI,4/30/2018,12005,1120225,GLI043018,GLI043018,1052.31,Payroll Accrual
GLI,4/30/2018,12004,1120225,GLI043018,GLI043018,1052.31,Payroll Accrual
GLI,4/30/2018,12002,1120225,GLI043018,GLI043018,1052.31,Payroll Accrual
GLI,4/30/2018,12001,1120225,GLI043018,GLI043018,1052.31,Payroll Accrual
GLI,4/30/2018,12906,1120120,GLI043018,GLI043018,17.12,Payroll Accrual
GLI,4/30/2018,12506,1120120,GLI043018,GLI043018,83.19,Payroll Accrual
GLI,4/30/2018,12306B,1120120,GLI043018,GLI043018,1141.44,Payroll Accrual
GLI,4/30/2018,12927,1120110,GLI043018,GLI043018,34.2,Payroll Accrual
GLI,4/30/2018,12527,1120110,GLI043018,GLI043018,172.93,Payroll Accrual
GLI,4/30/2018,12127,1120110,GLI043018,GLI043018,2280,Payroll Accrual
GLI,4/30/2018,12506,1118800,GLI043018,GLI043018,117.11,Payroll Accrual
GLI,4/30/2018,12306B,1118800,GLI043018,GLI043018,1609.65,Payroll Accrual
GLI,4/30/2018,12505,1118722,GLI043018,GLI043018,379.5,Payroll Accrual
GLI,4/30/2018,124703,1118722,GLI043018,GLI043018,4994.99,Payroll Accrual
GLI,4/30/2018,12904,1117960,GLI043018,GLI043018,43.85,Payroll Accrual
GLI,4/30/2018,12504,1117960,GLI043018,GLI043018,164.14,Payroll Accrual
GLI,4/30/2018,124704,1117960,GLI043018,GLI043018,2192.31,Payroll Accrual
GLI,4/30/2018,12504,1117901,GLI043018,GLI043018,142.06,Payroll Accrual
GLI,4/30/2018,124704,1117901,GLI043018,GLI043018,1856.94,Payroll Accrual
GLI,4/30/2018,12503,1117850,GLI043018,GLI043018,74.16,Payroll Accrual
GLI,4/30/2018,124723,1117850,GLI043018,GLI043018,969.36,Payroll Accrual
GLI,4/30/2018,12903,1117842,GLI043018,GLI043018,29.84,Payroll Accrual
GLI,4/30/2018,12503,1117842,GLI043018,GLI043018,152.2,Payroll Accrual
GLI,4/30/2018,12403,1117842,GLI043018,GLI043018,56,Payroll Accrual
GLI,4/30/2018,12303,1117842,GLI043018,GLI043018,1933.48,Payroll Accrual
GLI,4/30/2018,12903,1117600,GLI043018,GLI043018,45.02,Payroll Accrual
GLI,4/30/2018,12503,1117600,GLI043018,GLI043018,136.93,Payroll Accrual
GLI,4/30/2018,12303,1117600,GLI043018,GLI043018,2250.9,Payroll Accrual
GLI,4/30/2018,12924,1116800,GLI043018,GLI043018,29.6,Payroll Accrual
GLI,4/30/2018,12524,1116800,GLI043018,GLI043018,150.94,Payroll Accrual
GLI,4/30/2018,124724,1116800,GLI043018,GLI043018,1973.08,Payroll Accrual
GLI,4/30/2018,12906,111568,GLI043018,GLI043018,6.87,Payroll Accrual
GLI,4/30/2018,12506,111568,GLI043018,GLI043018,35.03,Payroll Accrual
GLI,4/30/2018,12306C,111568,GLI043018,GLI043018,457.92,Payroll Accrual
GLI,4/30/2018,12905,1114921,GLI043018,GLI043018,33.01,Payroll Accrual
GLI,4/30/2018,12505,1114921,GLI043018,GLI043018,144.56,Payroll Accrual
GLI,4/30/2018,124703,1114921,GLI043018,GLI043018,2020.95,Payroll Accrual
GLI,4/30/2018,12405,1114921,GLI043018,GLI043018,180,Payroll Accrual
GLI,4/30/2018,12906,1114831,GLI043018,GLI043018,9.96,Payroll Accrual
GLI,4/30/2018,12506,1114831,GLI043018,GLI043018,50.81,Payroll Accrual
GLI,4/30/2018,12306D,1114831,GLI043018,GLI043018,664.16,Payroll Accrual
GLI,4/30/2018,12904,1114105,GLI043018,GLI043018,60.48,Payroll Accrual
GLI,4/30/2018,12504,1114105,GLI043018,GLI043018,180.46,Payroll Accrual
GLI,4/30/2018,12304B,1114105,GLI043018,GLI043018,3023.77,Payroll Accrual
GLI,4/30/2018,12527,1114010,GLI043018,GLI043018,37.73,Payroll Accrual
GLI,4/30/2018,12327,1114010,GLI043018,GLI043018,493.24,Payroll Accrual
GLI,4/30/2018,12904,1113940,GLI043018,GLI043018,37.03,Payroll Accrual
GLI,4/30/2018,12504,1113940,GLI043018,GLI043018,138.08,Payroll Accrual
GLI,4/30/2018,124704,1113940,GLI043018,GLI043018,174.37,Payroll Accrual
GLI,4/30/2018,12404,1113940,GLI043018,GLI043018,1677,Payroll Accrual
GLI,4/30/2018,12906,111254,GLI043018,GLI043018,3.42,Payroll Accrual
GLI,4/30/2018,12905,111254,GLI043018,GLI043018,3.42,Payroll Accrual
GLI,4/30/2018,12904,111254,GLI043018,GLI043018,3.42,Payroll Accrual
GLI,4/30/2018,12902,111254,GLI043018,GLI043018,3.42,Payroll Accrual
GLI,4/30/2018,12901,111254,GLI043018,GLI043018,3.42,Payroll Accrual
GLI,4/30/2018,12506,111254,GLI043018,GLI043018,17.44,Payroll Accrual
GLI,4/30/2018,12505,111254,GLI043018,GLI043018,17.44,Payroll Accrual
GLI,4/30/2018,12504,111254,GLI043018,GLI043018,17.44,Payroll Accrual
GLI,4/30/2018,12502,111254,GLI043018,GLI043018,17.44,Payroll Accrual
GLI,4/30/2018,12501,111254,GLI043018,GLI043018,17.44,Payroll Accrual
GLI,4/30/2018,12406,111254,GLI043018,GLI043018,10.8,Payroll Accrual
GLI,4/30/2018,12405,111254,GLI043018,GLI043018,10.8,Payroll Accrual
GLI,4/30/2018,12404,111254,GLI043018,GLI043018,10.8,Payroll Accrual
GLI,4/30/2018,12402,111254,GLI043018,GLI043018,10.8,Payroll Accrual
GLI,4/30/2018,12401,111254,GLI043018,GLI043018,10.8,Payroll Accrual
GLI,4/30/2018,12206B,111254,GLI043018,GLI043018,217.21,Payroll Accrual
GLI,4/30/2018,12205B,111254,GLI043018,GLI043018,217.21,Payroll Accrual
GLI,4/30/2018,12204B,111254,GLI043018,GLI043018,217.21,Payroll Accrual
GLI,4/30/2018,12202B,111254,GLI043018,GLI043018,217.21,Payroll Accrual
GLI,4/30/2018,12201B,111254,GLI043018,GLI043018,217.21,Payroll Accrual
GLI,4/30/2018,12501,111250,GLI043018,GLI043018,9.95,Payroll Accrual
GLI,4/30/2018,11301C,111250,GLI043018,GLI043018,130,Payroll Accrual
GLI,4/30/2018,12924,1112411,GLI043018,GLI043018,9.34,Payroll Accrual
GLI,4/30/2018,12524,1112411,GLI043018,GLI043018,47.63,Payroll Accrual
GLI,4/30/2018,124724,1112411,GLI043018,GLI043018,622.57,Payroll Accrual
GLI,4/30/2018,12904,111210,GLI043018,GLI043018,39.53,Payroll Accrual
GLI,4/30/2018,12504,111210,GLI043018,GLI043018,199.86,Payroll Accrual
GLI,4/30/2018,124704,111210,GLI043018,GLI043018,2635.27,Payroll Accrual
GLI,4/30/2018,12905,1111325,GLI043018,GLI043018,35.26,Payroll Accrual
GLI,4/30/2018,12505,1111325,GLI043018,GLI043018,132.52,Payroll Accrual
GLI,4/30/2018,12405,1111325,GLI043018,GLI043018,608,Payroll Accrual
GLI,4/30/2018,12205A,1111325,GLI043018,GLI043018,1155.11,Payroll Accrual
GLI,4/30/2018,12903,1110800,GLI043018,GLI043018,6.08,Payroll Accrual
GLI,4/30/2018,12503,1110800,GLI043018,GLI043018,30.99,Payroll Accrual
GLI,4/30/2018,12303,1110800,GLI043018,GLI043018,405.18,Payroll Accrual
GLI,4/30/2018,12911,1110660,GLI043018,GLI043018,4.77,Payroll Accrual
GLI,4/30/2018,12906,1110660,GLI043018,GLI043018,3.47,Payroll Accrual
GLI,4/30/2018,12905,1110660,GLI043018,GLI043018,3.47,Payroll Accrual
GLI,4/30/2018,12904,1110660,GLI043018,GLI043018,3.47,Payroll Accrual
GLI,4/30/2018,12902,1110660,GLI043018,GLI043018,3.26,Payroll Accrual
GLI,4/30/2018,12901,1110660,GLI043018,GLI043018,3.26,Payroll Accrual
GLI,4/30/2018,12511,1110660,GLI043018,GLI043018,22.62,Payroll Accrual
GLI,4/30/2018,12506,1110660,GLI043018,GLI043018,15.98,Payroll Accrual
GLI,4/30/2018,12505,1110660,GLI043018,GLI043018,15.98,Payroll Accrual
GLI,4/30/2018,12504,1110660,GLI043018,GLI043018,15.98,Payroll Accrual
GLI,4/30/2018,12502,1110660,GLI043018,GLI043018,14.87,Payroll Accrual
GLI,4/30/2018,12501,1110660,GLI043018,GLI043018,14.87,Payroll Accrual
GLI,4/30/2018,12411,1110660,GLI043018,GLI043018,197.12,Payroll Accrual
GLI,4/30/2018,12406,1110660,GLI043018,GLI043018,143.36,Payroll Accrual
GLI,4/30/2018,12405,1110660,GLI043018,GLI043018,143.36,Payroll Accrual
GLI,4/30/2018,12404,1110660,GLI043018,GLI043018,143.36,Payroll Accrual
GLI,4/30/2018,12402,1110660,GLI043018,GLI043018,134.4,Payroll Accrual
GLI,4/30/2018,12401,1110660,GLI043018,GLI043018,134.4,Payroll Accrual
GLI,4/30/2018,12311,1110660,GLI043018,GLI043018,121.16,Payroll Accrual
GLI,4/30/2018,12306H,1110660,GLI043018,GLI043018,88.12,Payroll Accrual
GLI,4/30/2018,12305H,1110660,GLI043018,GLI043018,88.12,Payroll Accrual
GLI,4/30/2018,12304H,1110660,GLI043018,GLI043018,88.12,Payroll Accrual
GLI,4/30/2018,12302H,1110660,GLI043018,GLI043018,82.61,Payroll Accrual
GLI,4/30/2018,12301H,1110660,GLI043018,GLI043018,82.61,Payroll Accrual
GLI,4/30/2018,12905,1110650,GLI043018,GLI043018,54.79,Payroll Accrual
GLI,4/30/2018,12505,1110650,GLI043018,GLI043018,279.44,Payroll Accrual
GLI,4/30/2018,124703,1110650,GLI043018,GLI043018,3652.77,Payroll Accrual
GLI,4/30/2018,12504,1109827,GLI043018,GLI043018,119.13,Payroll Accrual
GLI,4/30/2018,124704,1109827,GLI043018,GLI043018,1579.99,Payroll Accrual
GLI,4/30/2018,12904,1108248,GLI043018,GLI043018,24.89,Payroll Accrual
GLI,4/30/2018,12504,1108248,GLI043018,GLI043018,95.22,Payroll Accrual
GLI,4/30/2018,124704,1108248,GLI043018,GLI043018,1244.74,Payroll Accrual
GLI,4/30/2018,12905,1108200,GLI043018,GLI043018,41.29,Payroll Accrual
GLI,4/30/2018,12505,1108200,GLI043018,GLI043018,210.58,Payroll Accrual
GLI,4/30/2018,12305B,1108200,GLI043018,GLI043018,2752.83,Payroll Accrual
GLI,4/30/2018,12505,1107950,GLI043018,GLI043018,125.94,Payroll Accrual
GLI,4/30/2018,124703,1107950,GLI043018,GLI043018,1380.56,Payroll Accrual
GLI,4/30/2018,12405,1107950,GLI043018,GLI043018,288.48,Payroll Accrual
GLI,4/30/2018,12904,1106421,GLI043018,GLI043018,48.38,Payroll Accrual
GLI,4/30/2018,12504,1106421,GLI043018,GLI043018,234,Payroll Accrual
GLI,4/30/2018,124704,1106421,GLI043018,GLI043018,3225.42,Payroll Accrual
GLI,4/30/2018,12905,1106400,GLI043018,GLI043018,41.09,Payroll Accrual
GLI,4/30/2018,12505,1106400,GLI043018,GLI043018,208.23,Payroll Accrual
GLI,4/30/2018,124703,1106400,GLI043018,GLI043018,2739,Payroll Accrual
GLI,4/30/2018,12405,1106400,GLI043018,GLI043018,192,Payroll Accrual
GLI,4/30/2018,12904,1106399,GLI043018,GLI043018,81.66,Payroll Accrual
GLI,4/30/2018,12504,1106399,GLI043018,GLI043018,312.34,Payroll Accrual
GLI,4/30/2018,124704,1106399,GLI043018,GLI043018,4082.98,Payroll Accrual
GLI,4/30/2018,12924,1103065,GLI043018,GLI043018,7.5,Payroll Accrual
GLI,4/30/2018,12905,1103065,GLI043018,GLI043018,7.5,Payroll Accrual
GLI,4/30/2018,12904,1103065,GLI043018,GLI043018,7.5,Payroll Accrual
GLI,4/30/2018,12901,1103065,GLI043018,GLI043018,7.5,Payroll Accrual
GLI,4/30/2018,12524,1103065,GLI043018,GLI043018,24.28,Payroll Accrual
GLI,4/30/2018,12505,1103065,GLI043018,GLI043018,24.28,Payroll Accrual
GLI,4/30/2018,12504,1103065,GLI043018,GLI043018,24.28,Payroll Accrual
GLI,4/30/2018,12501,1103065,GLI043018,GLI043018,24.28,Payroll Accrual
GLI,4/30/2018,12324F,1103065,GLI043018,GLI043018,375.13,Payroll Accrual
GLI,4/30/2018,12305F,1103065,GLI043018,GLI043018,375.13,Payroll Accrual
GLI,4/30/2018,12304F,1103065,GLI043018,GLI043018,375.13,Payroll Accrual
GLI,4/30/2018,12301F,1103065,GLI043018,GLI043018,375.13,Payroll Accrual
GLI,4/30/2018,12903,1102198,GLI043018,GLI043018,29.6,Payroll Accrual
GLI,4/30/2018,12503,1102198,GLI043018,GLI043018,149.45,Payroll Accrual
GLI,4/30/2018,12103,1102198,GLI043018,GLI043018,1973.08,Payroll Accrual
GLI,4/30/2018,12504,1102195,GLI043018,GLI043018,404.58,Payroll Accrual
GLI,4/30/2018,12104,1102195,GLI043018,GLI043018,5325.31,Payroll Accrual
GLI,4/30/2018,12904,110123,GLI043018,GLI043018,33.76,Payroll Accrual
GLI,4/30/2018,12504,110123,GLI043018,GLI043018,158.26,Payroll Accrual
GLI,4/30/2018,124704,110123,GLI043018,GLI043018,2250.72,Payroll Accrual
GLI,4/30/2018,12527,1100820,GLI043018,GLI043018,147.24,Payroll Accrual
GLI,4/30/2018,12327,1100820,GLI043018,GLI043018,1924.72,Payroll Accrual
GLI,4/30/2018,12905,1100625,GLI043018,GLI043018,31.4,Payroll Accrual
GLI,4/30/2018,12505,1100625,GLI043018,GLI043018,160.12,Payroll Accrual
GLI,4/30/2018,124703,1100625,GLI043018,GLI043018,2093.08,Payroll Accrual
GLI,4/30/2018,12503,110048,GLI043018,GLI043018,4.15,Payroll Accrual
GLI,4/30/2018,124723,110048,GLI043018,GLI043018,54.18,Payroll Accrual
GLI,4/30/2018,12503,10568,GLI043018,GLI043018,56.6,Payroll Accrual
GLI,4/30/2018,124723,10568,GLI043018,GLI043018,810.36,Payroll Accrual
