﻿"journal","date","account","control","document","reference","amount","description"
"GLI","03/31/2017","232103","GLI033117","GLI033117","GLI033117",-42861.76,"Payroll Accrual"
"GLI","03/31/2017","132101","GLI033117","GLI033117","GLI033117",-403654.32,"Payroll Accrual"
"GLI","03/31/2017","12006","1130426","GLI033117","GLI033117",1443.69,"Payroll Accrual"
"GLI","03/31/2017","12005","1130426","GLI033117","GLI033117",1443.69,"Payroll Accrual"
"GLI","03/31/2017","12004","1130426","GLI033117","GLI033117",1443.69,"Payroll Accrual"
"GLI","03/31/2017","12002","1130426","GLI033117","GLI033117",1443.69,"Payroll Accrual"
"GLI","03/31/2017","12001","1130426","GLI033117","GLI033117",1302.17,"Payroll Accrual"
"GLI","03/31/2017","22910","291600","GLI033117","GLI033117",2.23,"Payroll Accrual"
"GLI","03/31/2017","22906","291600","GLI033117","GLI033117",4.65,"Payroll Accrual"
"GLI","03/31/2017","22904","291600","GLI033117","GLI033117",4.65,"Payroll Accrual"
"GLI","03/31/2017","22902","291600","GLI033117","GLI033117",4.65,"Payroll Accrual"
"GLI","03/31/2017","22901","291600","GLI033117","GLI033117",2.42,"Payroll Accrual"
"GLI","03/31/2017","22510","291600","GLI033117","GLI033117",3.23,"Payroll Accrual"
"GLI","03/31/2017","22506","291600","GLI033117","GLI033117",12.49,"Payroll Accrual"
"GLI","03/31/2017","22504","291600","GLI033117","GLI033117",12.49,"Payroll Accrual"
"GLI","03/31/2017","22502","291600","GLI033117","GLI033117",12.49,"Payroll Accrual"
"GLI","03/31/2017","22501","291600","GLI033117","GLI033117",3.95,"Payroll Accrual"
"GLI","03/31/2017","22410","291600","GLI033117","GLI033117",7.2,"Payroll Accrual"
"GLI","03/31/2017","22406","291600","GLI033117","GLI033117",15,"Payroll Accrual"
"GLI","03/31/2017","22404","291600","GLI033117","GLI033117",15,"Payroll Accrual"
"GLI","03/31/2017","22402","291600","GLI033117","GLI033117",15,"Payroll Accrual"
"GLI","03/31/2017","22401","291600","GLI033117","GLI033117",7.8,"Payroll Accrual"
"GLI","03/31/2017","22210B","291600","GLI033117","GLI033117",104.44,"Payroll Accrual"
"GLI","03/31/2017","22206B","291600","GLI033117","GLI033117",217.58,"Payroll Accrual"
"GLI","03/31/2017","22204B","291600","GLI033117","GLI033117",217.58,"Payroll Accrual"
"GLI","03/31/2017","22202B","291600","GLI033117","GLI033117",217.58,"Payroll Accrual"
"GLI","03/31/2017","22201B","291600","GLI033117","GLI033117",113.14,"Payroll Accrual"
"GLI","03/31/2017","22504","291582","GLI033117","GLI033117",46.79,"Payroll Accrual"
"GLI","03/31/2017","22304C","291582","GLI033117","GLI033117",611.6,"Payroll Accrual"
"GLI","03/31/2017","22506","288000","GLI033117","GLI033117",70.41,"Payroll Accrual"
"GLI","03/31/2017","22306","288000","GLI033117","GLI033117",920.4,"Payroll Accrual"
"GLI","03/31/2017","22503","286000","GLI033117","GLI033117",59.98,"Payroll Accrual"
"GLI","03/31/2017","224723","286000","GLI033117","GLI033117",789.23,"Payroll Accrual"
"GLI","03/31/2017","22504","282715","GLI033117","GLI033117",110.69,"Payroll Accrual"
"GLI","03/31/2017","224704","282715","GLI033117","GLI033117",1508.67,"Payroll Accrual"
"GLI","03/31/2017","22504","282713","GLI033117","GLI033117",32.13,"Payroll Accrual"
"GLI","03/31/2017","22503","282713","GLI033117","GLI033117",32.13,"Payroll Accrual"
"GLI","03/31/2017","22304B","282713","GLI033117","GLI033117",478.66,"Payroll Accrual"
"GLI","03/31/2017","22303","282713","GLI033117","GLI033117",478.66,"Payroll Accrual"
"GLI","03/31/2017","22504","279630","GLI033117","GLI033117",151.04,"Payroll Accrual"
"GLI","03/31/2017","224704","279630","GLI033117","GLI033117",1654.34,"Payroll Accrual"
"GLI","03/31/2017","22404","279630","GLI033117","GLI033117",320,"Payroll Accrual"
"GLI","03/31/2017","22506","274225","GLI033117","GLI033117",114.58,"Payroll Accrual"
"GLI","03/31/2017","22306","274225","GLI033117","GLI033117",1655.8,"Payroll Accrual"
"GLI","03/31/2017","22904","273315","GLI033117","GLI033117",48.4,"Payroll Accrual"
"GLI","03/31/2017","22504","273315","GLI033117","GLI033117",185.13,"Payroll Accrual"
"GLI","03/31/2017","224704","273315","GLI033117","GLI033117",2419.95,"Payroll Accrual"
"GLI","03/31/2017","22506","264220","GLI033117","GLI033117",79.97,"Payroll Accrual"
"GLI","03/31/2017","22306","264220","GLI033117","GLI033117",1114.62,"Payroll Accrual"
"GLI","03/31/2017","22510","264000","GLI033117","GLI033117",1.85,"Payroll Accrual"
"GLI","03/31/2017","22506","264000","GLI033117","GLI033117",3.85,"Payroll Accrual"
"GLI","03/31/2017","22504","264000","GLI033117","GLI033117",3.85,"Payroll Accrual"
"GLI","03/31/2017","22502","264000","GLI033117","GLI033117",3.85,"Payroll Accrual"
"GLI","03/31/2017","22501","264000","GLI033117","GLI033117",2,"Payroll Accrual"
"GLI","03/31/2017","22210B","264000","GLI033117","GLI033117",24.16,"Payroll Accrual"
"GLI","03/31/2017","22206B","264000","GLI033117","GLI033117",50.33,"Payroll Accrual"
"GLI","03/31/2017","22204B","264000","GLI033117","GLI033117",50.33,"Payroll Accrual"
"GLI","03/31/2017","22202B","264000","GLI033117","GLI033117",50.33,"Payroll Accrual"
"GLI","03/31/2017","22201B","264000","GLI033117","GLI033117",26.17,"Payroll Accrual"
"GLI","03/31/2017","22503","263840","GLI033117","GLI033117",67.78,"Payroll Accrual"
"GLI","03/31/2017","224723","263840","GLI033117","GLI033117",907.14,"Payroll Accrual"
"GLI","03/31/2017","12527","258465","GLI033117","GLI033117",10.7,"Payroll Accrual"
"GLI","03/31/2017","12327","258465","GLI033117","GLI033117",139.9,"Payroll Accrual"
"GLI","03/31/2017","22504","256879","GLI033117","GLI033117",25.17,"Payroll Accrual"
"GLI","03/31/2017","22304C","256879","GLI033117","GLI033117",329,"Payroll Accrual"
"GLI","03/31/2017","22904","252520","GLI033117","GLI033117",17.01,"Payroll Accrual"
"GLI","03/31/2017","22504","252520","GLI033117","GLI033117",85.11,"Payroll Accrual"
"GLI","03/31/2017","224704","252520","GLI033117","GLI033117",1133.74,"Payroll Accrual"
"GLI","03/31/2017","22503","247000","GLI033117","GLI033117",71.86,"Payroll Accrual"
"GLI","03/31/2017","224723","247000","GLI033117","GLI033117",939.42,"Payroll Accrual"
"GLI","03/31/2017","22903","241310","GLI033117","GLI033117",4.4,"Payroll Accrual"
"GLI","03/31/2017","22503","241310","GLI033117","GLI033117",22.42,"Payroll Accrual"
"GLI","03/31/2017","224723","241310","GLI033117","GLI033117",293.02,"Payroll Accrual"
"GLI","03/31/2017","22903","241120","GLI033117","GLI033117",17.84,"Payroll Accrual"
"GLI","03/31/2017","22503","241120","GLI033117","GLI033117",84.58,"Payroll Accrual"
"GLI","03/31/2017","22303","241120","GLI033117","GLI033117",1189.2,"Payroll Accrual"
"GLI","03/31/2017","22903","241085","GLI033117","GLI033117",24.4,"Payroll Accrual"
"GLI","03/31/2017","22503","241085","GLI033117","GLI033117",123.25,"Payroll Accrual"
"GLI","03/31/2017","22303","241085","GLI033117","GLI033117",1627.11,"Payroll Accrual"
"GLI","03/31/2017","22504","230601","GLI033117","GLI033117",256.75,"Payroll Accrual"
"GLI","03/31/2017","22104","230601","GLI033117","GLI033117",3498.08,"Payroll Accrual"
"GLI","03/31/2017","22503","223050","GLI033117","GLI033117",46.53,"Payroll Accrual"
"GLI","03/31/2017","224723","223050","GLI033117","GLI033117",608.3,"Payroll Accrual"
"GLI","03/31/2017","22910","2141225","GLI033117","GLI033117",2.99,"Payroll Accrual"
"GLI","03/31/2017","22902","2141225","GLI033117","GLI033117",2.99,"Payroll Accrual"
"GLI","03/31/2017","22901","2141225","GLI033117","GLI033117",3.08,"Payroll Accrual"
"GLI","03/31/2017","22510","2141225","GLI033117","GLI033117",8.23,"Payroll Accrual"
"GLI","03/31/2017","22502","2141225","GLI033117","GLI033117",8.23,"Payroll Accrual"
"GLI","03/31/2017","22501","2141225","GLI033117","GLI033117",8.69,"Payroll Accrual"
"GLI","03/31/2017","22310","2141225","GLI033117","GLI033117",199.32,"Payroll Accrual"
"GLI","03/31/2017","22302","2141225","GLI033117","GLI033117",199.32,"Payroll Accrual"
"GLI","03/31/2017","22301","2141225","GLI033117","GLI033117",205.36,"Payroll Accrual"
"GLI","03/31/2017","22503","213520","GLI033117","GLI033117",72.92,"Payroll Accrual"
"GLI","03/31/2017","224723","213520","GLI033117","GLI033117",974.31,"Payroll Accrual"
"GLI","03/31/2017","22910","213406","GLI033117","GLI033117",0.76,"Payroll Accrual"
"GLI","03/31/2017","22906","213406","GLI033117","GLI033117",1.58,"Payroll Accrual"
"GLI","03/31/2017","22904","213406","GLI033117","GLI033117",1.58,"Payroll Accrual"
"GLI","03/31/2017","22902","213406","GLI033117","GLI033117",1.58,"Payroll Accrual"
"GLI","03/31/2017","22901","213406","GLI033117","GLI033117",0.82,"Payroll Accrual"
"GLI","03/31/2017","22510","213406","GLI033117","GLI033117",3.86,"Payroll Accrual"
"GLI","03/31/2017","22506","213406","GLI033117","GLI033117",8.05,"Payroll Accrual"
"GLI","03/31/2017","22504","213406","GLI033117","GLI033117",8.05,"Payroll Accrual"
"GLI","03/31/2017","22502","213406","GLI033117","GLI033117",8.05,"Payroll Accrual"
"GLI","03/31/2017","22501","213406","GLI033117","GLI033117",4.18,"Payroll Accrual"
"GLI","03/31/2017","22210B","213406","GLI033117","GLI033117",50.51,"Payroll Accrual"
"GLI","03/31/2017","22206B","213406","GLI033117","GLI033117",105.23,"Payroll Accrual"
"GLI","03/31/2017","22204B","213406","GLI033117","GLI033117",105.23,"Payroll Accrual"
"GLI","03/31/2017","22202B","213406","GLI033117","GLI033117",105.23,"Payroll Accrual"
"GLI","03/31/2017","22201B","213406","GLI033117","GLI033117",54.72,"Payroll Accrual"
"GLI","03/31/2017","22904","2132360","GLI033117","GLI033117",51.24,"Payroll Accrual"
"GLI","03/31/2017","22504","2132360","GLI033117","GLI033117",190.32,"Payroll Accrual"
"GLI","03/31/2017","224704","2132360","GLI033117","GLI033117",2562.34,"Payroll Accrual"
"GLI","03/31/2017","22904","2130510","GLI033117","GLI033117",38.54,"Payroll Accrual"
"GLI","03/31/2017","22504","2130510","GLI033117","GLI033117",184.43,"Payroll Accrual"
"GLI","03/31/2017","22304B","2130510","GLI033117","GLI033117",2568.99,"Payroll Accrual"
"GLI","03/31/2017","22904","2130150","GLI033117","GLI033117",39.95,"Payroll Accrual"
"GLI","03/31/2017","22504","2130150","GLI033117","GLI033117",152.83,"Payroll Accrual"
"GLI","03/31/2017","224704","2130150","GLI033117","GLI033117",1527.74,"Payroll Accrual"
"GLI","03/31/2017","22404","2130150","GLI033117","GLI033117",470,"Payroll Accrual"
"GLI","03/31/2017","22504","2126053","GLI033117","GLI033117",17.27,"Payroll Accrual"
"GLI","03/31/2017","22304C","2126053","GLI033117","GLI033117",225.8,"Payroll Accrual"
"GLI","03/31/2017","22503","211260","GLI033117","GLI033117",36.09,"Payroll Accrual"
"GLI","03/31/2017","224723","211260","GLI033117","GLI033117",471.84,"Payroll Accrual"
"GLI","03/31/2017","22504","2106410","GLI033117","GLI033117",188.92,"Payroll Accrual"
"GLI","03/31/2017","22404","2106410","GLI033117","GLI033117",90,"Payroll Accrual"
"GLI","03/31/2017","22304B","2106410","GLI033117","GLI033117",2379.58,"Payroll Accrual"
"GLI","03/31/2017","22506","2106350","GLI033117","GLI033117",178,"Payroll Accrual"
"GLI","03/31/2017","22106","2106350","GLI033117","GLI033117",2410.78,"Payroll Accrual"
"GLI","03/31/2017","22504","210073","GLI033117","GLI033117",102.73,"Payroll Accrual"
"GLI","03/31/2017","224704","210073","GLI033117","GLI033117",1227.99,"Payroll Accrual"
"GLI","03/31/2017","22404","210073","GLI033117","GLI033117",136,"Payroll Accrual"
"GLI","03/31/2017","12503","196345","GLI033117","GLI033117",84.14,"Payroll Accrual"
"GLI","03/31/2017","12303","196345","GLI033117","GLI033117",1099.84,"Payroll Accrual"
"GLI","03/31/2017","12906","196341","GLI033117","GLI033117",11.71,"Payroll Accrual"
"GLI","03/31/2017","12905","196341","GLI033117","GLI033117",10.41,"Payroll Accrual"
"GLI","03/31/2017","12514","196341","GLI033117","GLI033117",28.87,"Payroll Accrual"
"GLI","03/31/2017","12506","196341","GLI033117","GLI033117",2.74,"Payroll Accrual"
"GLI","03/31/2017","12505","196341","GLI033117","GLI033117",2.43,"Payroll Accrual"
"GLI","03/31/2017","12504","196341","GLI033117","GLI033117",24.06,"Payroll Accrual"
"GLI","03/31/2017","12502","196341","GLI033117","GLI033117",20.85,"Payroll Accrual"
"GLI","03/31/2017","12501","196341","GLI033117","GLI033117",20.85,"Payroll Accrual"
"GLI","03/31/2017","12214","196341","GLI033117","GLI033117",460.9,"Payroll Accrual"
"GLI","03/31/2017","12206C","196341","GLI033117","GLI033117",272.35,"Payroll Accrual"
"GLI","03/31/2017","12205C","196341","GLI033117","GLI033117",251.4,"Payroll Accrual"
"GLI","03/31/2017","12204C","196341","GLI033117","GLI033117",398.05,"Payroll Accrual"
"GLI","03/31/2017","12202C","196341","GLI033117","GLI033117",356.15,"Payroll Accrual"
"GLI","03/31/2017","12201C","196341","GLI033117","GLI033117",356.15,"Payroll Accrual"
"GLI","03/31/2017","12503","196205","GLI033117","GLI033117",51.59,"Payroll Accrual"
"GLI","03/31/2017","124723","196205","GLI033117","GLI033117",674.4,"Payroll Accrual"
"GLI","03/31/2017","12524","195413","GLI033117","GLI033117",67.63,"Payroll Accrual"
"GLI","03/31/2017","124724","195413","GLI033117","GLI033117",884,"Payroll Accrual"
"GLI","03/31/2017","12506","195401","GLI033117","GLI033117",92.28,"Payroll Accrual"
"GLI","03/31/2017","12306D","195401","GLI033117","GLI033117",1275.64,"Payroll Accrual"
"GLI","03/31/2017","12504","194675","GLI033117","GLI033117",138.76,"Payroll Accrual"
"GLI","03/31/2017","124704","194675","GLI033117","GLI033117",1838.9,"Payroll Accrual"
"GLI","03/31/2017","12527","193062","GLI033117","GLI033117",24.13,"Payroll Accrual"
"GLI","03/31/2017","12327","193062","GLI033117","GLI033117",315.5,"Payroll Accrual"
"GLI","03/31/2017","12505","191350","GLI033117","GLI033117",215.94,"Payroll Accrual"
"GLI","03/31/2017","124703","191350","GLI033117","GLI033117",2822.8,"Payroll Accrual"
"GLI","03/31/2017","12405","191350","GLI033117","GLI033117",234.24,"Payroll Accrual"
"GLI","03/31/2017","12504","191060","GLI033117","GLI033117",404.36,"Payroll Accrual"
"GLI","03/31/2017","12304B","191060","GLI033117","GLI033117",5285.89,"Payroll Accrual"
"GLI","03/31/2017","12924","190933","GLI033117","GLI033117",11.85,"Payroll Accrual"
"GLI","03/31/2017","12524","190933","GLI033117","GLI033117",55.91,"Payroll Accrual"
"GLI","03/31/2017","124724","190933","GLI033117","GLI033117",790,"Payroll Accrual"
"GLI","03/31/2017","12424","190933","GLI033117","GLI033117",192,"Payroll Accrual"
"GLI","03/31/2017","12524","190910","GLI033117","GLI033117",171.05,"Payroll Accrual"
"GLI","03/31/2017","124724","190910","GLI033117","GLI033117",2236,"Payroll Accrual"
"GLI","03/31/2017","12906","190892","GLI033117","GLI033117",39.23,"Payroll Accrual"
"GLI","03/31/2017","12506","190892","GLI033117","GLI033117",148.05,"Payroll Accrual"
"GLI","03/31/2017","12306C","190892","GLI033117","GLI033117",1961.29,"Payroll Accrual"
"GLI","03/31/2017","12905","190600","GLI033117","GLI033117",36.18,"Payroll Accrual"
"GLI","03/31/2017","12505","190600","GLI033117","GLI033117",133.1,"Payroll Accrual"
"GLI","03/31/2017","124703","190600","GLI033117","GLI033117",1809.1,"Payroll Accrual"
"GLI","03/31/2017","12905","188338","GLI033117","GLI033117",51.69,"Payroll Accrual"
"GLI","03/31/2017","12505","188338","GLI033117","GLI033117",191.21,"Payroll Accrual"
"GLI","03/31/2017","12305B","188338","GLI033117","GLI033117",2584.47,"Payroll Accrual"
"GLI","03/31/2017","12904","187675","GLI033117","GLI033117",50.95,"Payroll Accrual"
"GLI","03/31/2017","12504","187675","GLI033117","GLI033117",190.02,"Payroll Accrual"
"GLI","03/31/2017","124704","187675","GLI033117","GLI033117",2547.7,"Payroll Accrual"
"GLI","03/31/2017","12905","186210","GLI033117","GLI033117",32.61,"Payroll Accrual"
"GLI","03/31/2017","12505","186210","GLI033117","GLI033117",166.34,"Payroll Accrual"
"GLI","03/31/2017","124703","186210","GLI033117","GLI033117",2174.3,"Payroll Accrual"
"GLI","03/31/2017","12405","186210","GLI033117","GLI033117",168.08,"Payroll Accrual"
"GLI","03/31/2017","12906","186100","GLI033117","GLI033117",10.62,"Payroll Accrual"
"GLI","03/31/2017","12905","186100","GLI033117","GLI033117",10.62,"Payroll Accrual"
"GLI","03/31/2017","12904","186100","GLI033117","GLI033117",10.62,"Payroll Accrual"
"GLI","03/31/2017","12902","186100","GLI033117","GLI033117",10.62,"Payroll Accrual"
"GLI","03/31/2017","12901","186100","GLI033117","GLI033117",10.62,"Payroll Accrual"
"GLI","03/31/2017","12506","186100","GLI033117","GLI033117",40.38,"Payroll Accrual"
"GLI","03/31/2017","12505","186100","GLI033117","GLI033117",40.38,"Payroll Accrual"
"GLI","03/31/2017","12504","186100","GLI033117","GLI033117",40.38,"Payroll Accrual"
"GLI","03/31/2017","12502","186100","GLI033117","GLI033117",40.38,"Payroll Accrual"
"GLI","03/31/2017","12501","186100","GLI033117","GLI033117",40.38,"Payroll Accrual"
"GLI","03/31/2017","12106","186100","GLI033117","GLI033117",530.77,"Payroll Accrual"
"GLI","03/31/2017","12105","186100","GLI033117","GLI033117",530.77,"Payroll Accrual"
"GLI","03/31/2017","12104","186100","GLI033117","GLI033117",530.77,"Payroll Accrual"
"GLI","03/31/2017","12102","186100","GLI033117","GLI033117",530.77,"Payroll Accrual"
"GLI","03/31/2017","12101","186100","GLI033117","GLI033117",530.77,"Payroll Accrual"
"GLI","03/31/2017","12906","185801","GLI033117","GLI033117",22.89,"Payroll Accrual"
"GLI","03/31/2017","12506","185801","GLI033117","GLI033117",115.54,"Payroll Accrual"
"GLI","03/31/2017","12306D","185801","GLI033117","GLI033117",1526.14,"Payroll Accrual"
"GLI","03/31/2017","12515","185600","GLI033117","GLI033117",39.77,"Payroll Accrual"
"GLI","03/31/2017","12506","185600","GLI033117","GLI033117",27.12,"Payroll Accrual"
"GLI","03/31/2017","12505","185600","GLI033117","GLI033117",27.12,"Payroll Accrual"
"GLI","03/31/2017","12504","185600","GLI033117","GLI033117",28.92,"Payroll Accrual"
"GLI","03/31/2017","12502","185600","GLI033117","GLI033117",28.92,"Payroll Accrual"
"GLI","03/31/2017","12501","185600","GLI033117","GLI033117",28.92,"Payroll Accrual"
"GLI","03/31/2017","12315","185600","GLI033117","GLI033117",544.92,"Payroll Accrual"
"GLI","03/31/2017","12306","185600","GLI033117","GLI033117",371.54,"Payroll Accrual"
"GLI","03/31/2017","12305","185600","GLI033117","GLI033117",371.54,"Payroll Accrual"
"GLI","03/31/2017","12304","185600","GLI033117","GLI033117",396.31,"Payroll Accrual"
"GLI","03/31/2017","12302","185600","GLI033117","GLI033117",396.31,"Payroll Accrual"
"GLI","03/31/2017","12301","185600","GLI033117","GLI033117",396.31,"Payroll Accrual"
"GLI","03/31/2017","12905","184920","GLI033117","GLI033117",55.9,"Payroll Accrual"
"GLI","03/31/2017","12505","184920","GLI033117","GLI033117",283.46,"Payroll Accrual"
"GLI","03/31/2017","124703","184920","GLI033117","GLI033117",3726.4,"Payroll Accrual"
"GLI","03/31/2017","12924","184806","GLI033117","GLI033117",47.08,"Payroll Accrual"
"GLI","03/31/2017","12524","184806","GLI033117","GLI033117",180.08,"Payroll Accrual"
"GLI","03/31/2017","124724","184806","GLI033117","GLI033117",2354,"Payroll Accrual"
"GLI","03/31/2017","12502","184630","GLI033117","GLI033117",224.87,"Payroll Accrual"
"GLI","03/31/2017","12501","184630","GLI033117","GLI033117",224.87,"Payroll Accrual"
"GLI","03/31/2017","12102","184630","GLI033117","GLI033117",3184.62,"Payroll Accrual"
"GLI","03/31/2017","12101","184630","GLI033117","GLI033117",3184.62,"Payroll Accrual"
"GLI","03/31/2017","12502","184625","GLI033117","GLI033117",133.91,"Payroll Accrual"
"GLI","03/31/2017","12501","184625","GLI033117","GLI033117",89.27,"Payroll Accrual"
"GLI","03/31/2017","12102A","184625","GLI033117","GLI033117",1783.39,"Payroll Accrual"
"GLI","03/31/2017","12101A","184625","GLI033117","GLI033117",1188.92,"Payroll Accrual"
"GLI","03/31/2017","12504","184620","GLI033117","GLI033117",67.06,"Payroll Accrual"
"GLI","03/31/2017","12304C","184620","GLI033117","GLI033117",876.66,"Payroll Accrual"
"GLI","03/31/2017","12905","184614","GLI033117","GLI033117",32.72,"Payroll Accrual"
"GLI","03/31/2017","12505","184614","GLI033117","GLI033117",166.89,"Payroll Accrual"
"GLI","03/31/2017","124703","184614","GLI033117","GLI033117",2181.6,"Payroll Accrual"
"GLI","03/31/2017","12906","184610","GLI033117","GLI033117",54.03,"Payroll Accrual"
"GLI","03/31/2017","12506","184610","GLI033117","GLI033117",201.37,"Payroll Accrual"
"GLI","03/31/2017","12306B","184610","GLI033117","GLI033117",2701.63,"Payroll Accrual"
"GLI","03/31/2017","12914","181520","GLI033117","GLI033117",5.93,"Payroll Accrual"
"GLI","03/31/2017","12906","181520","GLI033117","GLI033117",7.49,"Payroll Accrual"
"GLI","03/31/2017","12905","181520","GLI033117","GLI033117",6.38,"Payroll Accrual"
"GLI","03/31/2017","12904","181520","GLI033117","GLI033117",5.12,"Payroll Accrual"
"GLI","03/31/2017","12902","181520","GLI033117","GLI033117",4.59,"Payroll Accrual"
"GLI","03/31/2017","12901","181520","GLI033117","GLI033117",4.59,"Payroll Accrual"
"GLI","03/31/2017","12514","181520","GLI033117","GLI033117",14.19,"Payroll Accrual"
"GLI","03/31/2017","12506","181520","GLI033117","GLI033117",0.93,"Payroll Accrual"
"GLI","03/31/2017","12505","181520","GLI033117","GLI033117",0.73,"Payroll Accrual"
"GLI","03/31/2017","12504","181520","GLI033117","GLI033117",11.09,"Payroll Accrual"
"GLI","03/31/2017","12502","181520","GLI033117","GLI033117",9.03,"Payroll Accrual"
"GLI","03/31/2017","12501","181520","GLI033117","GLI033117",9.03,"Payroll Accrual"
"GLI","03/31/2017","12214","181520","GLI033117","GLI033117",296.69,"Payroll Accrual"
"GLI","03/31/2017","12206C","181520","GLI033117","GLI033117",175.32,"Payroll Accrual"
"GLI","03/31/2017","12205C","181520","GLI033117","GLI033117",161.83,"Payroll Accrual"
"GLI","03/31/2017","12204C","181520","GLI033117","GLI033117",256.23,"Payroll Accrual"
"GLI","03/31/2017","12202C","181520","GLI033117","GLI033117",229.26,"Payroll Accrual"
"GLI","03/31/2017","12201C","181520","GLI033117","GLI033117",229.26,"Payroll Accrual"
"GLI","03/31/2017","12904","18005","GLI033117","GLI033117",41.6,"Payroll Accrual"
"GLI","03/31/2017","12504","18005","GLI033117","GLI033117",157.91,"Payroll Accrual"
"GLI","03/31/2017","124704","18005","GLI033117","GLI033117",2080,"Payroll Accrual"
"GLI","03/31/2017","12904","179780","GLI033117","GLI033117",28.38,"Payroll Accrual"
"GLI","03/31/2017","12504","179780","GLI033117","GLI033117",140.64,"Payroll Accrual"
"GLI","03/31/2017","124704","179780","GLI033117","GLI033117",1891.9,"Payroll Accrual"
"GLI","03/31/2017","12404","179780","GLI033117","GLI033117",55.96,"Payroll Accrual"
"GLI","03/31/2017","12906","179775","GLI033117","GLI033117",28.15,"Payroll Accrual"
"GLI","03/31/2017","12506","179775","GLI033117","GLI033117",101.13,"Payroll Accrual"
"GLI","03/31/2017","12306B","179775","GLI033117","GLI033117",1407.62,"Payroll Accrual"
"GLI","03/31/2017","12506","179693","GLI033117","GLI033117",16.08,"Payroll Accrual"
"GLI","03/31/2017","12505","179693","GLI033117","GLI033117",16.08,"Payroll Accrual"
"GLI","03/31/2017","12504","179693","GLI033117","GLI033117",16.08,"Payroll Accrual"
"GLI","03/31/2017","12502","179693","GLI033117","GLI033117",16.08,"Payroll Accrual"
"GLI","03/31/2017","12501","179693","GLI033117","GLI033117",16.08,"Payroll Accrual"
"GLI","03/31/2017","12206B","179693","GLI033117","GLI033117",210.18,"Payroll Accrual"
"GLI","03/31/2017","12205B","179693","GLI033117","GLI033117",210.18,"Payroll Accrual"
"GLI","03/31/2017","12204B","179693","GLI033117","GLI033117",210.18,"Payroll Accrual"
"GLI","03/31/2017","12202B","179693","GLI033117","GLI033117",210.18,"Payroll Accrual"
"GLI","03/31/2017","12201B","179693","GLI033117","GLI033117",210.18,"Payroll Accrual"
"GLI","03/31/2017","12504","178079","GLI033117","GLI033117",151.36,"Payroll Accrual"
"GLI","03/31/2017","12304D","178079","GLI033117","GLI033117",1999.63,"Payroll Accrual"
"GLI","03/31/2017","12527","178060","GLI033117","GLI033117",32.95,"Payroll Accrual"
"GLI","03/31/2017","12327","178060","GLI033117","GLI033117",430.7,"Payroll Accrual"
"GLI","03/31/2017","12904","178050","GLI033117","GLI033117",19.73,"Payroll Accrual"
"GLI","03/31/2017","12504","178050","GLI033117","GLI033117",99.01,"Payroll Accrual"
"GLI","03/31/2017","124704","178050","GLI033117","GLI033117",1315.4,"Payroll Accrual"
"GLI","03/31/2017","12903","177950","GLI033117","GLI033117",5.77,"Payroll Accrual"
"GLI","03/31/2017","12503","177950","GLI033117","GLI033117",29.41,"Payroll Accrual"
"GLI","03/31/2017","124723","177950","GLI033117","GLI033117",384.44,"Payroll Accrual"
"GLI","03/31/2017","12516","176505","GLI033117","GLI033117",22.84,"Payroll Accrual"
"GLI","03/31/2017","12316","176505","GLI033117","GLI033117",298.6,"Payroll Accrual"
"GLI","03/31/2017","12524","173800","GLI033117","GLI033117",30.29,"Payroll Accrual"
"GLI","03/31/2017","124724","173800","GLI033117","GLI033117",396,"Payroll Accrual"
"GLI","03/31/2017","12906","172077","GLI033117","GLI033117",30.44,"Payroll Accrual"
"GLI","03/31/2017","12506","172077","GLI033117","GLI033117",104.32,"Payroll Accrual"
"GLI","03/31/2017","12306B","172077","GLI033117","GLI033117",1521.91,"Payroll Accrual"
"GLI","03/31/2017","12905","171055","GLI033117","GLI033117",80.22,"Payroll Accrual"
"GLI","03/31/2017","12505","171055","GLI033117","GLI033117",293.24,"Payroll Accrual"
"GLI","03/31/2017","124703","171055","GLI033117","GLI033117",4011.2,"Payroll Accrual"
"GLI","03/31/2017","12405","171055","GLI033117","GLI033117",333.2,"Payroll Accrual"
"GLI","03/31/2017","12904","170101","GLI033117","GLI033117",19.64,"Payroll Accrual"
"GLI","03/31/2017","12504","170101","GLI033117","GLI033117",100.17,"Payroll Accrual"
"GLI","03/31/2017","124704","170101","GLI033117","GLI033117",1309.4,"Payroll Accrual"
"GLI","03/31/2017","12504","169420","GLI033117","GLI033117",95.66,"Payroll Accrual"
"GLI","03/31/2017","124704","169420","GLI033117","GLI033117",1266.38,"Payroll Accrual"
"GLI","03/31/2017","12516","167906","GLI033117","GLI033117",96.34,"Payroll Accrual"
"GLI","03/31/2017","12316","167906","GLI033117","GLI033117",1275.19,"Payroll Accrual"
"GLI","03/31/2017","12904","167812","GLI033117","GLI033117",2.4,"Payroll Accrual"
"GLI","03/31/2017","12504","167812","GLI033117","GLI033117",9.17,"Payroll Accrual"
"GLI","03/31/2017","12204C","167812","GLI033117","GLI033117",119.9,"Payroll Accrual"
"GLI","03/31/2017","12504","167580","GLI033117","GLI033117",115.13,"Payroll Accrual"
"GLI","03/31/2017","124704","167580","GLI033117","GLI033117",1526.2,"Payroll Accrual"
"GLI","03/31/2017","12927","165500","GLI033117","GLI033117",13.94,"Payroll Accrual"
"GLI","03/31/2017","12527","165500","GLI033117","GLI033117",65.38,"Payroll Accrual"
"GLI","03/31/2017","12327","165500","GLI033117","GLI033117",929.28,"Payroll Accrual"
"GLI","03/31/2017","12504","165410","GLI033117","GLI033117",85.66,"Payroll Accrual"
"GLI","03/31/2017","12304D","165410","GLI033117","GLI033117",1140.9,"Payroll Accrual"
"GLI","03/31/2017","12524","165400","GLI033117","GLI033117",18.56,"Payroll Accrual"
"GLI","03/31/2017","12505","165400","GLI033117","GLI033117",18.56,"Payroll Accrual"
"GLI","03/31/2017","12504","165400","GLI033117","GLI033117",18.56,"Payroll Accrual"
"GLI","03/31/2017","12501","165400","GLI033117","GLI033117",18.56,"Payroll Accrual"
"GLI","03/31/2017","12324F","165400","GLI033117","GLI033117",289.49,"Payroll Accrual"
"GLI","03/31/2017","12305F","165400","GLI033117","GLI033117",289.49,"Payroll Accrual"
"GLI","03/31/2017","12304F","165400","GLI033117","GLI033117",289.49,"Payroll Accrual"
"GLI","03/31/2017","12301F","165400","GLI033117","GLI033117",289.49,"Payroll Accrual"
"GLI","03/31/2017","12503","165378","GLI033117","GLI033117",53.5,"Payroll Accrual"
"GLI","03/31/2017","124723","165378","GLI033117","GLI033117",699.3,"Payroll Accrual"
"GLI","03/31/2017","12905","165357","GLI033117","GLI033117",35.07,"Payroll Accrual"
"GLI","03/31/2017","12505","165357","GLI033117","GLI033117",175.81,"Payroll Accrual"
"GLI","03/31/2017","12305B","165357","GLI033117","GLI033117",2337.76,"Payroll Accrual"
"GLI","03/31/2017","12505","165275","GLI033117","GLI033117",94.39,"Payroll Accrual"
"GLI","03/31/2017","124703","165275","GLI033117","GLI033117",1287.26,"Payroll Accrual"
"GLI","03/31/2017","12924","164920","GLI033117","GLI033117",14.34,"Payroll Accrual"
"GLI","03/31/2017","12524","164920","GLI033117","GLI033117",73.13,"Payroll Accrual"
"GLI","03/31/2017","124724","164920","GLI033117","GLI033117",956,"Payroll Accrual"
"GLI","03/31/2017","12904","164015","GLI033117","GLI033117",58.09,"Payroll Accrual"
"GLI","03/31/2017","12504","164015","GLI033117","GLI033117",221.16,"Payroll Accrual"
"GLI","03/31/2017","124704","164015","GLI033117","GLI033117",2904.7,"Payroll Accrual"
"GLI","03/31/2017","12404","164015","GLI033117","GLI033117",246.88,"Payroll Accrual"
"GLI","03/31/2017","12912","163096","GLI033117","GLI033117",6.92,"Payroll Accrual"
"GLI","03/31/2017","12902","163096","GLI033117","GLI033117",12.26,"Payroll Accrual"
"GLI","03/31/2017","12901","163096","GLI033117","GLI033117",12.26,"Payroll Accrual"
"GLI","03/31/2017","12512","163096","GLI033117","GLI033117",25.25,"Payroll Accrual"
"GLI","03/31/2017","12502","163096","GLI033117","GLI033117",45.69,"Payroll Accrual"
"GLI","03/31/2017","12501","163096","GLI033117","GLI033117",45.69,"Payroll Accrual"
"GLI","03/31/2017","12212","163096","GLI033117","GLI033117",345.91,"Payroll Accrual"
"GLI","03/31/2017","12202C","163096","GLI033117","GLI033117",613.2,"Payroll Accrual"
"GLI","03/31/2017","12201C","163096","GLI033117","GLI033117",613.2,"Payroll Accrual"
"GLI","03/31/2017","12503","162795","GLI033117","GLI033117",92.49,"Payroll Accrual"
"GLI","03/31/2017","12303","162795","GLI033117","GLI033117",1209.04,"Payroll Accrual"
"GLI","03/31/2017","12906","16250","GLI033117","GLI033117",14.33,"Payroll Accrual"
"GLI","03/31/2017","12506","16250","GLI033117","GLI033117",58.99,"Payroll Accrual"
"GLI","03/31/2017","12306B","16250","GLI033117","GLI033117",955.36,"Payroll Accrual"
"GLI","03/31/2017","12906","162428","GLI033117","GLI033117",28.1,"Payroll Accrual"
"GLI","03/31/2017","12506","162428","GLI033117","GLI033117",140.4,"Payroll Accrual"
"GLI","03/31/2017","12306B","162428","GLI033117","GLI033117",1873.08,"Payroll Accrual"
"GLI","03/31/2017","185600","161351","GLI033117","GLI033117",93.85,"Payroll Accrual"
"GLI","03/31/2017","185501","161351","GLI033117","GLI033117",82.12,"Payroll Accrual"
"GLI","03/31/2017","12502","161351","GLI033117","GLI033117",36.39,"Payroll Accrual"
"GLI","03/31/2017","12501","161351","GLI033117","GLI033117",22.01,"Payroll Accrual"
"GLI","03/31/2017","11102","161351","GLI033117","GLI033117",586.59,"Payroll Accrual"
"GLI","03/31/2017","11101","161351","GLI033117","GLI033117",410.61,"Payroll Accrual"
"GLI","03/31/2017","12527","161205","GLI033117","GLI033117",10.12,"Payroll Accrual"
"GLI","03/31/2017","12327","161205","GLI033117","GLI033117",132.2,"Payroll Accrual"
"GLI","03/31/2017","12503","161010","GLI033117","GLI033117",28.69,"Payroll Accrual"
"GLI","03/31/2017","124723","161010","GLI033117","GLI033117",374.92,"Payroll Accrual"
"GLI","03/31/2017","12905","160930","GLI033117","GLI033117",51.44,"Payroll Accrual"
"GLI","03/31/2017","12505","160930","GLI033117","GLI033117",193.71,"Payroll Accrual"
"GLI","03/31/2017","12305C","160930","GLI033117","GLI033117",2571.88,"Payroll Accrual"
"GLI","03/31/2017","12503","159100","GLI033117","GLI033117",67.48,"Payroll Accrual"
"GLI","03/31/2017","124723","159100","GLI033117","GLI033117",882.12,"Payroll Accrual"
"GLI","03/31/2017","12506","158820","GLI033117","GLI033117",3.32,"Payroll Accrual"
"GLI","03/31/2017","12505","158820","GLI033117","GLI033117",3.32,"Payroll Accrual"
"GLI","03/31/2017","12504","158820","GLI033117","GLI033117",3.32,"Payroll Accrual"
"GLI","03/31/2017","12502","158820","GLI033117","GLI033117",3.32,"Payroll Accrual"
"GLI","03/31/2017","12501","158820","GLI033117","GLI033117",3.32,"Payroll Accrual"
"GLI","03/31/2017","12206B","158820","GLI033117","GLI033117",43.38,"Payroll Accrual"
"GLI","03/31/2017","12205B","158820","GLI033117","GLI033117",43.38,"Payroll Accrual"
"GLI","03/31/2017","12204B","158820","GLI033117","GLI033117",43.38,"Payroll Accrual"
"GLI","03/31/2017","12202B","158820","GLI033117","GLI033117",43.38,"Payroll Accrual"
"GLI","03/31/2017","12201B","158820","GLI033117","GLI033117",43.38,"Payroll Accrual"
"GLI","03/31/2017","12906","157995","GLI033117","GLI033117",9.62,"Payroll Accrual"
"GLI","03/31/2017","12905","157995","GLI033117","GLI033117",8.88,"Payroll Accrual"
"GLI","03/31/2017","12514","157995","GLI033117","GLI033117",20.09,"Payroll Accrual"
"GLI","03/31/2017","12506","157995","GLI033117","GLI033117",2.25,"Payroll Accrual"
"GLI","03/31/2017","12505","157995","GLI033117","GLI033117",2.08,"Payroll Accrual"
"GLI","03/31/2017","12504","157995","GLI033117","GLI033117",17.35,"Payroll Accrual"
"GLI","03/31/2017","12502","157995","GLI033117","GLI033117",15.52,"Payroll Accrual"
"GLI","03/31/2017","12501","157995","GLI033117","GLI033117",15.52,"Payroll Accrual"
"GLI","03/31/2017","12214","157995","GLI033117","GLI033117",326.95,"Payroll Accrual"
"GLI","03/31/2017","12206C","157995","GLI033117","GLI033117",193.2,"Payroll Accrual"
"GLI","03/31/2017","12205C","157995","GLI033117","GLI033117",178.34,"Payroll Accrual"
"GLI","03/31/2017","12204C","157995","GLI033117","GLI033117",282.37,"Payroll Accrual"
"GLI","03/31/2017","12202C","157995","GLI033117","GLI033117",252.65,"Payroll Accrual"
"GLI","03/31/2017","12201C","157995","GLI033117","GLI033117",252.65,"Payroll Accrual"
"GLI","03/31/2017","12524","156848","GLI033117","GLI033117",22.33,"Payroll Accrual"
"GLI","03/31/2017","124724","156848","GLI033117","GLI033117",291.96,"Payroll Accrual"
"GLI","03/31/2017","185600","156845","GLI033117","GLI033117",44.81,"Payroll Accrual"
"GLI","03/31/2017","185501","156845","GLI033117","GLI033117",39.21,"Payroll Accrual"
"GLI","03/31/2017","12502","156845","GLI033117","GLI033117",24.85,"Payroll Accrual"
"GLI","03/31/2017","12501","156845","GLI033117","GLI033117",17.99,"Payroll Accrual"
"GLI","03/31/2017","11102","156845","GLI033117","GLI033117",280.05,"Payroll Accrual"
"GLI","03/31/2017","11101","156845","GLI033117","GLI033117",196.04,"Payroll Accrual"
"GLI","03/31/2017","12906","155214","GLI033117","GLI033117",0.12,"Payroll Accrual"
"GLI","03/31/2017","12905","155214","GLI033117","GLI033117",0.11,"Payroll Accrual"
"GLI","03/31/2017","12514","155214","GLI033117","GLI033117",0.25,"Payroll Accrual"
"GLI","03/31/2017","12506","155214","GLI033117","GLI033117",0.03,"Payroll Accrual"
"GLI","03/31/2017","12505","155214","GLI033117","GLI033117",0.03,"Payroll Accrual"
"GLI","03/31/2017","12504","155214","GLI033117","GLI033117",0.21,"Payroll Accrual"
"GLI","03/31/2017","12502","155214","GLI033117","GLI033117",0.19,"Payroll Accrual"
"GLI","03/31/2017","12501","155214","GLI033117","GLI033117",0.19,"Payroll Accrual"
"GLI","03/31/2017","12214","155214","GLI033117","GLI033117",3.21,"Payroll Accrual"
"GLI","03/31/2017","12206C","155214","GLI033117","GLI033117",1.9,"Payroll Accrual"
"GLI","03/31/2017","12205C","155214","GLI033117","GLI033117",1.75,"Payroll Accrual"
"GLI","03/31/2017","12204C","155214","GLI033117","GLI033117",2.77,"Payroll Accrual"
"GLI","03/31/2017","12202C","155214","GLI033117","GLI033117",2.48,"Payroll Accrual"
"GLI","03/31/2017","12201C","155214","GLI033117","GLI033117",2.48,"Payroll Accrual"
"GLI","03/31/2017","12904","152525","GLI033117","GLI033117",22.08,"Payroll Accrual"
"GLI","03/31/2017","12504","152525","GLI033117","GLI033117",111.41,"Payroll Accrual"
"GLI","03/31/2017","124704","152525","GLI033117","GLI033117",1472.2,"Payroll Accrual"
"GLI","03/31/2017","12512","152512","GLI033117","GLI033117",9.56,"Payroll Accrual"
"GLI","03/31/2017","12502","152512","GLI033117","GLI033117",16.94,"Payroll Accrual"
"GLI","03/31/2017","12501","152512","GLI033117","GLI033117",16.94,"Payroll Accrual"
"GLI","03/31/2017","12212","152512","GLI033117","GLI033117",124.92,"Payroll Accrual"
"GLI","03/31/2017","12202C","152512","GLI033117","GLI033117",221.46,"Payroll Accrual"
"GLI","03/31/2017","12201C","152512","GLI033117","GLI033117",221.46,"Payroll Accrual"
"GLI","03/31/2017","12927","152510","GLI033117","GLI033117",15.91,"Payroll Accrual"
"GLI","03/31/2017","12527","152510","GLI033117","GLI033117",77.03,"Payroll Accrual"
"GLI","03/31/2017","12327","152510","GLI033117","GLI033117",1060.85,"Payroll Accrual"
"GLI","03/31/2017","12503","152499","GLI033117","GLI033117",114.52,"Payroll Accrual"
"GLI","03/31/2017","124723","152499","GLI033117","GLI033117",1496.95,"Payroll Accrual"
"GLI","03/31/2017","12924","152495","GLI033117","GLI033117",33.47,"Payroll Accrual"
"GLI","03/31/2017","12524","152495","GLI033117","GLI033117",170.67,"Payroll Accrual"
"GLI","03/31/2017","124724","152495","GLI033117","GLI033117",2231,"Payroll Accrual"
"GLI","03/31/2017","12503","152432","GLI033117","GLI033117",32.66,"Payroll Accrual"
"GLI","03/31/2017","12303","152432","GLI033117","GLI033117",426.86,"Payroll Accrual"
"GLI","03/31/2017","12904","152410","GLI033117","GLI033117",46.65,"Payroll Accrual"
"GLI","03/31/2017","12504","152410","GLI033117","GLI033117",177.75,"Payroll Accrual"
"GLI","03/31/2017","124704","152410","GLI033117","GLI033117",2332.7,"Payroll Accrual"
"GLI","03/31/2017","12404","152410","GLI033117","GLI033117",797.44,"Payroll Accrual"
"GLI","03/31/2017","12904","152235","GLI033117","GLI033117",77.81,"Payroll Accrual"
"GLI","03/31/2017","12504","152235","GLI033117","GLI033117",297.63,"Payroll Accrual"
"GLI","03/31/2017","124704","152235","GLI033117","GLI033117",3890.6,"Payroll Accrual"
"GLI","03/31/2017","12904","151410","GLI033117","GLI033117",5.9,"Payroll Accrual"
"GLI","03/31/2017","12504","151410","GLI033117","GLI033117",24.38,"Payroll Accrual"
"GLI","03/31/2017","12204C","151410","GLI033117","GLI033117",393.21,"Payroll Accrual"
"GLI","03/31/2017","12503","151203","GLI033117","GLI033117",22.26,"Payroll Accrual"
"GLI","03/31/2017","124723","151203","GLI033117","GLI033117",291,"Payroll Accrual"
"GLI","03/31/2017","12904","150126","GLI033117","GLI033117",38.79,"Payroll Accrual"
"GLI","03/31/2017","12504","150126","GLI033117","GLI033117",197.84,"Payroll Accrual"
"GLI","03/31/2017","124704","150126","GLI033117","GLI033117",2586.2,"Payroll Accrual"
"GLI","03/31/2017","12404","150126","GLI033117","GLI033117",226.64,"Payroll Accrual"
"GLI","03/31/2017","12924","150120","GLI033117","GLI033117",26.75,"Payroll Accrual"
"GLI","03/31/2017","12524","150120","GLI033117","GLI033117",136.43,"Payroll Accrual"
"GLI","03/31/2017","124724","150120","GLI033117","GLI033117",1783.39,"Payroll Accrual"
"GLI","03/31/2017","12905","150105","GLI033117","GLI033117",41.98,"Payroll Accrual"
"GLI","03/31/2017","12505","150105","GLI033117","GLI033117",212.13,"Payroll Accrual"
"GLI","03/31/2017","124703","150105","GLI033117","GLI033117",2798.8,"Payroll Accrual"
"GLI","03/31/2017","12405","150105","GLI033117","GLI033117",1468.32,"Payroll Accrual"
"GLI","03/31/2017","12904","149878","GLI033117","GLI033117",12.85,"Payroll Accrual"
"GLI","03/31/2017","12504","149878","GLI033117","GLI033117",85.92,"Payroll Accrual"
"GLI","03/31/2017","12304D","149878","GLI033117","GLI033117",1285.94,"Payroll Accrual"
"GLI","03/31/2017","185600","149507","GLI033117","GLI033117",86.31,"Payroll Accrual"
"GLI","03/31/2017","185501","149507","GLI033117","GLI033117",75.52,"Payroll Accrual"
"GLI","03/31/2017","12502","149507","GLI033117","GLI033117",47.87,"Payroll Accrual"
"GLI","03/31/2017","12501","149507","GLI033117","GLI033117",34.67,"Payroll Accrual"
"GLI","03/31/2017","11102","149507","GLI033117","GLI033117",539.44,"Payroll Accrual"
"GLI","03/31/2017","11101","149507","GLI033117","GLI033117",377.61,"Payroll Accrual"
"GLI","03/31/2017","12916","148275","GLI033117","GLI033117",44.01,"Payroll Accrual"
"GLI","03/31/2017","12516","148275","GLI033117","GLI033117",168.34,"Payroll Accrual"
"GLI","03/31/2017","12316","148275","GLI033117","GLI033117",2200.48,"Payroll Accrual"
"GLI","03/31/2017","12916","147000","GLI033117","GLI033117",53.08,"Payroll Accrual"
"GLI","03/31/2017","12516","147000","GLI033117","GLI033117",197.85,"Payroll Accrual"
"GLI","03/31/2017","12316","147000","GLI033117","GLI033117",2653.85,"Payroll Accrual"
"GLI","03/31/2017","12502","146480","GLI033117","GLI033117",62.19,"Payroll Accrual"
"GLI","03/31/2017","12501","146480","GLI033117","GLI033117",62.19,"Payroll Accrual"
"GLI","03/31/2017","12302","146480","GLI033117","GLI033117",812.95,"Payroll Accrual"
"GLI","03/31/2017","12301","146480","GLI033117","GLI033117",812.95,"Payroll Accrual"
"GLI","03/31/2017","12901","146450","GLI033117","GLI033117",50.95,"Payroll Accrual"
"GLI","03/31/2017","12501","146450","GLI033117","GLI033117",188.92,"Payroll Accrual"
"GLI","03/31/2017","12301B","146450","GLI033117","GLI033117",2547.7,"Payroll Accrual"
"GLI","03/31/2017","12504","145801","GLI033117","GLI033117",168.93,"Payroll Accrual"
"GLI","03/31/2017","124704","145801","GLI033117","GLI033117",2208.3,"Payroll Accrual"
"GLI","03/31/2017","12506","143180","GLI033117","GLI033117",77.87,"Payroll Accrual"
"GLI","03/31/2017","12406","143180","GLI033117","GLI033117",128,"Payroll Accrual"
"GLI","03/31/2017","12306B","143180","GLI033117","GLI033117",1048,"Payroll Accrual"
"GLI","03/31/2017","12905","141069","GLI033117","GLI033117",47.6,"Payroll Accrual"
"GLI","03/31/2017","12505","141069","GLI033117","GLI033117",180.86,"Payroll Accrual"
"GLI","03/31/2017","12305B","141069","GLI033117","GLI033117",2379.94,"Payroll Accrual"
"GLI","03/31/2017","12904","141060","GLI033117","GLI033117",59,"Payroll Accrual"
"GLI","03/31/2017","12504","141060","GLI033117","GLI033117",224.21,"Payroll Accrual"
"GLI","03/31/2017","12304B","141060","GLI033117","GLI033117",2950.16,"Payroll Accrual"
"GLI","03/31/2017","12904","140790","GLI033117","GLI033117",25.48,"Payroll Accrual"
"GLI","03/31/2017","12903","140790","GLI033117","GLI033117",25.48,"Payroll Accrual"
"GLI","03/31/2017","12504","140790","GLI033117","GLI033117",96.89,"Payroll Accrual"
"GLI","03/31/2017","12503","140790","GLI033117","GLI033117",96.89,"Payroll Accrual"
"GLI","03/31/2017","12104","140790","GLI033117","GLI033117",1273.85,"Payroll Accrual"
"GLI","03/31/2017","12103","140790","GLI033117","GLI033117",1273.85,"Payroll Accrual"
"GLI","03/31/2017","12503","138385","GLI033117","GLI033117",44.52,"Payroll Accrual"
"GLI","03/31/2017","124723","138385","GLI033117","GLI033117",581.98,"Payroll Accrual"
"GLI","03/31/2017","12916","138380","GLI033117","GLI033117",15.65,"Payroll Accrual"
"GLI","03/31/2017","12516","138380","GLI033117","GLI033117",47.02,"Payroll Accrual"
"GLI","03/31/2017","12316","138380","GLI033117","GLI033117",782.47,"Payroll Accrual"
"GLI","03/31/2017","12504","13725","GLI033117","GLI033117",243.69,"Payroll Accrual"
"GLI","03/31/2017","124704","13725","GLI033117","GLI033117",3623,"Payroll Accrual"
"GLI","03/31/2017","12404","13725","GLI033117","GLI033117",85.34,"Payroll Accrual"
"GLI","03/31/2017","12505","137101","GLI033117","GLI033117",130.64,"Payroll Accrual"
"GLI","03/31/2017","124703","137101","GLI033117","GLI033117",1707.82,"Payroll Accrual"
"GLI","03/31/2017","12503","13690","GLI033117","GLI033117",76.44,"Payroll Accrual"
"GLI","03/31/2017","124723","13690","GLI033117","GLI033117",999.18,"Payroll Accrual"
"GLI","03/31/2017","12904","136170","GLI033117","GLI033117",18.43,"Payroll Accrual"
"GLI","03/31/2017","12504","136170","GLI033117","GLI033117",137.56,"Payroll Accrual"
"GLI","03/31/2017","124704","136170","GLI033117","GLI033117",1842.72,"Payroll Accrual"
"GLI","03/31/2017","12505","135770","GLI033117","GLI033117",250.88,"Payroll Accrual"
"GLI","03/31/2017","124703","135770","GLI033117","GLI033117",3279.5,"Payroll Accrual"
"GLI","03/31/2017","12503","132654","GLI033117","GLI033117",58.55,"Payroll Accrual"
"GLI","03/31/2017","124723","132654","GLI033117","GLI033117",765.36,"Payroll Accrual"
"GLI","03/31/2017","12915","132500","GLI033117","GLI033117",10.28,"Payroll Accrual"
"GLI","03/31/2017","12906","132500","GLI033117","GLI033117",7.01,"Payroll Accrual"
"GLI","03/31/2017","12905","132500","GLI033117","GLI033117",7.01,"Payroll Accrual"
"GLI","03/31/2017","12904","132500","GLI033117","GLI033117",7.47,"Payroll Accrual"
"GLI","03/31/2017","12902","132500","GLI033117","GLI033117",7.47,"Payroll Accrual"
"GLI","03/31/2017","12901","132500","GLI033117","GLI033117",7.47,"Payroll Accrual"
"GLI","03/31/2017","12515","132500","GLI033117","GLI033117",38.82,"Payroll Accrual"
"GLI","03/31/2017","12506","132500","GLI033117","GLI033117",26.47,"Payroll Accrual"
"GLI","03/31/2017","12505","132500","GLI033117","GLI033117",26.47,"Payroll Accrual"
"GLI","03/31/2017","12504","132500","GLI033117","GLI033117",28.23,"Payroll Accrual"
"GLI","03/31/2017","12502","132500","GLI033117","GLI033117",28.23,"Payroll Accrual"
"GLI","03/31/2017","12501","132500","GLI033117","GLI033117",28.23,"Payroll Accrual"
"GLI","03/31/2017","12315","132500","GLI033117","GLI033117",513.79,"Payroll Accrual"
"GLI","03/31/2017","12306","132500","GLI033117","GLI033117",350.31,"Payroll Accrual"
"GLI","03/31/2017","12305","132500","GLI033117","GLI033117",350.31,"Payroll Accrual"
"GLI","03/31/2017","12304","132500","GLI033117","GLI033117",373.66,"Payroll Accrual"
"GLI","03/31/2017","12302","132500","GLI033117","GLI033117",373.66,"Payroll Accrual"
"GLI","03/31/2017","12301","132500","GLI033117","GLI033117",373.66,"Payroll Accrual"
"GLI","03/31/2017","12904","131370","GLI033117","GLI033117",35.58,"Payroll Accrual"
"GLI","03/31/2017","12504","131370","GLI033117","GLI033117",136.1,"Payroll Accrual"
"GLI","03/31/2017","124704","131370","GLI033117","GLI033117",1779,"Payroll Accrual"
"GLI","03/31/2017","12404","131370","GLI033117","GLI033117",969.76,"Payroll Accrual"
"GLI","03/31/2017","12924","131315","GLI033117","GLI033117",42.7,"Payroll Accrual"
"GLI","03/31/2017","12524","131315","GLI033117","GLI033117",162.92,"Payroll Accrual"
"GLI","03/31/2017","124724","131315","GLI033117","GLI033117",2135,"Payroll Accrual"
"GLI","03/31/2017","12503","130510","GLI033117","GLI033117",66.02,"Payroll Accrual"
"GLI","03/31/2017","124723","130510","GLI033117","GLI033117",863.04,"Payroll Accrual"
"GLI","03/31/2017","12506","12800","GLI033117","GLI033117",13.6,"Payroll Accrual"
"GLI","03/31/2017","12505","12800","GLI033117","GLI033117",13.6,"Payroll Accrual"
"GLI","03/31/2017","12504","12800","GLI033117","GLI033117",13.6,"Payroll Accrual"
"GLI","03/31/2017","12502","12800","GLI033117","GLI033117",13.6,"Payroll Accrual"
"GLI","03/31/2017","12501","12800","GLI033117","GLI033117",13.6,"Payroll Accrual"
"GLI","03/31/2017","12206B","12800","GLI033117","GLI033117",183.09,"Payroll Accrual"
"GLI","03/31/2017","12205B","12800","GLI033117","GLI033117",183.09,"Payroll Accrual"
"GLI","03/31/2017","12204B","12800","GLI033117","GLI033117",183.09,"Payroll Accrual"
"GLI","03/31/2017","12202B","12800","GLI033117","GLI033117",183.09,"Payroll Accrual"
"GLI","03/31/2017","12201B","12800","GLI033117","GLI033117",183.09,"Payroll Accrual"
"GLI","03/31/2017","12503","12725","GLI033117","GLI033117",32.29,"Payroll Accrual"
"GLI","03/31/2017","124723","12725","GLI033117","GLI033117",422.16,"Payroll Accrual"
"GLI","03/31/2017","12902","126200","GLI033117","GLI033117",12.74,"Payroll Accrual"
"GLI","03/31/2017","12901","126200","GLI033117","GLI033117",12.74,"Payroll Accrual"
"GLI","03/31/2017","12502","126200","GLI033117","GLI033117",64.96,"Payroll Accrual"
"GLI","03/31/2017","12501","126200","GLI033117","GLI033117",64.96,"Payroll Accrual"
"GLI","03/31/2017","12202A","126200","GLI033117","GLI033117",849.23,"Payroll Accrual"
"GLI","03/31/2017","12201A","126200","GLI033117","GLI033117",849.23,"Payroll Accrual"
"GLI","03/31/2017","12503","125028","GLI033117","GLI033117",40.28,"Payroll Accrual"
"GLI","03/31/2017","124723","125028","GLI033117","GLI033117",526.54,"Payroll Accrual"
"GLI","03/31/2017","12503","124360","GLI033117","GLI033117",92.48,"Payroll Accrual"
"GLI","03/31/2017","124723","124360","GLI033117","GLI033117",1335.46,"Payroll Accrual"
"GLI","03/31/2017","12924","124101","GLI033117","GLI033117",15.31,"Payroll Accrual"
"GLI","03/31/2017","12524","124101","GLI033117","GLI033117",78.07,"Payroll Accrual"
"GLI","03/31/2017","12224","124101","GLI033117","GLI033117",1020.48,"Payroll Accrual"
"GLI","03/31/2017","12527","123530","GLI033117","GLI033117",60.78,"Payroll Accrual"
"GLI","03/31/2017","12327","123530","GLI033117","GLI033117",794.52,"Payroll Accrual"
"GLI","03/31/2017","12906","123100","GLI033117","GLI033117",18.47,"Payroll Accrual"
"GLI","03/31/2017","12905","123100","GLI033117","GLI033117",18.47,"Payroll Accrual"
"GLI","03/31/2017","12904","123100","GLI033117","GLI033117",18.47,"Payroll Accrual"
"GLI","03/31/2017","12902","123100","GLI033117","GLI033117",18.47,"Payroll Accrual"
"GLI","03/31/2017","12901","123100","GLI033117","GLI033117",18.47,"Payroll Accrual"
"GLI","03/31/2017","12506","123100","GLI033117","GLI033117",91.79,"Payroll Accrual"
"GLI","03/31/2017","12505","123100","GLI033117","GLI033117",91.79,"Payroll Accrual"
"GLI","03/31/2017","12504","123100","GLI033117","GLI033117",91.79,"Payroll Accrual"
"GLI","03/31/2017","12502","123100","GLI033117","GLI033117",91.79,"Payroll Accrual"
"GLI","03/31/2017","12501","123100","GLI033117","GLI033117",91.79,"Payroll Accrual"
"GLI","03/31/2017","12106","123100","GLI033117","GLI033117",1231.38,"Payroll Accrual"
"GLI","03/31/2017","12105","123100","GLI033117","GLI033117",1231.38,"Payroll Accrual"
"GLI","03/31/2017","12104","123100","GLI033117","GLI033117",1231.38,"Payroll Accrual"
"GLI","03/31/2017","12102","123100","GLI033117","GLI033117",1231.38,"Payroll Accrual"
"GLI","03/31/2017","12101","123100","GLI033117","GLI033117",1231.38,"Payroll Accrual"
"GLI","03/31/2017","12904","121362","GLI033117","GLI033117",62.33,"Payroll Accrual"
"GLI","03/31/2017","12504","121362","GLI033117","GLI033117",229.73,"Payroll Accrual"
"GLI","03/31/2017","12404","121362","GLI033117","GLI033117",176,"Payroll Accrual"
"GLI","03/31/2017","12304B","121362","GLI033117","GLI033117",2940.19,"Payroll Accrual"
"GLI","03/31/2017","12504","118746","GLI033117","GLI033117",46.27,"Payroll Accrual"
"GLI","03/31/2017","12304C","118746","GLI033117","GLI033117",604.91,"Payroll Accrual"
"GLI","03/31/2017","12503","118520","GLI033117","GLI033117",68.58,"Payroll Accrual"
"GLI","03/31/2017","124723","118520","GLI033117","GLI033117",896.52,"Payroll Accrual"
"GLI","03/31/2017","12911","118030","GLI033117","GLI033117",7.47,"Payroll Accrual"
"GLI","03/31/2017","12906","118030","GLI033117","GLI033117",5.44,"Payroll Accrual"
"GLI","03/31/2017","12905","118030","GLI033117","GLI033117",5.44,"Payroll Accrual"
"GLI","03/31/2017","12904","118030","GLI033117","GLI033117",5.44,"Payroll Accrual"
"GLI","03/31/2017","12902","118030","GLI033117","GLI033117",5.1,"Payroll Accrual"
"GLI","03/31/2017","12901","118030","GLI033117","GLI033117",5.1,"Payroll Accrual"
"GLI","03/31/2017","12511","118030","GLI033117","GLI033117",28.59,"Payroll Accrual"
"GLI","03/31/2017","12506","118030","GLI033117","GLI033117",20.79,"Payroll Accrual"
"GLI","03/31/2017","12505","118030","GLI033117","GLI033117",20.79,"Payroll Accrual"
"GLI","03/31/2017","12504","118030","GLI033117","GLI033117",20.79,"Payroll Accrual"
"GLI","03/31/2017","12502","118030","GLI033117","GLI033117",19.49,"Payroll Accrual"
"GLI","03/31/2017","12501","118030","GLI033117","GLI033117",19.49,"Payroll Accrual"
"GLI","03/31/2017","12311","118030","GLI033117","GLI033117",373.66,"Payroll Accrual"
"GLI","03/31/2017","12306H","118030","GLI033117","GLI033117",271.75,"Payroll Accrual"
"GLI","03/31/2017","12305H","118030","GLI033117","GLI033117",271.75,"Payroll Accrual"
"GLI","03/31/2017","12304H","118030","GLI033117","GLI033117",271.75,"Payroll Accrual"
"GLI","03/31/2017","12302H","118030","GLI033117","GLI033117",254.77,"Payroll Accrual"
"GLI","03/31/2017","12301H","118030","GLI033117","GLI033117",254.77,"Payroll Accrual"
"GLI","03/31/2017","12905","11732","GLI033117","GLI033117",28.15,"Payroll Accrual"
"GLI","03/31/2017","12505","11732","GLI033117","GLI033117",105.41,"Payroll Accrual"
"GLI","03/31/2017","12205A","11732","GLI033117","GLI033117",1407.43,"Payroll Accrual"
"GLI","03/31/2017","12505","11660","GLI033117","GLI033117",189.39,"Payroll Accrual"
"GLI","03/31/2017","124703","11660","GLI033117","GLI033117",2496.8,"Payroll Accrual"
"GLI","03/31/2017","12904","116185","GLI033117","GLI033117",47.34,"Payroll Accrual"
"GLI","03/31/2017","12504","116185","GLI033117","GLI033117",158.98,"Payroll Accrual"
"GLI","03/31/2017","124704","116185","GLI033117","GLI033117",2366.8,"Payroll Accrual"
"GLI","03/31/2017","12404","116185","GLI033117","GLI033117",359.04,"Payroll Accrual"
"GLI","03/31/2017","12906","1156887","GLI033117","GLI033117",-0.93,"Payroll Accrual"
"GLI","03/31/2017","12905","1156887","GLI033117","GLI033117",-1.21,"Payroll Accrual"
"GLI","03/31/2017","12514","1156887","GLI033117","GLI033117",2.01,"Payroll Accrual"
"GLI","03/31/2017","12506","1156887","GLI033117","GLI033117",-0.22,"Payroll Accrual"
"GLI","03/31/2017","12505","1156887","GLI033117","GLI033117",-0.28,"Payroll Accrual"
"GLI","03/31/2017","12504","1156887","GLI033117","GLI033117",0.96,"Payroll Accrual"
"GLI","03/31/2017","12502","1156887","GLI033117","GLI033117",0.26,"Payroll Accrual"
"GLI","03/31/2017","12501","1156887","GLI033117","GLI033117",0.26,"Payroll Accrual"
"GLI","03/31/2017","12214","1156887","GLI033117","GLI033117",100.87,"Payroll Accrual"
"GLI","03/31/2017","12206C","1156887","GLI033117","GLI033117",59.61,"Payroll Accrual"
"GLI","03/31/2017","12205C","1156887","GLI033117","GLI033117",55.02,"Payroll Accrual"
"GLI","03/31/2017","12204C","1156887","GLI033117","GLI033117",87.12,"Payroll Accrual"
"GLI","03/31/2017","12202C","1156887","GLI033117","GLI033117",77.95,"Payroll Accrual"
"GLI","03/31/2017","12201C","1156887","GLI033117","GLI033117",77.95,"Payroll Accrual"
"GLI","03/31/2017","12906","115255","GLI033117","GLI033117",46,"Payroll Accrual"
"GLI","03/31/2017","12506","115255","GLI033117","GLI033117",175.95,"Payroll Accrual"
"GLI","03/31/2017","12306B","115255","GLI033117","GLI033117",2300,"Payroll Accrual"
"GLI","03/31/2017","12504","1152542","GLI033117","GLI033117",86.13,"Payroll Accrual"
"GLI","03/31/2017","12304D","1152542","GLI033117","GLI033117",1200.44,"Payroll Accrual"
"GLI","03/31/2017","12904","1150920","GLI033117","GLI033117",29.2,"Payroll Accrual"
"GLI","03/31/2017","12504","1150920","GLI033117","GLI033117",144.78,"Payroll Accrual"
"GLI","03/31/2017","124704","1150920","GLI033117","GLI033117",1946.6,"Payroll Accrual"
"GLI","03/31/2017","12404","1150920","GLI033117","GLI033117",89.44,"Payroll Accrual"
"GLI","03/31/2017","12905","1150510","GLI033117","GLI033117",29.34,"Payroll Accrual"
"GLI","03/31/2017","12505","1150510","GLI033117","GLI033117",111.93,"Payroll Accrual"
"GLI","03/31/2017","12305B","1150510","GLI033117","GLI033117",1466.74,"Payroll Accrual"
"GLI","03/31/2017","12504","1149710","GLI033117","GLI033117",77.12,"Payroll Accrual"
"GLI","03/31/2017","12304D","1149710","GLI033117","GLI033117",1083.24,"Payroll Accrual"
"GLI","03/31/2017","12906","1149636","GLI033117","GLI033117",20.21,"Payroll Accrual"
"GLI","03/31/2017","12506","1149636","GLI033117","GLI033117",97.8,"Payroll Accrual"
"GLI","03/31/2017","12306C","1149636","GLI033117","GLI033117",1347.64,"Payroll Accrual"
"GLI","03/31/2017","12504","1149300","GLI033117","GLI033117",124.39,"Payroll Accrual"
"GLI","03/31/2017","124704","1149300","GLI033117","GLI033117",1680,"Payroll Accrual"
"GLI","03/31/2017","12505","1147900","GLI033117","GLI033117",169.11,"Payroll Accrual"
"GLI","03/31/2017","124703","1147900","GLI033117","GLI033117",1546.56,"Payroll Accrual"
"GLI","03/31/2017","12405","1147900","GLI033117","GLI033117",864,"Payroll Accrual"
"GLI","03/31/2017","12904","1147062","GLI033117","GLI033117",33.26,"Payroll Accrual"
"GLI","03/31/2017","12504","1147062","GLI033117","GLI033117",104.05,"Payroll Accrual"
"GLI","03/31/2017","12204A","1147062","GLI033117","GLI033117",1663.08,"Payroll Accrual"
"GLI","03/31/2017","12505","1147061","GLI033117","GLI033117",220.49,"Payroll Accrual"
"GLI","03/31/2017","124703","1147061","GLI033117","GLI033117",2898.1,"Payroll Accrual"
"GLI","03/31/2017","12905","1146991","GLI033117","GLI033117",61.44,"Payroll Accrual"
"GLI","03/31/2017","12505","1146991","GLI033117","GLI033117",229.31,"Payroll Accrual"
"GLI","03/31/2017","124703","1146991","GLI033117","GLI033117",3072.1,"Payroll Accrual"
"GLI","03/31/2017","12504","1146989","GLI033117","GLI033117",113.64,"Payroll Accrual"
"GLI","03/31/2017","124704","1146989","GLI033117","GLI033117",1506.6,"Payroll Accrual"
"GLI","03/31/2017","12503","1144901","GLI033117","GLI033117",33.49,"Payroll Accrual"
"GLI","03/31/2017","124723","1144901","GLI033117","GLI033117",437.78,"Payroll Accrual"
"GLI","03/31/2017","12506","1144310","GLI033117","GLI033117",14.15,"Payroll Accrual"
"GLI","03/31/2017","12306C","1144310","GLI033117","GLI033117",185.04,"Payroll Accrual"
"GLI","03/31/2017","12506","1144265","GLI033117","GLI033117",125.21,"Payroll Accrual"
"GLI","03/31/2017","12306B","1144265","GLI033117","GLI033117",1690.15,"Payroll Accrual"
"GLI","03/31/2017","12506","1143575","GLI033117","GLI033117",4.24,"Payroll Accrual"
"GLI","03/31/2017","12505","1143575","GLI033117","GLI033117",4.24,"Payroll Accrual"
"GLI","03/31/2017","12504","1143575","GLI033117","GLI033117",4.24,"Payroll Accrual"
"GLI","03/31/2017","12502","1143575","GLI033117","GLI033117",4.24,"Payroll Accrual"
"GLI","03/31/2017","12501","1143575","GLI033117","GLI033117",4.24,"Payroll Accrual"
"GLI","03/31/2017","12206B","1143575","GLI033117","GLI033117",55.5,"Payroll Accrual"
"GLI","03/31/2017","12205B","1143575","GLI033117","GLI033117",55.5,"Payroll Accrual"
"GLI","03/31/2017","12204B","1143575","GLI033117","GLI033117",55.5,"Payroll Accrual"
"GLI","03/31/2017","12202B","1143575","GLI033117","GLI033117",55.5,"Payroll Accrual"
"GLI","03/31/2017","12201B","1143575","GLI033117","GLI033117",55.5,"Payroll Accrual"
"GLI","03/31/2017","12503","11420","GLI033117","GLI033117",63.26,"Payroll Accrual"
"GLI","03/31/2017","124723","11420","GLI033117","GLI033117",826.92,"Payroll Accrual"
"GLI","03/31/2017","12914","1141210","GLI033117","GLI033117",4.3,"Payroll Accrual"
"GLI","03/31/2017","12906","1141210","GLI033117","GLI033117",4.8,"Payroll Accrual"
"GLI","03/31/2017","12905","1141210","GLI033117","GLI033117",3.81,"Payroll Accrual"
"GLI","03/31/2017","12904","1141210","GLI033117","GLI033117",3.71,"Payroll Accrual"
"GLI","03/31/2017","12902","1141210","GLI033117","GLI033117",3.32,"Payroll Accrual"
"GLI","03/31/2017","12901","1141210","GLI033117","GLI033117",3.32,"Payroll Accrual"
"GLI","03/31/2017","12514","1141210","GLI033117","GLI033117",11.76,"Payroll Accrual"
"GLI","03/31/2017","12506","1141210","GLI033117","GLI033117",0.53,"Payroll Accrual"
"GLI","03/31/2017","12505","1141210","GLI033117","GLI033117",0.34,"Payroll Accrual"
"GLI","03/31/2017","12504","1141210","GLI033117","GLI033117",8.77,"Payroll Accrual"
"GLI","03/31/2017","12502","1141210","GLI033117","GLI033117",6.79,"Payroll Accrual"
"GLI","03/31/2017","12501","1141210","GLI033117","GLI033117",6.79,"Payroll Accrual"
"GLI","03/31/2017","12214","1141210","GLI033117","GLI033117",286.65,"Payroll Accrual"
"GLI","03/31/2017","12206C","1141210","GLI033117","GLI033117",169.39,"Payroll Accrual"
"GLI","03/31/2017","12205C","1141210","GLI033117","GLI033117",156.36,"Payroll Accrual"
"GLI","03/31/2017","12204C","1141210","GLI033117","GLI033117",247.57,"Payroll Accrual"
"GLI","03/31/2017","12202C","1141210","GLI033117","GLI033117",221.51,"Payroll Accrual"
"GLI","03/31/2017","12201C","1141210","GLI033117","GLI033117",221.51,"Payroll Accrual"
"GLI","03/31/2017","12504","1140870","GLI033117","GLI033117",433.96,"Payroll Accrual"
"GLI","03/31/2017","12404","1140870","GLI033117","GLI033117",72,"Payroll Accrual"
"GLI","03/31/2017","12304B","1140870","GLI033117","GLI033117",5600.61,"Payroll Accrual"
"GLI","03/31/2017","12527","1137596","GLI033117","GLI033117",4.58,"Payroll Accrual"
"GLI","03/31/2017","12327","1137596","GLI033117","GLI033117",59.9,"Payroll Accrual"
"GLI","03/31/2017","12904","1137590","GLI033117","GLI033117",44.9,"Payroll Accrual"
"GLI","03/31/2017","12504","1137590","GLI033117","GLI033117",170.14,"Payroll Accrual"
"GLI","03/31/2017","124704","1137590","GLI033117","GLI033117",2245.2,"Payroll Accrual"
"GLI","03/31/2017","12524","1135710","GLI033117","GLI033117",44.34,"Payroll Accrual"
"GLI","03/31/2017","124724","1135710","GLI033117","GLI033117",579.6,"Payroll Accrual"
"GLI","03/31/2017","12503","1135450","GLI033117","GLI033117",32.43,"Payroll Accrual"
"GLI","03/31/2017","124723","1135450","GLI033117","GLI033117",423.92,"Payroll Accrual"
"GLI","03/31/2017","12504","1135410","GLI033117","GLI033117",94.7,"Payroll Accrual"
"GLI","03/31/2017","124704","1135410","GLI033117","GLI033117",1267.55,"Payroll Accrual"
"GLI","03/31/2017","12911","1135260","GLI033117","GLI033117",8.17,"Payroll Accrual"
"GLI","03/31/2017","12906","1135260","GLI033117","GLI033117",5.94,"Payroll Accrual"
"GLI","03/31/2017","12905","1135260","GLI033117","GLI033117",5.94,"Payroll Accrual"
"GLI","03/31/2017","12904","1135260","GLI033117","GLI033117",5.94,"Payroll Accrual"
"GLI","03/31/2017","12902","1135260","GLI033117","GLI033117",5.57,"Payroll Accrual"
"GLI","03/31/2017","12901","1135260","GLI033117","GLI033117",5.57,"Payroll Accrual"
"GLI","03/31/2017","12511","1135260","GLI033117","GLI033117",37.16,"Payroll Accrual"
"GLI","03/31/2017","12506","1135260","GLI033117","GLI033117",27.03,"Payroll Accrual"
"GLI","03/31/2017","12505","1135260","GLI033117","GLI033117",27.03,"Payroll Accrual"
"GLI","03/31/2017","12504","1135260","GLI033117","GLI033117",27.03,"Payroll Accrual"
"GLI","03/31/2017","12502","1135260","GLI033117","GLI033117",25.34,"Payroll Accrual"
"GLI","03/31/2017","12501","1135260","GLI033117","GLI033117",25.34,"Payroll Accrual"
"GLI","03/31/2017","12311","1135260","GLI033117","GLI033117",544.92,"Payroll Accrual"
"GLI","03/31/2017","12306H","1135260","GLI033117","GLI033117",396.31,"Payroll Accrual"
"GLI","03/31/2017","12305H","1135260","GLI033117","GLI033117",396.31,"Payroll Accrual"
"GLI","03/31/2017","12304H","1135260","GLI033117","GLI033117",396.31,"Payroll Accrual"
"GLI","03/31/2017","12302H","1135260","GLI033117","GLI033117",371.54,"Payroll Accrual"
"GLI","03/31/2017","12301H","1135260","GLI033117","GLI033117",371.54,"Payroll Accrual"
"GLI","03/31/2017","12905","1134524","GLI033117","GLI033117",21.05,"Payroll Accrual"
"GLI","03/31/2017","12505","1134524","GLI033117","GLI033117",107.35,"Payroll Accrual"
"GLI","03/31/2017","124703","1134524","GLI033117","GLI033117",1403.2,"Payroll Accrual"
"GLI","03/31/2017","12504","1133800","GLI033117","GLI033117",8.13,"Payroll Accrual"
"GLI","03/31/2017","12304C","1133800","GLI033117","GLI033117",106.37,"Payroll Accrual"
"GLI","03/31/2017","12506","1133727","GLI033117","GLI033117",154.53,"Payroll Accrual"
"GLI","03/31/2017","12306D","1133727","GLI033117","GLI033117",2025.2,"Payroll Accrual"
"GLI","03/31/2017","12506","1132600","GLI033117","GLI033117",3.48,"Payroll Accrual"
"GLI","03/31/2017","12505","1132600","GLI033117","GLI033117",3.48,"Payroll Accrual"
"GLI","03/31/2017","12504","1132600","GLI033117","GLI033117",3.48,"Payroll Accrual"
"GLI","03/31/2017","12502","1132600","GLI033117","GLI033117",3.48,"Payroll Accrual"
"GLI","03/31/2017","12501","1132600","GLI033117","GLI033117",3.48,"Payroll Accrual"
"GLI","03/31/2017","12206B","1132600","GLI033117","GLI033117",45.54,"Payroll Accrual"
"GLI","03/31/2017","12205B","1132600","GLI033117","GLI033117",45.54,"Payroll Accrual"
"GLI","03/31/2017","12204B","1132600","GLI033117","GLI033117",45.54,"Payroll Accrual"
"GLI","03/31/2017","12202B","1132600","GLI033117","GLI033117",45.54,"Payroll Accrual"
"GLI","03/31/2017","12201B","1132600","GLI033117","GLI033117",45.54,"Payroll Accrual"
"GLI","03/31/2017","12906","1132595","GLI033117","GLI033117",62.98,"Payroll Accrual"
"GLI","03/31/2017","12506","1132595","GLI033117","GLI033117",236.47,"Payroll Accrual"
"GLI","03/31/2017","12106","1132595","GLI033117","GLI033117",3149.23,"Payroll Accrual"
"GLI","03/31/2017","12906","1132590","GLI033117","GLI033117",28.68,"Payroll Accrual"
"GLI","03/31/2017","12506","1132590","GLI033117","GLI033117",108.07,"Payroll Accrual"
"GLI","03/31/2017","12306C","1132590","GLI033117","GLI033117",1433.84,"Payroll Accrual"
"GLI","03/31/2017","12905","1132218","GLI033117","GLI033117",44.53,"Payroll Accrual"
"GLI","03/31/2017","12505","1132218","GLI033117","GLI033117",169.12,"Payroll Accrual"
"GLI","03/31/2017","12305B","1132218","GLI033117","GLI033117",2226.49,"Payroll Accrual"
"GLI","03/31/2017","12506","1132205","GLI033117","GLI033117",129.34,"Payroll Accrual"
"GLI","03/31/2017","12306B","1132205","GLI033117","GLI033117",1808.59,"Payroll Accrual"
"GLI","03/31/2017","12927","113085","GLI033117","GLI033117",12.74,"Payroll Accrual"
"GLI","03/31/2017","12924","113085","GLI033117","GLI033117",12.74,"Payroll Accrual"
"GLI","03/31/2017","12527","113085","GLI033117","GLI033117",64.22,"Payroll Accrual"
"GLI","03/31/2017","12524","113085","GLI033117","GLI033117",64.22,"Payroll Accrual"
"GLI","03/31/2017","12127","113085","GLI033117","GLI033117",849.23,"Payroll Accrual"
"GLI","03/31/2017","12124","113085","GLI033117","GLI033117",849.23,"Payroll Accrual"
"GLI","03/31/2017","12504","1130700","GLI033117","GLI033117",70.21,"Payroll Accrual"
"GLI","03/31/2017","12404","1130700","GLI033117","GLI033117",176,"Payroll Accrual"
"GLI","03/31/2017","12304C","1130700","GLI033117","GLI033117",741.79,"Payroll Accrual"
"GLI","03/31/2017","12503","1130326","GLI033117","GLI033117",44.53,"Payroll Accrual"
"GLI","03/31/2017","124723","1130326","GLI033117","GLI033117",582.12,"Payroll Accrual"
"GLI","03/31/2017","12906","113020","GLI033117","GLI033117",46.71,"Payroll Accrual"
"GLI","03/31/2017","12506","113020","GLI033117","GLI033117",174.85,"Payroll Accrual"
"GLI","03/31/2017","12306B","113020","GLI033117","GLI033117",2335.38,"Payroll Accrual"
"GLI","03/31/2017","12904","113011","GLI033117","GLI033117",15.55,"Payroll Accrual"
"GLI","03/31/2017","12504","113011","GLI033117","GLI033117",59.47,"Payroll Accrual"
"GLI","03/31/2017","12304C","113011","GLI033117","GLI033117",777.37,"Payroll Accrual"
"GLI","03/31/2017","185600","1130101","GLI033117","GLI033117",67.5,"Payroll Accrual"
"GLI","03/31/2017","185501","1130101","GLI033117","GLI033117",59.06,"Payroll Accrual"
"GLI","03/31/2017","12502","1130101","GLI033117","GLI033117",37.45,"Payroll Accrual"
"GLI","03/31/2017","12501","1130101","GLI033117","GLI033117",27.11,"Payroll Accrual"
"GLI","03/31/2017","11102","1130101","GLI033117","GLI033117",421.88,"Payroll Accrual"
"GLI","03/31/2017","11101","1130101","GLI033117","GLI033117",295.32,"Payroll Accrual"
"GLI","03/31/2017","12904","1130098","GLI033117","GLI033117",17.79,"Payroll Accrual"
"GLI","03/31/2017","12504","1130098","GLI033117","GLI033117",90.74,"Payroll Accrual"
"GLI","03/31/2017","124704","1130098","GLI033117","GLI033117",1186.05,"Payroll Accrual"
"GLI","03/31/2017","12506","1130090","GLI033117","GLI033117",125.67,"Payroll Accrual"
"GLI","03/31/2017","12306C","1130090","GLI033117","GLI033117",1642.69,"Payroll Accrual"
"GLI","03/31/2017","12916","113000","GLI033117","GLI033117",33.46,"Payroll Accrual"
"GLI","03/31/2017","12516","113000","GLI033117","GLI033117",127.99,"Payroll Accrual"
"GLI","03/31/2017","12316","113000","GLI033117","GLI033117",1673.14,"Payroll Accrual"
"GLI","03/31/2017","12527","1129560","GLI033117","GLI033117",61.46,"Payroll Accrual"
"GLI","03/31/2017","12327","1129560","GLI033117","GLI033117",803.4,"Payroll Accrual"
"GLI","03/31/2017","12503","1129090","GLI033117","GLI033117",19.6,"Payroll Accrual"
"GLI","03/31/2017","124723","1129090","GLI033117","GLI033117",256.31,"Payroll Accrual"
"GLI","03/31/2017","12904","1126110","GLI033117","GLI033117",24.66,"Payroll Accrual"
"GLI","03/31/2017","12504","1126110","GLI033117","GLI033117",115.65,"Payroll Accrual"
"GLI","03/31/2017","12304B","1126110","GLI033117","GLI033117",1644.01,"Payroll Accrual"
"GLI","03/31/2017","12916","1126060","GLI033117","GLI033117",20.85,"Payroll Accrual"
"GLI","03/31/2017","12516","1126060","GLI033117","GLI033117",105.94,"Payroll Accrual"
"GLI","03/31/2017","12416","1126060","GLI033117","GLI033117",128,"Payroll Accrual"
"GLI","03/31/2017","12316","1126060","GLI033117","GLI033117",1262.08,"Payroll Accrual"
"GLI","03/31/2017","12904","1126055","GLI033117","GLI033117",18.43,"Payroll Accrual"
"GLI","03/31/2017","12504","1126055","GLI033117","GLI033117",70.5,"Payroll Accrual"
"GLI","03/31/2017","12304C","1126055","GLI033117","GLI033117",921.6,"Payroll Accrual"
"GLI","03/31/2017","12905","1126040","GLI033117","GLI033117",46.56,"Payroll Accrual"
"GLI","03/31/2017","12505","1126040","GLI033117","GLI033117",172.83,"Payroll Accrual"
"GLI","03/31/2017","124703","1126040","GLI033117","GLI033117",2327.81,"Payroll Accrual"
"GLI","03/31/2017","12905","1125565","GLI033117","GLI033117",53.66,"Payroll Accrual"
"GLI","03/31/2017","12505","1125565","GLI033117","GLI033117",194.57,"Payroll Accrual"
"GLI","03/31/2017","124703","1125565","GLI033117","GLI033117",2682.9,"Payroll Accrual"
"GLI","03/31/2017","12405","1125565","GLI033117","GLI033117",218.48,"Payroll Accrual"
"GLI","03/31/2017","12906","1124875","GLI033117","GLI033117",17.48,"Payroll Accrual"
"GLI","03/31/2017","12506","1124875","GLI033117","GLI033117",64.88,"Payroll Accrual"
"GLI","03/31/2017","12306B","1124875","GLI033117","GLI033117",874,"Payroll Accrual"
"GLI","03/31/2017","12506","1124700","GLI033117","GLI033117",14.83,"Payroll Accrual"
"GLI","03/31/2017","12505","1124700","GLI033117","GLI033117",14.83,"Payroll Accrual"
"GLI","03/31/2017","12504","1124700","GLI033117","GLI033117",14.83,"Payroll Accrual"
"GLI","03/31/2017","12502","1124700","GLI033117","GLI033117",14.83,"Payroll Accrual"
"GLI","03/31/2017","12501","1124700","GLI033117","GLI033117",14.83,"Payroll Accrual"
"GLI","03/31/2017","12206B","1124700","GLI033117","GLI033117",193.83,"Payroll Accrual"
"GLI","03/31/2017","12205B","1124700","GLI033117","GLI033117",193.83,"Payroll Accrual"
"GLI","03/31/2017","12204B","1124700","GLI033117","GLI033117",193.83,"Payroll Accrual"
"GLI","03/31/2017","12202B","1124700","GLI033117","GLI033117",193.83,"Payroll Accrual"
"GLI","03/31/2017","12201B","1124700","GLI033117","GLI033117",193.83,"Payroll Accrual"
"GLI","03/31/2017","12904","1124436","GLI033117","GLI033117",49.5,"Payroll Accrual"
"GLI","03/31/2017","12504","1124436","GLI033117","GLI033117",251.77,"Payroll Accrual"
"GLI","03/31/2017","124704","1124436","GLI033117","GLI033117",3299.8,"Payroll Accrual"
"GLI","03/31/2017","12904","1124430","GLI033117","GLI033117",20.45,"Payroll Accrual"
"GLI","03/31/2017","12504","1124430","GLI033117","GLI033117",102.69,"Payroll Accrual"
"GLI","03/31/2017","124704","1124430","GLI033117","GLI033117",1363.51,"Payroll Accrual"
"GLI","03/31/2017","12904","1124400","GLI033117","GLI033117",16.67,"Payroll Accrual"
"GLI","03/31/2017","12504","1124400","GLI033117","GLI033117",83.8,"Payroll Accrual"
"GLI","03/31/2017","124704","1124400","GLI033117","GLI033117",1111.32,"Payroll Accrual"
"GLI","03/31/2017","12527","1123355","GLI033117","GLI033117",47.31,"Payroll Accrual"
"GLI","03/31/2017","12327","1123355","GLI033117","GLI033117",618.41,"Payroll Accrual"
"GLI","03/31/2017","12914","1123340","GLI033117","GLI033117",14.95,"Payroll Accrual"
"GLI","03/31/2017","12906","1123340","GLI033117","GLI033117",35.53,"Payroll Accrual"
"GLI","03/31/2017","12905","1123340","GLI033117","GLI033117",32.79,"Payroll Accrual"
"GLI","03/31/2017","12904","1123340","GLI033117","GLI033117",12.91,"Payroll Accrual"
"GLI","03/31/2017","12902","1123340","GLI033117","GLI033117",11.55,"Payroll Accrual"
"GLI","03/31/2017","12901","1123340","GLI033117","GLI033117",11.55,"Payroll Accrual"
"GLI","03/31/2017","12514","1123340","GLI033117","GLI033117",55.75,"Payroll Accrual"
"GLI","03/31/2017","12506","1123340","GLI033117","GLI033117",6.24,"Payroll Accrual"
"GLI","03/31/2017","12505","1123340","GLI033117","GLI033117",5.76,"Payroll Accrual"
"GLI","03/31/2017","12504","1123340","GLI033117","GLI033117",48.15,"Payroll Accrual"
"GLI","03/31/2017","12502","1123340","GLI033117","GLI033117",43.08,"Payroll Accrual"
"GLI","03/31/2017","12501","1123340","GLI033117","GLI033117",43.08,"Payroll Accrual"
"GLI","03/31/2017","12214","1123340","GLI033117","GLI033117",747.32,"Payroll Accrual"
"GLI","03/31/2017","12206C","1123340","GLI033117","GLI033117",441.6,"Payroll Accrual"
"GLI","03/31/2017","12205C","1123340","GLI033117","GLI033117",407.63,"Payroll Accrual"
"GLI","03/31/2017","12204C","1123340","GLI033117","GLI033117",645.42,"Payroll Accrual"
"GLI","03/31/2017","12202C","1123340","GLI033117","GLI033117",577.48,"Payroll Accrual"
"GLI","03/31/2017","12201C","1123340","GLI033117","GLI033117",577.48,"Payroll Accrual"
"GLI","03/31/2017","12503","1123002","GLI033117","GLI033117",27.24,"Payroll Accrual"
"GLI","03/31/2017","124723","1123002","GLI033117","GLI033117",356.16,"Payroll Accrual"
"GLI","03/31/2017","12905","112273","GLI033117","GLI033117",15.05,"Payroll Accrual"
"GLI","03/31/2017","12505","112273","GLI033117","GLI033117",76.75,"Payroll Accrual"
"GLI","03/31/2017","12205A","112273","GLI033117","GLI033117",1003.2,"Payroll Accrual"
"GLI","03/31/2017","12924","1122352","GLI033117","GLI033117",23.9,"Payroll Accrual"
"GLI","03/31/2017","12524","1122352","GLI033117","GLI033117",120.65,"Payroll Accrual"
"GLI","03/31/2017","124724","1122352","GLI033117","GLI033117",1593,"Payroll Accrual"
"GLI","03/31/2017","12503","1122246","GLI033117","GLI033117",93.49,"Payroll Accrual"
"GLI","03/31/2017","12403","1122246","GLI033117","GLI033117",112,"Payroll Accrual"
"GLI","03/31/2017","12303","1122246","GLI033117","GLI033117",1129.38,"Payroll Accrual"
"GLI","03/31/2017","12927","1122110","GLI033117","GLI033117",53.64,"Payroll Accrual"
"GLI","03/31/2017","12527","1122110","GLI033117","GLI033117",262.15,"Payroll Accrual"
"GLI","03/31/2017","12327","1122110","GLI033117","GLI033117",3575.8,"Payroll Accrual"
"GLI","03/31/2017","12927","1121250","GLI033117","GLI033117",11.14,"Payroll Accrual"
"GLI","03/31/2017","12527","1121250","GLI033117","GLI033117",56.8,"Payroll Accrual"
"GLI","03/31/2017","12327","1121250","GLI033117","GLI033117",742.42,"Payroll Accrual"
"GLI","03/31/2017","12924","1121246","GLI033117","GLI033117",14.65,"Payroll Accrual"
"GLI","03/31/2017","12524","1121246","GLI033117","GLI033117",73.11,"Payroll Accrual"
"GLI","03/31/2017","124724","1121246","GLI033117","GLI033117",976.82,"Payroll Accrual"
"GLI","03/31/2017","12527","1121000","GLI033117","GLI033117",46.68,"Payroll Accrual"
"GLI","03/31/2017","12327","1121000","GLI033117","GLI033117",610.1,"Payroll Accrual"
"GLI","03/31/2017","12527","112098","GLI033117","GLI033117",33.19,"Payroll Accrual"
"GLI","03/31/2017","12524","112098","GLI033117","GLI033117",77.44,"Payroll Accrual"
"GLI","03/31/2017","124724","112098","GLI033117","GLI033117",1012.19,"Payroll Accrual"
"GLI","03/31/2017","12327","112098","GLI033117","GLI033117",433.8,"Payroll Accrual"
"GLI","03/31/2017","12503","112057","GLI033117","GLI033117",70.38,"Payroll Accrual"
"GLI","03/31/2017","12303","112057","GLI033117","GLI033117",920.08,"Payroll Accrual"
"GLI","03/31/2017","12506","1120225","GLI033117","GLI033117",61.45,"Payroll Accrual"
"GLI","03/31/2017","12505","1120225","GLI033117","GLI033117",61.45,"Payroll Accrual"
"GLI","03/31/2017","12504","1120225","GLI033117","GLI033117",61.45,"Payroll Accrual"
"GLI","03/31/2017","12502","1120225","GLI033117","GLI033117",61.45,"Payroll Accrual"
"GLI","03/31/2017","12501","1120225","GLI033117","GLI033117",61.45,"Payroll Accrual"
"GLI","03/31/2017","12006","1120225","GLI033117","GLI033117",849.23,"Payroll Accrual"
"GLI","03/31/2017","12005","1120225","GLI033117","GLI033117",849.23,"Payroll Accrual"
"GLI","03/31/2017","12004","1120225","GLI033117","GLI033117",849.23,"Payroll Accrual"
"GLI","03/31/2017","12002","1120225","GLI033117","GLI033117",849.23,"Payroll Accrual"
"GLI","03/31/2017","12001","1120225","GLI033117","GLI033117",849.23,"Payroll Accrual"
"GLI","03/31/2017","12906","1120120","GLI033117","GLI033117",14.67,"Payroll Accrual"
"GLI","03/31/2017","12506","1120120","GLI033117","GLI033117",70.7,"Payroll Accrual"
"GLI","03/31/2017","12306B","1120120","GLI033117","GLI033117",978.24,"Payroll Accrual"
"GLI","03/31/2017","12927","1120110","GLI033117","GLI033117",27.6,"Payroll Accrual"
"GLI","03/31/2017","12527","1120110","GLI033117","GLI033117",140.76,"Payroll Accrual"
"GLI","03/31/2017","12127","1120110","GLI033117","GLI033117",1840,"Payroll Accrual"
"GLI","03/31/2017","12503","1119852","GLI033117","GLI033117",66.64,"Payroll Accrual"
"GLI","03/31/2017","124723","1119852","GLI033117","GLI033117",871.08,"Payroll Accrual"
"GLI","03/31/2017","12506","1118800","GLI033117","GLI033117",78.96,"Payroll Accrual"
"GLI","03/31/2017","12306B","1118800","GLI033117","GLI033117",1131.66,"Payroll Accrual"
"GLI","03/31/2017","12505","1118722","GLI033117","GLI033117",239.85,"Payroll Accrual"
"GLI","03/31/2017","124703","1118722","GLI033117","GLI033117",3228.7,"Payroll Accrual"
"GLI","03/31/2017","12904","1117960","GLI033117","GLI033117",35.38,"Payroll Accrual"
"GLI","03/31/2017","12504","1117960","GLI033117","GLI033117",132.69,"Payroll Accrual"
"GLI","03/31/2017","124704","1117960","GLI033117","GLI033117",1769.23,"Payroll Accrual"
"GLI","03/31/2017","12524","1117950","GLI033117","GLI033117",26.31,"Payroll Accrual"
"GLI","03/31/2017","124724","1117950","GLI033117","GLI033117",343.8,"Payroll Accrual"
"GLI","03/31/2017","12504","1117901","GLI033117","GLI033117",116.12,"Payroll Accrual"
"GLI","03/31/2017","124704","1117901","GLI033117","GLI033117",925.93,"Payroll Accrual"
"GLI","03/31/2017","12404","1117901","GLI033117","GLI033117",592,"Payroll Accrual"
"GLI","03/31/2017","12503","1117850","GLI033117","GLI033117",64.14,"Payroll Accrual"
"GLI","03/31/2017","124723","1117850","GLI033117","GLI033117",838.32,"Payroll Accrual"
"GLI","03/31/2017","12503","1117842","GLI033117","GLI033117",86.8,"Payroll Accrual"
"GLI","03/31/2017","12303","1117842","GLI033117","GLI033117",1137.99,"Payroll Accrual"
"GLI","03/31/2017","12503","1117600","GLI033117","GLI033117",114.73,"Payroll Accrual"
"GLI","03/31/2017","12303","1117600","GLI033117","GLI033117",1745.46,"Payroll Accrual"
"GLI","03/31/2017","12904","1116963","GLI033117","GLI033117",4.77,"Payroll Accrual"
"GLI","03/31/2017","12504","1116963","GLI033117","GLI033117",24.33,"Payroll Accrual"
"GLI","03/31/2017","12304C","1116963","GLI033117","GLI033117",318.1,"Payroll Accrual"
"GLI","03/31/2017","12506","111568","GLI033117","GLI033117",2.06,"Payroll Accrual"
"GLI","03/31/2017","12306C","111568","GLI033117","GLI033117",27,"Payroll Accrual"
"GLI","03/31/2017","12905","1114921","GLI033117","GLI033117",53.44,"Payroll Accrual"
"GLI","03/31/2017","12505","1114921","GLI033117","GLI033117",261.15,"Payroll Accrual"
"GLI","03/31/2017","124703","1114921","GLI033117","GLI033117",2842.95,"Payroll Accrual"
"GLI","03/31/2017","12405","1114921","GLI033117","GLI033117",1440,"Payroll Accrual"
"GLI","03/31/2017","12906","1114831","GLI033117","GLI033117",16.46,"Payroll Accrual"
"GLI","03/31/2017","12506","1114831","GLI033117","GLI033117",83.92,"Payroll Accrual"
"GLI","03/31/2017","12306D","1114831","GLI033117","GLI033117",1097.01,"Payroll Accrual"
"GLI","03/31/2017","12506","1114135","GLI033117","GLI033117",5.23,"Payroll Accrual"
"GLI","03/31/2017","12505","1114135","GLI033117","GLI033117",5.23,"Payroll Accrual"
"GLI","03/31/2017","12504","1114135","GLI033117","GLI033117",5.23,"Payroll Accrual"
"GLI","03/31/2017","12502","1114135","GLI033117","GLI033117",5.23,"Payroll Accrual"
"GLI","03/31/2017","12501","1114135","GLI033117","GLI033117",5.23,"Payroll Accrual"
"GLI","03/31/2017","12206B","1114135","GLI033117","GLI033117",68.46,"Payroll Accrual"
"GLI","03/31/2017","12205B","1114135","GLI033117","GLI033117",68.46,"Payroll Accrual"
"GLI","03/31/2017","12204B","1114135","GLI033117","GLI033117",68.46,"Payroll Accrual"
"GLI","03/31/2017","12202B","1114135","GLI033117","GLI033117",68.46,"Payroll Accrual"
"GLI","03/31/2017","12201B","1114135","GLI033117","GLI033117",68.46,"Payroll Accrual"
"GLI","03/31/2017","12527","1114128","GLI033117","GLI033117",20.45,"Payroll Accrual"
"GLI","03/31/2017","12327","1114128","GLI033117","GLI033117",267.3,"Payroll Accrual"
"GLI","03/31/2017","12904","1114105","GLI033117","GLI033117",91.78,"Payroll Accrual"
"GLI","03/31/2017","12504","1114105","GLI033117","GLI033117",343.81,"Payroll Accrual"
"GLI","03/31/2017","12304B","1114105","GLI033117","GLI033117",4588.56,"Payroll Accrual"
"GLI","03/31/2017","12904","1113940","GLI033117","GLI033117",34.64,"Payroll Accrual"
"GLI","03/31/2017","12504","1113940","GLI033117","GLI033117",129.08,"Payroll Accrual"
"GLI","03/31/2017","124704","1113940","GLI033117","GLI033117",1731.93,"Payroll Accrual"
"GLI","03/31/2017","12506","111254","GLI033117","GLI033117",6.38,"Payroll Accrual"
"GLI","03/31/2017","12505","111254","GLI033117","GLI033117",6.38,"Payroll Accrual"
"GLI","03/31/2017","12504","111254","GLI033117","GLI033117",6.38,"Payroll Accrual"
"GLI","03/31/2017","12502","111254","GLI033117","GLI033117",6.38,"Payroll Accrual"
"GLI","03/31/2017","12501","111254","GLI033117","GLI033117",6.38,"Payroll Accrual"
"GLI","03/31/2017","12206B","111254","GLI033117","GLI033117",83.36,"Payroll Accrual"
"GLI","03/31/2017","12205B","111254","GLI033117","GLI033117",83.36,"Payroll Accrual"
"GLI","03/31/2017","12204B","111254","GLI033117","GLI033117",83.36,"Payroll Accrual"
"GLI","03/31/2017","12202B","111254","GLI033117","GLI033117",83.36,"Payroll Accrual"
"GLI","03/31/2017","12201B","111254","GLI033117","GLI033117",83.36,"Payroll Accrual"
"GLI","03/31/2017","12516","111245","GLI033117","GLI033117",43.53,"Payroll Accrual"
"GLI","03/31/2017","12316","111245","GLI033117","GLI033117",569.1,"Payroll Accrual"
"GLI","03/31/2017","12904","111210","GLI033117","GLI033117",4.23,"Payroll Accrual"
"GLI","03/31/2017","12504","111210","GLI033117","GLI033117",19.94,"Payroll Accrual"
"GLI","03/31/2017","124704","111210","GLI033117","GLI033117",281.8,"Payroll Accrual"
"GLI","03/31/2017","12905","1111325","GLI033117","GLI033117",32.07,"Payroll Accrual"
"GLI","03/31/2017","12505","1111325","GLI033117","GLI033117",120.67,"Payroll Accrual"
"GLI","03/31/2017","12205A","1111325","GLI033117","GLI033117",1603.35,"Payroll Accrual"
"GLI","03/31/2017","12904","1110800","GLI033117","GLI033117",26.86,"Payroll Accrual"
"GLI","03/31/2017","12504","1110800","GLI033117","GLI033117",123.14,"Payroll Accrual"
"GLI","03/31/2017","12304B","1110800","GLI033117","GLI033117",1790.87,"Payroll Accrual"
"GLI","03/31/2017","12911","1110660","GLI033117","GLI033117",1.09,"Payroll Accrual"
"GLI","03/31/2017","12906","1110660","GLI033117","GLI033117",0.79,"Payroll Accrual"
"GLI","03/31/2017","12905","1110660","GLI033117","GLI033117",0.79,"Payroll Accrual"
"GLI","03/31/2017","12904","1110660","GLI033117","GLI033117",0.79,"Payroll Accrual"
"GLI","03/31/2017","12902","1110660","GLI033117","GLI033117",0.74,"Payroll Accrual"
"GLI","03/31/2017","12901","1110660","GLI033117","GLI033117",0.74,"Payroll Accrual"
"GLI","03/31/2017","12511","1110660","GLI033117","GLI033117",5.54,"Payroll Accrual"
"GLI","03/31/2017","12506","1110660","GLI033117","GLI033117",4.02,"Payroll Accrual"
"GLI","03/31/2017","12505","1110660","GLI033117","GLI033117",4.02,"Payroll Accrual"
"GLI","03/31/2017","12504","1110660","GLI033117","GLI033117",4.02,"Payroll Accrual"
"GLI","03/31/2017","12502","1110660","GLI033117","GLI033117",3.78,"Payroll Accrual"
"GLI","03/31/2017","12501","1110660","GLI033117","GLI033117",3.78,"Payroll Accrual"
"GLI","03/31/2017","12311","1110660","GLI033117","GLI033117",72.37,"Payroll Accrual"
"GLI","03/31/2017","12306H","1110660","GLI033117","GLI033117",52.63,"Payroll Accrual"
"GLI","03/31/2017","12305H","1110660","GLI033117","GLI033117",52.63,"Payroll Accrual"
"GLI","03/31/2017","12304H","1110660","GLI033117","GLI033117",52.63,"Payroll Accrual"
"GLI","03/31/2017","12302H","1110660","GLI033117","GLI033117",49.34,"Payroll Accrual"
"GLI","03/31/2017","12301H","1110660","GLI033117","GLI033117",49.34,"Payroll Accrual"
"GLI","03/31/2017","12905","1110650","GLI033117","GLI033117",44.43,"Payroll Accrual"
"GLI","03/31/2017","12505","1110650","GLI033117","GLI033117",226.59,"Payroll Accrual"
"GLI","03/31/2017","124703","1110650","GLI033117","GLI033117",2962,"Payroll Accrual"
"GLI","03/31/2017","12405","1110650","GLI033117","GLI033117",236.96,"Payroll Accrual"
"GLI","03/31/2017","12504","1109819","GLI033117","GLI033117",70.17,"Payroll Accrual"
"GLI","03/31/2017","12204A","1109819","GLI033117","GLI033117",976.02,"Payroll Accrual"
"GLI","03/31/2017","12527","1109000","GLI033117","GLI033117",22.24,"Payroll Accrual"
"GLI","03/31/2017","12327","1109000","GLI033117","GLI033117",290.7,"Payroll Accrual"
"GLI","03/31/2017","12503","1108452","GLI033117","GLI033117",13.41,"Payroll Accrual"
"GLI","03/31/2017","124723","1108452","GLI033117","GLI033117",175.32,"Payroll Accrual"
"GLI","03/31/2017","12904","1108248","GLI033117","GLI033117",20.83,"Payroll Accrual"
"GLI","03/31/2017","12504","1108248","GLI033117","GLI033117",79.67,"Payroll Accrual"
"GLI","03/31/2017","124704","1108248","GLI033117","GLI033117",1041.53,"Payroll Accrual"
"GLI","03/31/2017","12905","1108200","GLI033117","GLI033117",32.38,"Payroll Accrual"
"GLI","03/31/2017","12505","1108200","GLI033117","GLI033117",165.14,"Payroll Accrual"
"GLI","03/31/2017","12305B","1108200","GLI033117","GLI033117",2158.76,"Payroll Accrual"
"GLI","03/31/2017","12904","1107950","GLI033117","GLI033117",20.81,"Payroll Accrual"
"GLI","03/31/2017","12504","1107950","GLI033117","GLI033117",104.53,"Payroll Accrual"
"GLI","03/31/2017","124704","1107950","GLI033117","GLI033117",1387.6,"Payroll Accrual"
"GLI","03/31/2017","12404","1107950","GLI033117","GLI033117",142.96,"Payroll Accrual"
"GLI","03/31/2017","12904","1106421","GLI033117","GLI033117",41.74,"Payroll Accrual"
"GLI","03/31/2017","12504","1106421","GLI033117","GLI033117",200.44,"Payroll Accrual"
"GLI","03/31/2017","124704","1106421","GLI033117","GLI033117",2782.9,"Payroll Accrual"
"GLI","03/31/2017","12905","1106400","GLI033117","GLI033117",33.6,"Payroll Accrual"
"GLI","03/31/2017","12505","1106400","GLI033117","GLI033117",170.16,"Payroll Accrual"
"GLI","03/31/2017","124703","1106400","GLI033117","GLI033117",2240.3,"Payroll Accrual"
"GLI","03/31/2017","12904","1106399","GLI033117","GLI033117",76.26,"Payroll Accrual"
"GLI","03/31/2017","12504","1106399","GLI033117","GLI033117",291.69,"Payroll Accrual"
"GLI","03/31/2017","124704","1106399","GLI033117","GLI033117",3812.9,"Payroll Accrual"
"GLI","03/31/2017","12924","1103065","GLI033117","GLI033117",7.4,"Payroll Accrual"
"GLI","03/31/2017","12905","1103065","GLI033117","GLI033117",7.4,"Payroll Accrual"
"GLI","03/31/2017","12904","1103065","GLI033117","GLI033117",7.4,"Payroll Accrual"
"GLI","03/31/2017","12901","1103065","GLI033117","GLI033117",7.4,"Payroll Accrual"
"GLI","03/31/2017","12524","1103065","GLI033117","GLI033117",24.18,"Payroll Accrual"
"GLI","03/31/2017","12505","1103065","GLI033117","GLI033117",24.18,"Payroll Accrual"
"GLI","03/31/2017","12504","1103065","GLI033117","GLI033117",24.18,"Payroll Accrual"
"GLI","03/31/2017","12501","1103065","GLI033117","GLI033117",24.18,"Payroll Accrual"
"GLI","03/31/2017","12324F","1103065","GLI033117","GLI033117",369.78,"Payroll Accrual"
"GLI","03/31/2017","12305F","1103065","GLI033117","GLI033117",369.78,"Payroll Accrual"
"GLI","03/31/2017","12304F","1103065","GLI033117","GLI033117",369.78,"Payroll Accrual"
"GLI","03/31/2017","12301F","1103065","GLI033117","GLI033117",369.78,"Payroll Accrual"
"GLI","03/31/2017","12903","1102198","GLI033117","GLI033117",23.88,"Payroll Accrual"
"GLI","03/31/2017","12503","1102198","GLI033117","GLI033117",120.7,"Payroll Accrual"
"GLI","03/31/2017","12103","1102198","GLI033117","GLI033117",1592.31,"Payroll Accrual"
"GLI","03/31/2017","12904","1102195","GLI033117","GLI033117",63.69,"Payroll Accrual"
"GLI","03/31/2017","12504","1102195","GLI033117","GLI033117",242.51,"Payroll Accrual"
"GLI","03/31/2017","12104","1102195","GLI033117","GLI033117",3184.62,"Payroll Accrual"
"GLI","03/31/2017","12504","110123","GLI033117","GLI033117",89.42,"Payroll Accrual"
"GLI","03/31/2017","124704","110123","GLI033117","GLI033117",1347.84,"Payroll Accrual"
"GLI","03/31/2017","12524","1100820","GLI033117","GLI033117",19.56,"Payroll Accrual"
"GLI","03/31/2017","124724","1100820","GLI033117","GLI033117",255.6,"Payroll Accrual"
"GLI","03/31/2017","12505","1100625","GLI033117","GLI033117",87.09,"Payroll Accrual"
"GLI","03/31/2017","124703","1100625","GLI033117","GLI033117",1138.4,"Payroll Accrual"
"GLI","03/31/2017","12503","110048","GLI033117","GLI033117",3.39,"Payroll Accrual"
"GLI","03/31/2017","124723","110048","GLI033117","GLI033117",44.38,"Payroll Accrual"
