journal,date,account,control,document,reference,amount,description
GLI,7/31/2017,232103,GLI073117,GLI073117,GLI073117,-25159.39,Payroll Accrual
GLI,7/31/2017,132101,GLI073117,GLI073117,GLI073117,-251457.52,Payroll Accrual
GLI,7/31/2017,12006,1130426,GLI073117,GLI073117,1004.31,Payroll Accrual
GLI,7/31/2017,12005,1130426,GLI073117,GLI073117,1004.31,Payroll Accrual
GLI,7/31/2017,12004,1130426,GLI073117,GLI073117,1004.31,Payroll Accrual
GLI,7/31/2017,12002,1130426,GLI073117,GLI073117,1004.31,Payroll Accrual
GLI,7/31/2017,12001,1130426,GLI073117,GLI073117,905.86,Payroll Accrual
GLI,7/31/2017,22910,291600,GLI073117,GLI073117,1.22,Payroll Accrual
GLI,7/31/2017,22906,291600,GLI073117,GLI073117,2.54,Payroll Accrual
GLI,7/31/2017,22904,291600,GLI073117,GLI073117,2.54,Payroll Accrual
GLI,7/31/2017,22902,291600,GLI073117,GLI073117,2.54,Payroll Accrual
GLI,7/31/2017,22901,291600,GLI073117,GLI073117,1.32,Payroll Accrual
GLI,7/31/2017,22510,291600,GLI073117,GLI073117,-0.64,Payroll Accrual
GLI,7/31/2017,22506,291600,GLI073117,GLI073117,4.42,Payroll Accrual
GLI,7/31/2017,22504,291600,GLI073117,GLI073117,4.42,Payroll Accrual
GLI,7/31/2017,22502,291600,GLI073117,GLI073117,4.42,Payroll Accrual
GLI,7/31/2017,22501,291600,GLI073117,GLI073117,-0.25,Payroll Accrual
GLI,7/31/2017,22410,291600,GLI073117,GLI073117,23.04,Payroll Accrual
GLI,7/31/2017,22406,291600,GLI073117,GLI073117,48,Payroll Accrual
GLI,7/31/2017,22404,291600,GLI073117,GLI073117,48,Payroll Accrual
GLI,7/31/2017,22402,291600,GLI073117,GLI073117,48,Payroll Accrual
GLI,7/31/2017,22401,291600,GLI073117,GLI073117,24.96,Payroll Accrual
GLI,7/31/2017,22210B,291600,GLI073117,GLI073117,37.93,Payroll Accrual
GLI,7/31/2017,22206B,291600,GLI073117,GLI073117,79.02,Payroll Accrual
GLI,7/31/2017,22204B,291600,GLI073117,GLI073117,79.02,Payroll Accrual
GLI,7/31/2017,22202B,291600,GLI073117,GLI073117,79.02,Payroll Accrual
GLI,7/31/2017,22201B,291600,GLI073117,GLI073117,41.09,Payroll Accrual
GLI,7/31/2017,22904,291582,GLI073117,GLI073117,5.65,Payroll Accrual
GLI,7/31/2017,22504,291582,GLI073117,GLI073117,28.82,Payroll Accrual
GLI,7/31/2017,22304C,291582,GLI073117,GLI073117,376.8,Payroll Accrual
GLI,7/31/2017,22906,288000,GLI073117,GLI073117,7.43,Payroll Accrual
GLI,7/31/2017,22506,288000,GLI073117,GLI073117,37.88,Payroll Accrual
GLI,7/31/2017,22306,288000,GLI073117,GLI073117,495.24,Payroll Accrual
GLI,7/31/2017,22503,286000,GLI073117,GLI073117,50.71,Payroll Accrual
GLI,7/31/2017,224723,286000,GLI073117,GLI073117,668.2,Payroll Accrual
GLI,7/31/2017,22904,282715,GLI073117,GLI073117,10.84,Payroll Accrual
GLI,7/31/2017,22504,282715,GLI073117,GLI073117,50.54,Payroll Accrual
GLI,7/31/2017,224704,282715,GLI073117,GLI073117,722.34,Payroll Accrual
GLI,7/31/2017,22504,282713,GLI073117,GLI073117,24.12,Payroll Accrual
GLI,7/31/2017,22503,282713,GLI073117,GLI073117,24.12,Payroll Accrual
GLI,7/31/2017,22304B,282713,GLI073117,GLI073117,374.01,Payroll Accrual
GLI,7/31/2017,22303,282713,GLI073117,GLI073117,374.01,Payroll Accrual
GLI,7/31/2017,22504,279630,GLI073117,GLI073117,90.99,Payroll Accrual
GLI,7/31/2017,224704,279630,GLI073117,GLI073117,1189.35,Payroll Accrual
GLI,7/31/2017,22506,274225,GLI073117,GLI073117,67.89,Payroll Accrual
GLI,7/31/2017,22406,274225,GLI073117,GLI073117,160,Payroll Accrual
GLI,7/31/2017,22306,274225,GLI073117,GLI073117,885.6,Payroll Accrual
GLI,7/31/2017,22904,273315,GLI073117,GLI073117,30.76,Payroll Accrual
GLI,7/31/2017,22504,273315,GLI073117,GLI073117,117.66,Payroll Accrual
GLI,7/31/2017,224704,273315,GLI073117,GLI073117,1538.13,Payroll Accrual
GLI,7/31/2017,22506,264220,GLI073117,GLI073117,43.05,Payroll Accrual
GLI,7/31/2017,22406,264220,GLI073117,GLI073117,116,Payroll Accrual
GLI,7/31/2017,22306,264220,GLI073117,GLI073117,516.05,Payroll Accrual
GLI,7/31/2017,22504,256879,GLI073117,GLI073117,8.47,Payroll Accrual
GLI,7/31/2017,22304C,256879,GLI073117,GLI073117,110.7,Payroll Accrual
GLI,7/31/2017,22503,256689,GLI073117,GLI073117,43.46,Payroll Accrual
GLI,7/31/2017,224723,256689,GLI073117,GLI073117,568.08,Payroll Accrual
GLI,7/31/2017,22904,252520,GLI073117,GLI073117,11.35,Payroll Accrual
GLI,7/31/2017,22504,252520,GLI073117,GLI073117,56.26,Payroll Accrual
GLI,7/31/2017,224704,252520,GLI073117,GLI073117,756.74,Payroll Accrual
GLI,7/31/2017,22503,247000,GLI073117,GLI073117,48.28,Payroll Accrual
GLI,7/31/2017,224723,247000,GLI073117,GLI073117,631.2,Payroll Accrual
GLI,7/31/2017,22903,241120,GLI073117,GLI073117,12.71,Payroll Accrual
GLI,7/31/2017,22503,241120,GLI073117,GLI073117,58.41,Payroll Accrual
GLI,7/31/2017,22303,241120,GLI073117,GLI073117,847.16,Payroll Accrual
GLI,7/31/2017,22903,241085,GLI073117,GLI073117,11.54,Payroll Accrual
GLI,7/31/2017,22503,241085,GLI073117,GLI073117,57.62,Payroll Accrual
GLI,7/31/2017,22303,241085,GLI073117,GLI073117,769.05,Payroll Accrual
GLI,7/31/2017,22504,230810,GLI073117,GLI073117,8.62,Payroll Accrual
GLI,7/31/2017,22304C,230810,GLI073117,GLI073117,112.7,Payroll Accrual
GLI,7/31/2017,22504,230601,GLI073117,GLI073117,105.43,Payroll Accrual
GLI,7/31/2017,22104,230601,GLI073117,GLI073117,1476.93,Payroll Accrual
GLI,7/31/2017,22503,223050,GLI073117,GLI073117,46.27,Payroll Accrual
GLI,7/31/2017,224723,223050,GLI073117,GLI073117,604.8,Payroll Accrual
GLI,7/31/2017,22910,2141225,GLI073117,GLI073117,2.51,Payroll Accrual
GLI,7/31/2017,22902,2141225,GLI073117,GLI073117,2.51,Payroll Accrual
GLI,7/31/2017,22901,2141225,GLI073117,GLI073117,2.58,Payroll Accrual
GLI,7/31/2017,22510,2141225,GLI073117,GLI073117,5.76,Payroll Accrual
GLI,7/31/2017,22502,2141225,GLI073117,GLI073117,5.76,Payroll Accrual
GLI,7/31/2017,22501,2141225,GLI073117,GLI073117,6.15,Payroll Accrual
GLI,7/31/2017,22310,2141225,GLI073117,GLI073117,167.11,Payroll Accrual
GLI,7/31/2017,22302,2141225,GLI073117,GLI073117,167.11,Payroll Accrual
GLI,7/31/2017,22301,2141225,GLI073117,GLI073117,172.17,Payroll Accrual
GLI,7/31/2017,22503,213520,GLI073117,GLI073117,37.67,Payroll Accrual
GLI,7/31/2017,224723,213520,GLI073117,GLI073117,513.58,Payroll Accrual
GLI,7/31/2017,22910,213406,GLI073117,GLI073117,0.97,Payroll Accrual
GLI,7/31/2017,22906,213406,GLI073117,GLI073117,2.01,Payroll Accrual
GLI,7/31/2017,22904,213406,GLI073117,GLI073117,2.01,Payroll Accrual
GLI,7/31/2017,22902,213406,GLI073117,GLI073117,2.01,Payroll Accrual
GLI,7/31/2017,22901,213406,GLI073117,GLI073117,1.05,Payroll Accrual
GLI,7/31/2017,22510,213406,GLI073117,GLI073117,4.92,Payroll Accrual
GLI,7/31/2017,22506,213406,GLI073117,GLI073117,10.27,Payroll Accrual
GLI,7/31/2017,22504,213406,GLI073117,GLI073117,10.27,Payroll Accrual
GLI,7/31/2017,22502,213406,GLI073117,GLI073117,10.27,Payroll Accrual
GLI,7/31/2017,22501,213406,GLI073117,GLI073117,5.34,Payroll Accrual
GLI,7/31/2017,22210B,213406,GLI073117,GLI073117,64.4,Payroll Accrual
GLI,7/31/2017,22206B,213406,GLI073117,GLI073117,134.18,Payroll Accrual
GLI,7/31/2017,22204B,213406,GLI073117,GLI073117,134.18,Payroll Accrual
GLI,7/31/2017,22202B,213406,GLI073117,GLI073117,134.18,Payroll Accrual
GLI,7/31/2017,22201B,213406,GLI073117,GLI073117,69.77,Payroll Accrual
GLI,7/31/2017,22904,2130510,GLI073117,GLI073117,27.55,Payroll Accrual
GLI,7/31/2017,22504,2130510,GLI073117,GLI073117,128.44,Payroll Accrual
GLI,7/31/2017,22304B,2130510,GLI073117,GLI073117,1837.1,Payroll Accrual
GLI,7/31/2017,22904,2130150,GLI073117,GLI073117,29.02,Payroll Accrual
GLI,7/31/2017,22504,2130150,GLI073117,GLI073117,110.98,Payroll Accrual
GLI,7/31/2017,224704,2130150,GLI073117,GLI073117,1450.81,Payroll Accrual
GLI,7/31/2017,22504,2126053,GLI073117,GLI073117,13.07,Payroll Accrual
GLI,7/31/2017,22304C,2126053,GLI073117,GLI073117,170.8,Payroll Accrual
GLI,7/31/2017,22503,211260,GLI073117,GLI073117,51.03,Payroll Accrual
GLI,7/31/2017,224723,211260,GLI073117,GLI073117,667.14,Payroll Accrual
GLI,7/31/2017,22504,2106410,GLI073117,GLI073117,110.81,Payroll Accrual
GLI,7/31/2017,22304B,2106410,GLI073117,GLI073117,1448.54,Payroll Accrual
GLI,7/31/2017,22506,2106350,GLI073117,GLI073117,135.47,Payroll Accrual
GLI,7/31/2017,22106,2106350,GLI073117,GLI073117,1829.24,Payroll Accrual
GLI,7/31/2017,22504,210073,GLI073117,GLI073117,41,Payroll Accrual
GLI,7/31/2017,224704,210073,GLI073117,GLI073117,557.09,Payroll Accrual
GLI,7/31/2017,12503,196345,GLI073117,GLI073117,53.64,Payroll Accrual
GLI,7/31/2017,12303,196345,GLI073117,GLI073117,701.12,Payroll Accrual
GLI,7/31/2017,12906,196341,GLI073117,GLI073117,4.14,Payroll Accrual
GLI,7/31/2017,12905,196341,GLI073117,GLI073117,3.43,Payroll Accrual
GLI,7/31/2017,12514,196341,GLI073117,GLI073117,13.07,Payroll Accrual
GLI,7/31/2017,12506,196341,GLI073117,GLI073117,0.97,Payroll Accrual
GLI,7/31/2017,12505,196341,GLI073117,GLI073117,0.8,Payroll Accrual
GLI,7/31/2017,12504,196341,GLI073117,GLI073117,10.41,Payroll Accrual
GLI,7/31/2017,12502,196341,GLI073117,GLI073117,8.65,Payroll Accrual
GLI,7/31/2017,12501,196341,GLI073117,GLI073117,8.65,Payroll Accrual
GLI,7/31/2017,12214,196341,GLI073117,GLI073117,254.38,Payroll Accrual
GLI,7/31/2017,12206C,196341,GLI073117,GLI073117,150.31,Payroll Accrual
GLI,7/31/2017,12205C,196341,GLI073117,GLI073117,138.75,Payroll Accrual
GLI,7/31/2017,12204C,196341,GLI073117,GLI073117,219.69,Payroll Accrual
GLI,7/31/2017,12202C,196341,GLI073117,GLI073117,196.56,Payroll Accrual
GLI,7/31/2017,12201C,196341,GLI073117,GLI073117,196.56,Payroll Accrual
GLI,7/31/2017,12503,196205,GLI073117,GLI073117,28.35,Payroll Accrual
GLI,7/31/2017,124723,196205,GLI073117,GLI073117,370.58,Payroll Accrual
GLI,7/31/2017,12506,195401,GLI073117,GLI073117,63.87,Payroll Accrual
GLI,7/31/2017,12306D,195401,GLI073117,GLI073117,904.15,Payroll Accrual
GLI,7/31/2017,12504,194675,GLI073117,GLI073117,87.17,Payroll Accrual
GLI,7/31/2017,124704,194675,GLI073117,GLI073117,1164.54,Payroll Accrual
GLI,7/31/2017,12527,193062,GLI073117,GLI073117,32.03,Payroll Accrual
GLI,7/31/2017,12327,193062,GLI073117,GLI073117,418.7,Payroll Accrual
GLI,7/31/2017,12505,191350,GLI073117,GLI073117,105.26,Payroll Accrual
GLI,7/31/2017,124703,191350,GLI073117,GLI073117,1375.92,Payroll Accrual
GLI,7/31/2017,12504,191060,GLI073117,GLI073117,276.15,Payroll Accrual
GLI,7/31/2017,12304B,191060,GLI073117,GLI073117,3609.9,Payroll Accrual
GLI,7/31/2017,12924,190933,GLI073117,GLI073117,5.88,Payroll Accrual
GLI,7/31/2017,12524,190933,GLI073117,GLI073117,25.45,Payroll Accrual
GLI,7/31/2017,124724,190933,GLI073117,GLI073117,392,Payroll Accrual
GLI,7/31/2017,12524,190910,GLI073117,GLI073117,162.25,Payroll Accrual
GLI,7/31/2017,124724,190910,GLI073117,GLI073117,2121,Payroll Accrual
GLI,7/31/2017,12906,190892,GLI073117,GLI073117,6.55,Payroll Accrual
GLI,7/31/2017,12506,190892,GLI073117,GLI073117,23.05,Payroll Accrual
GLI,7/31/2017,12306C,190892,GLI073117,GLI073117,327.25,Payroll Accrual
GLI,7/31/2017,12905,190600,GLI073117,GLI073117,20.65,Payroll Accrual
GLI,7/31/2017,12505,190600,GLI073117,GLI073117,73.67,Payroll Accrual
GLI,7/31/2017,124703,190600,GLI073117,GLI073117,872.4,Payroll Accrual
GLI,7/31/2017,12405,190600,GLI073117,GLI073117,160,Payroll Accrual
GLI,7/31/2017,12905,188338,GLI073117,GLI073117,10.76,Payroll Accrual
GLI,7/31/2017,12505,188338,GLI073117,GLI073117,34.65,Payroll Accrual
GLI,7/31/2017,12405,188338,GLI073117,GLI073117,160,Payroll Accrual
GLI,7/31/2017,12305B,188338,GLI073117,GLI073117,378,Payroll Accrual
GLI,7/31/2017,12904,187675,GLI073117,GLI073117,35.45,Payroll Accrual
GLI,7/31/2017,12504,187675,GLI073117,GLI073117,132.19,Payroll Accrual
GLI,7/31/2017,124704,187675,GLI073117,GLI073117,1772.31,Payroll Accrual
GLI,7/31/2017,12905,186210,GLI073117,GLI073117,21.07,Payroll Accrual
GLI,7/31/2017,12505,186210,GLI073117,GLI073117,107.44,Payroll Accrual
GLI,7/31/2017,124703,186210,GLI073117,GLI073117,1404.48,Payroll Accrual
GLI,7/31/2017,12906,186100,GLI073117,GLI073117,7.38,Payroll Accrual
GLI,7/31/2017,12905,186100,GLI073117,GLI073117,7.38,Payroll Accrual
GLI,7/31/2017,12904,186100,GLI073117,GLI073117,7.38,Payroll Accrual
GLI,7/31/2017,12902,186100,GLI073117,GLI073117,7.38,Payroll Accrual
GLI,7/31/2017,12901,186100,GLI073117,GLI073117,7.38,Payroll Accrual
GLI,7/31/2017,12506,186100,GLI073117,GLI073117,28.09,Payroll Accrual
GLI,7/31/2017,12505,186100,GLI073117,GLI073117,28.09,Payroll Accrual
GLI,7/31/2017,12504,186100,GLI073117,GLI073117,28.09,Payroll Accrual
GLI,7/31/2017,12502,186100,GLI073117,GLI073117,28.09,Payroll Accrual
GLI,7/31/2017,12501,186100,GLI073117,GLI073117,28.09,Payroll Accrual
GLI,7/31/2017,12106,186100,GLI073117,GLI073117,369.23,Payroll Accrual
GLI,7/31/2017,12105,186100,GLI073117,GLI073117,369.23,Payroll Accrual
GLI,7/31/2017,12104,186100,GLI073117,GLI073117,369.23,Payroll Accrual
GLI,7/31/2017,12102,186100,GLI073117,GLI073117,369.23,Payroll Accrual
GLI,7/31/2017,12101,186100,GLI073117,GLI073117,369.23,Payroll Accrual
GLI,7/31/2017,12906,185801,GLI073117,GLI073117,0.51,Payroll Accrual
GLI,7/31/2017,12506,185801,GLI073117,GLI073117,2.62,Payroll Accrual
GLI,7/31/2017,12306C,185801,GLI073117,GLI073117,34.2,Payroll Accrual
GLI,7/31/2017,12515,185600,GLI073117,GLI073117,27.66,Payroll Accrual
GLI,7/31/2017,12506,185600,GLI073117,GLI073117,18.87,Payroll Accrual
GLI,7/31/2017,12505,185600,GLI073117,GLI073117,18.87,Payroll Accrual
GLI,7/31/2017,12504,185600,GLI073117,GLI073117,20.12,Payroll Accrual
GLI,7/31/2017,12502,185600,GLI073117,GLI073117,20.12,Payroll Accrual
GLI,7/31/2017,12501,185600,GLI073117,GLI073117,20.12,Payroll Accrual
GLI,7/31/2017,12315,185600,GLI073117,GLI073117,379.08,Payroll Accrual
GLI,7/31/2017,12306,185600,GLI073117,GLI073117,258.46,Payroll Accrual
GLI,7/31/2017,12305,185600,GLI073117,GLI073117,258.46,Payroll Accrual
GLI,7/31/2017,12304,185600,GLI073117,GLI073117,275.69,Payroll Accrual
GLI,7/31/2017,12302,185600,GLI073117,GLI073117,275.69,Payroll Accrual
GLI,7/31/2017,12301,185600,GLI073117,GLI073117,275.69,Payroll Accrual
GLI,7/31/2017,12905,184920,GLI073117,GLI073117,30.46,Payroll Accrual
GLI,7/31/2017,12505,184920,GLI073117,GLI073117,153.74,Payroll Accrual
GLI,7/31/2017,124703,184920,GLI073117,GLI073117,2030.82,Payroll Accrual
GLI,7/31/2017,12924,184806,GLI073117,GLI073117,30.22,Payroll Accrual
GLI,7/31/2017,12524,184806,GLI073117,GLI073117,115.59,Payroll Accrual
GLI,7/31/2017,124724,184806,GLI073117,GLI073117,1511,Payroll Accrual
GLI,7/31/2017,12424,184806,GLI073117,GLI073117,96,Payroll Accrual
GLI,7/31/2017,12502,184630,GLI073117,GLI073117,156.44,Payroll Accrual
GLI,7/31/2017,12501,184630,GLI073117,GLI073117,156.44,Payroll Accrual
GLI,7/31/2017,12102,184630,GLI073117,GLI073117,2215.39,Payroll Accrual
GLI,7/31/2017,12101,184630,GLI073117,GLI073117,2215.39,Payroll Accrual
GLI,7/31/2017,12524,184620,GLI073117,GLI073117,40.76,Payroll Accrual
GLI,7/31/2017,124724,184620,GLI073117,GLI073117,532.8,Payroll Accrual
GLI,7/31/2017,12905,184614,GLI073117,GLI073117,20.4,Payroll Accrual
GLI,7/31/2017,12505,184614,GLI073117,GLI073117,104.03,Payroll Accrual
GLI,7/31/2017,124703,184614,GLI073117,GLI073117,1359.78,Payroll Accrual
GLI,7/31/2017,12405,184614,GLI073117,GLI073117,229.2,Payroll Accrual
GLI,7/31/2017,12906,184610,GLI073117,GLI073117,36.05,Payroll Accrual
GLI,7/31/2017,12506,184610,GLI073117,GLI073117,132.57,Payroll Accrual
GLI,7/31/2017,12306B,184610,GLI073117,GLI073117,1802.25,Payroll Accrual
GLI,7/31/2017,12914,181520,GLI073117,GLI073117,3.57,Payroll Accrual
GLI,7/31/2017,12906,181520,GLI073117,GLI073117,0.44,Payroll Accrual
GLI,7/31/2017,12905,181520,GLI073117,GLI073117,-0.23,Payroll Accrual
GLI,7/31/2017,12904,181520,GLI073117,GLI073117,3.08,Payroll Accrual
GLI,7/31/2017,12902,181520,GLI073117,GLI073117,2.76,Payroll Accrual
GLI,7/31/2017,12901,181520,GLI073117,GLI073117,2.76,Payroll Accrual
GLI,7/31/2017,12514,181520,GLI073117,GLI073117,3.52,Payroll Accrual
GLI,7/31/2017,12506,181520,GLI073117,GLI073117,-0.39,Payroll Accrual
GLI,7/31/2017,12505,181520,GLI073117,GLI073117,-0.51,Payroll Accrual
GLI,7/31/2017,12504,181520,GLI073117,GLI073117,1.65,Payroll Accrual
GLI,7/31/2017,12502,181520,GLI073117,GLI073117,0.42,Payroll Accrual
GLI,7/31/2017,12501,181520,GLI073117,GLI073117,0.42,Payroll Accrual
GLI,7/31/2017,12214,181520,GLI073117,GLI073117,178.27,Payroll Accrual
GLI,7/31/2017,12206C,181520,GLI073117,GLI073117,105.34,Payroll Accrual
GLI,7/31/2017,12205C,181520,GLI073117,GLI073117,97.24,Payroll Accrual
GLI,7/31/2017,12204C,181520,GLI073117,GLI073117,153.96,Payroll Accrual
GLI,7/31/2017,12202C,181520,GLI073117,GLI073117,137.76,Payroll Accrual
GLI,7/31/2017,12201C,181520,GLI073117,GLI073117,137.76,Payroll Accrual
GLI,7/31/2017,12527,180626,GLI073117,GLI073117,8.59,Payroll Accrual
GLI,7/31/2017,12327,180626,GLI073117,GLI073117,112.3,Payroll Accrual
GLI,7/31/2017,12904,18005,GLI073117,GLI073117,20.84,Payroll Accrual
GLI,7/31/2017,12504,18005,GLI073117,GLI073117,78.51,Payroll Accrual
GLI,7/31/2017,124704,18005,GLI073117,GLI073117,1042.08,Payroll Accrual
GLI,7/31/2017,12904,179780,GLI073117,GLI073117,11.88,Payroll Accrual
GLI,7/31/2017,12504,179780,GLI073117,GLI073117,56.49,Payroll Accrual
GLI,7/31/2017,124704,179780,GLI073117,GLI073117,791.82,Payroll Accrual
GLI,7/31/2017,12906,179775,GLI073117,GLI073117,16.03,Payroll Accrual
GLI,7/31/2017,12506,179775,GLI073117,GLI073117,54.76,Payroll Accrual
GLI,7/31/2017,12306B,179775,GLI073117,GLI073117,801.57,Payroll Accrual
GLI,7/31/2017,12506,179693,GLI073117,GLI073117,9.55,Payroll Accrual
GLI,7/31/2017,12505,179693,GLI073117,GLI073117,9.55,Payroll Accrual
GLI,7/31/2017,12504,179693,GLI073117,GLI073117,9.55,Payroll Accrual
GLI,7/31/2017,12502,179693,GLI073117,GLI073117,9.55,Payroll Accrual
GLI,7/31/2017,12501,179693,GLI073117,GLI073117,9.55,Payroll Accrual
GLI,7/31/2017,12406,179693,GLI073117,GLI073117,124.8,Payroll Accrual
GLI,7/31/2017,12405,179693,GLI073117,GLI073117,124.8,Payroll Accrual
GLI,7/31/2017,12404,179693,GLI073117,GLI073117,124.8,Payroll Accrual
GLI,7/31/2017,12402,179693,GLI073117,GLI073117,124.8,Payroll Accrual
GLI,7/31/2017,12401,179693,GLI073117,GLI073117,124.8,Payroll Accrual
GLI,7/31/2017,12904,178079,GLI073117,GLI073117,30.37,Payroll Accrual
GLI,7/31/2017,12504,178079,GLI073117,GLI073117,114.55,Payroll Accrual
GLI,7/31/2017,12304D,178079,GLI073117,GLI073117,1518.63,Payroll Accrual
GLI,7/31/2017,12527,178060,GLI073117,GLI073117,41.48,Payroll Accrual
GLI,7/31/2017,12327,178060,GLI073117,GLI073117,542.3,Payroll Accrual
GLI,7/31/2017,12904,178050,GLI073117,GLI073117,10.88,Payroll Accrual
GLI,7/31/2017,12504,178050,GLI073117,GLI073117,53.9,Payroll Accrual
GLI,7/31/2017,124704,178050,GLI073117,GLI073117,725.64,Payroll Accrual
GLI,7/31/2017,12903,177950,GLI073117,GLI073117,1.34,Payroll Accrual
GLI,7/31/2017,12503,177950,GLI073117,GLI073117,6.84,Payroll Accrual
GLI,7/31/2017,124723,177950,GLI073117,GLI073117,89.32,Payroll Accrual
GLI,7/31/2017,12516,176505,GLI073117,GLI073117,4.76,Payroll Accrual
GLI,7/31/2017,12316,176505,GLI073117,GLI073117,62.3,Payroll Accrual
GLI,7/31/2017,12524,173800,GLI073117,GLI073117,17.67,Payroll Accrual
GLI,7/31/2017,124724,173800,GLI073117,GLI073117,231,Payroll Accrual
GLI,7/31/2017,12906,172077,GLI073117,GLI073117,22.22,Payroll Accrual
GLI,7/31/2017,12506,172077,GLI073117,GLI073117,72.91,Payroll Accrual
GLI,7/31/2017,12306B,172077,GLI073117,GLI073117,1111.24,Payroll Accrual
GLI,7/31/2017,12905,171055,GLI073117,GLI073117,38.76,Payroll Accrual
GLI,7/31/2017,12505,171055,GLI073117,GLI073117,134.63,Payroll Accrual
GLI,7/31/2017,124703,171055,GLI073117,GLI073117,1937.88,Payroll Accrual
GLI,7/31/2017,12904,170101,GLI073117,GLI073117,12.94,Payroll Accrual
GLI,7/31/2017,12504,170101,GLI073117,GLI073117,66.01,Payroll Accrual
GLI,7/31/2017,124704,170101,GLI073117,GLI073117,862.92,Payroll Accrual
GLI,7/31/2017,12516,167906,GLI073117,GLI073117,47.87,Payroll Accrual
GLI,7/31/2017,12316,167906,GLI073117,GLI073117,641.62,Payroll Accrual
GLI,7/31/2017,12904,167812,GLI073117,GLI073117,1.25,Payroll Accrual
GLI,7/31/2017,12504,167812,GLI073117,GLI073117,4.8,Payroll Accrual
GLI,7/31/2017,12204C,167812,GLI073117,GLI073117,62.7,Payroll Accrual
GLI,7/31/2017,12504,167580,GLI073117,GLI073117,86.98,Payroll Accrual
GLI,7/31/2017,124704,167580,GLI073117,GLI073117,1158.06,Payroll Accrual
GLI,7/31/2017,12527,165500,GLI073117,GLI073117,-3.28,Payroll Accrual
GLI,7/31/2017,12327,165500,GLI073117,GLI073117,31.68,Payroll Accrual
GLI,7/31/2017,12504,165410,GLI073117,GLI073117,2.67,Payroll Accrual
GLI,7/31/2017,12404,165410,GLI073117,GLI073117,56,Payroll Accrual
GLI,7/31/2017,12524,165400,GLI073117,GLI073117,9.43,Payroll Accrual
GLI,7/31/2017,12505,165400,GLI073117,GLI073117,9.43,Payroll Accrual
GLI,7/31/2017,12504,165400,GLI073117,GLI073117,9.43,Payroll Accrual
GLI,7/31/2017,12501,165400,GLI073117,GLI073117,9.43,Payroll Accrual
GLI,7/31/2017,12324F,165400,GLI073117,GLI073117,170.15,Payroll Accrual
GLI,7/31/2017,12305F,165400,GLI073117,GLI073117,170.15,Payroll Accrual
GLI,7/31/2017,12304F,165400,GLI073117,GLI073117,170.15,Payroll Accrual
GLI,7/31/2017,12301F,165400,GLI073117,GLI073117,170.15,Payroll Accrual
GLI,7/31/2017,12905,165357,GLI073117,GLI073117,8.69,Payroll Accrual
GLI,7/31/2017,12505,165357,GLI073117,GLI073117,41.3,Payroll Accrual
GLI,7/31/2017,12305B,165357,GLI073117,GLI073117,579.55,Payroll Accrual
GLI,7/31/2017,12505,165275,GLI073117,GLI073117,37.88,Payroll Accrual
GLI,7/31/2017,124703,165275,GLI073117,GLI073117,548.6,Payroll Accrual
GLI,7/31/2017,12524,164920,GLI073117,GLI073117,48.34,Payroll Accrual
GLI,7/31/2017,124724,164920,GLI073117,GLI073117,632,Payroll Accrual
GLI,7/31/2017,12904,164015,GLI073117,GLI073117,34.83,Payroll Accrual
GLI,7/31/2017,12504,164015,GLI073117,GLI073117,132.17,Payroll Accrual
GLI,7/31/2017,124704,164015,GLI073117,GLI073117,1741.44,Payroll Accrual
GLI,7/31/2017,12912,163096,GLI073117,GLI073117,5.16,Payroll Accrual
GLI,7/31/2017,12902,163096,GLI073117,GLI073117,9.14,Payroll Accrual
GLI,7/31/2017,12901,163096,GLI073117,GLI073117,9.14,Payroll Accrual
GLI,7/31/2017,12512,163096,GLI073117,GLI073117,18.51,Payroll Accrual
GLI,7/31/2017,12502,163096,GLI073117,GLI073117,33.75,Payroll Accrual
GLI,7/31/2017,12501,163096,GLI073117,GLI073117,33.75,Payroll Accrual
GLI,7/31/2017,12212,163096,GLI073117,GLI073117,257.8,Payroll Accrual
GLI,7/31/2017,12202C,163096,GLI073117,GLI073117,457,Payroll Accrual
GLI,7/31/2017,12201C,163096,GLI073117,GLI073117,457,Payroll Accrual
GLI,7/31/2017,12504,162795,GLI073117,GLI073117,66.92,Payroll Accrual
GLI,7/31/2017,124704,162795,GLI073117,GLI073117,874.8,Payroll Accrual
GLI,7/31/2017,12906,16250,GLI073117,GLI073117,5.53,Payroll Accrual
GLI,7/31/2017,12506,16250,GLI073117,GLI073117,14.09,Payroll Accrual
GLI,7/31/2017,12306B,16250,GLI073117,GLI073117,368.34,Payroll Accrual
GLI,7/31/2017,12906,162428,GLI073117,GLI073117,16.7,Payroll Accrual
GLI,7/31/2017,12506,162428,GLI073117,GLI073117,82.28,Payroll Accrual
GLI,7/31/2017,12306B,162428,GLI073117,GLI073117,1113.36,Payroll Accrual
GLI,7/31/2017,185600,161351,GLI073117,GLI073117,63.8,Payroll Accrual
GLI,7/31/2017,185501,161351,GLI073117,GLI073117,55.82,Payroll Accrual
GLI,7/31/2017,12502,161351,GLI073117,GLI073117,19.71,Payroll Accrual
GLI,7/31/2017,12501,161351,GLI073117,GLI073117,9.94,Payroll Accrual
GLI,7/31/2017,11102,161351,GLI073117,GLI073117,398.74,Payroll Accrual
GLI,7/31/2017,11101,161351,GLI073117,GLI073117,279.11,Payroll Accrual
GLI,7/31/2017,12527,161205,GLI073117,GLI073117,15.63,Payroll Accrual
GLI,7/31/2017,12327,161205,GLI073117,GLI073117,204.4,Payroll Accrual
GLI,7/31/2017,12503,161010,GLI073117,GLI073117,50.06,Payroll Accrual
GLI,7/31/2017,124723,161010,GLI073117,GLI073117,654.36,Payroll Accrual
GLI,7/31/2017,12905,160930,GLI073117,GLI073117,10.98,Payroll Accrual
GLI,7/31/2017,12505,160930,GLI073117,GLI073117,38.95,Payroll Accrual
GLI,7/31/2017,12405,160930,GLI073117,GLI073117,160,Payroll Accrual
GLI,7/31/2017,12305C,160930,GLI073117,GLI073117,388.8,Payroll Accrual
GLI,7/31/2017,12906,1588879,GLI073117,GLI073117,5.94,Payroll Accrual
GLI,7/31/2017,12905,1588879,GLI073117,GLI073117,5.48,Payroll Accrual
GLI,7/31/2017,12514,1588879,GLI073117,GLI073117,12.4,Payroll Accrual
GLI,7/31/2017,12506,1588879,GLI073117,GLI073117,1.39,Payroll Accrual
GLI,7/31/2017,12505,1588879,GLI073117,GLI073117,1.28,Payroll Accrual
GLI,7/31/2017,12504,1588879,GLI073117,GLI073117,10.71,Payroll Accrual
GLI,7/31/2017,12502,1588879,GLI073117,GLI073117,9.58,Payroll Accrual
GLI,7/31/2017,12501,1588879,GLI073117,GLI073117,9.58,Payroll Accrual
GLI,7/31/2017,12214,1588879,GLI073117,GLI073117,162.05,Payroll Accrual
GLI,7/31/2017,12206C,1588879,GLI073117,GLI073117,95.76,Payroll Accrual
GLI,7/31/2017,12205C,1588879,GLI073117,GLI073117,88.39,Payroll Accrual
GLI,7/31/2017,12204C,1588879,GLI073117,GLI073117,139.96,Payroll Accrual
GLI,7/31/2017,12202C,1588879,GLI073117,GLI073117,125.22,Payroll Accrual
GLI,7/31/2017,12201C,1588879,GLI073117,GLI073117,125.22,Payroll Accrual
GLI,7/31/2017,12506,158820,GLI073117,GLI073117,8.43,Payroll Accrual
GLI,7/31/2017,12505,158820,GLI073117,GLI073117,8.43,Payroll Accrual
GLI,7/31/2017,12504,158820,GLI073117,GLI073117,8.43,Payroll Accrual
GLI,7/31/2017,12502,158820,GLI073117,GLI073117,8.43,Payroll Accrual
GLI,7/31/2017,12501,158820,GLI073117,GLI073117,8.43,Payroll Accrual
GLI,7/31/2017,12206B,158820,GLI073117,GLI073117,110.09,Payroll Accrual
GLI,7/31/2017,12205B,158820,GLI073117,GLI073117,110.09,Payroll Accrual
GLI,7/31/2017,12204B,158820,GLI073117,GLI073117,110.09,Payroll Accrual
GLI,7/31/2017,12202B,158820,GLI073117,GLI073117,110.09,Payroll Accrual
GLI,7/31/2017,12201B,158820,GLI073117,GLI073117,110.09,Payroll Accrual
GLI,7/31/2017,12527,158668,GLI073117,GLI073117,58.2,Payroll Accrual
GLI,7/31/2017,12327,158668,GLI073117,GLI073117,760.8,Payroll Accrual
GLI,7/31/2017,12906,157995,GLI073117,GLI073117,6.69,Payroll Accrual
GLI,7/31/2017,12905,157995,GLI073117,GLI073117,6.18,Payroll Accrual
GLI,7/31/2017,12514,157995,GLI073117,GLI073117,13.98,Payroll Accrual
GLI,7/31/2017,12506,157995,GLI073117,GLI073117,1.57,Payroll Accrual
GLI,7/31/2017,12505,157995,GLI073117,GLI073117,1.44,Payroll Accrual
GLI,7/31/2017,12504,157995,GLI073117,GLI073117,12.07,Payroll Accrual
GLI,7/31/2017,12502,157995,GLI073117,GLI073117,10.8,Payroll Accrual
GLI,7/31/2017,12501,157995,GLI073117,GLI073117,10.8,Payroll Accrual
GLI,7/31/2017,12214,157995,GLI073117,GLI073117,227.45,Payroll Accrual
GLI,7/31/2017,12206C,157995,GLI073117,GLI073117,134.4,Payroll Accrual
GLI,7/31/2017,12205C,157995,GLI073117,GLI073117,124.06,Payroll Accrual
GLI,7/31/2017,12204C,157995,GLI073117,GLI073117,196.43,Payroll Accrual
GLI,7/31/2017,12202C,157995,GLI073117,GLI073117,175.75,Payroll Accrual
GLI,7/31/2017,12201C,157995,GLI073117,GLI073117,175.75,Payroll Accrual
GLI,7/31/2017,12527,1577890,GLI073117,GLI073117,23.89,Payroll Accrual
GLI,7/31/2017,12327,1577890,GLI073117,GLI073117,312.2,Payroll Accrual
GLI,7/31/2017,12527,156988,GLI073117,GLI073117,10.67,Payroll Accrual
GLI,7/31/2017,12327,156988,GLI073117,GLI073117,139.5,Payroll Accrual
GLI,7/31/2017,12503,156887,GLI073117,GLI073117,40.87,Payroll Accrual
GLI,7/31/2017,124723,156887,GLI073117,GLI073117,534.18,Payroll Accrual
GLI,7/31/2017,12503,156886,GLI073117,GLI073117,19.9,Payroll Accrual
GLI,7/31/2017,124723,156886,GLI073117,GLI073117,260.16,Payroll Accrual
GLI,7/31/2017,185600,156884,GLI073117,GLI073117,68.45,Payroll Accrual
GLI,7/31/2017,185501,156884,GLI073117,GLI073117,59.89,Payroll Accrual
GLI,7/31/2017,12502,156884,GLI073117,GLI073117,37.95,Payroll Accrual
GLI,7/31/2017,12501,156884,GLI073117,GLI073117,27.49,Payroll Accrual
GLI,7/31/2017,11102,156884,GLI073117,GLI073117,427.8,Payroll Accrual
GLI,7/31/2017,11101,156884,GLI073117,GLI073117,299.46,Payroll Accrual
GLI,7/31/2017,185600,156845,GLI073117,GLI073117,58.31,Payroll Accrual
GLI,7/31/2017,185501,156845,GLI073117,GLI073117,51.02,Payroll Accrual
GLI,7/31/2017,12502,156845,GLI073117,GLI073117,32.34,Payroll Accrual
GLI,7/31/2017,12501,156845,GLI073117,GLI073117,23.42,Payroll Accrual
GLI,7/31/2017,11102,156845,GLI073117,GLI073117,364.43,Payroll Accrual
GLI,7/31/2017,11101,156845,GLI073117,GLI073117,255.1,Payroll Accrual
GLI,7/31/2017,12503,155477,GLI073117,GLI073117,22.68,Payroll Accrual
GLI,7/31/2017,124723,155477,GLI073117,GLI073117,296.4,Payroll Accrual
GLI,7/31/2017,12524,154225,GLI073117,GLI073117,35.42,Payroll Accrual
GLI,7/31/2017,124724,154225,GLI073117,GLI073117,484.24,Payroll Accrual
GLI,7/31/2017,12904,152525,GLI073117,GLI073117,12.76,Payroll Accrual
GLI,7/31/2017,12504,152525,GLI073117,GLI073117,63.82,Payroll Accrual
GLI,7/31/2017,124704,152525,GLI073117,GLI073117,850.21,Payroll Accrual
GLI,7/31/2017,12512,152512,GLI073117,GLI073117,1.96,Payroll Accrual
GLI,7/31/2017,12502,152512,GLI073117,GLI073117,3.49,Payroll Accrual
GLI,7/31/2017,12501,152512,GLI073117,GLI073117,3.49,Payroll Accrual
GLI,7/31/2017,12212,152512,GLI073117,GLI073117,25.71,Payroll Accrual
GLI,7/31/2017,12202C,152512,GLI073117,GLI073117,45.58,Payroll Accrual
GLI,7/31/2017,12201C,152512,GLI073117,GLI073117,45.58,Payroll Accrual
GLI,7/31/2017,12927,152510,GLI073117,GLI073117,10.63,Payroll Accrual
GLI,7/31/2017,12527,152510,GLI073117,GLI073117,50.08,Payroll Accrual
GLI,7/31/2017,12427,152510,GLI073117,GLI073117,224,Payroll Accrual
GLI,7/31/2017,12327,152510,GLI073117,GLI073117,484.68,Payroll Accrual
GLI,7/31/2017,12503,152499,GLI073117,GLI073117,75.98,Payroll Accrual
GLI,7/31/2017,12303,152499,GLI073117,GLI073117,993.3,Payroll Accrual
GLI,7/31/2017,12924,152495,GLI073117,GLI073117,19.61,Payroll Accrual
GLI,7/31/2017,12524,152495,GLI073117,GLI073117,99.98,Payroll Accrual
GLI,7/31/2017,124724,152495,GLI073117,GLI073117,1307,Payroll Accrual
GLI,7/31/2017,12903,152432,GLI073117,GLI073117,16.75,Payroll Accrual
GLI,7/31/2017,12503,152432,GLI073117,GLI073117,85.41,Payroll Accrual
GLI,7/31/2017,12303,152432,GLI073117,GLI073117,1116.54,Payroll Accrual
GLI,7/31/2017,12904,152410,GLI073117,GLI073117,22.71,Payroll Accrual
GLI,7/31/2017,12504,152410,GLI073117,GLI073117,86.17,Payroll Accrual
GLI,7/31/2017,124704,152410,GLI073117,GLI073117,1135.68,Payroll Accrual
GLI,7/31/2017,12904,152235,GLI073117,GLI073117,40.82,Payroll Accrual
GLI,7/31/2017,12504,152235,GLI073117,GLI073117,156.13,Payroll Accrual
GLI,7/31/2017,124704,152235,GLI073117,GLI073117,2040.9,Payroll Accrual
GLI,7/31/2017,12904,151410,GLI073117,GLI073117,11.33,Payroll Accrual
GLI,7/31/2017,12504,151410,GLI073117,GLI073117,52.08,Payroll Accrual
GLI,7/31/2017,12204C,151410,GLI073117,GLI073117,755.31,Payroll Accrual
GLI,7/31/2017,12503,151203,GLI073117,GLI073117,5.02,Payroll Accrual
GLI,7/31/2017,124723,151203,GLI073117,GLI073117,65.64,Payroll Accrual
GLI,7/31/2017,12904,150126,GLI073117,GLI073117,24.53,Payroll Accrual
GLI,7/31/2017,12504,150126,GLI073117,GLI073117,125.13,Payroll Accrual
GLI,7/31/2017,124704,150126,GLI073117,GLI073117,1635.66,Payroll Accrual
GLI,7/31/2017,12924,150120,GLI073117,GLI073117,18.61,Payroll Accrual
GLI,7/31/2017,12524,150120,GLI073117,GLI073117,94.65,Payroll Accrual
GLI,7/31/2017,124724,150120,GLI073117,GLI073117,1240.62,Payroll Accrual
GLI,7/31/2017,12905,150105,GLI073117,GLI073117,26.44,Payroll Accrual
GLI,7/31/2017,12505,150105,GLI073117,GLI073117,132.86,Payroll Accrual
GLI,7/31/2017,124703,150105,GLI073117,GLI073117,1762.62,Payroll Accrual
GLI,7/31/2017,12904,149878,GLI073117,GLI073117,8.27,Payroll Accrual
GLI,7/31/2017,12504,149878,GLI073117,GLI073117,50.8,Payroll Accrual
GLI,7/31/2017,12404,149878,GLI073117,GLI073117,113.84,Payroll Accrual
GLI,7/31/2017,12304D,149878,GLI073117,GLI073117,712.88,Payroll Accrual
GLI,7/31/2017,12916,148275,GLI073117,GLI073117,27.88,Payroll Accrual
GLI,7/31/2017,12516,148275,GLI073117,GLI073117,106.63,Payroll Accrual
GLI,7/31/2017,12316,148275,GLI073117,GLI073117,1393.86,Payroll Accrual
GLI,7/31/2017,12916,147000,GLI073117,GLI073117,36.92,Payroll Accrual
GLI,7/31/2017,12516,147000,GLI073117,GLI073117,137.64,Payroll Accrual
GLI,7/31/2017,12316,147000,GLI073117,GLI073117,1846.16,Payroll Accrual
GLI,7/31/2017,12902,146480,GLI073117,GLI073117,7.21,Payroll Accrual
GLI,7/31/2017,12901,146480,GLI073117,GLI073117,7.21,Payroll Accrual
GLI,7/31/2017,12502,146480,GLI073117,GLI073117,36.79,Payroll Accrual
GLI,7/31/2017,12501,146480,GLI073117,GLI073117,36.79,Payroll Accrual
GLI,7/31/2017,12302,146480,GLI073117,GLI073117,480.98,Payroll Accrual
GLI,7/31/2017,12301,146480,GLI073117,GLI073117,480.98,Payroll Accrual
GLI,7/31/2017,12901,146450,GLI073117,GLI073117,35.45,Payroll Accrual
GLI,7/31/2017,12501,146450,GLI073117,GLI073117,131.42,Payroll Accrual
GLI,7/31/2017,12301B,146450,GLI073117,GLI073117,1772.31,Payroll Accrual
GLI,7/31/2017,12904,145801,GLI073117,GLI073117,22.61,Payroll Accrual
GLI,7/31/2017,12504,145801,GLI073117,GLI073117,115.33,Payroll Accrual
GLI,7/31/2017,124704,145801,GLI073117,GLI073117,1507.56,Payroll Accrual
GLI,7/31/2017,12505,145789,GLI073117,GLI073117,98.67,Payroll Accrual
GLI,7/31/2017,124703,145789,GLI073117,GLI073117,1289.82,Payroll Accrual
GLI,7/31/2017,12503,144788,GLI073117,GLI073117,60.53,Payroll Accrual
GLI,7/31/2017,124723,144788,GLI073117,GLI073117,791.21,Payroll Accrual
GLI,7/31/2017,12506,143180,GLI073117,GLI073117,38.87,Payroll Accrual
GLI,7/31/2017,12306B,143180,GLI073117,GLI073117,666.16,Payroll Accrual
GLI,7/31/2017,12506,141568,GLI073117,GLI073117,9.02,Payroll Accrual
GLI,7/31/2017,12505,141568,GLI073117,GLI073117,9.02,Payroll Accrual
GLI,7/31/2017,12504,141568,GLI073117,GLI073117,9.02,Payroll Accrual
GLI,7/31/2017,12502,141568,GLI073117,GLI073117,9.02,Payroll Accrual
GLI,7/31/2017,12501,141568,GLI073117,GLI073117,9.02,Payroll Accrual
GLI,7/31/2017,12206B,141568,GLI073117,GLI073117,117.86,Payroll Accrual
GLI,7/31/2017,12205B,141568,GLI073117,GLI073117,117.86,Payroll Accrual
GLI,7/31/2017,12204B,141568,GLI073117,GLI073117,117.86,Payroll Accrual
GLI,7/31/2017,12202B,141568,GLI073117,GLI073117,117.86,Payroll Accrual
GLI,7/31/2017,12201B,141568,GLI073117,GLI073117,117.86,Payroll Accrual
GLI,7/31/2017,12905,141069,GLI073117,GLI073117,12.49,Payroll Accrual
GLI,7/31/2017,12505,141069,GLI073117,GLI073117,46.55,Payroll Accrual
GLI,7/31/2017,12305B,141069,GLI073117,GLI073117,624.4,Payroll Accrual
GLI,7/31/2017,12904,141060,GLI073117,GLI073117,51.88,Payroll Accrual
GLI,7/31/2017,12504,141060,GLI073117,GLI073117,197.39,Payroll Accrual
GLI,7/31/2017,12304B,141060,GLI073117,GLI073117,2593.85,Payroll Accrual
GLI,7/31/2017,12904,140790,GLI073117,GLI073117,17.72,Payroll Accrual
GLI,7/31/2017,12903,140790,GLI073117,GLI073117,17.72,Payroll Accrual
GLI,7/31/2017,12504,140790,GLI073117,GLI073117,67.41,Payroll Accrual
GLI,7/31/2017,12503,140790,GLI073117,GLI073117,67.41,Payroll Accrual
GLI,7/31/2017,12104,140790,GLI073117,GLI073117,886.16,Payroll Accrual
GLI,7/31/2017,12103,140790,GLI073117,GLI073117,886.16,Payroll Accrual
GLI,7/31/2017,12916,138380,GLI073117,GLI073117,10.21,Payroll Accrual
GLI,7/31/2017,12516,138380,GLI073117,GLI073117,26.22,Payroll Accrual
GLI,7/31/2017,12316,138380,GLI073117,GLI073117,510.51,Payroll Accrual
GLI,7/31/2017,12504,13725,GLI073117,GLI073117,175.59,Payroll Accrual
GLI,7/31/2017,124704,13725,GLI073117,GLI073117,2732.82,Payroll Accrual
GLI,7/31/2017,12505,137101,GLI073117,GLI073117,45.01,Payroll Accrual
GLI,7/31/2017,124703,137101,GLI073117,GLI073117,588.43,Payroll Accrual
GLI,7/31/2017,12503,13690,GLI073117,GLI073117,49.9,Payroll Accrual
GLI,7/31/2017,124723,13690,GLI073117,GLI073117,652.26,Payroll Accrual
GLI,7/31/2017,12904,136170,GLI073117,GLI073117,11.31,Payroll Accrual
GLI,7/31/2017,12504,136170,GLI073117,GLI073117,83.14,Payroll Accrual
GLI,7/31/2017,124704,136170,GLI073117,GLI073117,1131.36,Payroll Accrual
GLI,7/31/2017,12505,135770,GLI073117,GLI073117,119.6,Payroll Accrual
GLI,7/31/2017,124703,135770,GLI073117,GLI073117,1563.36,Payroll Accrual
GLI,7/31/2017,12405,135770,GLI073117,GLI073117,538.56,Payroll Accrual
GLI,7/31/2017,12503,132654,GLI073117,GLI073117,41.83,Payroll Accrual
GLI,7/31/2017,124723,132654,GLI073117,GLI073117,546.7,Payroll Accrual
GLI,7/31/2017,12915,132500,GLI073117,GLI073117,7.15,Payroll Accrual
GLI,7/31/2017,12906,132500,GLI073117,GLI073117,4.87,Payroll Accrual
GLI,7/31/2017,12905,132500,GLI073117,GLI073117,4.87,Payroll Accrual
GLI,7/31/2017,12904,132500,GLI073117,GLI073117,5.2,Payroll Accrual
GLI,7/31/2017,12902,132500,GLI073117,GLI073117,5.2,Payroll Accrual
GLI,7/31/2017,12901,132500,GLI073117,GLI073117,5.2,Payroll Accrual
GLI,7/31/2017,12515,132500,GLI073117,GLI073117,27,Payroll Accrual
GLI,7/31/2017,12506,132500,GLI073117,GLI073117,18.41,Payroll Accrual
GLI,7/31/2017,12505,132500,GLI073117,GLI073117,18.41,Payroll Accrual
GLI,7/31/2017,12504,132500,GLI073117,GLI073117,19.64,Payroll Accrual
GLI,7/31/2017,12502,132500,GLI073117,GLI073117,19.64,Payroll Accrual
GLI,7/31/2017,12501,132500,GLI073117,GLI073117,19.64,Payroll Accrual
GLI,7/31/2017,12315,132500,GLI073117,GLI073117,357.42,Payroll Accrual
GLI,7/31/2017,12306,132500,GLI073117,GLI073117,243.69,Payroll Accrual
GLI,7/31/2017,12305,132500,GLI073117,GLI073117,243.69,Payroll Accrual
GLI,7/31/2017,12304,132500,GLI073117,GLI073117,259.94,Payroll Accrual
GLI,7/31/2017,12302,132500,GLI073117,GLI073117,259.94,Payroll Accrual
GLI,7/31/2017,12301,132500,GLI073117,GLI073117,259.94,Payroll Accrual
GLI,7/31/2017,12904,131370,GLI073117,GLI073117,21,Payroll Accrual
GLI,7/31/2017,12504,131370,GLI073117,GLI073117,80.33,Payroll Accrual
GLI,7/31/2017,124704,131370,GLI073117,GLI073117,1050.06,Payroll Accrual
GLI,7/31/2017,12924,131315,GLI073117,GLI073117,26.14,Payroll Accrual
GLI,7/31/2017,12524,131315,GLI073117,GLI073117,99.59,Payroll Accrual
GLI,7/31/2017,124724,131315,GLI073117,GLI073117,1307,Payroll Accrual
GLI,7/31/2017,12506,12800,GLI073117,GLI073117,2.39,Payroll Accrual
GLI,7/31/2017,12505,12800,GLI073117,GLI073117,2.39,Payroll Accrual
GLI,7/31/2017,12504,12800,GLI073117,GLI073117,2.39,Payroll Accrual
GLI,7/31/2017,12502,12800,GLI073117,GLI073117,2.39,Payroll Accrual
GLI,7/31/2017,12501,12800,GLI073117,GLI073117,2.39,Payroll Accrual
GLI,7/31/2017,12206B,12800,GLI073117,GLI073117,114.09,Payroll Accrual
GLI,7/31/2017,12205B,12800,GLI073117,GLI073117,114.09,Payroll Accrual
GLI,7/31/2017,12204B,12800,GLI073117,GLI073117,114.09,Payroll Accrual
GLI,7/31/2017,12202B,12800,GLI073117,GLI073117,114.09,Payroll Accrual
GLI,7/31/2017,12201B,12800,GLI073117,GLI073117,114.09,Payroll Accrual
GLI,7/31/2017,12527,1265688,GLI073117,GLI073117,25.87,Payroll Accrual
GLI,7/31/2017,12327,1265688,GLI073117,GLI073117,338.2,Payroll Accrual
GLI,7/31/2017,12902,126200,GLI073117,GLI073117,8.86,Payroll Accrual
GLI,7/31/2017,12901,126200,GLI073117,GLI073117,8.86,Payroll Accrual
GLI,7/31/2017,12502,126200,GLI073117,GLI073117,45.2,Payroll Accrual
GLI,7/31/2017,12501,126200,GLI073117,GLI073117,45.2,Payroll Accrual
GLI,7/31/2017,12202A,126200,GLI073117,GLI073117,590.77,Payroll Accrual
GLI,7/31/2017,12201A,126200,GLI073117,GLI073117,590.77,Payroll Accrual
GLI,7/31/2017,12506,1254668,GLI073117,GLI073117,4.38,Payroll Accrual
GLI,7/31/2017,12505,1254668,GLI073117,GLI073117,4.38,Payroll Accrual
GLI,7/31/2017,12504,1254668,GLI073117,GLI073117,4.38,Payroll Accrual
GLI,7/31/2017,12502,1254668,GLI073117,GLI073117,4.38,Payroll Accrual
GLI,7/31/2017,12501,1254668,GLI073117,GLI073117,4.38,Payroll Accrual
GLI,7/31/2017,12206B,1254668,GLI073117,GLI073117,57.28,Payroll Accrual
GLI,7/31/2017,12205B,1254668,GLI073117,GLI073117,57.28,Payroll Accrual
GLI,7/31/2017,12204B,1254668,GLI073117,GLI073117,57.28,Payroll Accrual
GLI,7/31/2017,12202B,1254668,GLI073117,GLI073117,57.28,Payroll Accrual
GLI,7/31/2017,12201B,1254668,GLI073117,GLI073117,57.28,Payroll Accrual
GLI,7/31/2017,12503,125028,GLI073117,GLI073117,62.34,Payroll Accrual
GLI,7/31/2017,124723,125028,GLI073117,GLI073117,814.87,Payroll Accrual
GLI,7/31/2017,12504,1244452,GLI073117,GLI073117,53.08,Payroll Accrual
GLI,7/31/2017,12304D,1244452,GLI073117,GLI073117,693.97,Payroll Accrual
GLI,7/31/2017,12503,124360,GLI073117,GLI073117,58.82,Payroll Accrual
GLI,7/31/2017,12303,124360,GLI073117,GLI073117,895.37,Payroll Accrual
GLI,7/31/2017,12924,124101,GLI073117,GLI073117,12.19,Payroll Accrual
GLI,7/31/2017,12524,124101,GLI073117,GLI073117,62.15,Payroll Accrual
GLI,7/31/2017,12224,124101,GLI073117,GLI073117,812.4,Payroll Accrual
GLI,7/31/2017,12527,123564,GLI073117,GLI073117,5.21,Payroll Accrual
GLI,7/31/2017,12327,123564,GLI073117,GLI073117,68.1,Payroll Accrual
GLI,7/31/2017,12504,123556,GLI073117,GLI073117,20.21,Payroll Accrual
GLI,7/31/2017,12304C,123556,GLI073117,GLI073117,264.18,Payroll Accrual
GLI,7/31/2017,12527,123101,GLI073117,GLI073117,39.09,Payroll Accrual
GLI,7/31/2017,12327,123101,GLI073117,GLI073117,510.95,Payroll Accrual
GLI,7/31/2017,12906,123100,GLI073117,GLI073117,12.85,Payroll Accrual
GLI,7/31/2017,12905,123100,GLI073117,GLI073117,12.85,Payroll Accrual
GLI,7/31/2017,12904,123100,GLI073117,GLI073117,12.85,Payroll Accrual
GLI,7/31/2017,12902,123100,GLI073117,GLI073117,12.85,Payroll Accrual
GLI,7/31/2017,12901,123100,GLI073117,GLI073117,12.85,Payroll Accrual
GLI,7/31/2017,12506,123100,GLI073117,GLI073117,63.85,Payroll Accrual
GLI,7/31/2017,12505,123100,GLI073117,GLI073117,63.85,Payroll Accrual
GLI,7/31/2017,12504,123100,GLI073117,GLI073117,63.85,Payroll Accrual
GLI,7/31/2017,12502,123100,GLI073117,GLI073117,63.85,Payroll Accrual
GLI,7/31/2017,12501,123100,GLI073117,GLI073117,63.85,Payroll Accrual
GLI,7/31/2017,12106,123100,GLI073117,GLI073117,856.61,Payroll Accrual
GLI,7/31/2017,12105,123100,GLI073117,GLI073117,856.61,Payroll Accrual
GLI,7/31/2017,12104,123100,GLI073117,GLI073117,856.61,Payroll Accrual
GLI,7/31/2017,12102,123100,GLI073117,GLI073117,856.61,Payroll Accrual
GLI,7/31/2017,12101,123100,GLI073117,GLI073117,856.61,Payroll Accrual
GLI,7/31/2017,12505,122558,GLI073117,GLI073117,65.53,Payroll Accrual
GLI,7/31/2017,124703,122558,GLI073117,GLI073117,856.58,Payroll Accrual
GLI,7/31/2017,12524,122369,GLI073117,GLI073117,15.47,Payroll Accrual
GLI,7/31/2017,124724,122369,GLI073117,GLI073117,202.32,Payroll Accrual
GLI,7/31/2017,12904,121362,GLI073117,GLI073117,57.93,Payroll Accrual
GLI,7/31/2017,12504,121362,GLI073117,GLI073117,212.92,Payroll Accrual
GLI,7/31/2017,12304B,121362,GLI073117,GLI073117,2896.4,Payroll Accrual
GLI,7/31/2017,12503,118520,GLI073117,GLI073117,48.08,Payroll Accrual
GLI,7/31/2017,124723,118520,GLI073117,GLI073117,628.6,Payroll Accrual
GLI,7/31/2017,12911,118030,GLI073117,GLI073117,5.85,Payroll Accrual
GLI,7/31/2017,12906,118030,GLI073117,GLI073117,4.25,Payroll Accrual
GLI,7/31/2017,12905,118030,GLI073117,GLI073117,4.25,Payroll Accrual
GLI,7/31/2017,12904,118030,GLI073117,GLI073117,4.25,Payroll Accrual
GLI,7/31/2017,12902,118030,GLI073117,GLI073117,3.99,Payroll Accrual
GLI,7/31/2017,12901,118030,GLI073117,GLI073117,3.99,Payroll Accrual
GLI,7/31/2017,12511,118030,GLI073117,GLI073117,22.37,Payroll Accrual
GLI,7/31/2017,12506,118030,GLI073117,GLI073117,16.27,Payroll Accrual
GLI,7/31/2017,12505,118030,GLI073117,GLI073117,16.27,Payroll Accrual
GLI,7/31/2017,12504,118030,GLI073117,GLI073117,16.27,Payroll Accrual
GLI,7/31/2017,12502,118030,GLI073117,GLI073117,15.25,Payroll Accrual
GLI,7/31/2017,12501,118030,GLI073117,GLI073117,15.25,Payroll Accrual
GLI,7/31/2017,12311,118030,GLI073117,GLI073117,292.43,Payroll Accrual
GLI,7/31/2017,12306H,118030,GLI073117,GLI073117,212.68,Payroll Accrual
GLI,7/31/2017,12305H,118030,GLI073117,GLI073117,212.68,Payroll Accrual
GLI,7/31/2017,12304H,118030,GLI073117,GLI073117,212.68,Payroll Accrual
GLI,7/31/2017,12302H,118030,GLI073117,GLI073117,199.39,Payroll Accrual
GLI,7/31/2017,12301H,118030,GLI073117,GLI073117,199.39,Payroll Accrual
GLI,7/31/2017,12906,118010,GLI073117,GLI073117,14.64,Payroll Accrual
GLI,7/31/2017,12506,118010,GLI073117,GLI073117,70.18,Payroll Accrual
GLI,7/31/2017,12306B,118010,GLI073117,GLI073117,976.05,Payroll Accrual
GLI,7/31/2017,12905,11732,GLI073117,GLI073117,18.7,Payroll Accrual
GLI,7/31/2017,12505,11732,GLI073117,GLI073117,69.25,Payroll Accrual
GLI,7/31/2017,12205A,11732,GLI073117,GLI073117,934.83,Payroll Accrual
GLI,7/31/2017,12905,11660,GLI073117,GLI073117,25.32,Payroll Accrual
GLI,7/31/2017,12505,11660,GLI073117,GLI073117,95.22,Payroll Accrual
GLI,7/31/2017,124703,11660,GLI073117,GLI073117,1265.82,Payroll Accrual
GLI,7/31/2017,12504,115896,GLI073117,GLI073117,39.34,Payroll Accrual
GLI,7/31/2017,12304C,115896,GLI073117,GLI073117,591.83,Payroll Accrual
GLI,7/31/2017,12506,1158850,GLI073117,GLI073117,11.99,Payroll Accrual
GLI,7/31/2017,12306C,1158850,GLI073117,GLI073117,156.72,Payroll Accrual
GLI,7/31/2017,12527,115676,GLI073117,GLI073117,16.92,Payroll Accrual
GLI,7/31/2017,12327,115676,GLI073117,GLI073117,221.1,Payroll Accrual
GLI,7/31/2017,12527,115355,GLI073117,GLI073117,4.74,Payroll Accrual
GLI,7/31/2017,12327,115355,GLI073117,GLI073117,62,Payroll Accrual
GLI,7/31/2017,12906,115255,GLI073117,GLI073117,32,Payroll Accrual
GLI,7/31/2017,12506,115255,GLI073117,GLI073117,122.4,Payroll Accrual
GLI,7/31/2017,12306B,115255,GLI073117,GLI073117,1600,Payroll Accrual
GLI,7/31/2017,12904,1150920,GLI073117,GLI073117,17.75,Payroll Accrual
GLI,7/31/2017,12504,1150920,GLI073117,GLI073117,86.37,Payroll Accrual
GLI,7/31/2017,124704,1150920,GLI073117,GLI073117,1183.08,Payroll Accrual
GLI,7/31/2017,12905,1150510,GLI073117,GLI073117,1.81,Payroll Accrual
GLI,7/31/2017,12505,1150510,GLI073117,GLI073117,6.65,Payroll Accrual
GLI,7/31/2017,12305B,1150510,GLI073117,GLI073117,90.6,Payroll Accrual
GLI,7/31/2017,12504,1149710,GLI073117,GLI073117,64.78,Payroll Accrual
GLI,7/31/2017,12404,1149710,GLI073117,GLI073117,84,Payroll Accrual
GLI,7/31/2017,12304D,1149710,GLI073117,GLI073117,837.85,Payroll Accrual
GLI,7/31/2017,12906,1149636,GLI073117,GLI073117,13.28,Payroll Accrual
GLI,7/31/2017,12506,1149636,GLI073117,GLI073117,62.43,Payroll Accrual
GLI,7/31/2017,12306C,1149636,GLI073117,GLI073117,885.36,Payroll Accrual
GLI,7/31/2017,12504,1149300,GLI073117,GLI073117,69.31,Payroll Accrual
GLI,7/31/2017,124704,1149300,GLI073117,GLI073117,959.88,Payroll Accrual
GLI,7/31/2017,12505,1147900,GLI073117,GLI073117,95.53,Payroll Accrual
GLI,7/31/2017,124703,1147900,GLI073117,GLI073117,1448.55,Payroll Accrual
GLI,7/31/2017,12904,1147062,GLI073117,GLI073117,23.14,Payroll Accrual
GLI,7/31/2017,12504,1147062,GLI073117,GLI073117,72.38,Payroll Accrual
GLI,7/31/2017,12204A,1147062,GLI073117,GLI073117,1156.93,Payroll Accrual
GLI,7/31/2017,12505,1147061,GLI073117,GLI073117,136.96,Payroll Accrual
GLI,7/31/2017,124703,1147061,GLI073117,GLI073117,1806.18,Payroll Accrual
GLI,7/31/2017,12905,1146991,GLI073117,GLI073117,31.55,Payroll Accrual
GLI,7/31/2017,12505,1146991,GLI073117,GLI073117,114.96,Payroll Accrual
GLI,7/31/2017,124703,1146991,GLI073117,GLI073117,1577.4,Payroll Accrual
GLI,7/31/2017,12504,1146989,GLI073117,GLI073117,64.74,Payroll Accrual
GLI,7/31/2017,124704,1146989,GLI073117,GLI073117,867.48,Payroll Accrual
GLI,7/31/2017,12404,1146989,GLI073117,GLI073117,440.16,Payroll Accrual
GLI,7/31/2017,12503,1144901,GLI073117,GLI073117,60.93,Payroll Accrual
GLI,7/31/2017,124723,1144901,GLI073117,GLI073117,684.53,Payroll Accrual
GLI,7/31/2017,12403,1144901,GLI073117,GLI073117,112,Payroll Accrual
GLI,7/31/2017,12503,114444,GLI073117,GLI073117,42.52,Payroll Accrual
GLI,7/31/2017,124723,114444,GLI073117,GLI073117,555.84,Payroll Accrual
GLI,7/31/2017,12506,1144265,GLI073117,GLI073117,48.39,Payroll Accrual
GLI,7/31/2017,12306B,1144265,GLI073117,GLI073117,686,Payroll Accrual
GLI,7/31/2017,12503,11420,GLI073117,GLI073117,33.35,Payroll Accrual
GLI,7/31/2017,124723,11420,GLI073117,GLI073117,435.96,Payroll Accrual
GLI,7/31/2017,12914,1141210,GLI073117,GLI073117,2.56,Payroll Accrual
GLI,7/31/2017,12906,1141210,GLI073117,GLI073117,-0.45,Payroll Accrual
GLI,7/31/2017,12905,1141210,GLI073117,GLI073117,-1.06,Payroll Accrual
GLI,7/31/2017,12904,1141210,GLI073117,GLI073117,2.21,Payroll Accrual
GLI,7/31/2017,12902,1141210,GLI073117,GLI073117,1.98,Payroll Accrual
GLI,7/31/2017,12901,1141210,GLI073117,GLI073117,1.98,Payroll Accrual
GLI,7/31/2017,12514,1141210,GLI073117,GLI073117,2.91,Payroll Accrual
GLI,7/31/2017,12506,1141210,GLI073117,GLI073117,-0.46,Payroll Accrual
GLI,7/31/2017,12505,1141210,GLI073117,GLI073117,-0.57,Payroll Accrual
GLI,7/31/2017,12504,1141210,GLI073117,GLI073117,1.13,Payroll Accrual
GLI,7/31/2017,12502,1141210,GLI073117,GLI073117,-0.06,Payroll Accrual
GLI,7/31/2017,12501,1141210,GLI073117,GLI073117,-0.06,Payroll Accrual
GLI,7/31/2017,12214,1141210,GLI073117,GLI073117,170.97,Payroll Accrual
GLI,7/31/2017,12206C,1141210,GLI073117,GLI073117,101.03,Payroll Accrual
GLI,7/31/2017,12205C,1141210,GLI073117,GLI073117,93.26,Payroll Accrual
GLI,7/31/2017,12204C,1141210,GLI073117,GLI073117,147.66,Payroll Accrual
GLI,7/31/2017,12202C,1141210,GLI073117,GLI073117,132.12,Payroll Accrual
GLI,7/31/2017,12201C,1141210,GLI073117,GLI073117,132.12,Payroll Accrual
GLI,7/31/2017,12504,1140870,GLI073117,GLI073117,388.36,Payroll Accrual
GLI,7/31/2017,12304B,1140870,GLI073117,GLI073117,5076.63,Payroll Accrual
GLI,7/31/2017,12904,1137590,GLI073117,GLI073117,20.77,Payroll Accrual
GLI,7/31/2017,12504,1137590,GLI073117,GLI073117,77.83,Payroll Accrual
GLI,7/31/2017,124704,1137590,GLI073117,GLI073117,1038.48,Payroll Accrual
GLI,7/31/2017,12404,1137590,GLI073117,GLI073117,186.08,Payroll Accrual
GLI,7/31/2017,12524,1135710,GLI073117,GLI073117,89.65,Payroll Accrual
GLI,7/31/2017,124724,1135710,GLI073117,GLI073117,1172,Payroll Accrual
GLI,7/31/2017,12503,1135450,GLI073117,GLI073117,20.86,Payroll Accrual
GLI,7/31/2017,124723,1135450,GLI073117,GLI073117,272.72,Payroll Accrual
GLI,7/31/2017,12504,1135410,GLI073117,GLI073117,90.95,Payroll Accrual
GLI,7/31/2017,124704,1135410,GLI073117,GLI073117,1218.42,Payroll Accrual
GLI,7/31/2017,12911,1135260,GLI073117,GLI073117,5.69,Payroll Accrual
GLI,7/31/2017,12906,1135260,GLI073117,GLI073117,4.14,Payroll Accrual
GLI,7/31/2017,12905,1135260,GLI073117,GLI073117,4.14,Payroll Accrual
GLI,7/31/2017,12904,1135260,GLI073117,GLI073117,4.14,Payroll Accrual
GLI,7/31/2017,12902,1135260,GLI073117,GLI073117,3.88,Payroll Accrual
GLI,7/31/2017,12901,1135260,GLI073117,GLI073117,3.88,Payroll Accrual
GLI,7/31/2017,12511,1135260,GLI073117,GLI073117,25.76,Payroll Accrual
GLI,7/31/2017,12506,1135260,GLI073117,GLI073117,18.74,Payroll Accrual
GLI,7/31/2017,12505,1135260,GLI073117,GLI073117,18.74,Payroll Accrual
GLI,7/31/2017,12504,1135260,GLI073117,GLI073117,18.74,Payroll Accrual
GLI,7/31/2017,12502,1135260,GLI073117,GLI073117,17.57,Payroll Accrual
GLI,7/31/2017,12501,1135260,GLI073117,GLI073117,17.57,Payroll Accrual
GLI,7/31/2017,12311,1135260,GLI073117,GLI073117,379.08,Payroll Accrual
GLI,7/31/2017,12306H,1135260,GLI073117,GLI073117,275.69,Payroll Accrual
GLI,7/31/2017,12305H,1135260,GLI073117,GLI073117,275.69,Payroll Accrual
GLI,7/31/2017,12304H,1135260,GLI073117,GLI073117,275.69,Payroll Accrual
GLI,7/31/2017,12302H,1135260,GLI073117,GLI073117,258.46,Payroll Accrual
GLI,7/31/2017,12301H,1135260,GLI073117,GLI073117,258.46,Payroll Accrual
GLI,7/31/2017,12506,1133727,GLI073117,GLI073117,98.25,Payroll Accrual
GLI,7/31/2017,12306D,1133727,GLI073117,GLI073117,1284.32,Payroll Accrual
GLI,7/31/2017,12504,1133500,GLI073117,GLI073117,124.09,Payroll Accrual
GLI,7/31/2017,124704,1133500,GLI073117,GLI073117,1622.03,Payroll Accrual
GLI,7/31/2017,12506,1132600,GLI073117,GLI073117,14.63,Payroll Accrual
GLI,7/31/2017,12505,1132600,GLI073117,GLI073117,14.63,Payroll Accrual
GLI,7/31/2017,12504,1132600,GLI073117,GLI073117,14.63,Payroll Accrual
GLI,7/31/2017,12502,1132600,GLI073117,GLI073117,14.63,Payroll Accrual
GLI,7/31/2017,12501,1132600,GLI073117,GLI073117,14.63,Payroll Accrual
GLI,7/31/2017,12206B,1132600,GLI073117,GLI073117,191.18,Payroll Accrual
GLI,7/31/2017,12205B,1132600,GLI073117,GLI073117,191.18,Payroll Accrual
GLI,7/31/2017,12204B,1132600,GLI073117,GLI073117,191.18,Payroll Accrual
GLI,7/31/2017,12202B,1132600,GLI073117,GLI073117,191.18,Payroll Accrual
GLI,7/31/2017,12201B,1132600,GLI073117,GLI073117,191.18,Payroll Accrual
GLI,7/31/2017,12906,1132595,GLI073117,GLI073117,43.82,Payroll Accrual
GLI,7/31/2017,12506,1132595,GLI073117,GLI073117,164.5,Payroll Accrual
GLI,7/31/2017,12106,1132595,GLI073117,GLI073117,2190.77,Payroll Accrual
GLI,7/31/2017,12905,1132218,GLI073117,GLI073117,11.48,Payroll Accrual
GLI,7/31/2017,12505,1132218,GLI073117,GLI073117,42.68,Payroll Accrual
GLI,7/31/2017,12305B,1132218,GLI073117,GLI073117,573.75,Payroll Accrual
GLI,7/31/2017,12506,1132205,GLI073117,GLI073117,19.94,Payroll Accrual
GLI,7/31/2017,12306B,1132205,GLI073117,GLI073117,378.56,Payroll Accrual
GLI,7/31/2017,12927,113085,GLI073117,GLI073117,8.86,Payroll Accrual
GLI,7/31/2017,12924,113085,GLI073117,GLI073117,8.86,Payroll Accrual
GLI,7/31/2017,12527,113085,GLI073117,GLI073117,44.68,Payroll Accrual
GLI,7/31/2017,12524,113085,GLI073117,GLI073117,44.68,Payroll Accrual
GLI,7/31/2017,12127,113085,GLI073117,GLI073117,590.77,Payroll Accrual
GLI,7/31/2017,12124,113085,GLI073117,GLI073117,590.77,Payroll Accrual
GLI,7/31/2017,12504,1130700,GLI073117,GLI073117,40.99,Payroll Accrual
GLI,7/31/2017,12304C,1130700,GLI073117,GLI073117,535.81,Payroll Accrual
GLI,7/31/2017,12503,1130326,GLI073117,GLI073117,62.94,Payroll Accrual
GLI,7/31/2017,12303,1130326,GLI073117,GLI073117,822.71,Payroll Accrual
GLI,7/31/2017,12906,113020,GLI073117,GLI073117,32.49,Payroll Accrual
GLI,7/31/2017,12506,113020,GLI073117,GLI073117,121.64,Payroll Accrual
GLI,7/31/2017,12306B,113020,GLI073117,GLI073117,1624.61,Payroll Accrual
GLI,7/31/2017,12904,113011,GLI073117,GLI073117,10.58,Payroll Accrual
GLI,7/31/2017,12504,113011,GLI073117,GLI073117,40.47,Payroll Accrual
GLI,7/31/2017,12304C,113011,GLI073117,GLI073117,529.1,Payroll Accrual
GLI,7/31/2017,12506,1130090,GLI073117,GLI073117,39.34,Payroll Accrual
GLI,7/31/2017,12306C,1130090,GLI073117,GLI073117,514.22,Payroll Accrual
GLI,7/31/2017,12916,113000,GLI073117,GLI073117,4.08,Payroll Accrual
GLI,7/31/2017,12516,113000,GLI073117,GLI073117,15.61,Payroll Accrual
GLI,7/31/2017,12416,113000,GLI073117,GLI073117,204,Payroll Accrual
GLI,7/31/2017,12527,1129560,GLI073117,GLI073117,21.52,Payroll Accrual
GLI,7/31/2017,12327,1129560,GLI073117,GLI073117,281.28,Payroll Accrual
GLI,7/31/2017,12904,1126110,GLI073117,GLI073117,13,Payroll Accrual
GLI,7/31/2017,12504,1126110,GLI073117,GLI073117,56.17,Payroll Accrual
GLI,7/31/2017,12404,1126110,GLI073117,GLI073117,480,Payroll Accrual
GLI,7/31/2017,12304B,1126110,GLI073117,GLI073117,386.53,Payroll Accrual
GLI,7/31/2017,12916,1126060,GLI073117,GLI073117,13.51,Payroll Accrual
GLI,7/31/2017,12516,1126060,GLI073117,GLI073117,68.52,Payroll Accrual
GLI,7/31/2017,12416,1126060,GLI073117,GLI073117,128,Payroll Accrual
GLI,7/31/2017,12316,1126060,GLI073117,GLI073117,772.96,Payroll Accrual
GLI,7/31/2017,12904,1126055,GLI073117,GLI073117,12.69,Payroll Accrual
GLI,7/31/2017,12504,1126055,GLI073117,GLI073117,48.55,Payroll Accrual
GLI,7/31/2017,12304C,1126055,GLI073117,GLI073117,634.62,Payroll Accrual
GLI,7/31/2017,12905,1126040,GLI073117,GLI073117,12.8,Payroll Accrual
GLI,7/31/2017,12505,1126040,GLI073117,GLI073117,45.31,Payroll Accrual
GLI,7/31/2017,124703,1126040,GLI073117,GLI073117,640,Payroll Accrual
GLI,7/31/2017,12905,1125565,GLI073117,GLI073117,30.18,Payroll Accrual
GLI,7/31/2017,12505,1125565,GLI073117,GLI073117,104.76,Payroll Accrual
GLI,7/31/2017,124703,1125565,GLI073117,GLI073117,1508.88,Payroll Accrual
GLI,7/31/2017,12906,1124875,GLI073117,GLI073117,20,Payroll Accrual
GLI,7/31/2017,12506,1124875,GLI073117,GLI073117,74.5,Payroll Accrual
GLI,7/31/2017,12306B,1124875,GLI073117,GLI073117,999.75,Payroll Accrual
GLI,7/31/2017,12904,1124436,GLI073117,GLI073117,29.92,Payroll Accrual
GLI,7/31/2017,12504,1124436,GLI073117,GLI073117,146.99,Payroll Accrual
GLI,7/31/2017,124704,1124436,GLI073117,GLI073117,1994.88,Payroll Accrual
GLI,7/31/2017,12404,1124436,GLI073117,GLI073117,238.32,Payroll Accrual
GLI,7/31/2017,12904,1124430,GLI073117,GLI073117,12.22,Payroll Accrual
GLI,7/31/2017,12504,1124430,GLI073117,GLI073117,60.73,Payroll Accrual
GLI,7/31/2017,124704,1124430,GLI073117,GLI073117,814.97,Payroll Accrual
GLI,7/31/2017,12904,1124400,GLI073117,GLI073117,10.02,Payroll Accrual
GLI,7/31/2017,12504,1124400,GLI073117,GLI073117,49.9,Payroll Accrual
GLI,7/31/2017,124704,1124400,GLI073117,GLI073117,668.08,Payroll Accrual
GLI,7/31/2017,12527,1123355,GLI073117,GLI073117,68.07,Payroll Accrual
GLI,7/31/2017,12327,1123355,GLI073117,GLI073117,889.8,Payroll Accrual
GLI,7/31/2017,12914,1123340,GLI073117,GLI073117,10.4,Payroll Accrual
GLI,7/31/2017,12906,1123340,GLI073117,GLI073117,24.71,Payroll Accrual
GLI,7/31/2017,12905,1123340,GLI073117,GLI073117,22.81,Payroll Accrual
GLI,7/31/2017,12904,1123340,GLI073117,GLI073117,8.98,Payroll Accrual
GLI,7/31/2017,12902,1123340,GLI073117,GLI073117,8.03,Payroll Accrual
GLI,7/31/2017,12901,1123340,GLI073117,GLI073117,8.03,Payroll Accrual
GLI,7/31/2017,12514,1123340,GLI073117,GLI073117,38.78,Payroll Accrual
GLI,7/31/2017,12506,1123340,GLI073117,GLI073117,4.34,Payroll Accrual
GLI,7/31/2017,12505,1123340,GLI073117,GLI073117,4.01,Payroll Accrual
GLI,7/31/2017,12504,1123340,GLI073117,GLI073117,33.5,Payroll Accrual
GLI,7/31/2017,12502,1123340,GLI073117,GLI073117,29.97,Payroll Accrual
GLI,7/31/2017,12501,1123340,GLI073117,GLI073117,29.97,Payroll Accrual
GLI,7/31/2017,12214,1123340,GLI073117,GLI073117,519.88,Payroll Accrual
GLI,7/31/2017,12206C,1123340,GLI073117,GLI073117,307.2,Payroll Accrual
GLI,7/31/2017,12205C,1123340,GLI073117,GLI073117,283.57,Payroll Accrual
GLI,7/31/2017,12204C,1123340,GLI073117,GLI073117,448.98,Payroll Accrual
GLI,7/31/2017,12202C,1123340,GLI073117,GLI073117,401.72,Payroll Accrual
GLI,7/31/2017,12201C,1123340,GLI073117,GLI073117,401.72,Payroll Accrual
GLI,7/31/2017,12905,112273,GLI073117,GLI073117,8.96,Payroll Accrual
GLI,7/31/2017,12505,112273,GLI073117,GLI073117,45.69,Payroll Accrual
GLI,7/31/2017,12205A,112273,GLI073117,GLI073117,597.24,Payroll Accrual
GLI,7/31/2017,12503,1122445,GLI073117,GLI073117,66.68,Payroll Accrual
GLI,7/31/2017,124723,1122445,GLI073117,GLI073117,871.56,Payroll Accrual
GLI,7/31/2017,12503,1122246,GLI073117,GLI073117,75.54,Payroll Accrual
GLI,7/31/2017,12303,1122246,GLI073117,GLI073117,1008.5,Payroll Accrual
GLI,7/31/2017,12927,1122110,GLI073117,GLI073117,29.79,Payroll Accrual
GLI,7/31/2017,12527,1122110,GLI073117,GLI073117,140.54,Payroll Accrual
GLI,7/31/2017,12327,1122110,GLI073117,GLI073117,1986.1,Payroll Accrual
GLI,7/31/2017,12927,1121250,GLI073117,GLI073117,8.85,Payroll Accrual
GLI,7/31/2017,12527,1121250,GLI073117,GLI073117,45.13,Payroll Accrual
GLI,7/31/2017,12327,1121250,GLI073117,GLI073117,589.96,Payroll Accrual
GLI,7/31/2017,12924,1121246,GLI073117,GLI073117,8.24,Payroll Accrual
GLI,7/31/2017,12524,1121246,GLI073117,GLI073117,40.39,Payroll Accrual
GLI,7/31/2017,124724,1121246,GLI073117,GLI073117,549.12,Payroll Accrual
GLI,7/31/2017,12527,112098,GLI073117,GLI073117,20.61,Payroll Accrual
GLI,7/31/2017,12524,112098,GLI073117,GLI073117,48.07,Payroll Accrual
GLI,7/31/2017,124724,112098,GLI073117,GLI073117,628.4,Payroll Accrual
GLI,7/31/2017,12327,112098,GLI073117,GLI073117,269.31,Payroll Accrual
GLI,7/31/2017,12506,1120225,GLI073117,GLI073117,42.74,Payroll Accrual
GLI,7/31/2017,12505,1120225,GLI073117,GLI073117,42.74,Payroll Accrual
GLI,7/31/2017,12504,1120225,GLI073117,GLI073117,42.74,Payroll Accrual
GLI,7/31/2017,12502,1120225,GLI073117,GLI073117,42.74,Payroll Accrual
GLI,7/31/2017,12501,1120225,GLI073117,GLI073117,42.74,Payroll Accrual
GLI,7/31/2017,12006,1120225,GLI073117,GLI073117,590.77,Payroll Accrual
GLI,7/31/2017,12005,1120225,GLI073117,GLI073117,590.77,Payroll Accrual
GLI,7/31/2017,12004,1120225,GLI073117,GLI073117,590.77,Payroll Accrual
GLI,7/31/2017,12002,1120225,GLI073117,GLI073117,590.77,Payroll Accrual
GLI,7/31/2017,12001,1120225,GLI073117,GLI073117,590.77,Payroll Accrual
GLI,7/31/2017,12906,1120120,GLI073117,GLI073117,9.18,Payroll Accrual
GLI,7/31/2017,12506,1120120,GLI073117,GLI073117,42.69,Payroll Accrual
GLI,7/31/2017,12306B,1120120,GLI073117,GLI073117,612,Payroll Accrual
GLI,7/31/2017,12927,1120110,GLI073117,GLI073117,19.2,Payroll Accrual
GLI,7/31/2017,12527,1120110,GLI073117,GLI073117,97.92,Payroll Accrual
GLI,7/31/2017,12127,1120110,GLI073117,GLI073117,1280,Payroll Accrual
GLI,7/31/2017,12506,1118800,GLI073117,GLI073117,55.36,Payroll Accrual
GLI,7/31/2017,12306B,1118800,GLI073117,GLI073117,823.32,Payroll Accrual
GLI,7/31/2017,12505,1118722,GLI073117,GLI073117,-7.14,Payroll Accrual
GLI,7/31/2017,12904,1117960,GLI073117,GLI073117,24.62,Payroll Accrual
GLI,7/31/2017,12504,1117960,GLI073117,GLI073117,92.31,Payroll Accrual
GLI,7/31/2017,124704,1117960,GLI073117,GLI073117,1230.77,Payroll Accrual
GLI,7/31/2017,12504,1117901,GLI073117,GLI073117,73.43,Payroll Accrual
GLI,7/31/2017,124704,1117901,GLI073117,GLI073117,959.78,Payroll Accrual
GLI,7/31/2017,12503,1117850,GLI073117,GLI073117,42.01,Payroll Accrual
GLI,7/31/2017,124723,1117850,GLI073117,GLI073117,549.22,Payroll Accrual
GLI,7/31/2017,12503,1117842,GLI073117,GLI073117,55.73,Payroll Accrual
GLI,7/31/2017,12303,1117842,GLI073117,GLI073117,733.89,Payroll Accrual
GLI,7/31/2017,12503,1117600,GLI073117,GLI073117,83.78,Payroll Accrual
GLI,7/31/2017,12303,1117600,GLI073117,GLI073117,1340.99,Payroll Accrual
GLI,7/31/2017,12506,111568,GLI073117,GLI073117,34.25,Payroll Accrual
GLI,7/31/2017,12306C,111568,GLI073117,GLI073117,447.72,Payroll Accrual
GLI,7/31/2017,12527,111566,GLI073117,GLI073117,18.41,Payroll Accrual
GLI,7/31/2017,12327,111566,GLI073117,GLI073117,240.7,Payroll Accrual
GLI,7/31/2017,12905,1114921,GLI073117,GLI073117,28.24,Payroll Accrual
GLI,7/31/2017,12505,1114921,GLI073117,GLI073117,138.32,Payroll Accrual
GLI,7/31/2017,124703,1114921,GLI073117,GLI073117,1882.62,Payroll Accrual
GLI,7/31/2017,12906,1114831,GLI073117,GLI073117,10.48,Payroll Accrual
GLI,7/31/2017,12506,1114831,GLI073117,GLI073117,53.46,Payroll Accrual
GLI,7/31/2017,12306D,1114831,GLI073117,GLI073117,698.88,Payroll Accrual
GLI,7/31/2017,12904,1114105,GLI073117,GLI073117,62.23,Payroll Accrual
GLI,7/31/2017,12504,1114105,GLI073117,GLI073117,230.83,Payroll Accrual
GLI,7/31/2017,12304B,1114105,GLI073117,GLI073117,3111.62,Payroll Accrual
GLI,7/31/2017,12527,1114010,GLI073117,GLI073117,33.22,Payroll Accrual
GLI,7/31/2017,12327,1114010,GLI073117,GLI073117,434.2,Payroll Accrual
GLI,7/31/2017,12506,111254,GLI073117,GLI073117,9.63,Payroll Accrual
GLI,7/31/2017,12505,111254,GLI073117,GLI073117,9.63,Payroll Accrual
GLI,7/31/2017,12504,111254,GLI073117,GLI073117,9.63,Payroll Accrual
GLI,7/31/2017,12502,111254,GLI073117,GLI073117,9.63,Payroll Accrual
GLI,7/31/2017,12501,111254,GLI073117,GLI073117,9.63,Payroll Accrual
GLI,7/31/2017,12206B,111254,GLI073117,GLI073117,125.87,Payroll Accrual
GLI,7/31/2017,12205B,111254,GLI073117,GLI073117,125.87,Payroll Accrual
GLI,7/31/2017,12204B,111254,GLI073117,GLI073117,125.87,Payroll Accrual
GLI,7/31/2017,12202B,111254,GLI073117,GLI073117,125.87,Payroll Accrual
GLI,7/31/2017,12201B,111254,GLI073117,GLI073117,125.87,Payroll Accrual
GLI,7/31/2017,12516,111245,GLI073117,GLI073117,76.19,Payroll Accrual
GLI,7/31/2017,12316,111245,GLI073117,GLI073117,1017.1,Payroll Accrual
GLI,7/31/2017,12904,111210,GLI073117,GLI073117,13.98,Payroll Accrual
GLI,7/31/2017,12504,111210,GLI073117,GLI073117,69.7,Payroll Accrual
GLI,7/31/2017,124704,111210,GLI073117,GLI073117,932.28,Payroll Accrual
GLI,7/31/2017,12905,1111325,GLI073117,GLI073117,18.81,Payroll Accrual
GLI,7/31/2017,12505,1111325,GLI073117,GLI073117,69.95,Payroll Accrual
GLI,7/31/2017,12405,1111325,GLI073117,GLI073117,144,Payroll Accrual
GLI,7/31/2017,12205A,1111325,GLI073117,GLI073117,796.32,Payroll Accrual
GLI,7/31/2017,12904,1110800,GLI073117,GLI073117,12.75,Payroll Accrual
GLI,7/31/2017,12504,1110800,GLI073117,GLI073117,51.16,Payroll Accrual
GLI,7/31/2017,12404,1110800,GLI073117,GLI073117,120,Payroll Accrual
GLI,7/31/2017,12304B,1110800,GLI073117,GLI073117,729.99,Payroll Accrual
GLI,7/31/2017,12911,1110660,GLI073117,GLI073117,2.74,Payroll Accrual
GLI,7/31/2017,12906,1110660,GLI073117,GLI073117,1.99,Payroll Accrual
GLI,7/31/2017,12905,1110660,GLI073117,GLI073117,1.99,Payroll Accrual
GLI,7/31/2017,12904,1110660,GLI073117,GLI073117,1.99,Payroll Accrual
GLI,7/31/2017,12902,1110660,GLI073117,GLI073117,1.87,Payroll Accrual
GLI,7/31/2017,12901,1110660,GLI073117,GLI073117,1.87,Payroll Accrual
GLI,7/31/2017,12511,1110660,GLI073117,GLI073117,12.34,Payroll Accrual
GLI,7/31/2017,12506,1110660,GLI073117,GLI073117,8.54,Payroll Accrual
GLI,7/31/2017,12505,1110660,GLI073117,GLI073117,8.54,Payroll Accrual
GLI,7/31/2017,12504,1110660,GLI073117,GLI073117,8.54,Payroll Accrual
GLI,7/31/2017,12502,1110660,GLI073117,GLI073117,7.9,Payroll Accrual
GLI,7/31/2017,12501,1110660,GLI073117,GLI073117,7.9,Payroll Accrual
GLI,7/31/2017,12311,1110660,GLI073117,GLI073117,182.49,Payroll Accrual
GLI,7/31/2017,12306H,1110660,GLI073117,GLI073117,132.72,Payroll Accrual
GLI,7/31/2017,12305H,1110660,GLI073117,GLI073117,132.72,Payroll Accrual
GLI,7/31/2017,12304H,1110660,GLI073117,GLI073117,132.72,Payroll Accrual
GLI,7/31/2017,12302H,1110660,GLI073117,GLI073117,124.43,Payroll Accrual
GLI,7/31/2017,12301H,1110660,GLI073117,GLI073117,124.43,Payroll Accrual
GLI,7/31/2017,12905,1110650,GLI073117,GLI073117,22.21,Payroll Accrual
GLI,7/31/2017,12505,1110650,GLI073117,GLI073117,113.28,Payroll Accrual
GLI,7/31/2017,124703,1110650,GLI073117,GLI073117,1480.8,Payroll Accrual
GLI,7/31/2017,12904,1109819,GLI073117,GLI073117,7.07,Payroll Accrual
GLI,7/31/2017,12504,1109819,GLI073117,GLI073117,31.56,Payroll Accrual
GLI,7/31/2017,12404,1109819,GLI073117,GLI073117,192,Payroll Accrual
GLI,7/31/2017,12204A,1109819,GLI073117,GLI073117,279.36,Payroll Accrual
GLI,7/31/2017,12904,1108248,GLI073117,GLI073117,13.71,Payroll Accrual
GLI,7/31/2017,12504,1108248,GLI073117,GLI073117,52.44,Payroll Accrual
GLI,7/31/2017,124704,1108248,GLI073117,GLI073117,574.35,Payroll Accrual
GLI,7/31/2017,12404,1108248,GLI073117,GLI073117,111.2,Payroll Accrual
GLI,7/31/2017,12905,1108200,GLI073117,GLI073117,8.95,Payroll Accrual
GLI,7/31/2017,12505,1108200,GLI073117,GLI073117,45.65,Payroll Accrual
GLI,7/31/2017,12305B,1108200,GLI073117,GLI073117,596.85,Payroll Accrual
GLI,7/31/2017,12904,1107950,GLI073117,GLI073117,13.13,Payroll Accrual
GLI,7/31/2017,12504,1107950,GLI073117,GLI073117,65.37,Payroll Accrual
GLI,7/31/2017,124704,1107950,GLI073117,GLI073117,875.64,Payroll Accrual
GLI,7/31/2017,12904,1106421,GLI073117,GLI073117,23.23,Payroll Accrual
GLI,7/31/2017,12504,1106421,GLI073117,GLI073117,106.05,Payroll Accrual
GLI,7/31/2017,124704,1106421,GLI073117,GLI073117,1548.9,Payroll Accrual
GLI,7/31/2017,12905,1106400,GLI073117,GLI073117,16.79,Payroll Accrual
GLI,7/31/2017,12505,1106400,GLI073117,GLI073117,84.39,Payroll Accrual
GLI,7/31/2017,124703,1106400,GLI073117,GLI073117,1119,Payroll Accrual
GLI,7/31/2017,12904,1106399,GLI073117,GLI073117,44.2,Payroll Accrual
GLI,7/31/2017,12504,1106399,GLI073117,GLI073117,169.08,Payroll Accrual
GLI,7/31/2017,124704,1106399,GLI073117,GLI073117,2210.16,Payroll Accrual
GLI,7/31/2017,12404,1106399,GLI073117,GLI073117,1476,Payroll Accrual
GLI,7/31/2017,12924,1103065,GLI073117,GLI073117,4.81,Payroll Accrual
GLI,7/31/2017,12905,1103065,GLI073117,GLI073117,4.81,Payroll Accrual
GLI,7/31/2017,12904,1103065,GLI073117,GLI073117,4.81,Payroll Accrual
GLI,7/31/2017,12901,1103065,GLI073117,GLI073117,4.81,Payroll Accrual
GLI,7/31/2017,12524,1103065,GLI073117,GLI073117,14.29,Payroll Accrual
GLI,7/31/2017,12505,1103065,GLI073117,GLI073117,14.29,Payroll Accrual
GLI,7/31/2017,12504,1103065,GLI073117,GLI073117,14.29,Payroll Accrual
GLI,7/31/2017,12501,1103065,GLI073117,GLI073117,14.29,Payroll Accrual
GLI,7/31/2017,12324F,1103065,GLI073117,GLI073117,240.56,Payroll Accrual
GLI,7/31/2017,12305F,1103065,GLI073117,GLI073117,240.56,Payroll Accrual
GLI,7/31/2017,12304F,1103065,GLI073117,GLI073117,240.56,Payroll Accrual
GLI,7/31/2017,12301F,1103065,GLI073117,GLI073117,240.56,Payroll Accrual
GLI,7/31/2017,12903,1102198,GLI073117,GLI073117,22.21,Payroll Accrual
GLI,7/31/2017,12503,1102198,GLI073117,GLI073117,112.46,Payroll Accrual
GLI,7/31/2017,12103,1102198,GLI073117,GLI073117,1480.32,Payroll Accrual
GLI,7/31/2017,12904,1102195,GLI073117,GLI073117,44.31,Payroll Accrual
GLI,7/31/2017,12504,1102195,GLI073117,GLI073117,168.7,Payroll Accrual
GLI,7/31/2017,12104,1102195,GLI073117,GLI073117,2215.39,Payroll Accrual
GLI,7/31/2017,12503,1101568,GLI073117,GLI073117,33.71,Payroll Accrual
GLI,7/31/2017,124723,1101568,GLI073117,GLI073117,440.64,Payroll Accrual
GLI,7/31/2017,12504,110123,GLI073117,GLI073117,64.24,Payroll Accrual
GLI,7/31/2017,124704,110123,GLI073117,GLI073117,1018.56,Payroll Accrual
GLI,7/31/2017,12524,1100820,GLI073117,GLI073117,2.75,Payroll Accrual
GLI,7/31/2017,124724,1100820,GLI073117,GLI073117,36,Payroll Accrual
GLI,7/31/2017,12505,1100625,GLI073117,GLI073117,66.8,Payroll Accrual
GLI,7/31/2017,124703,1100625,GLI073117,GLI073117,873.2,Payroll Accrual
GLI,7/31/2017,12503,110048,GLI073117,GLI073117,42.28,Payroll Accrual
GLI,7/31/2017,124723,110048,GLI073117,GLI073117,552.72,Payroll Accrual
