﻿journal,date,account,control,document,reference,amount,description
GLI,8/31/2020,232103,GLI083120,GLI083120,GLI083120,-71787.46,Payroll Accrual
GLI,8/31/2020,132101,GLI083120,GLI083120,GLI083120,-522133.88,Payroll Accrual
GLI,8/31/2020,12006,1130426,GLI083120,GLI083120,1788.92,Payroll Accrual
GLI,8/31/2020,12005,1130426,GLI083120,GLI083120,1788.92,Payroll Accrual
GLI,8/31/2020,12004,1130426,GLI083120,GLI083120,1788.92,Payroll Accrual
GLI,8/31/2020,12002,1130426,GLI083120,GLI083120,1788.92,Payroll Accrual
GLI,8/31/2020,12001,1130426,GLI083120,GLI083120,1613.56,Payroll Accrual
GLI,8/31/2020,22904,298432,GLI083120,GLI083120,19.2,Payroll Accrual
GLI,8/31/2020,22504,298432,GLI083120,GLI083120,89.6,Payroll Accrual
GLI,8/31/2020,22304B,298432,GLI083120,GLI083120,1280.16,Payroll Accrual
GLI,8/31/2020,22506,296347,GLI083120,GLI083120,89.94,Payroll Accrual
GLI,8/31/2020,22306,296347,GLI083120,GLI083120,1217.91,Payroll Accrual
GLI,8/31/2020,22504,295435,GLI083120,GLI083120,25.29,Payroll Accrual
GLI,8/31/2020,22503,295435,GLI083120,GLI083120,25.29,Payroll Accrual
GLI,8/31/2020,22304B,295435,GLI083120,GLI083120,367.8,Payroll Accrual
GLI,8/31/2020,22303,295435,GLI083120,GLI083120,367.8,Payroll Accrual
GLI,8/31/2020,22904,295148,GLI083120,GLI083120,19.09,Payroll Accrual
GLI,8/31/2020,22504,295148,GLI083120,GLI083120,94.12,Payroll Accrual
GLI,8/31/2020,224704,295148,GLI083120,GLI083120,1272.6,Payroll Accrual
GLI,8/31/2020,22510,291582,GLI083120,GLI083120,32.19,Payroll Accrual
GLI,8/31/2020,21301C,291582,GLI083120,GLI083120,420.75,Payroll Accrual
GLI,8/31/2020,22910,289563,GLI083120,GLI083120,1.93,Payroll Accrual
GLI,8/31/2020,22906,289563,GLI083120,GLI083120,4.02,Payroll Accrual
GLI,8/31/2020,22904,289563,GLI083120,GLI083120,4.02,Payroll Accrual
GLI,8/31/2020,22902,289563,GLI083120,GLI083120,4.02,Payroll Accrual
GLI,8/31/2020,22901,289563,GLI083120,GLI083120,2.09,Payroll Accrual
GLI,8/31/2020,22510,289563,GLI083120,GLI083120,8.31,Payroll Accrual
GLI,8/31/2020,22506,289563,GLI083120,GLI083120,18.97,Payroll Accrual
GLI,8/31/2020,22504,289563,GLI083120,GLI083120,18.97,Payroll Accrual
GLI,8/31/2020,22502,289563,GLI083120,GLI083120,18.97,Payroll Accrual
GLI,8/31/2020,22501,289563,GLI083120,GLI083120,9.13,Payroll Accrual
GLI,8/31/2020,22410,289563,GLI083120,GLI083120,4.32,Payroll Accrual
GLI,8/31/2020,22406,289563,GLI083120,GLI083120,9,Payroll Accrual
GLI,8/31/2020,22404,289563,GLI083120,GLI083120,9,Payroll Accrual
GLI,8/31/2020,22402,289563,GLI083120,GLI083120,9,Payroll Accrual
GLI,8/31/2020,22401,289563,GLI083120,GLI083120,4.68,Payroll Accrual
GLI,8/31/2020,22210B,289563,GLI083120,GLI083120,124.3,Payroll Accrual
GLI,8/31/2020,22206B,289563,GLI083120,GLI083120,258.96,Payroll Accrual
GLI,8/31/2020,22204B,289563,GLI083120,GLI083120,258.96,Payroll Accrual
GLI,8/31/2020,22202B,289563,GLI083120,GLI083120,258.96,Payroll Accrual
GLI,8/31/2020,22201B,289563,GLI083120,GLI083120,134.66,Payroll Accrual
GLI,8/31/2020,22504,279630,GLI083120,GLI083120,174.01,Payroll Accrual
GLI,8/31/2020,224704,279630,GLI083120,GLI083120,2274.7,Payroll Accrual
GLI,8/31/2020,22404,279630,GLI083120,GLI083120,774.24,Payroll Accrual
GLI,8/31/2020,22904,276431,GLI083120,GLI083120,21.94,Payroll Accrual
GLI,8/31/2020,22504,276431,GLI083120,GLI083120,108.64,Payroll Accrual
GLI,8/31/2020,224704,276431,GLI083120,GLI083120,1462.5,Payroll Accrual
GLI,8/31/2020,22404,276431,GLI083120,GLI083120,154.08,Payroll Accrual
GLI,8/31/2020,22904,275342,GLI083120,GLI083120,24.69,Payroll Accrual
GLI,8/31/2020,22504,275342,GLI083120,GLI083120,125.93,Payroll Accrual
GLI,8/31/2020,224704,275342,GLI083120,GLI083120,1502.1,Payroll Accrual
GLI,8/31/2020,22404,275342,GLI083120,GLI083120,144,Payroll Accrual
GLI,8/31/2020,22506,274225,GLI083120,GLI083120,141.38,Payroll Accrual
GLI,8/31/2020,22306,274225,GLI083120,GLI083120,2057.69,Payroll Accrual
GLI,8/31/2020,22504,273315,GLI083120,GLI083120,338.06,Payroll Accrual
GLI,8/31/2020,224704,273315,GLI083120,GLI083120,4514.4,Payroll Accrual
GLI,8/31/2020,22503,269854,GLI083120,GLI083120,21.39,Payroll Accrual
GLI,8/31/2020,224723,269854,GLI083120,GLI083120,279.6,Payroll Accrual
GLI,8/31/2020,22503,269547,GLI083120,GLI083120,64.46,Payroll Accrual
GLI,8/31/2020,224723,269547,GLI083120,GLI083120,842.52,Payroll Accrual
GLI,8/31/2020,22503,266948,GLI083120,GLI083120,74.99,Payroll Accrual
GLI,8/31/2020,224723,266948,GLI083120,GLI083120,980.34,Payroll Accrual
GLI,8/31/2020,22510,265435,GLI083120,GLI083120,3.7,Payroll Accrual
GLI,8/31/2020,22506,265435,GLI083120,GLI083120,7.71,Payroll Accrual
GLI,8/31/2020,22504,265435,GLI083120,GLI083120,7.71,Payroll Accrual
GLI,8/31/2020,22502,265435,GLI083120,GLI083120,7.71,Payroll Accrual
GLI,8/31/2020,22501,265435,GLI083120,GLI083120,4.01,Payroll Accrual
GLI,8/31/2020,22210B,265435,GLI083120,GLI083120,48.36,Payroll Accrual
GLI,8/31/2020,22206B,265435,GLI083120,GLI083120,100.74,Payroll Accrual
GLI,8/31/2020,22204B,265435,GLI083120,GLI083120,100.74,Payroll Accrual
GLI,8/31/2020,22202B,265435,GLI083120,GLI083120,100.74,Payroll Accrual
GLI,8/31/2020,22201B,265435,GLI083120,GLI083120,52.38,Payroll Accrual
GLI,8/31/2020,22504,265421,GLI083120,GLI083120,97.71,Payroll Accrual
GLI,8/31/2020,22304B,265421,GLI083120,GLI083120,1277.29,Payroll Accrual
GLI,8/31/2020,22503,264972,GLI083120,GLI083120,17.64,Payroll Accrual
GLI,8/31/2020,224723,264972,GLI083120,GLI083120,230.62,Payroll Accrual
GLI,8/31/2020,22504,264852,GLI083120,GLI083120,147.78,Payroll Accrual
GLI,8/31/2020,224704,264852,GLI083120,GLI083120,1974.1,Payroll Accrual
GLI,8/31/2020,22903,264387,GLI083120,GLI083120,16.63,Payroll Accrual
GLI,8/31/2020,22503,264387,GLI083120,GLI083120,84.82,Payroll Accrual
GLI,8/31/2020,224723,264387,GLI083120,GLI083120,1108.66,Payroll Accrual
GLI,8/31/2020,22503,264329,GLI083120,GLI083120,7.24,Payroll Accrual
GLI,8/31/2020,224723,264329,GLI083120,GLI083120,94.68,Payroll Accrual
GLI,8/31/2020,22506,264220,GLI083120,GLI083120,122.36,Payroll Accrual
GLI,8/31/2020,22306,264220,GLI083120,GLI083120,1693.88,Payroll Accrual
GLI,8/31/2020,22510,264110,GLI083120,GLI083120,17.6,Payroll Accrual
GLI,8/31/2020,21301C,264110,GLI083120,GLI083120,230,Payroll Accrual
GLI,8/31/2020,22510,263975,GLI083120,GLI083120,11.31,Payroll Accrual
GLI,8/31/2020,22506,263975,GLI083120,GLI083120,23.58,Payroll Accrual
GLI,8/31/2020,22504,263975,GLI083120,GLI083120,23.58,Payroll Accrual
GLI,8/31/2020,22502,263975,GLI083120,GLI083120,23.58,Payroll Accrual
GLI,8/31/2020,22501,263975,GLI083120,GLI083120,12.26,Payroll Accrual
GLI,8/31/2020,22210B,263975,GLI083120,GLI083120,147.92,Payroll Accrual
GLI,8/31/2020,22206B,263975,GLI083120,GLI083120,308.16,Payroll Accrual
GLI,8/31/2020,22204B,263975,GLI083120,GLI083120,308.16,Payroll Accrual
GLI,8/31/2020,22202B,263975,GLI083120,GLI083120,308.16,Payroll Accrual
GLI,8/31/2020,22201B,263975,GLI083120,GLI083120,160.24,Payroll Accrual
GLI,8/31/2020,22503,259756,GLI083120,GLI083120,98.61,Payroll Accrual
GLI,8/31/2020,22303,259756,GLI083120,GLI083120,1331.33,Payroll Accrual
GLI,8/31/2020,22503,259375,GLI083120,GLI083120,66.57,Payroll Accrual
GLI,8/31/2020,224723,259375,GLI083120,GLI083120,870.24,Payroll Accrual
GLI,8/31/2020,22503,257935,GLI083120,GLI083120,38.52,Payroll Accrual
GLI,8/31/2020,224723,257935,GLI083120,GLI083120,503.52,Payroll Accrual
GLI,8/31/2020,22904,256879,GLI083120,GLI083120,5.52,Payroll Accrual
GLI,8/31/2020,22504,256879,GLI083120,GLI083120,28.16,Payroll Accrual
GLI,8/31/2020,22304C,256879,GLI083120,GLI083120,368.1,Payroll Accrual
GLI,8/31/2020,22910,256845,GLI083120,GLI083120,3.97,Payroll Accrual
GLI,8/31/2020,22902,256845,GLI083120,GLI083120,13.08,Payroll Accrual
GLI,8/31/2020,22901,256845,GLI083120,GLI083120,6.3,Payroll Accrual
GLI,8/31/2020,22510,256845,GLI083120,GLI083120,12.88,Payroll Accrual
GLI,8/31/2020,22502,256845,GLI083120,GLI083120,56.87,Payroll Accrual
GLI,8/31/2020,22501,256845,GLI083120,GLI083120,24.15,Payroll Accrual
GLI,8/31/2020,21110,256845,GLI083120,GLI083120,264.67,Payroll Accrual
GLI,8/31/2020,21102,256845,GLI083120,GLI083120,871.86,Payroll Accrual
GLI,8/31/2020,21101,256845,GLI083120,GLI083120,420.36,Payroll Accrual
GLI,8/31/2020,22904,247000,GLI083120,GLI083120,27.1,Payroll Accrual
GLI,8/31/2020,22504,247000,GLI083120,GLI083120,138.21,Payroll Accrual
GLI,8/31/2020,22304B,247000,GLI083120,GLI083120,1806.74,Payroll Accrual
GLI,8/31/2020,22503,246783,GLI083120,GLI083120,87.96,Payroll Accrual
GLI,8/31/2020,22303,246783,GLI083120,GLI083120,1367.46,Payroll Accrual
GLI,8/31/2020,22903,24665,GLI083120,GLI083120,18.85,Payroll Accrual
GLI,8/31/2020,22503,24665,GLI083120,GLI083120,96.14,Payroll Accrual
GLI,8/31/2020,224723,24665,GLI083120,GLI083120,1256.7,Payroll Accrual
GLI,8/31/2020,22503,24551,GLI083120,GLI083120,100.06,Payroll Accrual
GLI,8/31/2020,224723,24551,GLI083120,GLI083120,1307.95,Payroll Accrual
GLI,8/31/2020,22506,243180,GLI083120,GLI083120,116.81,Payroll Accrual
GLI,8/31/2020,22306,243180,GLI083120,GLI083120,1750.73,Payroll Accrual
GLI,8/31/2020,22904,241085,GLI083120,GLI083120,24.25,Payroll Accrual
GLI,8/31/2020,22504,241085,GLI083120,GLI083120,120.86,Payroll Accrual
GLI,8/31/2020,224704,241085,GLI083120,GLI083120,1616.9,Payroll Accrual
GLI,8/31/2020,22404,241085,GLI083120,GLI083120,152.08,Payroll Accrual
GLI,8/31/2020,22504,232874,GLI083120,GLI083120,20.68,Payroll Accrual
GLI,8/31/2020,22304C,232874,GLI083120,GLI083120,270.38,Payroll Accrual
GLI,8/31/2020,22504,230810,GLI083120,GLI083120,28,Payroll Accrual
GLI,8/31/2020,22304C,230810,GLI083120,GLI083120,365.9,Payroll Accrual
GLI,8/31/2020,22504,230601,GLI083120,GLI083120,294.83,Payroll Accrual
GLI,8/31/2020,22104,230601,GLI083120,GLI083120,4295.78,Payroll Accrual
GLI,8/31/2020,22510,2141225,GLI083120,GLI083120,22.62,Payroll Accrual
GLI,8/31/2020,22502,2141225,GLI083120,GLI083120,22.62,Payroll Accrual
GLI,8/31/2020,22501,2141225,GLI083120,GLI083120,23.63,Payroll Accrual
GLI,8/31/2020,22410,2141225,GLI083120,GLI083120,113.85,Payroll Accrual
GLI,8/31/2020,22402,2141225,GLI083120,GLI083120,113.85,Payroll Accrual
GLI,8/31/2020,22401,2141225,GLI083120,GLI083120,117.3,Payroll Accrual
GLI,8/31/2020,22310,2141225,GLI083120,GLI083120,318.24,Payroll Accrual
GLI,8/31/2020,22302,2141225,GLI083120,GLI083120,318.24,Payroll Accrual
GLI,8/31/2020,22301,2141225,GLI083120,GLI083120,327.88,Payroll Accrual
GLI,8/31/2020,22503,213520,GLI083120,GLI083120,97.87,Payroll Accrual
GLI,8/31/2020,224723,213520,GLI083120,GLI083120,1279.39,Payroll Accrual
GLI,8/31/2020,22504,2130150,GLI083120,GLI083120,208.81,Payroll Accrual
GLI,8/31/2020,224704,2130150,GLI083120,GLI083120,2729.5,Payroll Accrual
GLI,8/31/2020,22404,2130150,GLI083120,GLI083120,304.72,Payroll Accrual
GLI,8/31/2020,22503,2126055,GLI083120,GLI083120,131.29,Payroll Accrual
GLI,8/31/2020,22103,2126055,GLI083120,GLI083120,1716.16,Payroll Accrual
GLI,8/31/2020,22503,211568,GLI083120,GLI083120,147.41,Payroll Accrual
GLI,8/31/2020,22303,211568,GLI083120,GLI083120,1926.87,Payroll Accrual
GLI,8/31/2020,22504,2106410,GLI083120,GLI083120,255.82,Payroll Accrual
GLI,8/31/2020,22304B,2106410,GLI083120,GLI083120,3643.39,Payroll Accrual
GLI,8/31/2020,22506,2106350,GLI083120,GLI083120,206.64,Payroll Accrual
GLI,8/31/2020,22106,2106350,GLI083120,GLI083120,3218.47,Payroll Accrual
GLI,8/31/2020,22904,210123,GLI083120,GLI083120,39.36,Payroll Accrual
GLI,8/31/2020,22504,210123,GLI083120,GLI083120,182.89,Payroll Accrual
GLI,8/31/2020,224704,210123,GLI083120,GLI083120,2624.16,Payroll Accrual
GLI,8/31/2020,12504,198567,GLI083120,GLI083120,93.37,Payroll Accrual
GLI,8/31/2020,12304C,198567,GLI083120,GLI083120,1220.51,Payroll Accrual
GLI,8/31/2020,12501,198543,GLI083120,GLI083120,8.42,Payroll Accrual
GLI,8/31/2020,11301C,198543,GLI083120,GLI083120,110,Payroll Accrual
GLI,8/31/2020,12505,198542,GLI083120,GLI083120,103.59,Payroll Accrual
GLI,8/31/2020,12205A,198542,GLI083120,GLI083120,1396.4,Payroll Accrual
GLI,8/31/2020,12527,198532,GLI083120,GLI083120,61.71,Payroll Accrual
GLI,8/31/2020,12327,198532,GLI083120,GLI083120,806.65,Payroll Accrual
GLI,8/31/2020,12503,198531,GLI083120,GLI083120,18.11,Payroll Accrual
GLI,8/31/2020,124723,198531,GLI083120,GLI083120,236.75,Payroll Accrual
GLI,8/31/2020,12524,198431,GLI083120,GLI083120,36.5,Payroll Accrual
GLI,8/31/2020,124724,198431,GLI083120,GLI083120,477.1,Payroll Accrual
GLI,8/31/2020,12504,198234,GLI083120,GLI083120,92.23,Payroll Accrual
GLI,8/31/2020,12304B,198234,GLI083120,GLI083120,1205.61,Payroll Accrual
GLI,8/31/2020,12527,198134,GLI083120,GLI083120,42.59,Payroll Accrual
GLI,8/31/2020,12327,198134,GLI083120,GLI083120,556.79,Payroll Accrual
GLI,8/31/2020,12904,197643,GLI083120,GLI083120,24.91,Payroll Accrual
GLI,8/31/2020,12504,197643,GLI083120,GLI083120,110.37,Payroll Accrual
GLI,8/31/2020,12304D,197643,GLI083120,GLI083120,1660.33,Payroll Accrual
GLI,8/31/2020,12916,197642,GLI083120,GLI083120,19.44,Payroll Accrual
GLI,8/31/2020,12516,197642,GLI083120,GLI083120,96.3,Payroll Accrual
GLI,8/31/2020,12316,197642,GLI083120,GLI083120,1295.97,Payroll Accrual
GLI,8/31/2020,12527,197530,GLI083120,GLI083120,30.83,Payroll Accrual
GLI,8/31/2020,12327,197530,GLI083120,GLI083120,403,Payroll Accrual
GLI,8/31/2020,12501,197523,GLI083120,GLI083120,123.71,Payroll Accrual
GLI,8/31/2020,12301B,197523,GLI083120,GLI083120,1617.08,Payroll Accrual
GLI,8/31/2020,12503,196623,GLI083120,GLI083120,45.82,Payroll Accrual
GLI,8/31/2020,124723,196623,GLI083120,GLI083120,599.06,Payroll Accrual
GLI,8/31/2020,12503,196485,GLI083120,GLI083120,23.92,Payroll Accrual
GLI,8/31/2020,124723,196485,GLI083120,GLI083120,312.65,Payroll Accrual
GLI,8/31/2020,12503,196452,GLI083120,GLI083120,69.29,Payroll Accrual
GLI,8/31/2020,12303,196452,GLI083120,GLI083120,1060.22,Payroll Accrual
GLI,8/31/2020,12906,196341,GLI083120,GLI083120,11.66,Payroll Accrual
GLI,8/31/2020,12905,196341,GLI083120,GLI083120,10.35,Payroll Accrual
GLI,8/31/2020,12514,196341,GLI083120,GLI083120,28.85,Payroll Accrual
GLI,8/31/2020,12506,196341,GLI083120,GLI083120,2.73,Payroll Accrual
GLI,8/31/2020,12505,196341,GLI083120,GLI083120,2.42,Payroll Accrual
GLI,8/31/2020,12504,196341,GLI083120,GLI083120,24.02,Payroll Accrual
GLI,8/31/2020,12502,196341,GLI083120,GLI083120,20.81,Payroll Accrual
GLI,8/31/2020,12501,196341,GLI083120,GLI083120,20.81,Payroll Accrual
GLI,8/31/2020,12214,196341,GLI083120,GLI083120,462.03,Payroll Accrual
GLI,8/31/2020,12206C,196341,GLI083120,GLI083120,273.02,Payroll Accrual
GLI,8/31/2020,12205C,196341,GLI083120,GLI083120,252.01,Payroll Accrual
GLI,8/31/2020,12204C,196341,GLI083120,GLI083120,399.02,Payroll Accrual
GLI,8/31/2020,12202C,196341,GLI083120,GLI083120,357.02,Payroll Accrual
GLI,8/31/2020,12201C,196341,GLI083120,GLI083120,357.02,Payroll Accrual
GLI,8/31/2020,12503,196325,GLI083120,GLI083120,47.16,Payroll Accrual
GLI,8/31/2020,124723,196325,GLI083120,GLI083120,616.41,Payroll Accrual
GLI,8/31/2020,12503,196314,GLI083120,GLI083120,72.97,Payroll Accrual
GLI,8/31/2020,12303,196314,GLI083120,GLI083120,953.89,Payroll Accrual
GLI,8/31/2020,12524,195975,GLI083120,GLI083120,185.23,Payroll Accrual
GLI,8/31/2020,12124,195975,GLI083120,GLI083120,2421.3,Payroll Accrual
GLI,8/31/2020,12516,195675,GLI083120,GLI083120,53.85,Payroll Accrual
GLI,8/31/2020,12316,195675,GLI083120,GLI083120,703.82,Payroll Accrual
GLI,8/31/2020,12506,195401,GLI083120,GLI083120,121.72,Payroll Accrual
GLI,8/31/2020,12306D,195401,GLI083120,GLI083120,1685.48,Payroll Accrual
GLI,8/31/2020,12503,195359,GLI083120,GLI083120,100.43,Payroll Accrual
GLI,8/31/2020,124723,195359,GLI083120,GLI083120,1200.7,Payroll Accrual
GLI,8/31/2020,12403,195359,GLI083120,GLI083120,112,Payroll Accrual
GLI,8/31/2020,12504,194675,GLI083120,GLI083120,246.82,Payroll Accrual
GLI,8/31/2020,124704,194675,GLI083120,GLI083120,3458.51,Payroll Accrual
GLI,8/31/2020,12404,194675,GLI083120,GLI083120,581.6,Payroll Accrual
GLI,8/31/2020,12527,193542,GLI083120,GLI083120,96.6,Payroll Accrual
GLI,8/31/2020,12327,193542,GLI083120,GLI083120,1305.08,Payroll Accrual
GLI,8/31/2020,12506,193457,GLI083120,GLI083120,129.88,Payroll Accrual
GLI,8/31/2020,12306D,193457,GLI083120,GLI083120,1740.06,Payroll Accrual
GLI,8/31/2020,12503,193287,GLI083120,GLI083120,59.98,Payroll Accrual
GLI,8/31/2020,124723,193287,GLI083120,GLI083120,783.99,Payroll Accrual
GLI,8/31/2020,12505,191350,GLI083120,GLI083120,226.96,Payroll Accrual
GLI,8/31/2020,124703,191350,GLI083120,GLI083120,2986.83,Payroll Accrual
GLI,8/31/2020,12504,191060,GLI083120,GLI083120,67.02,Payroll Accrual
GLI,8/31/2020,12404,191060,GLI083120,GLI083120,32,Payroll Accrual
GLI,8/31/2020,12304B,191060,GLI083120,GLI083120,844.15,Payroll Accrual
GLI,8/31/2020,12903,190910,GLI083120,GLI083120,39.46,Payroll Accrual
GLI,8/31/2020,12503,190910,GLI083120,GLI083120,198.01,Payroll Accrual
GLI,8/31/2020,12103,190910,GLI083120,GLI083120,2630.78,Payroll Accrual
GLI,8/31/2020,12906,190892,GLI083120,GLI083120,34.79,Payroll Accrual
GLI,8/31/2020,12506,190892,GLI083120,GLI083120,130.72,Payroll Accrual
GLI,8/31/2020,12306C,190892,GLI083120,GLI083120,1739.53,Payroll Accrual
GLI,8/31/2020,12524,190600,GLI083120,GLI083120,125.04,Payroll Accrual
GLI,8/31/2020,124724,190600,GLI083120,GLI083120,1901.97,Payroll Accrual
GLI,8/31/2020,12504,190324,GLI083120,GLI083120,187.82,Payroll Accrual
GLI,8/31/2020,124704,190324,GLI083120,GLI083120,2492.32,Payroll Accrual
GLI,8/31/2020,12503,189596,GLI083120,GLI083120,16.94,Payroll Accrual
GLI,8/31/2020,124723,189596,GLI083120,GLI083120,221.39,Payroll Accrual
GLI,8/31/2020,12906,189438,GLI083120,GLI083120,5.07,Payroll Accrual
GLI,8/31/2020,12905,189438,GLI083120,GLI083120,4.68,Payroll Accrual
GLI,8/31/2020,12514,189438,GLI083120,GLI083120,10.59,Payroll Accrual
GLI,8/31/2020,12506,189438,GLI083120,GLI083120,1.19,Payroll Accrual
GLI,8/31/2020,12505,189438,GLI083120,GLI083120,1.09,Payroll Accrual
GLI,8/31/2020,12504,189438,GLI083120,GLI083120,9.14,Payroll Accrual
GLI,8/31/2020,12502,189438,GLI083120,GLI083120,8.18,Payroll Accrual
GLI,8/31/2020,12501,189438,GLI083120,GLI083120,8.18,Payroll Accrual
GLI,8/31/2020,12214,189438,GLI083120,GLI083120,138.32,Payroll Accrual
GLI,8/31/2020,12206C,189438,GLI083120,GLI083120,81.74,Payroll Accrual
GLI,8/31/2020,12205C,189438,GLI083120,GLI083120,75.45,Payroll Accrual
GLI,8/31/2020,12204C,189438,GLI083120,GLI083120,119.46,Payroll Accrual
GLI,8/31/2020,12202C,189438,GLI083120,GLI083120,106.89,Payroll Accrual
GLI,8/31/2020,12201C,189438,GLI083120,GLI083120,106.89,Payroll Accrual
GLI,8/31/2020,12505,188338,GLI083120,GLI083120,169.67,Payroll Accrual
GLI,8/31/2020,12405,188338,GLI083120,GLI083120,160,Payroll Accrual
GLI,8/31/2020,12305B,188338,GLI083120,GLI083120,2280.81,Payroll Accrual
GLI,8/31/2020,12504,187675,GLI083120,GLI083120,222,Payroll Accrual
GLI,8/31/2020,124704,187675,GLI083120,GLI083120,3156.93,Payroll Accrual
GLI,8/31/2020,12516,187526,GLI083120,GLI083120,93.68,Payroll Accrual
GLI,8/31/2020,12316,187526,GLI083120,GLI083120,1244.49,Payroll Accrual
GLI,8/31/2020,12502,187347,GLI083120,GLI083120,40.51,Payroll Accrual
GLI,8/31/2020,12501,187347,GLI083120,GLI083120,27.01,Payroll Accrual
GLI,8/31/2020,11102,187347,GLI083120,GLI083120,529.57,Payroll Accrual
GLI,8/31/2020,11101,187347,GLI083120,GLI083120,353.05,Payroll Accrual
GLI,8/31/2020,12527,186724,GLI083120,GLI083120,38.69,Payroll Accrual
GLI,8/31/2020,12327,186724,GLI083120,GLI083120,505.83,Payroll Accrual
GLI,8/31/2020,12506,186100,GLI083120,GLI083120,49.58,Payroll Accrual
GLI,8/31/2020,12505,186100,GLI083120,GLI083120,49.58,Payroll Accrual
GLI,8/31/2020,12504,186100,GLI083120,GLI083120,49.58,Payroll Accrual
GLI,8/31/2020,12502,186100,GLI083120,GLI083120,49.58,Payroll Accrual
GLI,8/31/2020,12501,186100,GLI083120,GLI083120,49.58,Payroll Accrual
GLI,8/31/2020,12106,186100,GLI083120,GLI083120,657.69,Payroll Accrual
GLI,8/31/2020,12105,186100,GLI083120,GLI083120,657.69,Payroll Accrual
GLI,8/31/2020,12104,186100,GLI083120,GLI083120,657.69,Payroll Accrual
GLI,8/31/2020,12102,186100,GLI083120,GLI083120,657.69,Payroll Accrual
GLI,8/31/2020,12101,186100,GLI083120,GLI083120,657.69,Payroll Accrual
GLI,8/31/2020,12527,185647,GLI083120,GLI083120,46.27,Payroll Accrual
GLI,8/31/2020,12327,185647,GLI083120,GLI083120,604.89,Payroll Accrual
GLI,8/31/2020,12515,185600,GLI083120,GLI083120,58.55,Payroll Accrual
GLI,8/31/2020,12506,185600,GLI083120,GLI083120,39.93,Payroll Accrual
GLI,8/31/2020,12505,185600,GLI083120,GLI083120,39.93,Payroll Accrual
GLI,8/31/2020,12504,185600,GLI083120,GLI083120,42.58,Payroll Accrual
GLI,8/31/2020,12502,185600,GLI083120,GLI083120,42.58,Payroll Accrual
GLI,8/31/2020,12501,185600,GLI083120,GLI083120,42.58,Payroll Accrual
GLI,8/31/2020,12315,185600,GLI083120,GLI083120,785.23,Payroll Accrual
GLI,8/31/2020,12306,185600,GLI083120,GLI083120,535.39,Payroll Accrual
GLI,8/31/2020,12305,185600,GLI083120,GLI083120,535.39,Payroll Accrual
GLI,8/31/2020,12304,185600,GLI083120,GLI083120,571.08,Payroll Accrual
GLI,8/31/2020,12302,185600,GLI083120,GLI083120,571.08,Payroll Accrual
GLI,8/31/2020,12301,185600,GLI083120,GLI083120,571.08,Payroll Accrual
GLI,8/31/2020,12506,185438,GLI083120,GLI083120,39.89,Payroll Accrual
GLI,8/31/2020,12306C,185438,GLI083120,GLI083120,521.52,Payroll Accrual
GLI,8/31/2020,12503,185393,GLI083120,GLI083120,20.76,Payroll Accrual
GLI,8/31/2020,124723,185393,GLI083120,GLI083120,271.35,Payroll Accrual
GLI,8/31/2020,12505,184920,GLI083120,GLI083120,308.33,Payroll Accrual
GLI,8/31/2020,124703,184920,GLI083120,GLI083120,4052.73,Payroll Accrual
GLI,8/31/2020,12405,184920,GLI083120,GLI083120,625.92,Payroll Accrual
GLI,8/31/2020,12524,184806,GLI083120,GLI083120,222.54,Payroll Accrual
GLI,8/31/2020,124724,184806,GLI083120,GLI083120,2929,Payroll Accrual
GLI,8/31/2020,12905,184620,GLI083120,GLI083120,27.78,Payroll Accrual
GLI,8/31/2020,12505,184620,GLI083120,GLI083120,141.7,Payroll Accrual
GLI,8/31/2020,124703,184620,GLI083120,GLI083120,1708.2,Payroll Accrual
GLI,8/31/2020,12405,184620,GLI083120,GLI083120,144,Payroll Accrual
GLI,8/31/2020,12905,184614,GLI083120,GLI083120,45.18,Payroll Accrual
GLI,8/31/2020,12505,184614,GLI083120,GLI083120,230.4,Payroll Accrual
GLI,8/31/2020,124703,184614,GLI083120,GLI083120,3011.8,Payroll Accrual
GLI,8/31/2020,12506,184610,GLI083120,GLI083120,88.22,Payroll Accrual
GLI,8/31/2020,12306B,184610,GLI083120,GLI083120,1252.63,Payroll Accrual
GLI,8/31/2020,12924,184605,GLI083120,GLI083120,19.77,Payroll Accrual
GLI,8/31/2020,12524,184605,GLI083120,GLI083120,100.81,Payroll Accrual
GLI,8/31/2020,124724,184605,GLI083120,GLI083120,1317.75,Payroll Accrual
GLI,8/31/2020,12916,182713,GLI083120,GLI083120,24.86,Payroll Accrual
GLI,8/31/2020,12516,182713,GLI083120,GLI083120,112.84,Payroll Accrual
GLI,8/31/2020,12416,182713,GLI083120,GLI083120,285.6,Payroll Accrual
GLI,8/31/2020,12316,182713,GLI083120,GLI083120,1371.95,Payroll Accrual
GLI,8/31/2020,12906,181520,GLI083120,GLI083120,11.72,Payroll Accrual
GLI,8/31/2020,12905,181520,GLI083120,GLI083120,10.56,Payroll Accrual
GLI,8/31/2020,12514,181520,GLI083120,GLI083120,27.34,Payroll Accrual
GLI,8/31/2020,12506,181520,GLI083120,GLI083120,2.74,Payroll Accrual
GLI,8/31/2020,12505,181520,GLI083120,GLI083120,2.47,Payroll Accrual
GLI,8/31/2020,12504,181520,GLI083120,GLI083120,23.05,Payroll Accrual
GLI,8/31/2020,12502,181520,GLI083120,GLI083120,20.19,Payroll Accrual
GLI,8/31/2020,12501,181520,GLI083120,GLI083120,20.19,Payroll Accrual
GLI,8/31/2020,12214,181520,GLI083120,GLI083120,411.64,Payroll Accrual
GLI,8/31/2020,12206C,181520,GLI083120,GLI083120,243.24,Payroll Accrual
GLI,8/31/2020,12205C,181520,GLI083120,GLI083120,224.53,Payroll Accrual
GLI,8/31/2020,12204C,181520,GLI083120,GLI083120,355.51,Payroll Accrual
GLI,8/31/2020,12202C,181520,GLI083120,GLI083120,318.09,Payroll Accrual
GLI,8/31/2020,12201C,181520,GLI083120,GLI083120,318.09,Payroll Accrual
GLI,8/31/2020,12504,18005,GLI083120,GLI083120,293.19,Payroll Accrual
GLI,8/31/2020,124704,18005,GLI083120,GLI083120,3869.69,Payroll Accrual
GLI,8/31/2020,12906,179775,GLI083120,GLI083120,24.59,Payroll Accrual
GLI,8/31/2020,12506,179775,GLI083120,GLI083120,89.58,Payroll Accrual
GLI,8/31/2020,12306B,179775,GLI083120,GLI083120,1229.7,Payroll Accrual
GLI,8/31/2020,12506,179693,GLI083120,GLI083120,17.21,Payroll Accrual
GLI,8/31/2020,12505,179693,GLI083120,GLI083120,17.21,Payroll Accrual
GLI,8/31/2020,12504,179693,GLI083120,GLI083120,17.21,Payroll Accrual
GLI,8/31/2020,12502,179693,GLI083120,GLI083120,17.21,Payroll Accrual
GLI,8/31/2020,12501,179693,GLI083120,GLI083120,17.21,Payroll Accrual
GLI,8/31/2020,12406,179693,GLI083120,GLI083120,21.6,Payroll Accrual
GLI,8/31/2020,12405,179693,GLI083120,GLI083120,21.6,Payroll Accrual
GLI,8/31/2020,12404,179693,GLI083120,GLI083120,21.6,Payroll Accrual
GLI,8/31/2020,12402,179693,GLI083120,GLI083120,21.6,Payroll Accrual
GLI,8/31/2020,12401,179693,GLI083120,GLI083120,21.6,Payroll Accrual
GLI,8/31/2020,12206B,179693,GLI083120,GLI083120,203.45,Payroll Accrual
GLI,8/31/2020,12205B,179693,GLI083120,GLI083120,203.45,Payroll Accrual
GLI,8/31/2020,12204B,179693,GLI083120,GLI083120,203.45,Payroll Accrual
GLI,8/31/2020,12202B,179693,GLI083120,GLI083120,203.45,Payroll Accrual
GLI,8/31/2020,12201B,179693,GLI083120,GLI083120,203.45,Payroll Accrual
GLI,8/31/2020,12503,178323,GLI083120,GLI083120,12.78,Payroll Accrual
GLI,8/31/2020,124723,178323,GLI083120,GLI083120,167.16,Payroll Accrual
GLI,8/31/2020,12504,178079,GLI083120,GLI083120,92.1,Payroll Accrual
GLI,8/31/2020,12304D,178079,GLI083120,GLI083120,1550.18,Payroll Accrual
GLI,8/31/2020,12527,178060,GLI083120,GLI083120,77.07,Payroll Accrual
GLI,8/31/2020,12327,178060,GLI083120,GLI083120,1007.37,Payroll Accrual
GLI,8/31/2020,12904,178050,GLI083120,GLI083120,27,Payroll Accrual
GLI,8/31/2020,12504,178050,GLI083120,GLI083120,134.44,Payroll Accrual
GLI,8/31/2020,124704,178050,GLI083120,GLI083120,1799.71,Payroll Accrual
GLI,8/31/2020,12924,176430,GLI083120,GLI083120,28.66,Payroll Accrual
GLI,8/31/2020,12524,176430,GLI083120,GLI083120,144.23,Payroll Accrual
GLI,8/31/2020,12224,176430,GLI083120,GLI083120,1910.52,Payroll Accrual
GLI,8/31/2020,12503,175943,GLI083120,GLI083120,8.2,Payroll Accrual
GLI,8/31/2020,124723,175943,GLI083120,GLI083120,107.05,Payroll Accrual
GLI,8/31/2020,12902,175873,GLI083120,GLI083120,7.35,Payroll Accrual
GLI,8/31/2020,12901,175873,GLI083120,GLI083120,4.9,Payroll Accrual
GLI,8/31/2020,12502,175873,GLI083120,GLI083120,37.47,Payroll Accrual
GLI,8/31/2020,12501,175873,GLI083120,GLI083120,24.98,Payroll Accrual
GLI,8/31/2020,11102,175873,GLI083120,GLI083120,489.83,Payroll Accrual
GLI,8/31/2020,11101,175873,GLI083120,GLI083120,326.56,Payroll Accrual
GLI,8/31/2020,12527,175839,GLI083120,GLI083120,62.96,Payroll Accrual
GLI,8/31/2020,12327,175839,GLI083120,GLI083120,823.06,Payroll Accrual
GLI,8/31/2020,12503,175394,GLI083120,GLI083120,76.86,Payroll Accrual
GLI,8/31/2020,124723,175394,GLI083120,GLI083120,1079,Payroll Accrual
GLI,8/31/2020,12506,174836,GLI083120,GLI083120,83.35,Payroll Accrual
GLI,8/31/2020,12306C,174836,GLI083120,GLI083120,1089.48,Payroll Accrual
GLI,8/31/2020,12503,174738,GLI083120,GLI083120,60.37,Payroll Accrual
GLI,8/31/2020,124723,174738,GLI083120,GLI083120,789.09,Payroll Accrual
GLI,8/31/2020,12505,174384,GLI083120,GLI083120,137.64,Payroll Accrual
GLI,8/31/2020,124703,174384,GLI083120,GLI083120,2040.94,Payroll Accrual
GLI,8/31/2020,12506,174123,GLI083120,GLI083120,13.76,Payroll Accrual
GLI,8/31/2020,12505,174123,GLI083120,GLI083120,13.76,Payroll Accrual
GLI,8/31/2020,12504,174123,GLI083120,GLI083120,13.76,Payroll Accrual
GLI,8/31/2020,12502,174123,GLI083120,GLI083120,13.76,Payroll Accrual
GLI,8/31/2020,12501,174123,GLI083120,GLI083120,13.76,Payroll Accrual
GLI,8/31/2020,12206B,174123,GLI083120,GLI083120,179.83,Payroll Accrual
GLI,8/31/2020,12205B,174123,GLI083120,GLI083120,179.83,Payroll Accrual
GLI,8/31/2020,12204B,174123,GLI083120,GLI083120,179.83,Payroll Accrual
GLI,8/31/2020,12202B,174123,GLI083120,GLI083120,179.83,Payroll Accrual
GLI,8/31/2020,12201B,174123,GLI083120,GLI083120,179.83,Payroll Accrual
GLI,8/31/2020,12506,173209,GLI083120,GLI083120,105.25,Payroll Accrual
GLI,8/31/2020,12306D,173209,GLI083120,GLI083120,1395.8,Payroll Accrual
GLI,8/31/2020,12504,172308,GLI083120,GLI083120,123.86,Payroll Accrual
GLI,8/31/2020,12304B,172308,GLI083120,GLI083120,2154.08,Payroll Accrual
GLI,8/31/2020,12906,172077,GLI083120,GLI083120,49.84,Payroll Accrual
GLI,8/31/2020,12506,172077,GLI083120,GLI083120,173.53,Payroll Accrual
GLI,8/31/2020,12306B,172077,GLI083120,GLI083120,2492.05,Payroll Accrual
GLI,8/31/2020,12505,171055,GLI083120,GLI083120,353.2,Payroll Accrual
GLI,8/31/2020,124703,171055,GLI083120,GLI083120,4884.44,Payroll Accrual
GLI,8/31/2020,12501,170150,GLI083120,GLI083120,39.4,Payroll Accrual
GLI,8/31/2020,11301C,170150,GLI083120,GLI083120,515,Payroll Accrual
GLI,8/31/2020,12504,169964,GLI083120,GLI083120,102.5,Payroll Accrual
GLI,8/31/2020,12304B,169964,GLI083120,GLI083120,1339.87,Payroll Accrual
GLI,8/31/2020,12505,169873,GLI083120,GLI083120,101.89,Payroll Accrual
GLI,8/31/2020,12305B,169873,GLI083120,GLI083120,1331.95,Payroll Accrual
GLI,8/31/2020,12524,169846,GLI083120,GLI083120,25.01,Payroll Accrual
GLI,8/31/2020,124724,169846,GLI083120,GLI083120,327,Payroll Accrual
GLI,8/31/2020,12524,169753,GLI083120,GLI083120,21.72,Payroll Accrual
GLI,8/31/2020,124724,169753,GLI083120,GLI083120,283.8,Payroll Accrual
GLI,8/31/2020,12506,169542,GLI083120,GLI083120,81.3,Payroll Accrual
GLI,8/31/2020,12306D,169542,GLI083120,GLI083120,1062.75,Payroll Accrual
GLI,8/31/2020,12524,169345,GLI083120,GLI083120,90,Payroll Accrual
GLI,8/31/2020,124724,169345,GLI083120,GLI083120,1176.42,Payroll Accrual
GLI,8/31/2020,12506,168815,GLI083120,GLI083120,17.25,Payroll Accrual
GLI,8/31/2020,12306D,168815,GLI083120,GLI083120,225.54,Payroll Accrual
GLI,8/31/2020,12504,168754,GLI083120,GLI083120,116.18,Payroll Accrual
GLI,8/31/2020,124704,168754,GLI083120,GLI083120,1518.66,Payroll Accrual
GLI,8/31/2020,12904,168753,GLI083120,GLI083120,30.36,Payroll Accrual
GLI,8/31/2020,12504,168753,GLI083120,GLI083120,145.82,Payroll Accrual
GLI,8/31/2020,124704,168753,GLI083120,GLI083120,2023.89,Payroll Accrual
GLI,8/31/2020,12404,168753,GLI083120,GLI083120,938,Payroll Accrual
GLI,8/31/2020,12504,168575,GLI083120,GLI083120,37.24,Payroll Accrual
GLI,8/31/2020,12304C,168575,GLI083120,GLI083120,486.84,Payroll Accrual
GLI,8/31/2020,12504,168573,GLI083120,GLI083120,113.33,Payroll Accrual
GLI,8/31/2020,124704,168573,GLI083120,GLI083120,1481.38,Payroll Accrual
GLI,8/31/2020,12906,168351,GLI083120,GLI083120,40.38,Payroll Accrual
GLI,8/31/2020,12506,168351,GLI083120,GLI083120,199.05,Payroll Accrual
GLI,8/31/2020,12106,168351,GLI083120,GLI083120,2692.31,Payroll Accrual
GLI,8/31/2020,12503,168243,GLI083120,GLI083120,93.61,Payroll Accrual
GLI,8/31/2020,12303,168243,GLI083120,GLI083120,1265.94,Payroll Accrual
GLI,8/31/2020,12905,167934,GLI083120,GLI083120,23.98,Payroll Accrual
GLI,8/31/2020,12505,167934,GLI083120,GLI083120,120.77,Payroll Accrual
GLI,8/31/2020,124703,167934,GLI083120,GLI083120,1478.7,Payroll Accrual
GLI,8/31/2020,12405,167934,GLI083120,GLI083120,120,Payroll Accrual
GLI,8/31/2020,12506,167906,GLI083120,GLI083120,96.13,Payroll Accrual
GLI,8/31/2020,12306C,167906,GLI083120,GLI083120,1293.76,Payroll Accrual
GLI,8/31/2020,12906,167812,GLI083120,GLI083120,1.45,Payroll Accrual
GLI,8/31/2020,12905,167812,GLI083120,GLI083120,1.34,Payroll Accrual
GLI,8/31/2020,12514,167812,GLI083120,GLI083120,3.04,Payroll Accrual
GLI,8/31/2020,12506,167812,GLI083120,GLI083120,0.34,Payroll Accrual
GLI,8/31/2020,12505,167812,GLI083120,GLI083120,0.31,Payroll Accrual
GLI,8/31/2020,12504,167812,GLI083120,GLI083120,2.62,Payroll Accrual
GLI,8/31/2020,12502,167812,GLI083120,GLI083120,2.34,Payroll Accrual
GLI,8/31/2020,12501,167812,GLI083120,GLI083120,2.34,Payroll Accrual
GLI,8/31/2020,12214,167812,GLI083120,GLI083120,39.67,Payroll Accrual
GLI,8/31/2020,12206C,167812,GLI083120,GLI083120,23.44,Payroll Accrual
GLI,8/31/2020,12205C,167812,GLI083120,GLI083120,21.64,Payroll Accrual
GLI,8/31/2020,12204C,167812,GLI083120,GLI083120,34.26,Payroll Accrual
GLI,8/31/2020,12202C,167812,GLI083120,GLI083120,30.65,Payroll Accrual
GLI,8/31/2020,12201C,167812,GLI083120,GLI083120,30.65,Payroll Accrual
GLI,8/31/2020,12504,167580,GLI083120,GLI083120,166,Payroll Accrual
GLI,8/31/2020,124704,167580,GLI083120,GLI083120,2393.71,Payroll Accrual
GLI,8/31/2020,12506,167321,GLI083120,GLI083120,16.13,Payroll Accrual
GLI,8/31/2020,12306C,167321,GLI083120,GLI083120,210.84,Payroll Accrual
GLI,8/31/2020,12503,166873,GLI083120,GLI083120,34.59,Payroll Accrual
GLI,8/31/2020,124723,166873,GLI083120,GLI083120,452.16,Payroll Accrual
GLI,8/31/2020,12503,166584,GLI083120,GLI083120,24.34,Payroll Accrual
GLI,8/31/2020,124723,166584,GLI083120,GLI083120,318.24,Payroll Accrual
GLI,8/31/2020,12527,165985,GLI083120,GLI083120,49.91,Payroll Accrual
GLI,8/31/2020,12327,165985,GLI083120,GLI083120,652.47,Payroll Accrual
GLI,8/31/2020,12527,165982,GLI083120,GLI083120,52.03,Payroll Accrual
GLI,8/31/2020,12327,165982,GLI083120,GLI083120,680.16,Payroll Accrual
GLI,8/31/2020,12906,165980,GLI083120,GLI083120,3.19,Payroll Accrual
GLI,8/31/2020,12905,165980,GLI083120,GLI083120,3.19,Payroll Accrual
GLI,8/31/2020,12904,165980,GLI083120,GLI083120,3.19,Payroll Accrual
GLI,8/31/2020,12902,165980,GLI083120,GLI083120,3.19,Payroll Accrual
GLI,8/31/2020,12901,165980,GLI083120,GLI083120,3.19,Payroll Accrual
GLI,8/31/2020,12506,165980,GLI083120,GLI083120,7.96,Payroll Accrual
GLI,8/31/2020,12505,165980,GLI083120,GLI083120,7.96,Payroll Accrual
GLI,8/31/2020,12504,165980,GLI083120,GLI083120,7.96,Payroll Accrual
GLI,8/31/2020,12502,165980,GLI083120,GLI083120,7.96,Payroll Accrual
GLI,8/31/2020,12501,165980,GLI083120,GLI083120,7.96,Payroll Accrual
GLI,8/31/2020,12406,165980,GLI083120,GLI083120,52.2,Payroll Accrual
GLI,8/31/2020,12405,165980,GLI083120,GLI083120,52.2,Payroll Accrual
GLI,8/31/2020,12404,165980,GLI083120,GLI083120,52.2,Payroll Accrual
GLI,8/31/2020,12402,165980,GLI083120,GLI083120,52.2,Payroll Accrual
GLI,8/31/2020,12401,165980,GLI083120,GLI083120,52.2,Payroll Accrual
GLI,8/31/2020,12206B,165980,GLI083120,GLI083120,160.7,Payroll Accrual
GLI,8/31/2020,12205B,165980,GLI083120,GLI083120,160.7,Payroll Accrual
GLI,8/31/2020,12204B,165980,GLI083120,GLI083120,160.7,Payroll Accrual
GLI,8/31/2020,12202B,165980,GLI083120,GLI083120,160.7,Payroll Accrual
GLI,8/31/2020,12201B,165980,GLI083120,GLI083120,160.7,Payroll Accrual
GLI,8/31/2020,12911,165972,GLI083120,GLI083120,3.85,Payroll Accrual
GLI,8/31/2020,12906,165972,GLI083120,GLI083120,2.8,Payroll Accrual
GLI,8/31/2020,12905,165972,GLI083120,GLI083120,2.8,Payroll Accrual
GLI,8/31/2020,12904,165972,GLI083120,GLI083120,2.8,Payroll Accrual
GLI,8/31/2020,12902,165972,GLI083120,GLI083120,2.63,Payroll Accrual
GLI,8/31/2020,12901,165972,GLI083120,GLI083120,2.63,Payroll Accrual
GLI,8/31/2020,12511,165972,GLI083120,GLI083120,16.41,Payroll Accrual
GLI,8/31/2020,12506,165972,GLI083120,GLI083120,11.05,Payroll Accrual
GLI,8/31/2020,12505,165972,GLI083120,GLI083120,11.05,Payroll Accrual
GLI,8/31/2020,12504,165972,GLI083120,GLI083120,11.05,Payroll Accrual
GLI,8/31/2020,12502,165972,GLI083120,GLI083120,10.16,Payroll Accrual
GLI,8/31/2020,12501,165972,GLI083120,GLI083120,10.16,Payroll Accrual
GLI,8/31/2020,12311,165972,GLI083120,GLI083120,256.78,Payroll Accrual
GLI,8/31/2020,12306H,165972,GLI083120,GLI083120,186.75,Payroll Accrual
GLI,8/31/2020,12305H,165972,GLI083120,GLI083120,186.75,Payroll Accrual
GLI,8/31/2020,12304H,165972,GLI083120,GLI083120,186.75,Payroll Accrual
GLI,8/31/2020,12302H,165972,GLI083120,GLI083120,175.08,Payroll Accrual
GLI,8/31/2020,12301H,165972,GLI083120,GLI083120,175.08,Payroll Accrual
GLI,8/31/2020,12527,165876,GLI083120,GLI083120,52.37,Payroll Accrual
GLI,8/31/2020,12327,165876,GLI083120,GLI083120,684.58,Payroll Accrual
GLI,8/31/2020,12903,165873,GLI083120,GLI083120,17.94,Payroll Accrual
GLI,8/31/2020,12503,165873,GLI083120,GLI083120,91.52,Payroll Accrual
GLI,8/31/2020,124723,165873,GLI083120,GLI083120,1196.24,Payroll Accrual
GLI,8/31/2020,12503,165848,GLI083120,GLI083120,39.5,Payroll Accrual
GLI,8/31/2020,124723,165848,GLI083120,GLI083120,516.26,Payroll Accrual
GLI,8/31/2020,12527,165826,GLI083120,GLI083120,37.97,Payroll Accrual
GLI,8/31/2020,12327,165826,GLI083120,GLI083120,496.34,Payroll Accrual
GLI,8/31/2020,12504,165823,GLI083120,GLI083120,-9.33,Payroll Accrual
GLI,8/31/2020,12304C,165823,GLI083120,GLI083120,352.8,Payroll Accrual
GLI,8/31/2020,12524,165780,GLI083120,GLI083120,90.11,Payroll Accrual
GLI,8/31/2020,124724,165780,GLI083120,GLI083120,1177.93,Payroll Accrual
GLI,8/31/2020,12502,165748,GLI083120,GLI083120,46.15,Payroll Accrual
GLI,8/31/2020,12501,165748,GLI083120,GLI083120,30.76,Payroll Accrual
GLI,8/31/2020,11102,165748,GLI083120,GLI083120,603.2,Payroll Accrual
GLI,8/31/2020,11101,165748,GLI083120,GLI083120,402.14,Payroll Accrual
GLI,8/31/2020,12504,165732,GLI083120,GLI083120,125.89,Payroll Accrual
GLI,8/31/2020,12404,165732,GLI083120,GLI083120,126,Payroll Accrual
GLI,8/31/2020,12204A,165732,GLI083120,GLI083120,1519.63,Payroll Accrual
GLI,8/31/2020,12503,165478,GLI083120,GLI083120,24.77,Payroll Accrual
GLI,8/31/2020,124723,165478,GLI083120,GLI083120,323.83,Payroll Accrual
GLI,8/31/2020,12903,165473,GLI083120,GLI083120,17.59,Payroll Accrual
GLI,8/31/2020,12503,165473,GLI083120,GLI083120,84.02,Payroll Accrual
GLI,8/31/2020,124723,165473,GLI083120,GLI083120,1172.61,Payroll Accrual
GLI,8/31/2020,12506,165432,GLI083120,GLI083120,6.77,Payroll Accrual
GLI,8/31/2020,12505,165432,GLI083120,GLI083120,6.77,Payroll Accrual
GLI,8/31/2020,12504,165432,GLI083120,GLI083120,6.77,Payroll Accrual
GLI,8/31/2020,12502,165432,GLI083120,GLI083120,6.77,Payroll Accrual
GLI,8/31/2020,12501,165432,GLI083120,GLI083120,6.77,Payroll Accrual
GLI,8/31/2020,12206B,165432,GLI083120,GLI083120,88.5,Payroll Accrual
GLI,8/31/2020,12205B,165432,GLI083120,GLI083120,88.5,Payroll Accrual
GLI,8/31/2020,12204B,165432,GLI083120,GLI083120,88.5,Payroll Accrual
GLI,8/31/2020,12202B,165432,GLI083120,GLI083120,88.5,Payroll Accrual
GLI,8/31/2020,12201B,165432,GLI083120,GLI083120,88.5,Payroll Accrual
GLI,8/31/2020,12916,165428,GLI083120,GLI083120,43.41,Payroll Accrual
GLI,8/31/2020,12516,165428,GLI083120,GLI083120,221.38,Payroll Accrual
GLI,8/31/2020,12316,165428,GLI083120,GLI083120,2893.86,Payroll Accrual
GLI,8/31/2020,12905,165357,GLI083120,GLI083120,44.03,Payroll Accrual
GLI,8/31/2020,12505,165357,GLI083120,GLI083120,222.47,Payroll Accrual
GLI,8/31/2020,12405,165357,GLI083120,GLI083120,192,Payroll Accrual
GLI,8/31/2020,12305B,165357,GLI083120,GLI083120,2743.55,Payroll Accrual
GLI,8/31/2020,12506,165321,GLI083120,GLI083120,93.21,Payroll Accrual
GLI,8/31/2020,12306C,165321,GLI083120,GLI083120,1218.42,Payroll Accrual
GLI,8/31/2020,12503,165288,GLI083120,GLI083120,42.01,Payroll Accrual
GLI,8/31/2020,124723,165288,GLI083120,GLI083120,549.11,Payroll Accrual
GLI,8/31/2020,12527,165245,GLI083120,GLI083120,26.9,Payroll Accrual
GLI,8/31/2020,12327,165245,GLI083120,GLI083120,351.65,Payroll Accrual
GLI,8/31/2020,12527,165236,GLI083120,GLI083120,15.85,Payroll Accrual
GLI,8/31/2020,12327,165236,GLI083120,GLI083120,207.2,Payroll Accrual
GLI,8/31/2020,12524,164920,GLI083120,GLI083120,56.09,Payroll Accrual
GLI,8/31/2020,124724,164920,GLI083120,GLI083120,733.2,Payroll Accrual
GLI,8/31/2020,12524,164792,GLI083120,GLI083120,2.3,Payroll Accrual
GLI,8/31/2020,124724,164792,GLI083120,GLI083120,30,Payroll Accrual
GLI,8/31/2020,12524,164785,GLI083120,GLI083120,29.6,Payroll Accrual
GLI,8/31/2020,12224,164785,GLI083120,GLI083120,386.88,Payroll Accrual
GLI,8/31/2020,12516,164329,GLI083120,GLI083120,71.59,Payroll Accrual
GLI,8/31/2020,12316,164329,GLI083120,GLI083120,935.82,Payroll Accrual
GLI,8/31/2020,12524,164328,GLI083120,GLI083120,1.17,Payroll Accrual
GLI,8/31/2020,12505,164328,GLI083120,GLI083120,1.17,Payroll Accrual
GLI,8/31/2020,12504,164328,GLI083120,GLI083120,1.17,Payroll Accrual
GLI,8/31/2020,12502,164328,GLI083120,GLI083120,1.17,Payroll Accrual
GLI,8/31/2020,12501,164328,GLI083120,GLI083120,1.17,Payroll Accrual
GLI,8/31/2020,12324F,164328,GLI083120,GLI083120,15.37,Payroll Accrual
GLI,8/31/2020,12305F,164328,GLI083120,GLI083120,15.37,Payroll Accrual
GLI,8/31/2020,12304F,164328,GLI083120,GLI083120,15.37,Payroll Accrual
GLI,8/31/2020,12302F,164328,GLI083120,GLI083120,15.37,Payroll Accrual
GLI,8/31/2020,12301F,164328,GLI083120,GLI083120,15.37,Payroll Accrual
GLI,8/31/2020,12501,164202,GLI083120,GLI083120,2.3,Payroll Accrual
GLI,8/31/2020,11301C,164202,GLI083120,GLI083120,30,Payroll Accrual
GLI,8/31/2020,12904,164015,GLI083120,GLI083120,63.78,Payroll Accrual
GLI,8/31/2020,12504,164015,GLI083120,GLI083120,241.79,Payroll Accrual
GLI,8/31/2020,124704,164015,GLI083120,GLI083120,3188.9,Payroll Accrual
GLI,8/31/2020,12502,163700,GLI083120,GLI083120,131.44,Payroll Accrual
GLI,8/31/2020,12501,163700,GLI083120,GLI083120,87.63,Payroll Accrual
GLI,8/31/2020,11102,163700,GLI083120,GLI083120,1862.77,Payroll Accrual
GLI,8/31/2020,11101,163700,GLI083120,GLI083120,1241.85,Payroll Accrual
GLI,8/31/2020,12524,163278,GLI083120,GLI083120,106.25,Payroll Accrual
GLI,8/31/2020,124724,163278,GLI083120,GLI083120,1388.8,Payroll Accrual
GLI,8/31/2020,12503,163245,GLI083120,GLI083120,130.06,Payroll Accrual
GLI,8/31/2020,12303,163245,GLI083120,GLI083120,1700.07,Payroll Accrual
GLI,8/31/2020,12512,163096,GLI083120,GLI083120,25.65,Payroll Accrual
GLI,8/31/2020,12502,163096,GLI083120,GLI083120,47.97,Payroll Accrual
GLI,8/31/2020,12501,163096,GLI083120,GLI083120,47.97,Payroll Accrual
GLI,8/31/2020,12212,163096,GLI083120,GLI083120,377.59,Payroll Accrual
GLI,8/31/2020,12202C,163096,GLI083120,GLI083120,669.36,Payroll Accrual
GLI,8/31/2020,12201C,163096,GLI083120,GLI083120,669.36,Payroll Accrual
GLI,8/31/2020,12505,162984,GLI083120,GLI083120,82.78,Payroll Accrual
GLI,8/31/2020,12205A,162984,GLI083120,GLI083120,1082.03,Payroll Accrual
GLI,8/31/2020,12501,162800,GLI083120,GLI083120,13.77,Payroll Accrual
GLI,8/31/2020,11301C,162800,GLI083120,GLI083120,180,Payroll Accrual
GLI,8/31/2020,12904,16250,GLI083120,GLI083120,18.15,Payroll Accrual
GLI,8/31/2020,12504,16250,GLI083120,GLI083120,55.6,Payroll Accrual
GLI,8/31/2020,12304D,16250,GLI083120,GLI083120,1210.32,Payroll Accrual
GLI,8/31/2020,12906,162428,GLI083120,GLI083120,34.5,Payroll Accrual
GLI,8/31/2020,12506,162428,GLI083120,GLI083120,170.64,Payroll Accrual
GLI,8/31/2020,12306B,162428,GLI083120,GLI083120,2299.88,Payroll Accrual
GLI,8/31/2020,12903,161010,GLI083120,GLI083120,21.36,Payroll Accrual
GLI,8/31/2020,12503,161010,GLI083120,GLI083120,108.95,Payroll Accrual
GLI,8/31/2020,124723,161010,GLI083120,GLI083120,1424.25,Payroll Accrual
GLI,8/31/2020,12905,160930,GLI083120,GLI083120,54.58,Payroll Accrual
GLI,8/31/2020,12505,160930,GLI083120,GLI083120,207.45,Payroll Accrual
GLI,8/31/2020,12305C,160930,GLI083120,GLI083120,2729.24,Payroll Accrual
GLI,8/31/2020,12502,159875,GLI083120,GLI083120,42.19,Payroll Accrual
GLI,8/31/2020,12501,159875,GLI083120,GLI083120,28.12,Payroll Accrual
GLI,8/31/2020,11102,159875,GLI083120,GLI083120,551.45,Payroll Accrual
GLI,8/31/2020,11101,159875,GLI083120,GLI083120,367.64,Payroll Accrual
GLI,8/31/2020,12503,159873,GLI083120,GLI083120,94.95,Payroll Accrual
GLI,8/31/2020,124723,159873,GLI083120,GLI083120,1241.13,Payroll Accrual
GLI,8/31/2020,12504,159857,GLI083120,GLI083120,83.58,Payroll Accrual
GLI,8/31/2020,12304C,159857,GLI083120,GLI083120,1134.9,Payroll Accrual
GLI,8/31/2020,12503,159375,GLI083120,GLI083120,40.26,Payroll Accrual
GLI,8/31/2020,124723,159375,GLI083120,GLI083120,526.35,Payroll Accrual
GLI,8/31/2020,12524,158964,GLI083120,GLI083120,17,Payroll Accrual
GLI,8/31/2020,124724,158964,GLI083120,GLI083120,222.24,Payroll Accrual
GLI,8/31/2020,12924,158963,GLI083120,GLI083120,17.4,Payroll Accrual
GLI,8/31/2020,12524,158963,GLI083120,GLI083120,88.74,Payroll Accrual
GLI,8/31/2020,124724,158963,GLI083120,GLI083120,1160.04,Payroll Accrual
GLI,8/31/2020,12906,1588879,GLI083120,GLI083120,10.98,Payroll Accrual
GLI,8/31/2020,12905,1588879,GLI083120,GLI083120,10.13,Payroll Accrual
GLI,8/31/2020,12514,1588879,GLI083120,GLI083120,22.93,Payroll Accrual
GLI,8/31/2020,12506,1588879,GLI083120,GLI083120,2.57,Payroll Accrual
GLI,8/31/2020,12505,1588879,GLI083120,GLI083120,2.37,Payroll Accrual
GLI,8/31/2020,12504,1588879,GLI083120,GLI083120,19.8,Payroll Accrual
GLI,8/31/2020,12502,1588879,GLI083120,GLI083120,17.72,Payroll Accrual
GLI,8/31/2020,12501,1588879,GLI083120,GLI083120,17.72,Payroll Accrual
GLI,8/31/2020,12214,1588879,GLI083120,GLI083120,299.67,Payroll Accrual
GLI,8/31/2020,12206C,1588879,GLI083120,GLI083120,177.08,Payroll Accrual
GLI,8/31/2020,12205C,1588879,GLI083120,GLI083120,163.46,Payroll Accrual
GLI,8/31/2020,12204C,1588879,GLI083120,GLI083120,258.81,Payroll Accrual
GLI,8/31/2020,12202C,1588879,GLI083120,GLI083120,231.57,Payroll Accrual
GLI,8/31/2020,12201C,1588879,GLI083120,GLI083120,231.57,Payroll Accrual
GLI,8/31/2020,12503,158475,GLI083120,GLI083120,85.9,Payroll Accrual
GLI,8/31/2020,12303,158475,GLI083120,GLI083120,1122.88,Payroll Accrual
GLI,8/31/2020,12914,157995,GLI083120,GLI083120,9.65,Payroll Accrual
GLI,8/31/2020,12906,157995,GLI083120,GLI083120,20.08,Payroll Accrual
GLI,8/31/2020,12905,157995,GLI083120,GLI083120,18.53,Payroll Accrual
GLI,8/31/2020,12904,157995,GLI083120,GLI083120,8.33,Payroll Accrual
GLI,8/31/2020,12902,157995,GLI083120,GLI083120,7.45,Payroll Accrual
GLI,8/31/2020,12901,157995,GLI083120,GLI083120,7.45,Payroll Accrual
GLI,8/31/2020,12514,157995,GLI083120,GLI083120,30.03,Payroll Accrual
GLI,8/31/2020,12506,157995,GLI083120,GLI083120,3.36,Payroll Accrual
GLI,8/31/2020,12505,157995,GLI083120,GLI083120,3.1,Payroll Accrual
GLI,8/31/2020,12504,157995,GLI083120,GLI083120,25.94,Payroll Accrual
GLI,8/31/2020,12502,157995,GLI083120,GLI083120,23.21,Payroll Accrual
GLI,8/31/2020,12501,157995,GLI083120,GLI083120,23.21,Payroll Accrual
GLI,8/31/2020,12214,157995,GLI083120,GLI083120,482.31,Payroll Accrual
GLI,8/31/2020,12206C,157995,GLI083120,GLI083120,285,Payroll Accrual
GLI,8/31/2020,12205C,157995,GLI083120,GLI083120,263.08,Payroll Accrual
GLI,8/31/2020,12204C,157995,GLI083120,GLI083120,416.54,Payroll Accrual
GLI,8/31/2020,12202C,157995,GLI083120,GLI083120,372.69,Payroll Accrual
GLI,8/31/2020,12201C,157995,GLI083120,GLI083120,372.69,Payroll Accrual
GLI,8/31/2020,12905,157953,GLI083120,GLI083120,55.34,Payroll Accrual
GLI,8/31/2020,12505,157953,GLI083120,GLI083120,267.75,Payroll Accrual
GLI,8/31/2020,124703,157953,GLI083120,GLI083120,3689.51,Payroll Accrual
GLI,8/31/2020,12503,157939,GLI083120,GLI083120,53.89,Payroll Accrual
GLI,8/31/2020,124723,157939,GLI083120,GLI083120,788.98,Payroll Accrual
GLI,8/31/2020,12503,157394,GLI083120,GLI083120,101.37,Payroll Accrual
GLI,8/31/2020,124723,157394,GLI083120,GLI083120,1325.18,Payroll Accrual
GLI,8/31/2020,12506,157392,GLI083120,GLI083120,15.71,Payroll Accrual
GLI,8/31/2020,12505,157392,GLI083120,GLI083120,15.71,Payroll Accrual
GLI,8/31/2020,12504,157392,GLI083120,GLI083120,15.71,Payroll Accrual
GLI,8/31/2020,12502,157392,GLI083120,GLI083120,15.71,Payroll Accrual
GLI,8/31/2020,12501,157392,GLI083120,GLI083120,15.71,Payroll Accrual
GLI,8/31/2020,12206B,157392,GLI083120,GLI083120,205.24,Payroll Accrual
GLI,8/31/2020,12205B,157392,GLI083120,GLI083120,205.24,Payroll Accrual
GLI,8/31/2020,12204B,157392,GLI083120,GLI083120,205.24,Payroll Accrual
GLI,8/31/2020,12202B,157392,GLI083120,GLI083120,205.24,Payroll Accrual
GLI,8/31/2020,12201B,157392,GLI083120,GLI083120,205.24,Payroll Accrual
GLI,8/31/2020,12516,156844,GLI083120,GLI083120,142.32,Payroll Accrual
GLI,8/31/2020,12316,156844,GLI083120,GLI083120,1964.13,Payroll Accrual
GLI,8/31/2020,12524,1566882,GLI083120,GLI083120,134.81,Payroll Accrual
GLI,8/31/2020,124724,1566882,GLI083120,GLI083120,1804.52,Payroll Accrual
GLI,8/31/2020,12903,15668,GLI083120,GLI083120,24.99,Payroll Accrual
GLI,8/31/2020,12503,15668,GLI083120,GLI083120,124.83,Payroll Accrual
GLI,8/31/2020,12303,15668,GLI083120,GLI083120,1666.1,Payroll Accrual
GLI,8/31/2020,12906,15646,GLI083120,GLI083120,20.82,Payroll Accrual
GLI,8/31/2020,12506,15646,GLI083120,GLI083120,102.95,Payroll Accrual
GLI,8/31/2020,12306B,15646,GLI083120,GLI083120,1388.03,Payroll Accrual
GLI,8/31/2020,12527,156398,GLI083120,GLI083120,41.48,Payroll Accrual
GLI,8/31/2020,12327,156398,GLI083120,GLI083120,542.23,Payroll Accrual
GLI,8/31/2020,12903,155477,GLI083120,GLI083120,15.64,Payroll Accrual
GLI,8/31/2020,12503,155477,GLI083120,GLI083120,58.89,Payroll Accrual
GLI,8/31/2020,124723,155477,GLI083120,GLI083120,1042.56,Payroll Accrual
GLI,8/31/2020,12906,155214,GLI083120,GLI083120,8.92,Payroll Accrual
GLI,8/31/2020,12905,155214,GLI083120,GLI083120,8.23,Payroll Accrual
GLI,8/31/2020,12514,155214,GLI083120,GLI083120,18.62,Payroll Accrual
GLI,8/31/2020,12506,155214,GLI083120,GLI083120,2.09,Payroll Accrual
GLI,8/31/2020,12505,155214,GLI083120,GLI083120,1.92,Payroll Accrual
GLI,8/31/2020,12504,155214,GLI083120,GLI083120,16.08,Payroll Accrual
GLI,8/31/2020,12502,155214,GLI083120,GLI083120,14.39,Payroll Accrual
GLI,8/31/2020,12501,155214,GLI083120,GLI083120,14.39,Payroll Accrual
GLI,8/31/2020,12414,155214,GLI083120,GLI083120,52.8,Payroll Accrual
GLI,8/31/2020,12406,155214,GLI083120,GLI083120,31.2,Payroll Accrual
GLI,8/31/2020,12405,155214,GLI083120,GLI083120,28.8,Payroll Accrual
GLI,8/31/2020,12404,155214,GLI083120,GLI083120,45.6,Payroll Accrual
GLI,8/31/2020,12402,155214,GLI083120,GLI083120,40.8,Payroll Accrual
GLI,8/31/2020,12401,155214,GLI083120,GLI083120,40.8,Payroll Accrual
GLI,8/31/2020,12214,155214,GLI083120,GLI083120,190.58,Payroll Accrual
GLI,8/31/2020,12206C,155214,GLI083120,GLI083120,112.61,Payroll Accrual
GLI,8/31/2020,12205C,155214,GLI083120,GLI083120,103.95,Payroll Accrual
GLI,8/31/2020,12204C,155214,GLI083120,GLI083120,164.59,Payroll Accrual
GLI,8/31/2020,12202C,155214,GLI083120,GLI083120,147.26,Payroll Accrual
GLI,8/31/2020,12201C,155214,GLI083120,GLI083120,147.26,Payroll Accrual
GLI,8/31/2020,12503,154785,GLI083120,GLI083120,71.45,Payroll Accrual
GLI,8/31/2020,12303,154785,GLI083120,GLI083120,934.02,Payroll Accrual
GLI,8/31/2020,12527,154624,GLI083120,GLI083120,51.46,Payroll Accrual
GLI,8/31/2020,12327,154624,GLI083120,GLI083120,672.75,Payroll Accrual
GLI,8/31/2020,12527,154474,GLI083120,GLI083120,12.23,Payroll Accrual
GLI,8/31/2020,12327,154474,GLI083120,GLI083120,159.9,Payroll Accrual
GLI,8/31/2020,12506,154328,GLI083120,GLI083120,57.46,Payroll Accrual
GLI,8/31/2020,12306D,154328,GLI083120,GLI083120,751.09,Payroll Accrual
GLI,8/31/2020,12906,154225,GLI083120,GLI083120,19.47,Payroll Accrual
GLI,8/31/2020,12506,154225,GLI083120,GLI083120,92.31,Payroll Accrual
GLI,8/31/2020,12306D,154225,GLI083120,GLI083120,1298.29,Payroll Accrual
GLI,8/31/2020,12927,154219,GLI083120,GLI083120,50.01,Payroll Accrual
GLI,8/31/2020,12527,154219,GLI083120,GLI083120,189.76,Payroll Accrual
GLI,8/31/2020,12127,154219,GLI083120,GLI083120,2500.48,Payroll Accrual
GLI,8/31/2020,12504,153865,GLI083120,GLI083120,168.62,Payroll Accrual
GLI,8/31/2020,124704,153865,GLI083120,GLI083120,2204.18,Payroll Accrual
GLI,8/31/2020,12504,153835,GLI083120,GLI083120,24.11,Payroll Accrual
GLI,8/31/2020,12304C,153835,GLI083120,GLI083120,315.12,Payroll Accrual
GLI,8/31/2020,12504,152964,GLI083120,GLI083120,109.59,Payroll Accrual
GLI,8/31/2020,124704,152964,GLI083120,GLI083120,1240.56,Payroll Accrual
GLI,8/31/2020,12404,152964,GLI083120,GLI083120,192,Payroll Accrual
GLI,8/31/2020,12904,152525,GLI083120,GLI083120,24.08,Payroll Accrual
GLI,8/31/2020,12504,152525,GLI083120,GLI083120,103.35,Payroll Accrual
GLI,8/31/2020,124704,152525,GLI083120,GLI083120,1605.12,Payroll Accrual
GLI,8/31/2020,12927,152510,GLI083120,GLI083120,19.45,Payroll Accrual
GLI,8/31/2020,12527,152510,GLI083120,GLI083120,91.49,Payroll Accrual
GLI,8/31/2020,12327,152510,GLI083120,GLI083120,1296.45,Payroll Accrual
GLI,8/31/2020,12504,152499,GLI083120,GLI083120,180.26,Payroll Accrual
GLI,8/31/2020,12304B,152499,GLI083120,GLI083120,2356.32,Payroll Accrual
GLI,8/31/2020,12903,152432,GLI083120,GLI083120,1.07,Payroll Accrual
GLI,8/31/2020,12503,152432,GLI083120,GLI083120,5.47,Payroll Accrual
GLI,8/31/2020,12303,152432,GLI083120,GLI083120,71.4,Payroll Accrual
GLI,8/31/2020,12504,152410,GLI083120,GLI083120,190.5,Payroll Accrual
GLI,8/31/2020,124704,152410,GLI083120,GLI083120,2510.09,Payroll Accrual
GLI,8/31/2020,12404,152410,GLI083120,GLI083120,774.8,Payroll Accrual
GLI,8/31/2020,12504,152235,GLI083120,GLI083120,332.1,Payroll Accrual
GLI,8/31/2020,124704,152235,GLI083120,GLI083120,4361.17,Payroll Accrual
GLI,8/31/2020,12404,152235,GLI083120,GLI083120,1425.3,Payroll Accrual
GLI,8/31/2020,12905,151702,GLI083120,GLI083120,25.05,Payroll Accrual
GLI,8/31/2020,12505,151702,GLI083120,GLI083120,123.08,Payroll Accrual
GLI,8/31/2020,12305B,151702,GLI083120,GLI083120,1669.77,Payroll Accrual
GLI,8/31/2020,12504,150126,GLI083120,GLI083120,380.6,Payroll Accrual
GLI,8/31/2020,124704,150126,GLI083120,GLI083120,4975.19,Payroll Accrual
GLI,8/31/2020,12404,150126,GLI083120,GLI083120,178.92,Payroll Accrual
GLI,8/31/2020,12905,150120,GLI083120,GLI083120,37.09,Payroll Accrual
GLI,8/31/2020,12505,150120,GLI083120,GLI083120,185.49,Payroll Accrual
GLI,8/31/2020,12105,150120,GLI083120,GLI083120,2472.92,Payroll Accrual
GLI,8/31/2020,12905,150105,GLI083120,GLI083120,53.98,Payroll Accrual
GLI,8/31/2020,12505,150105,GLI083120,GLI083120,272.93,Payroll Accrual
GLI,8/31/2020,124703,150105,GLI083120,GLI083120,3598.65,Payroll Accrual
GLI,8/31/2020,12904,149878,GLI083120,GLI083120,15.46,Payroll Accrual
GLI,8/31/2020,12504,149878,GLI083120,GLI083120,85.48,Payroll Accrual
GLI,8/31/2020,12404,149878,GLI083120,GLI083120,120,Payroll Accrual
GLI,8/31/2020,12304D,149878,GLI083120,GLI083120,1426.61,Payroll Accrual
GLI,8/31/2020,12503,149857,GLI083120,GLI083120,93.23,Payroll Accrual
GLI,8/31/2020,124723,149857,GLI083120,GLI083120,1218.68,Payroll Accrual
GLI,8/31/2020,12524,148765,GLI083120,GLI083120,14.94,Payroll Accrual
GLI,8/31/2020,124724,148765,GLI083120,GLI083120,195.36,Payroll Accrual
GLI,8/31/2020,12502,147852,GLI083120,GLI083120,-4.22,Payroll Accrual
GLI,8/31/2020,12501,147852,GLI083120,GLI083120,-6.5,Payroll Accrual
GLI,8/31/2020,11102,147852,GLI083120,GLI083120,176.26,Payroll Accrual
GLI,8/31/2020,11101,147852,GLI083120,GLI083120,117.5,Payroll Accrual
GLI,8/31/2020,12524,147832,GLI083120,GLI083120,81.68,Payroll Accrual
GLI,8/31/2020,124724,147832,GLI083120,GLI083120,1067.82,Payroll Accrual
GLI,8/31/2020,12524,146982,GLI083120,GLI083120,48.29,Payroll Accrual
GLI,8/31/2020,124724,146982,GLI083120,GLI083120,631.28,Payroll Accrual
GLI,8/31/2020,12527,145982,GLI083120,GLI083120,278.87,Payroll Accrual
GLI,8/31/2020,12327,145982,GLI083120,GLI083120,3739.68,Payroll Accrual
GLI,8/31/2020,12504,145801,GLI083120,GLI083120,102.34,Payroll Accrual
GLI,8/31/2020,124704,145801,GLI083120,GLI083120,1424.28,Payroll Accrual
GLI,8/31/2020,12905,145789,GLI083120,GLI083120,40.95,Payroll Accrual
GLI,8/31/2020,12505,145789,GLI083120,GLI083120,194.33,Payroll Accrual
GLI,8/31/2020,124703,145789,GLI083120,GLI083120,2729.87,Payroll Accrual
GLI,8/31/2020,12405,145789,GLI083120,GLI083120,235.76,Payroll Accrual
GLI,8/31/2020,12506,145087,GLI083120,GLI083120,10.11,Payroll Accrual
GLI,8/31/2020,12505,145087,GLI083120,GLI083120,10.11,Payroll Accrual
GLI,8/31/2020,12504,145087,GLI083120,GLI083120,10.11,Payroll Accrual
GLI,8/31/2020,12502,145087,GLI083120,GLI083120,10.11,Payroll Accrual
GLI,8/31/2020,12501,145087,GLI083120,GLI083120,10.11,Payroll Accrual
GLI,8/31/2020,12206B,145087,GLI083120,GLI083120,132.13,Payroll Accrual
GLI,8/31/2020,12205B,145087,GLI083120,GLI083120,132.13,Payroll Accrual
GLI,8/31/2020,12204B,145087,GLI083120,GLI083120,132.13,Payroll Accrual
GLI,8/31/2020,12202B,145087,GLI083120,GLI083120,132.13,Payroll Accrual
GLI,8/31/2020,12201B,145087,GLI083120,GLI083120,132.13,Payroll Accrual
GLI,8/31/2020,12912,143769,GLI083120,GLI083120,3.43,Payroll Accrual
GLI,8/31/2020,12902,143769,GLI083120,GLI083120,6.08,Payroll Accrual
GLI,8/31/2020,12901,143769,GLI083120,GLI083120,6.08,Payroll Accrual
GLI,8/31/2020,12512,143769,GLI083120,GLI083120,17.48,Payroll Accrual
GLI,8/31/2020,12502,143769,GLI083120,GLI083120,31.01,Payroll Accrual
GLI,8/31/2020,12501,143769,GLI083120,GLI083120,31.01,Payroll Accrual
GLI,8/31/2020,12412,143769,GLI083120,GLI083120,26.84,Payroll Accrual
GLI,8/31/2020,12402,143769,GLI083120,GLI083120,47.58,Payroll Accrual
GLI,8/31/2020,12401,143769,GLI083120,GLI083120,47.58,Payroll Accrual
GLI,8/31/2020,12212,143769,GLI083120,GLI083120,201.77,Payroll Accrual
GLI,8/31/2020,12202C,143769,GLI083120,GLI083120,357.68,Payroll Accrual
GLI,8/31/2020,12201C,143769,GLI083120,GLI083120,357.68,Payroll Accrual
GLI,8/31/2020,12924,143659,GLI083120,GLI083120,4.54,Payroll Accrual
GLI,8/31/2020,12524,143659,GLI083120,GLI083120,23.17,Payroll Accrual
GLI,8/31/2020,124724,143659,GLI083120,GLI083120,302.9,Payroll Accrual
GLI,8/31/2020,12524,143298,GLI083120,GLI083120,13.15,Payroll Accrual
GLI,8/31/2020,12505,143298,GLI083120,GLI083120,13.15,Payroll Accrual
GLI,8/31/2020,12504,143298,GLI083120,GLI083120,13.15,Payroll Accrual
GLI,8/31/2020,12502,143298,GLI083120,GLI083120,13.15,Payroll Accrual
GLI,8/31/2020,12501,143298,GLI083120,GLI083120,13.15,Payroll Accrual
GLI,8/31/2020,12324F,143298,GLI083120,GLI083120,171.96,Payroll Accrual
GLI,8/31/2020,12305F,143298,GLI083120,GLI083120,171.96,Payroll Accrual
GLI,8/31/2020,12304F,143298,GLI083120,GLI083120,171.96,Payroll Accrual
GLI,8/31/2020,12302F,143298,GLI083120,GLI083120,171.96,Payroll Accrual
GLI,8/31/2020,12301F,143298,GLI083120,GLI083120,171.96,Payroll Accrual
GLI,8/31/2020,12505,141069,GLI083120,GLI083120,219.85,Payroll Accrual
GLI,8/31/2020,12405,141069,GLI083120,GLI083120,88,Payroll Accrual
GLI,8/31/2020,12305B,141069,GLI083120,GLI083120,2860.24,Payroll Accrual
GLI,8/31/2020,12504,141060,GLI083120,GLI083120,263.4,Payroll Accrual
GLI,8/31/2020,12304B,141060,GLI083120,GLI083120,3527.72,Payroll Accrual
GLI,8/31/2020,12904,140790,GLI083120,GLI083120,63.14,Payroll Accrual
GLI,8/31/2020,12504,140790,GLI083120,GLI083120,236.78,Payroll Accrual
GLI,8/31/2020,124704,140790,GLI083120,GLI083120,3156.93,Payroll Accrual
GLI,8/31/2020,12506,139856,GLI083120,GLI083120,97.6,Payroll Accrual
GLI,8/31/2020,12306B,139856,GLI083120,GLI083120,1312.96,Payroll Accrual
GLI,8/31/2020,12506,139846,GLI083120,GLI083120,74.33,Payroll Accrual
GLI,8/31/2020,12306C,139846,GLI083120,GLI083120,971.6,Payroll Accrual
GLI,8/31/2020,12503,139475,GLI083120,GLI083120,76.42,Payroll Accrual
GLI,8/31/2020,12403,139475,GLI083120,GLI083120,112,Payroll Accrual
GLI,8/31/2020,12303,139475,GLI083120,GLI083120,1060.1,Payroll Accrual
GLI,8/31/2020,12527,138945,GLI083120,GLI083120,47.03,Payroll Accrual
GLI,8/31/2020,12327,138945,GLI083120,GLI083120,614.77,Payroll Accrual
GLI,8/31/2020,12516,138380,GLI083120,GLI083120,63.5,Payroll Accrual
GLI,8/31/2020,12416,138380,GLI083120,GLI083120,240,Payroll Accrual
GLI,8/31/2020,12316,138380,GLI083120,GLI083120,823.35,Payroll Accrual
GLI,8/31/2020,12501,13815,GLI083120,GLI083120,2.3,Payroll Accrual
GLI,8/31/2020,11301C,13815,GLI083120,GLI083120,30,Payroll Accrual
GLI,8/31/2020,12504,137854,GLI083120,GLI083120,91.19,Payroll Accrual
GLI,8/31/2020,12304D,137854,GLI083120,GLI083120,1276.7,Payroll Accrual
GLI,8/31/2020,12504,137837,GLI083120,GLI083120,167.23,Payroll Accrual
GLI,8/31/2020,12304D,137837,GLI083120,GLI083120,2447.48,Payroll Accrual
GLI,8/31/2020,12506,137593,GLI083120,GLI083120,16.25,Payroll Accrual
GLI,8/31/2020,12505,137593,GLI083120,GLI083120,16.25,Payroll Accrual
GLI,8/31/2020,12504,137593,GLI083120,GLI083120,16.25,Payroll Accrual
GLI,8/31/2020,12502,137593,GLI083120,GLI083120,16.25,Payroll Accrual
GLI,8/31/2020,12501,137593,GLI083120,GLI083120,16.25,Payroll Accrual
GLI,8/31/2020,12206B,137593,GLI083120,GLI083120,237.54,Payroll Accrual
GLI,8/31/2020,12205B,137593,GLI083120,GLI083120,237.54,Payroll Accrual
GLI,8/31/2020,12204B,137593,GLI083120,GLI083120,237.54,Payroll Accrual
GLI,8/31/2020,12202B,137593,GLI083120,GLI083120,237.54,Payroll Accrual
GLI,8/31/2020,12201B,137593,GLI083120,GLI083120,237.54,Payroll Accrual
GLI,8/31/2020,12503,137495,GLI083120,GLI083120,35.94,Payroll Accrual
GLI,8/31/2020,12303,137495,GLI083120,GLI083120,469.8,Payroll Accrual
GLI,8/31/2020,12504,13725,GLI083120,GLI083120,481.57,Payroll Accrual
GLI,8/31/2020,124704,13725,GLI083120,GLI083120,6823.96,Payroll Accrual
GLI,8/31/2020,12404,13725,GLI083120,GLI083120,627.84,Payroll Accrual
GLI,8/31/2020,12905,137101,GLI083120,GLI083120,35.02,Payroll Accrual
GLI,8/31/2020,12505,137101,GLI083120,GLI083120,178.19,Payroll Accrual
GLI,8/31/2020,124703,137101,GLI083120,GLI083120,2334.42,Payroll Accrual
GLI,8/31/2020,12405,137101,GLI083120,GLI083120,330.56,Payroll Accrual
GLI,8/31/2020,12503,136942,GLI083120,GLI083120,43.84,Payroll Accrual
GLI,8/31/2020,124723,136942,GLI083120,GLI083120,573.04,Payroll Accrual
GLI,8/31/2020,12503,136548,GLI083120,GLI083120,90.66,Payroll Accrual
GLI,8/31/2020,124723,136548,GLI083120,GLI083120,1185.07,Payroll Accrual
GLI,8/31/2020,12904,136170,GLI083120,GLI083120,26.31,Payroll Accrual
GLI,8/31/2020,12504,136170,GLI083120,GLI083120,180.17,Payroll Accrual
GLI,8/31/2020,124704,136170,GLI083120,GLI083120,2630.87,Payroll Accrual
GLI,8/31/2020,12404,136170,GLI083120,GLI083120,1453.92,Payroll Accrual
GLI,8/31/2020,12903,135987,GLI083120,GLI083120,15.94,Payroll Accrual
GLI,8/31/2020,12503,135987,GLI083120,GLI083120,81.3,Payroll Accrual
GLI,8/31/2020,124723,135987,GLI083120,GLI083120,1062.67,Payroll Accrual
GLI,8/31/2020,12504,135946,GLI083120,GLI083120,49.63,Payroll Accrual
GLI,8/31/2020,12204A,135946,GLI083120,GLI083120,648.64,Payroll Accrual
GLI,8/31/2020,12505,135770,GLI083120,GLI083120,256.32,Payroll Accrual
GLI,8/31/2020,124703,135770,GLI083120,GLI083120,3350.6,Payroll Accrual
GLI,8/31/2020,12527,135625,GLI083120,GLI083120,9.95,Payroll Accrual
GLI,8/31/2020,12327,135625,GLI083120,GLI083120,130,Payroll Accrual
GLI,8/31/2020,12503,135289,GLI083120,GLI083120,26.09,Payroll Accrual
GLI,8/31/2020,124723,135289,GLI083120,GLI083120,341.09,Payroll Accrual
GLI,8/31/2020,12524,134956,GLI083120,GLI083120,123.65,Payroll Accrual
GLI,8/31/2020,124724,134956,GLI083120,GLI083120,1616.3,Payroll Accrual
GLI,8/31/2020,12904,132987,GLI083120,GLI083120,26.32,Payroll Accrual
GLI,8/31/2020,12504,132987,GLI083120,GLI083120,130.38,Payroll Accrual
GLI,8/31/2020,12304D,132987,GLI083120,GLI083120,1754.56,Payroll Accrual
GLI,8/31/2020,12506,132785,GLI083120,GLI083120,5.26,Payroll Accrual
GLI,8/31/2020,12505,132785,GLI083120,GLI083120,5.26,Payroll Accrual
GLI,8/31/2020,12504,132785,GLI083120,GLI083120,5.26,Payroll Accrual
GLI,8/31/2020,12502,132785,GLI083120,GLI083120,5.26,Payroll Accrual
GLI,8/31/2020,12501,132785,GLI083120,GLI083120,5.26,Payroll Accrual
GLI,8/31/2020,12206B,132785,GLI083120,GLI083120,68.67,Payroll Accrual
GLI,8/31/2020,12205B,132785,GLI083120,GLI083120,68.67,Payroll Accrual
GLI,8/31/2020,12204B,132785,GLI083120,GLI083120,68.67,Payroll Accrual
GLI,8/31/2020,12202B,132785,GLI083120,GLI083120,68.67,Payroll Accrual
GLI,8/31/2020,12201B,132785,GLI083120,GLI083120,68.67,Payroll Accrual
GLI,8/31/2020,12503,132584,GLI083120,GLI083120,90.8,Payroll Accrual
GLI,8/31/2020,124723,132584,GLI083120,GLI083120,1186.97,Payroll Accrual
GLI,8/31/2020,12515,132500,GLI083120,GLI083120,47.66,Payroll Accrual
GLI,8/31/2020,12506,132500,GLI083120,GLI083120,32.5,Payroll Accrual
GLI,8/31/2020,12505,132500,GLI083120,GLI083120,32.5,Payroll Accrual
GLI,8/31/2020,12504,132500,GLI083120,GLI083120,34.66,Payroll Accrual
GLI,8/31/2020,12502,132500,GLI083120,GLI083120,34.66,Payroll Accrual
GLI,8/31/2020,12501,132500,GLI083120,GLI083120,34.66,Payroll Accrual
GLI,8/31/2020,12315,132500,GLI083120,GLI083120,636.65,Payroll Accrual
GLI,8/31/2020,12306,132500,GLI083120,GLI083120,434.08,Payroll Accrual
GLI,8/31/2020,12305,132500,GLI083120,GLI083120,434.08,Payroll Accrual
GLI,8/31/2020,12304,132500,GLI083120,GLI083120,463.02,Payroll Accrual
GLI,8/31/2020,12302,132500,GLI083120,GLI083120,463.02,Payroll Accrual
GLI,8/31/2020,12301,132500,GLI083120,GLI083120,463.02,Payroll Accrual
GLI,8/31/2020,12503,132489,GLI083120,GLI083120,3.97,Payroll Accrual
GLI,8/31/2020,124723,132489,GLI083120,GLI083120,51.96,Payroll Accrual
GLI,8/31/2020,12904,131370,GLI083120,GLI083120,49.35,Payroll Accrual
GLI,8/31/2020,12504,131370,GLI083120,GLI083120,187.24,Payroll Accrual
GLI,8/31/2020,124704,131370,GLI083120,GLI083120,2467.52,Payroll Accrual
GLI,8/31/2020,12404,131370,GLI083120,GLI083120,974,Payroll Accrual
GLI,8/31/2020,12924,131315,GLI083120,GLI083120,43.05,Payroll Accrual
GLI,8/31/2020,12524,131315,GLI083120,GLI083120,162.75,Payroll Accrual
GLI,8/31/2020,124724,131315,GLI083120,GLI083120,2152.5,Payroll Accrual
GLI,8/31/2020,12902,126200,GLI083120,GLI083120,17.76,Payroll Accrual
GLI,8/31/2020,12901,126200,GLI083120,GLI083120,17.76,Payroll Accrual
GLI,8/31/2020,12502,126200,GLI083120,GLI083120,90.57,Payroll Accrual
GLI,8/31/2020,12501,126200,GLI083120,GLI083120,90.57,Payroll Accrual
GLI,8/31/2020,12202A,126200,GLI083120,GLI083120,1183.85,Payroll Accrual
GLI,8/31/2020,12201A,126200,GLI083120,GLI083120,1183.85,Payroll Accrual
GLI,8/31/2020,12527,123578,GLI083120,GLI083120,92.96,Payroll Accrual
GLI,8/31/2020,12327,123578,GLI083120,GLI083120,1215.2,Payroll Accrual
GLI,8/31/2020,12527,123564,GLI083120,GLI083120,2.11,Payroll Accrual
GLI,8/31/2020,12327,123564,GLI083120,GLI083120,27.56,Payroll Accrual
GLI,8/31/2020,12504,123525,GLI083120,GLI083120,59.67,Payroll Accrual
GLI,8/31/2020,12304B,123525,GLI083120,GLI083120,780,Payroll Accrual
GLI,8/31/2020,12506,123100,GLI083120,GLI083120,68.01,Payroll Accrual
GLI,8/31/2020,12505,123100,GLI083120,GLI083120,68.01,Payroll Accrual
GLI,8/31/2020,12504,123100,GLI083120,GLI083120,68.01,Payroll Accrual
GLI,8/31/2020,12502,123100,GLI083120,GLI083120,68.01,Payroll Accrual
GLI,8/31/2020,12501,123100,GLI083120,GLI083120,68.01,Payroll Accrual
GLI,8/31/2020,12106,123100,GLI083120,GLI083120,949.96,Payroll Accrual
GLI,8/31/2020,12105,123100,GLI083120,GLI083120,949.96,Payroll Accrual
GLI,8/31/2020,12104,123100,GLI083120,GLI083120,949.96,Payroll Accrual
GLI,8/31/2020,12102,123100,GLI083120,GLI083120,949.96,Payroll Accrual
GLI,8/31/2020,12101,123100,GLI083120,GLI083120,949.96,Payroll Accrual
GLI,8/31/2020,12905,122558,GLI083120,GLI083120,45.11,Payroll Accrual
GLI,8/31/2020,12505,122558,GLI083120,GLI083120,226.84,Payroll Accrual
GLI,8/31/2020,124703,122558,GLI083120,GLI083120,3007.51,Payroll Accrual
GLI,8/31/2020,12511,12236,GLI083120,GLI083120,48.75,Payroll Accrual
GLI,8/31/2020,12506,12236,GLI083120,GLI083120,35.45,Payroll Accrual
GLI,8/31/2020,12505,12236,GLI083120,GLI083120,35.45,Payroll Accrual
GLI,8/31/2020,12504,12236,GLI083120,GLI083120,35.45,Payroll Accrual
GLI,8/31/2020,12502,12236,GLI083120,GLI083120,33.24,Payroll Accrual
GLI,8/31/2020,12501,12236,GLI083120,GLI083120,33.24,Payroll Accrual
GLI,8/31/2020,12311,12236,GLI083120,GLI083120,694.53,Payroll Accrual
GLI,8/31/2020,12306H,12236,GLI083120,GLI083120,505.11,Payroll Accrual
GLI,8/31/2020,12305H,12236,GLI083120,GLI083120,505.11,Payroll Accrual
GLI,8/31/2020,12304H,12236,GLI083120,GLI083120,505.11,Payroll Accrual
GLI,8/31/2020,12302H,12236,GLI083120,GLI083120,473.54,Payroll Accrual
GLI,8/31/2020,12301H,12236,GLI083120,GLI083120,473.54,Payroll Accrual
GLI,8/31/2020,12906,122332,GLI083120,GLI083120,17.07,Payroll Accrual
GLI,8/31/2020,12506,122332,GLI083120,GLI083120,83.84,Payroll Accrual
GLI,8/31/2020,12306B,122332,GLI083120,GLI083120,1138.25,Payroll Accrual
GLI,8/31/2020,12903,118520,GLI083120,GLI083120,22.99,Payroll Accrual
GLI,8/31/2020,12503,118520,GLI083120,GLI083120,114.17,Payroll Accrual
GLI,8/31/2020,12403,118520,GLI083120,GLI083120,448,Payroll Accrual
GLI,8/31/2020,12303,118520,GLI083120,GLI083120,1084.44,Payroll Accrual
GLI,8/31/2020,12501,118030,GLI083120,GLI083120,187.28,Payroll Accrual
GLI,8/31/2020,12301B,118030,GLI083120,GLI083120,2630.78,Payroll Accrual
GLI,8/31/2020,12906,118010,GLI083120,GLI083120,11.7,Payroll Accrual
GLI,8/31/2020,12506,118010,GLI083120,GLI083120,56.44,Payroll Accrual
GLI,8/31/2020,12306B,118010,GLI083120,GLI083120,780.08,Payroll Accrual
GLI,8/31/2020,12905,11732,GLI083120,GLI083120,35.4,Payroll Accrual
GLI,8/31/2020,12505,11732,GLI083120,GLI083120,131.53,Payroll Accrual
GLI,8/31/2020,12205A,11732,GLI083120,GLI083120,1769.85,Payroll Accrual
GLI,8/31/2020,12505,11660,GLI083120,GLI083120,247.8,Payroll Accrual
GLI,8/31/2020,124703,11660,GLI083120,GLI083120,3281.41,Payroll Accrual
GLI,8/31/2020,12904,116185,GLI083120,GLI083120,36.16,Payroll Accrual
GLI,8/31/2020,12504,116185,GLI083120,GLI083120,135.25,Payroll Accrual
GLI,8/31/2020,124704,116185,GLI083120,GLI083120,1503.92,Payroll Accrual
GLI,8/31/2020,12404,116185,GLI083120,GLI083120,304,Payroll Accrual
GLI,8/31/2020,12506,115255,GLI083120,GLI083120,218.03,Payroll Accrual
GLI,8/31/2020,12306B,115255,GLI083120,GLI083120,2850,Payroll Accrual
GLI,8/31/2020,12906,1150920,GLI083120,GLI083120,9.81,Payroll Accrual
GLI,8/31/2020,12506,1150920,GLI083120,GLI083120,42.74,Payroll Accrual
GLI,8/31/2020,12306D,1150920,GLI083120,GLI083120,654.08,Payroll Accrual
GLI,8/31/2020,12504,115021,GLI083120,GLI083120,89.31,Payroll Accrual
GLI,8/31/2020,12304C,115021,GLI083120,GLI083120,1204.52,Payroll Accrual
GLI,8/31/2020,12504,1149710,GLI083120,GLI083120,88.77,Payroll Accrual
GLI,8/31/2020,12404,1149710,GLI083120,GLI083120,330,Payroll Accrual
GLI,8/31/2020,12304D,1149710,GLI083120,GLI083120,1113.39,Payroll Accrual
GLI,8/31/2020,12501,1149160,GLI083120,GLI083120,2.3,Payroll Accrual
GLI,8/31/2020,11301C,1149160,GLI083120,GLI083120,30,Payroll Accrual
GLI,8/31/2020,12505,1147061,GLI083120,GLI083120,245.43,Payroll Accrual
GLI,8/31/2020,124703,1147061,GLI083120,GLI083120,3245.44,Payroll Accrual
GLI,8/31/2020,12405,1147061,GLI083120,GLI083120,253.76,Payroll Accrual
GLI,8/31/2020,12505,1146991,GLI083120,GLI083120,229.6,Payroll Accrual
GLI,8/31/2020,124703,1146991,GLI083120,GLI083120,3100.79,Payroll Accrual
GLI,8/31/2020,12405,1146991,GLI083120,GLI083120,1394.4,Payroll Accrual
GLI,8/31/2020,12504,1146989,GLI083120,GLI083120,134.33,Payroll Accrual
GLI,8/31/2020,124704,1146989,GLI083120,GLI083120,1798.28,Payroll Accrual
GLI,8/31/2020,12404,1146989,GLI083120,GLI083120,338.11,Payroll Accrual
GLI,8/31/2020,12506,1144265,GLI083120,GLI083120,89.64,Payroll Accrual
GLI,8/31/2020,12306B,1144265,GLI083120,GLI083120,1248.96,Payroll Accrual
GLI,8/31/2020,12504,1140870,GLI083120,GLI083120,138.15,Payroll Accrual
GLI,8/31/2020,12304B,1140870,GLI083120,GLI083120,1805.98,Payroll Accrual
GLI,8/31/2020,12904,1137590,GLI083120,GLI083120,77.61,Payroll Accrual
GLI,8/31/2020,12504,1137590,GLI083120,GLI083120,293.64,Payroll Accrual
GLI,8/31/2020,124704,1137590,GLI083120,GLI083120,3880.69,Payroll Accrual
GLI,8/31/2020,12904,1135410,GLI083120,GLI083120,29.54,Payroll Accrual
GLI,8/31/2020,12504,1135410,GLI083120,GLI083120,210.49,Payroll Accrual
GLI,8/31/2020,124704,1135410,GLI083120,GLI083120,2954.27,Payroll Accrual
GLI,8/31/2020,12404,1135410,GLI083120,GLI083120,1071,Payroll Accrual
GLI,8/31/2020,12511,1135260,GLI083120,GLI083120,47.22,Payroll Accrual
GLI,8/31/2020,12506,1135260,GLI083120,GLI083120,34.34,Payroll Accrual
GLI,8/31/2020,12505,1135260,GLI083120,GLI083120,34.34,Payroll Accrual
GLI,8/31/2020,12504,1135260,GLI083120,GLI083120,34.34,Payroll Accrual
GLI,8/31/2020,12502,1135260,GLI083120,GLI083120,32.19,Payroll Accrual
GLI,8/31/2020,12501,1135260,GLI083120,GLI083120,32.19,Payroll Accrual
GLI,8/31/2020,12311,1135260,GLI083120,GLI083120,675.23,Payroll Accrual
GLI,8/31/2020,12306H,1135260,GLI083120,GLI083120,491.08,Payroll Accrual
GLI,8/31/2020,12305H,1135260,GLI083120,GLI083120,491.08,Payroll Accrual
GLI,8/31/2020,12304H,1135260,GLI083120,GLI083120,491.08,Payroll Accrual
GLI,8/31/2020,12302H,1135260,GLI083120,GLI083120,460.39,Payroll Accrual
GLI,8/31/2020,12301H,1135260,GLI083120,GLI083120,460.39,Payroll Accrual
GLI,8/31/2020,12506,1133727,GLI083120,GLI083120,148.06,Payroll Accrual
GLI,8/31/2020,12306D,1133727,GLI083120,GLI083120,1935.44,Payroll Accrual
GLI,8/31/2020,12506,1132205,GLI083120,GLI083120,111.78,Payroll Accrual
GLI,8/31/2020,12306D,1132205,GLI083120,GLI083120,1536.15,Payroll Accrual
GLI,8/31/2020,12527,113085,GLI083120,GLI083120,152.33,Payroll Accrual
GLI,8/31/2020,12127,113085,GLI083120,GLI083120,2104.62,Payroll Accrual
GLI,8/31/2020,12504,1130700,GLI083120,GLI083120,88.9,Payroll Accrual
GLI,8/31/2020,12304C,1130700,GLI083120,GLI083120,1170.85,Payroll Accrual
GLI,8/31/2020,12506,113020,GLI083120,GLI083120,213.05,Payroll Accrual
GLI,8/31/2020,12306B,113020,GLI083120,GLI083120,2893.84,Payroll Accrual
GLI,8/31/2020,12501,113011,GLI083120,GLI083120,17.98,Payroll Accrual
GLI,8/31/2020,11301C,113011,GLI083120,GLI083120,235,Payroll Accrual
GLI,8/31/2020,12506,1130090,GLI083120,GLI083120,78.91,Payroll Accrual
GLI,8/31/2020,12306B,1130090,GLI083120,GLI083120,1056.64,Payroll Accrual
GLI,8/31/2020,12927,1129560,GLI083120,GLI083120,20.53,Payroll Accrual
GLI,8/31/2020,12527,1129560,GLI083120,GLI083120,104.71,Payroll Accrual
GLI,8/31/2020,12327,1129560,GLI083120,GLI083120,1368.66,Payroll Accrual
GLI,8/31/2020,12516,1126060,GLI083120,GLI083120,110.52,Payroll Accrual
GLI,8/31/2020,12416,1126060,GLI083120,GLI083120,128,Payroll Accrual
GLI,8/31/2020,12316,1126060,GLI083120,GLI083120,1336.64,Payroll Accrual
GLI,8/31/2020,12505,1126040,GLI083120,GLI083120,213.56,Payroll Accrual
GLI,8/31/2020,124703,1126040,GLI083120,GLI083120,3004.39,Payroll Accrual
GLI,8/31/2020,12505,1125565,GLI083120,GLI083120,205.76,Payroll Accrual
GLI,8/31/2020,124703,1125565,GLI083120,GLI083120,2830.96,Payroll Accrual
GLI,8/31/2020,12405,1125565,GLI083120,GLI083120,734.88,Payroll Accrual
GLI,8/31/2020,12506,1124875,GLI083120,GLI083120,165.39,Payroll Accrual
GLI,8/31/2020,12306B,1124875,GLI083120,GLI083120,2192.75,Payroll Accrual
GLI,8/31/2020,12504,1124436,GLI083120,GLI083120,379.64,Payroll Accrual
GLI,8/31/2020,124704,1124436,GLI083120,GLI083120,5230.06,Payroll Accrual
GLI,8/31/2020,12904,1124400,GLI083120,GLI083120,25.78,Payroll Accrual
GLI,8/31/2020,12504,1124400,GLI083120,GLI083120,128.64,Payroll Accrual
GLI,8/31/2020,124704,1124400,GLI083120,GLI083120,1616.7,Payroll Accrual
GLI,8/31/2020,12404,1124400,GLI083120,GLI083120,102,Payroll Accrual
GLI,8/31/2020,12906,1123340,GLI083120,GLI083120,45.6,Payroll Accrual
GLI,8/31/2020,12905,1123340,GLI083120,GLI083120,42.09,Payroll Accrual
GLI,8/31/2020,12514,1123340,GLI083120,GLI083120,95.22,Payroll Accrual
GLI,8/31/2020,12506,1123340,GLI083120,GLI083120,10.66,Payroll Accrual
GLI,8/31/2020,12505,1123340,GLI083120,GLI083120,9.84,Payroll Accrual
GLI,8/31/2020,12504,1123340,GLI083120,GLI083120,82.24,Payroll Accrual
GLI,8/31/2020,12502,1123340,GLI083120,GLI083120,73.58,Payroll Accrual
GLI,8/31/2020,12501,1123340,GLI083120,GLI083120,73.58,Payroll Accrual
GLI,8/31/2020,12214,1123340,GLI083120,GLI083120,1254,Payroll Accrual
GLI,8/31/2020,12206C,1123340,GLI083120,GLI083120,741,Payroll Accrual
GLI,8/31/2020,12205C,1123340,GLI083120,GLI083120,684,Payroll Accrual
GLI,8/31/2020,12204C,1123340,GLI083120,GLI083120,1083,Payroll Accrual
GLI,8/31/2020,12202C,1123340,GLI083120,GLI083120,969,Payroll Accrual
GLI,8/31/2020,12201C,1123340,GLI083120,GLI083120,969,Payroll Accrual
GLI,8/31/2020,12924,1122352,GLI083120,GLI083120,28.55,Payroll Accrual
GLI,8/31/2020,12524,1122352,GLI083120,GLI083120,142.77,Payroll Accrual
GLI,8/31/2020,124724,1122352,GLI083120,GLI083120,1903.5,Payroll Accrual
GLI,8/31/2020,12505,1122342,GLI083120,GLI083120,321.97,Payroll Accrual
GLI,8/31/2020,12105,1122342,GLI083120,GLI083120,4209.23,Payroll Accrual
GLI,8/31/2020,12927,1122110,GLI083120,GLI083120,84.18,Payroll Accrual
GLI,8/31/2020,12527,1122110,GLI083120,GLI083120,304,Payroll Accrual
GLI,8/31/2020,12327,1122110,GLI083120,GLI083120,4209.23,Payroll Accrual
GLI,8/31/2020,12501,1121240,GLI083120,GLI083120,11.86,Payroll Accrual
GLI,8/31/2020,11301C,1121240,GLI083120,GLI083120,155,Payroll Accrual
GLI,8/31/2020,12506,1120225,GLI083120,GLI083120,68.31,Payroll Accrual
GLI,8/31/2020,12505,1120225,GLI083120,GLI083120,68.31,Payroll Accrual
GLI,8/31/2020,12504,1120225,GLI083120,GLI083120,68.31,Payroll Accrual
GLI,8/31/2020,12502,1120225,GLI083120,GLI083120,68.31,Payroll Accrual
GLI,8/31/2020,12501,1120225,GLI083120,GLI083120,68.31,Payroll Accrual
GLI,8/31/2020,12006,1120225,GLI083120,GLI083120,949.96,Payroll Accrual
GLI,8/31/2020,12005,1120225,GLI083120,GLI083120,949.96,Payroll Accrual
GLI,8/31/2020,12004,1120225,GLI083120,GLI083120,949.96,Payroll Accrual
GLI,8/31/2020,12002,1120225,GLI083120,GLI083120,949.96,Payroll Accrual
GLI,8/31/2020,12001,1120225,GLI083120,GLI083120,949.96,Payroll Accrual
GLI,8/31/2020,12906,1120120,GLI083120,GLI083120,23.02,Payroll Accrual
GLI,8/31/2020,12506,1120120,GLI083120,GLI083120,109.47,Payroll Accrual
GLI,8/31/2020,12306B,1120120,GLI083120,GLI083120,1534.59,Payroll Accrual
GLI,8/31/2020,12927,1120110,GLI083120,GLI083120,34.2,Payroll Accrual
GLI,8/31/2020,12527,1120110,GLI083120,GLI083120,171.18,Payroll Accrual
GLI,8/31/2020,12127,1120110,GLI083120,GLI083120,2280,Payroll Accrual
GLI,8/31/2020,12505,1118722,GLI083120,GLI083120,293.81,Payroll Accrual
GLI,8/31/2020,124703,1118722,GLI083120,GLI083120,3894.88,Payroll Accrual
GLI,8/31/2020,12904,1117960,GLI083120,GLI083120,43.85,Payroll Accrual
GLI,8/31/2020,12504,1117960,GLI083120,GLI083120,149.69,Payroll Accrual
GLI,8/31/2020,124704,1117960,GLI083120,GLI083120,2192.31,Payroll Accrual
GLI,8/31/2020,12504,1117901,GLI083120,GLI083120,144.73,Payroll Accrual
GLI,8/31/2020,124704,1117901,GLI083120,GLI083120,1892,Payroll Accrual
GLI,8/31/2020,12904,1117842,GLI083120,GLI083120,40.3,Payroll Accrual
GLI,8/31/2020,12504,1117842,GLI083120,GLI083120,202.51,Payroll Accrual
GLI,8/31/2020,12304B,1117842,GLI083120,GLI083120,2687.11,Payroll Accrual
GLI,8/31/2020,12503,1117600,GLI083120,GLI083120,134.67,Payroll Accrual
GLI,8/31/2020,12303,1117600,GLI083120,GLI083120,2271.06,Payroll Accrual
GLI,8/31/2020,12524,1116800,GLI083120,GLI083120,-1.53,Payroll Accrual
GLI,8/31/2020,12905,1114921,GLI083120,GLI083120,25.81,Payroll Accrual
GLI,8/31/2020,12505,1114921,GLI083120,GLI083120,101.52,Payroll Accrual
GLI,8/31/2020,124703,1114921,GLI083120,GLI083120,1532.79,Payroll Accrual
GLI,8/31/2020,12405,1114921,GLI083120,GLI083120,188,Payroll Accrual
GLI,8/31/2020,12506,1114860,GLI083120,GLI083120,19.98,Payroll Accrual
GLI,8/31/2020,12306C,1114860,GLI083120,GLI083120,261.12,Payroll Accrual
GLI,8/31/2020,12906,1114831,GLI083120,GLI083120,5.41,Payroll Accrual
GLI,8/31/2020,12506,1114831,GLI083120,GLI083120,27.61,Payroll Accrual
GLI,8/31/2020,12306D,1114831,GLI083120,GLI083120,360.92,Payroll Accrual
GLI,8/31/2020,12504,1113940,GLI083120,GLI083120,133.95,Payroll Accrual
GLI,8/31/2020,124704,1113940,GLI083120,GLI083120,1280,Payroll Accrual
GLI,8/31/2020,12404,1113940,GLI083120,GLI083120,516,Payroll Accrual
GLI,8/31/2020,12501,111250,GLI083120,GLI083120,2.3,Payroll Accrual
GLI,8/31/2020,11301C,111250,GLI083120,GLI083120,30,Payroll Accrual
GLI,8/31/2020,12904,111210,GLI083120,GLI083120,33.13,Payroll Accrual
GLI,8/31/2020,12504,111210,GLI083120,GLI083120,161.35,Payroll Accrual
GLI,8/31/2020,124704,111210,GLI083120,GLI083120,2208.58,Payroll Accrual
GLI,8/31/2020,12505,1111325,GLI083120,GLI083120,137.74,Payroll Accrual
GLI,8/31/2020,12105,1111325,GLI083120,GLI083120,1841.54,Payroll Accrual
GLI,8/31/2020,12503,1110800,GLI083120,GLI083120,51.82,Payroll Accrual
GLI,8/31/2020,12303,1110800,GLI083120,GLI083120,677.4,Payroll Accrual
GLI,8/31/2020,12511,1110660,GLI083120,GLI083120,33.55,Payroll Accrual
GLI,8/31/2020,12506,1110660,GLI083120,GLI083120,23.52,Payroll Accrual
GLI,8/31/2020,12505,1110660,GLI083120,GLI083120,23.52,Payroll Accrual
GLI,8/31/2020,12504,1110660,GLI083120,GLI083120,23.52,Payroll Accrual
GLI,8/31/2020,12502,1110660,GLI083120,GLI083120,21.84,Payroll Accrual
GLI,8/31/2020,12501,1110660,GLI083120,GLI083120,21.84,Payroll Accrual
GLI,8/31/2020,12311,1110660,GLI083120,GLI083120,480.81,Payroll Accrual
GLI,8/31/2020,12306H,1110660,GLI083120,GLI083120,349.68,Payroll Accrual
GLI,8/31/2020,12305H,1110660,GLI083120,GLI083120,349.68,Payroll Accrual
GLI,8/31/2020,12304H,1110660,GLI083120,GLI083120,349.68,Payroll Accrual
GLI,8/31/2020,12302H,1110660,GLI083120,GLI083120,327.83,Payroll Accrual
GLI,8/31/2020,12301H,1110660,GLI083120,GLI083120,327.83,Payroll Accrual
GLI,8/31/2020,12505,1109700,GLI083120,GLI083120,196.57,Payroll Accrual
GLI,8/31/2020,12305B,1109700,GLI083120,GLI083120,2643.9,Payroll Accrual
GLI,8/31/2020,12905,1108200,GLI083120,GLI083120,38.63,Payroll Accrual
GLI,8/31/2020,12505,1108200,GLI083120,GLI083120,196.99,Payroll Accrual
GLI,8/31/2020,12305B,1108200,GLI083120,GLI083120,2575.05,Payroll Accrual
GLI,8/31/2020,12505,1107950,GLI083120,GLI083120,188.19,Payroll Accrual
GLI,8/31/2020,124703,1107950,GLI083120,GLI083120,2577.75,Payroll Accrual
GLI,8/31/2020,12904,1106421,GLI083120,GLI083120,69.87,Payroll Accrual
GLI,8/31/2020,12504,1106421,GLI083120,GLI083120,250.86,Payroll Accrual
GLI,8/31/2020,124704,1106421,GLI083120,GLI083120,3493.71,Payroll Accrual
GLI,8/31/2020,12905,1106400,GLI083120,GLI083120,42.46,Payroll Accrual
GLI,8/31/2020,12505,1106400,GLI083120,GLI083120,212.4,Payroll Accrual
GLI,8/31/2020,124703,1106400,GLI083120,GLI083120,2830.63,Payroll Accrual
GLI,8/31/2020,12904,1106399,GLI083120,GLI083120,52.54,Payroll Accrual
GLI,8/31/2020,12504,1106399,GLI083120,GLI083120,199.42,Payroll Accrual
GLI,8/31/2020,124704,1106399,GLI083120,GLI083120,2626.8,Payroll Accrual
GLI,8/31/2020,12524,1103065,GLI083120,GLI083120,22.52,Payroll Accrual
GLI,8/31/2020,12505,1103065,GLI083120,GLI083120,22.52,Payroll Accrual
GLI,8/31/2020,12504,1103065,GLI083120,GLI083120,22.52,Payroll Accrual
GLI,8/31/2020,12502,1103065,GLI083120,GLI083120,22.52,Payroll Accrual
GLI,8/31/2020,12501,1103065,GLI083120,GLI083120,22.52,Payroll Accrual
GLI,8/31/2020,12324F,1103065,GLI083120,GLI083120,349.39,Payroll Accrual
GLI,8/31/2020,12305F,1103065,GLI083120,GLI083120,349.39,Payroll Accrual
GLI,8/31/2020,12304F,1103065,GLI083120,GLI083120,349.39,Payroll Accrual
GLI,8/31/2020,12302F,1103065,GLI083120,GLI083120,349.39,Payroll Accrual
GLI,8/31/2020,12301F,1103065,GLI083120,GLI083120,349.39,Payroll Accrual
GLI,8/31/2020,12504,1102198,GLI083120,GLI083120,116.72,Payroll Accrual
GLI,8/31/2020,12503,1102198,GLI083120,GLI083120,116.72,Payroll Accrual
GLI,8/31/2020,12104,1102198,GLI083120,GLI083120,1565.39,Payroll Accrual
GLI,8/31/2020,12103,1102198,GLI083120,GLI083120,1565.39,Payroll Accrual
GLI,8/31/2020,12504,1102195,GLI083120,GLI083120,298.65,Payroll Accrual
GLI,8/31/2020,12104,1102195,GLI083120,GLI083120,3946.16,Payroll Accrual
GLI,8/31/2020,12905,1100625,GLI083120,GLI083120,53.66,Payroll Accrual
GLI,8/31/2020,12505,1100625,GLI083120,GLI083120,273.65,Payroll Accrual
GLI,8/31/2020,124703,1100625,GLI083120,GLI083120,3577.09,Payroll Accrual
GLI,8/31/2020,12405,1100625,GLI083120,GLI083120,220.96,Payroll Accrual
GLI,8/31/2020,12503,10568,GLI083120,GLI083120,18.48,Payroll Accrual
GLI,8/31/2020,124723,10568,GLI083120,GLI083120,315.97,Payroll Accrual
