﻿"journal","date","account","control","document","reference","amount","description"
"GLI","03/31/2018","232103","GLI033118","GLI033118","GLI033118",-54368.99,"Payroll Accrual"
"GLI","03/31/2018","132101","GLI033118","GLI033118","GLI033118",-429798.61,"Payroll Accrual"
"GLI","03/31/2018","12006","1130426","GLI033118","GLI033118",1569.23,"Payroll Accrual"
"GLI","03/31/2018","12005","1130426","GLI033118","GLI033118",1569.23,"Payroll Accrual"
"GLI","03/31/2018","12004","1130426","GLI033118","GLI033118",1569.23,"Payroll Accrual"
"GLI","03/31/2018","12002","1130426","GLI033118","GLI033118",1569.23,"Payroll Accrual"
"GLI","03/31/2018","12001","1130426","GLI033118","GLI033118",1415.4,"Payroll Accrual"
"GLI","03/31/2018","22504","298543","GLI033118","GLI033118",107.38,"Payroll Accrual"
"GLI","03/31/2018","224704","298543","GLI033118","GLI033118",1403.72,"Payroll Accrual"
"GLI","03/31/2018","22504","295148","GLI033118","GLI033118",33.66,"Payroll Accrual"
"GLI","03/31/2018","224704","295148","GLI033118","GLI033118",608.85,"Payroll Accrual"
"GLI","03/31/2018","22910","291600","GLI033118","GLI033118",1.01,"Payroll Accrual"
"GLI","03/31/2018","22906","291600","GLI033118","GLI033118",2.1,"Payroll Accrual"
"GLI","03/31/2018","22904","291600","GLI033118","GLI033118",2.1,"Payroll Accrual"
"GLI","03/31/2018","22902","291600","GLI033118","GLI033118",2.1,"Payroll Accrual"
"GLI","03/31/2018","22901","291600","GLI033118","GLI033118",1.09,"Payroll Accrual"
"GLI","03/31/2018","22510","291600","GLI033118","GLI033118",-1.54,"Payroll Accrual"
"GLI","03/31/2018","22506","291600","GLI033118","GLI033118",2.63,"Payroll Accrual"
"GLI","03/31/2018","22504","291600","GLI033118","GLI033118",2.63,"Payroll Accrual"
"GLI","03/31/2018","22502","291600","GLI033118","GLI033118",2.63,"Payroll Accrual"
"GLI","03/31/2018","22501","291600","GLI033118","GLI033118",-1.22,"Payroll Accrual"
"GLI","03/31/2018","22210B","291600","GLI033118","GLI033118",50.36,"Payroll Accrual"
"GLI","03/31/2018","22206B","291600","GLI033118","GLI033118",104.91,"Payroll Accrual"
"GLI","03/31/2018","22204B","291600","GLI033118","GLI033118",104.91,"Payroll Accrual"
"GLI","03/31/2018","22202B","291600","GLI033118","GLI033118",104.91,"Payroll Accrual"
"GLI","03/31/2018","22201B","291600","GLI033118","GLI033118",54.55,"Payroll Accrual"
"GLI","03/31/2018","22504","291582","GLI033118","GLI033118",24.7,"Payroll Accrual"
"GLI","03/31/2018","22304C","291582","GLI033118","GLI033118",322.85,"Payroll Accrual"
"GLI","03/31/2018","22910","284625","GLI033118","GLI033118",13.85,"Payroll Accrual"
"GLI","03/31/2018","22902","284625","GLI033118","GLI033118",27.69,"Payroll Accrual"
"GLI","03/31/2018","22901","284625","GLI033118","GLI033118",13.85,"Payroll Accrual"
"GLI","03/31/2018","22510","284625","GLI033118","GLI033118",69.38,"Payroll Accrual"
"GLI","03/31/2018","22502","284625","GLI033118","GLI033118",138.76,"Payroll Accrual"
"GLI","03/31/2018","22501","284625","GLI033118","GLI033118",69.38,"Payroll Accrual"
"GLI","03/31/2018","22110","284625","GLI033118","GLI033118",923.08,"Payroll Accrual"
"GLI","03/31/2018","22102","284625","GLI033118","GLI033118",1846.16,"Payroll Accrual"
"GLI","03/31/2018","22101","284625","GLI033118","GLI033118",923.08,"Payroll Accrual"
"GLI","03/31/2018","22904","282713","GLI033118","GLI033118",9.73,"Payroll Accrual"
"GLI","03/31/2018","22903","282713","GLI033118","GLI033118",9.73,"Payroll Accrual"
"GLI","03/31/2018","22504","282713","GLI033118","GLI033118",42.85,"Payroll Accrual"
"GLI","03/31/2018","22503","282713","GLI033118","GLI033118",42.85,"Payroll Accrual"
"GLI","03/31/2018","22304B","282713","GLI033118","GLI033118",648.64,"Payroll Accrual"
"GLI","03/31/2018","22303","282713","GLI033118","GLI033118",648.64,"Payroll Accrual"
"GLI","03/31/2018","22504","279630","GLI033118","GLI033118",194.86,"Payroll Accrual"
"GLI","03/31/2018","224704","279630","GLI033118","GLI033118",2547.27,"Payroll Accrual"
"GLI","03/31/2018","22506","274225","GLI033118","GLI033118",120.18,"Payroll Accrual"
"GLI","03/31/2018","22306","274225","GLI033118","GLI033118",1732.6,"Payroll Accrual"
"GLI","03/31/2018","22904","273315","GLI033118","GLI033118",49.65,"Payroll Accrual"
"GLI","03/31/2018","22504","273315","GLI033118","GLI033118",189.9,"Payroll Accrual"
"GLI","03/31/2018","224704","273315","GLI033118","GLI033118",2206.36,"Payroll Accrual"
"GLI","03/31/2018","22404","273315","GLI033118","GLI033118",276,"Payroll Accrual"
"GLI","03/31/2018","22503","265849","GLI033118","GLI033118",63.84,"Payroll Accrual"
"GLI","03/31/2018","224723","265849","GLI033118","GLI033118",834.48,"Payroll Accrual"
"GLI","03/31/2018","22504","265348","GLI033118","GLI033118",94.72,"Payroll Accrual"
"GLI","03/31/2018","224704","265348","GLI033118","GLI033118",1238.2,"Payroll Accrual"
"GLI","03/31/2018","22503","26442","GLI033118","GLI033118",74.56,"Payroll Accrual"
"GLI","03/31/2018","224723","26442","GLI033118","GLI033118",974.61,"Payroll Accrual"
"GLI","03/31/2018","22506","264220","GLI033118","GLI033118",92.16,"Payroll Accrual"
"GLI","03/31/2018","22406","264220","GLI033118","GLI033118",116,"Payroll Accrual"
"GLI","03/31/2018","22306","264220","GLI033118","GLI033118",1159.28,"Payroll Accrual"
"GLI","03/31/2018","22504","256879","GLI033118","GLI033118",28.23,"Payroll Accrual"
"GLI","03/31/2018","22304C","256879","GLI033118","GLI033118",369.1,"Payroll Accrual"
"GLI","03/31/2018","22510","256845","GLI033118","GLI033118",30.8,"Payroll Accrual"
"GLI","03/31/2018","22502","256845","GLI033118","GLI033118",30.8,"Payroll Accrual"
"GLI","03/31/2018","22501","256845","GLI033118","GLI033118",31.73,"Payroll Accrual"
"GLI","03/31/2018","22310","256845","GLI033118","GLI033118",402.61,"Payroll Accrual"
"GLI","03/31/2018","22302","256845","GLI033118","GLI033118",402.61,"Payroll Accrual"
"GLI","03/31/2018","22301","256845","GLI033118","GLI033118",414.81,"Payroll Accrual"
"GLI","03/31/2018","22503","256689","GLI033118","GLI033118",78.82,"Payroll Accrual"
"GLI","03/31/2018","224723","256689","GLI033118","GLI033118",1106.49,"Payroll Accrual"
"GLI","03/31/2018","22503","247000","GLI033118","GLI033118",99.8,"Payroll Accrual"
"GLI","03/31/2018","22303","247000","GLI033118","GLI033118",1304.56,"Payroll Accrual"
"GLI","03/31/2018","22503","24665","GLI033118","GLI033118",68.84,"Payroll Accrual"
"GLI","03/31/2018","224723","24665","GLI033118","GLI033118",899.88,"Payroll Accrual"
"GLI","03/31/2018","22503","24551","GLI033118","GLI033118",37.02,"Payroll Accrual"
"GLI","03/31/2018","224723","24551","GLI033118","GLI033118",483.84,"Payroll Accrual"
"GLI","03/31/2018","22506","243180","GLI033118","GLI033118",89.6,"Payroll Accrual"
"GLI","03/31/2018","22406","243180","GLI033118","GLI033118",384,"Payroll Accrual"
"GLI","03/31/2018","22306","243180","GLI033118","GLI033118",948.08,"Payroll Accrual"
"GLI","03/31/2018","22903","241120","GLI033118","GLI033118",15.64,"Payroll Accrual"
"GLI","03/31/2018","22503","241120","GLI033118","GLI033118",73.24,"Payroll Accrual"
"GLI","03/31/2018","22303","241120","GLI033118","GLI033118",1042.95,"Payroll Accrual"
"GLI","03/31/2018","22904","241085","GLI033118","GLI033118",20.12,"Payroll Accrual"
"GLI","03/31/2018","22504","241085","GLI033118","GLI033118",100.01,"Payroll Accrual"
"GLI","03/31/2018","224704","241085","GLI033118","GLI033118",1205.5,"Payroll Accrual"
"GLI","03/31/2018","22404","241085","GLI033118","GLI033118",136,"Payroll Accrual"
"GLI","03/31/2018","22504","230810","GLI033118","GLI033118",29.1,"Payroll Accrual"
"GLI","03/31/2018","22304C","230810","GLI033118","GLI033118",380.4,"Payroll Accrual"
"GLI","03/31/2018","22504","230601","GLI033118","GLI033118",250.91,"Payroll Accrual"
"GLI","03/31/2018","22104","230601","GLI033118","GLI033118",3595.2,"Payroll Accrual"
"GLI","03/31/2018","22510","22358","GLI033118","GLI033118",2.78,"Payroll Accrual"
"GLI","03/31/2018","22506","22358","GLI033118","GLI033118",5.79,"Payroll Accrual"
"GLI","03/31/2018","22504","22358","GLI033118","GLI033118",5.79,"Payroll Accrual"
"GLI","03/31/2018","22502","22358","GLI033118","GLI033118",5.79,"Payroll Accrual"
"GLI","03/31/2018","22501","22358","GLI033118","GLI033118",3.01,"Payroll Accrual"
"GLI","03/31/2018","22210B","22358","GLI033118","GLI033118",36.34,"Payroll Accrual"
"GLI","03/31/2018","22206B","22358","GLI033118","GLI033118",75.7,"Payroll Accrual"
"GLI","03/31/2018","22204B","22358","GLI033118","GLI033118",75.7,"Payroll Accrual"
"GLI","03/31/2018","22202B","22358","GLI033118","GLI033118",75.7,"Payroll Accrual"
"GLI","03/31/2018","22201B","22358","GLI033118","GLI033118",39.36,"Payroll Accrual"
"GLI","03/31/2018","22503","223050","GLI033118","GLI033118",51.69,"Payroll Accrual"
"GLI","03/31/2018","224723","223050","GLI033118","GLI033118",675.64,"Payroll Accrual"
"GLI","03/31/2018","22910","2141225","GLI033118","GLI033118",5.02,"Payroll Accrual"
"GLI","03/31/2018","22902","2141225","GLI033118","GLI033118",5.02,"Payroll Accrual"
"GLI","03/31/2018","22901","2141225","GLI033118","GLI033118",5.17,"Payroll Accrual"
"GLI","03/31/2018","22510","2141225","GLI033118","GLI033118",18.34,"Payroll Accrual"
"GLI","03/31/2018","22502","2141225","GLI033118","GLI033118",18.34,"Payroll Accrual"
"GLI","03/31/2018","22501","2141225","GLI033118","GLI033118",19.11,"Payroll Accrual"
"GLI","03/31/2018","22310","2141225","GLI033118","GLI033118",334.64,"Payroll Accrual"
"GLI","03/31/2018","22302","2141225","GLI033118","GLI033118",334.64,"Payroll Accrual"
"GLI","03/31/2018","22301","2141225","GLI033118","GLI033118",344.79,"Payroll Accrual"
"GLI","03/31/2018","22503","213520","GLI033118","GLI033118",49.89,"Payroll Accrual"
"GLI","03/31/2018","224723","213520","GLI033118","GLI033118",652.12,"Payroll Accrual"
"GLI","03/31/2018","22910","213406","GLI033118","GLI033118",1.32,"Payroll Accrual"
"GLI","03/31/2018","22906","213406","GLI033118","GLI033118",2.75,"Payroll Accrual"
"GLI","03/31/2018","22904","213406","GLI033118","GLI033118",2.75,"Payroll Accrual"
"GLI","03/31/2018","22902","213406","GLI033118","GLI033118",2.75,"Payroll Accrual"
"GLI","03/31/2018","22901","213406","GLI033118","GLI033118",1.43,"Payroll Accrual"
"GLI","03/31/2018","22510","213406","GLI033118","GLI033118",6.74,"Payroll Accrual"
"GLI","03/31/2018","22506","213406","GLI033118","GLI033118",14.04,"Payroll Accrual"
"GLI","03/31/2018","22504","213406","GLI033118","GLI033118",14.04,"Payroll Accrual"
"GLI","03/31/2018","22502","213406","GLI033118","GLI033118",14.04,"Payroll Accrual"
"GLI","03/31/2018","22501","213406","GLI033118","GLI033118",7.3,"Payroll Accrual"
"GLI","03/31/2018","22210B","213406","GLI033118","GLI033118",88.1,"Payroll Accrual"
"GLI","03/31/2018","22206B","213406","GLI033118","GLI033118",183.55,"Payroll Accrual"
"GLI","03/31/2018","22204B","213406","GLI033118","GLI033118",183.55,"Payroll Accrual"
"GLI","03/31/2018","22202B","213406","GLI033118","GLI033118",183.55,"Payroll Accrual"
"GLI","03/31/2018","22201B","213406","GLI033118","GLI033118",95.45,"Payroll Accrual"
"GLI","03/31/2018","22904","2130510","GLI033118","GLI033118",36.83,"Payroll Accrual"
"GLI","03/31/2018","22504","2130510","GLI033118","GLI033118",163.24,"Payroll Accrual"
"GLI","03/31/2018","22304B","2130510","GLI033118","GLI033118",2455.35,"Payroll Accrual"
"GLI","03/31/2018","22904","2130150","GLI033118","GLI033118",43.28,"Payroll Accrual"
"GLI","03/31/2018","22504","2130150","GLI033118","GLI033118",165.55,"Payroll Accrual"
"GLI","03/31/2018","224704","2130150","GLI033118","GLI033118",2164.02,"Payroll Accrual"
"GLI","03/31/2018","22504","2126053","GLI033118","GLI033118",21.22,"Payroll Accrual"
"GLI","03/31/2018","22304C","2126053","GLI033118","GLI033118",277.5,"Payroll Accrual"
"GLI","03/31/2018","22503","211260","GLI033118","GLI033118",84.95,"Payroll Accrual"
"GLI","03/31/2018","224723","211260","GLI033118","GLI033118",1127.56,"Payroll Accrual"
"GLI","03/31/2018","22504","211201","GLI033118","GLI033118",127.9,"Payroll Accrual"
"GLI","03/31/2018","224704","211201","GLI033118","GLI033118",1671.93,"Payroll Accrual"
"GLI","03/31/2018","22504","2106410","GLI033118","GLI033118",247.42,"Payroll Accrual"
"GLI","03/31/2018","22304B","2106410","GLI033118","GLI033118",3234.36,"Payroll Accrual"
"GLI","03/31/2018","22506","2106350","GLI033118","GLI033118",178.55,"Payroll Accrual"
"GLI","03/31/2018","22106","2106350","GLI033118","GLI033118",2384.62,"Payroll Accrual"
"GLI","03/31/2018","22504","210073","GLI033118","GLI033118",115.14,"Payroll Accrual"
"GLI","03/31/2018","224704","210073","GLI033118","GLI033118",1550.63,"Payroll Accrual"
"GLI","03/31/2018","22503","20541","GLI033118","GLI033118",20.6,"Payroll Accrual"
"GLI","03/31/2018","224723","20541","GLI033118","GLI033118",269.28,"Payroll Accrual"
"GLI","03/31/2018","12503","19856","GLI033118","GLI033118",21.5,"Payroll Accrual"
"GLI","03/31/2018","124723","19856","GLI033118","GLI033118",281.04,"Payroll Accrual"
"GLI","03/31/2018","12506","198462","GLI033118","GLI033118",6.82,"Payroll Accrual"
"GLI","03/31/2018","12306C","198462","GLI033118","GLI033118",89.16,"Payroll Accrual"
"GLI","03/31/2018","12503","196345","GLI033118","GLI033118",79.84,"Payroll Accrual"
"GLI","03/31/2018","12303","196345","GLI033118","GLI033118",1043.66,"Payroll Accrual"
"GLI","03/31/2018","12906","196341","GLI033118","GLI033118",7.61,"Payroll Accrual"
"GLI","03/31/2018","12905","196341","GLI033118","GLI033118",6.62,"Payroll Accrual"
"GLI","03/31/2018","12514","196341","GLI033118","GLI033118",20.4,"Payroll Accrual"
"GLI","03/31/2018","12506","196341","GLI033118","GLI033118",1.78,"Payroll Accrual"
"GLI","03/31/2018","12505","196341","GLI033118","GLI033118",1.55,"Payroll Accrual"
"GLI","03/31/2018","12504","196341","GLI033118","GLI033118",16.73,"Payroll Accrual"
"GLI","03/31/2018","12502","196341","GLI033118","GLI033118",14.29,"Payroll Accrual"
"GLI","03/31/2018","12501","196341","GLI033118","GLI033118",14.29,"Payroll Accrual"
"GLI","03/31/2018","12214","196341","GLI033118","GLI033118",351.63,"Payroll Accrual"
"GLI","03/31/2018","12206C","196341","GLI033118","GLI033118",207.78,"Payroll Accrual"
"GLI","03/31/2018","12205C","196341","GLI033118","GLI033118",191.8,"Payroll Accrual"
"GLI","03/31/2018","12204C","196341","GLI033118","GLI033118",303.68,"Payroll Accrual"
"GLI","03/31/2018","12202C","196341","GLI033118","GLI033118",271.71,"Payroll Accrual"
"GLI","03/31/2018","12201C","196341","GLI033118","GLI033118",271.71,"Payroll Accrual"
"GLI","03/31/2018","12503","196205","GLI033118","GLI033118",66.99,"Payroll Accrual"
"GLI","03/31/2018","124723","196205","GLI033118","GLI033118",819.7,"Payroll Accrual"
"GLI","03/31/2018","12403","196205","GLI033118","GLI033118",56,"Payroll Accrual"
"GLI","03/31/2018","12527","195876","GLI033118","GLI033118",3.61,"Payroll Accrual"
"GLI","03/31/2018","12327","195876","GLI033118","GLI033118",47.2,"Payroll Accrual"
"GLI","03/31/2018","12506","195413","GLI033118","GLI033118",20.56,"Payroll Accrual"
"GLI","03/31/2018","12306C","195413","GLI033118","GLI033118",268.68,"Payroll Accrual"
"GLI","03/31/2018","12506","195401","GLI033118","GLI033118",109.54,"Payroll Accrual"
"GLI","03/31/2018","12306D","195401","GLI033118","GLI033118",1502.56,"Payroll Accrual"
"GLI","03/31/2018","12504","194675","GLI033118","GLI033118",192.14,"Payroll Accrual"
"GLI","03/31/2018","124704","194675","GLI033118","GLI033118",2555.4,"Payroll Accrual"
"GLI","03/31/2018","12527","193062","GLI033118","GLI033118",26.58,"Payroll Accrual"
"GLI","03/31/2018","12327","193062","GLI033118","GLI033118",347.49,"Payroll Accrual"
"GLI","03/31/2018","12505","191350","GLI033118","GLI033118",223.17,"Payroll Accrual"
"GLI","03/31/2018","124703","191350","GLI033118","GLI033118",2917.2,"Payroll Accrual"
"GLI","03/31/2018","12504","191060","GLI033118","GLI033118",203.97,"Payroll Accrual"
"GLI","03/31/2018","12404","191060","GLI033118","GLI033118",64,"Payroll Accrual"
"GLI","03/31/2018","12304B","191060","GLI033118","GLI033118",2602.33,"Payroll Accrual"
"GLI","03/31/2018","12505","190910","GLI033118","GLI033118",194.83,"Payroll Accrual"
"GLI","03/31/2018","12305B","190910","GLI033118","GLI033118",2581.19,"Payroll Accrual"
"GLI","03/31/2018","12906","190892","GLI033118","GLI033118",30.05,"Payroll Accrual"
"GLI","03/31/2018","12506","190892","GLI033118","GLI033118",112.58,"Payroll Accrual"
"GLI","03/31/2018","12406","190892","GLI033118","GLI033118",272,"Payroll Accrual"
"GLI","03/31/2018","12306C","190892","GLI033118","GLI033118",1230.46,"Payroll Accrual"
"GLI","03/31/2018","12905","190600","GLI033118","GLI033118",33.11,"Payroll Accrual"
"GLI","03/31/2018","12505","190600","GLI033118","GLI033118",116.81,"Payroll Accrual"
"GLI","03/31/2018","124703","190600","GLI033118","GLI033118",1495.3,"Payroll Accrual"
"GLI","03/31/2018","12405","190600","GLI033118","GLI033118",160,"Payroll Accrual"
"GLI","03/31/2018","12905","188338","GLI033118","GLI033118",50.85,"Payroll Accrual"
"GLI","03/31/2018","12505","188338","GLI033118","GLI033118",181.08,"Payroll Accrual"
"GLI","03/31/2018","12305B","188338","GLI033118","GLI033118",2542.22,"Payroll Accrual"
"GLI","03/31/2018","12904","187675","GLI033118","GLI033118",55.38,"Payroll Accrual"
"GLI","03/31/2018","12504","187675","GLI033118","GLI033118",206.45,"Payroll Accrual"
"GLI","03/31/2018","124704","187675","GLI033118","GLI033118",2769.24,"Payroll Accrual"
"GLI","03/31/2018","12905","186210","GLI033118","GLI033118",30.41,"Payroll Accrual"
"GLI","03/31/2018","12505","186210","GLI033118","GLI033118",155.11,"Payroll Accrual"
"GLI","03/31/2018","124703","186210","GLI033118","GLI033118",2027.6,"Payroll Accrual"
"GLI","03/31/2018","12906","186100","GLI033118","GLI033118",11.54,"Payroll Accrual"
"GLI","03/31/2018","12905","186100","GLI033118","GLI033118",11.54,"Payroll Accrual"
"GLI","03/31/2018","12904","186100","GLI033118","GLI033118",11.54,"Payroll Accrual"
"GLI","03/31/2018","12902","186100","GLI033118","GLI033118",11.54,"Payroll Accrual"
"GLI","03/31/2018","12901","186100","GLI033118","GLI033118",11.54,"Payroll Accrual"
"GLI","03/31/2018","12506","186100","GLI033118","GLI033118",43.88,"Payroll Accrual"
"GLI","03/31/2018","12505","186100","GLI033118","GLI033118",43.88,"Payroll Accrual"
"GLI","03/31/2018","12504","186100","GLI033118","GLI033118",43.88,"Payroll Accrual"
"GLI","03/31/2018","12502","186100","GLI033118","GLI033118",43.88,"Payroll Accrual"
"GLI","03/31/2018","12501","186100","GLI033118","GLI033118",43.88,"Payroll Accrual"
"GLI","03/31/2018","12106","186100","GLI033118","GLI033118",576.92,"Payroll Accrual"
"GLI","03/31/2018","12105","186100","GLI033118","GLI033118",576.92,"Payroll Accrual"
"GLI","03/31/2018","12104","186100","GLI033118","GLI033118",576.92,"Payroll Accrual"
"GLI","03/31/2018","12102","186100","GLI033118","GLI033118",576.92,"Payroll Accrual"
"GLI","03/31/2018","12101","186100","GLI033118","GLI033118",576.92,"Payroll Accrual"
"GLI","03/31/2018","12906","185801","GLI033118","GLI033118",0.41,"Payroll Accrual"
"GLI","03/31/2018","12506","185801","GLI033118","GLI033118",2.06,"Payroll Accrual"
"GLI","03/31/2018","12306C","185801","GLI033118","GLI033118",27,"Payroll Accrual"
"GLI","03/31/2018","12503","185624","GLI033118","GLI033118",41.1,"Payroll Accrual"
"GLI","03/31/2018","124723","185624","GLI033118","GLI033118",537.24,"Payroll Accrual"
"GLI","03/31/2018","12915","185600","GLI033118","GLI033118",11.85,"Payroll Accrual"
"GLI","03/31/2018","12906","185600","GLI033118","GLI033118",8.08,"Payroll Accrual"
"GLI","03/31/2018","12905","185600","GLI033118","GLI033118",8.08,"Payroll Accrual"
"GLI","03/31/2018","12904","185600","GLI033118","GLI033118",8.62,"Payroll Accrual"
"GLI","03/31/2018","12902","185600","GLI033118","GLI033118",8.62,"Payroll Accrual"
"GLI","03/31/2018","12901","185600","GLI033118","GLI033118",8.62,"Payroll Accrual"
"GLI","03/31/2018","12515","185600","GLI033118","GLI033118",44.12,"Payroll Accrual"
"GLI","03/31/2018","12506","185600","GLI033118","GLI033118",30.08,"Payroll Accrual"
"GLI","03/31/2018","12505","185600","GLI033118","GLI033118",30.08,"Payroll Accrual"
"GLI","03/31/2018","12504","185600","GLI033118","GLI033118",32.09,"Payroll Accrual"
"GLI","03/31/2018","12502","185600","GLI033118","GLI033118",32.09,"Payroll Accrual"
"GLI","03/31/2018","12501","185600","GLI033118","GLI033118",32.09,"Payroll Accrual"
"GLI","03/31/2018","12315","185600","GLI033118","GLI033118",592.31,"Payroll Accrual"
"GLI","03/31/2018","12306","185600","GLI033118","GLI033118",403.85,"Payroll Accrual"
"GLI","03/31/2018","12305","185600","GLI033118","GLI033118",403.85,"Payroll Accrual"
"GLI","03/31/2018","12304","185600","GLI033118","GLI033118",430.77,"Payroll Accrual"
"GLI","03/31/2018","12302","185600","GLI033118","GLI033118",430.77,"Payroll Accrual"
"GLI","03/31/2018","12301","185600","GLI033118","GLI033118",430.77,"Payroll Accrual"
"GLI","03/31/2018","12905","184920","GLI033118","GLI033118",57.38,"Payroll Accrual"
"GLI","03/31/2018","12505","184920","GLI033118","GLI033118",290.91,"Payroll Accrual"
"GLI","03/31/2018","124703","184920","GLI033118","GLI033118",3825.4,"Payroll Accrual"
"GLI","03/31/2018","12924","184806","GLI033118","GLI033118",52.92,"Payroll Accrual"
"GLI","03/31/2018","12524","184806","GLI033118","GLI033118",202.42,"Payroll Accrual"
"GLI","03/31/2018","124724","184806","GLI033118","GLI033118",2646,"Payroll Accrual"
"GLI","03/31/2018","12424","184806","GLI033118","GLI033118",96,"Payroll Accrual"
"GLI","03/31/2018","12524","184620","GLI033118","GLI033118",99.39,"Payroll Accrual"
"GLI","03/31/2018","124724","184620","GLI033118","GLI033118",1299.16,"Payroll Accrual"
"GLI","03/31/2018","12905","184614","GLI033118","GLI033118",31.48,"Payroll Accrual"
"GLI","03/31/2018","12505","184614","GLI033118","GLI033118",160.56,"Payroll Accrual"
"GLI","03/31/2018","124703","184614","GLI033118","GLI033118",2098.8,"Payroll Accrual"
"GLI","03/31/2018","12405","184614","GLI033118","GLI033118",229.2,"Payroll Accrual"
"GLI","03/31/2018","12906","184610","GLI033118","GLI033118",48.48,"Payroll Accrual"
"GLI","03/31/2018","12506","184610","GLI033118","GLI033118",180.05,"Payroll Accrual"
"GLI","03/31/2018","12306B","184610","GLI033118","GLI033118",2424.13,"Payroll Accrual"
"GLI","03/31/2018","12914","181520","GLI033118","GLI033118",6,"Payroll Accrual"
"GLI","03/31/2018","12906","181520","GLI033118","GLI033118",4.23,"Payroll Accrual"
"GLI","03/31/2018","12905","181520","GLI033118","GLI033118",3.11,"Payroll Accrual"
"GLI","03/31/2018","12904","181520","GLI033118","GLI033118",5.19,"Payroll Accrual"
"GLI","03/31/2018","12902","181520","GLI033118","GLI033118",4.64,"Payroll Accrual"
"GLI","03/31/2018","12901","181520","GLI033118","GLI033118",4.64,"Payroll Accrual"
"GLI","03/31/2018","12514","181520","GLI033118","GLI033118",10.23,"Payroll Accrual"
"GLI","03/31/2018","12506","181520","GLI033118","GLI033118",0.16,"Payroll Accrual"
"GLI","03/31/2018","12505","181520","GLI033118","GLI033118",-0.04,"Payroll Accrual"
"GLI","03/31/2018","12504","181520","GLI033118","GLI033118",7.1,"Payroll Accrual"
"GLI","03/31/2018","12502","181520","GLI033118","GLI033118",5.01,"Payroll Accrual"
"GLI","03/31/2018","12501","181520","GLI033118","GLI033118",5.01,"Payroll Accrual"
"GLI","03/31/2018","12214","181520","GLI033118","GLI033118",300.25,"Payroll Accrual"
"GLI","03/31/2018","12206C","181520","GLI033118","GLI033118",177.42,"Payroll Accrual"
"GLI","03/31/2018","12205C","181520","GLI033118","GLI033118",163.77,"Payroll Accrual"
"GLI","03/31/2018","12204C","181520","GLI033118","GLI033118",259.3,"Payroll Accrual"
"GLI","03/31/2018","12202C","181520","GLI033118","GLI033118",232.01,"Payroll Accrual"
"GLI","03/31/2018","12201C","181520","GLI033118","GLI033118",232.01,"Payroll Accrual"
"GLI","03/31/2018","12904","18005","GLI033118","GLI033118",42.02,"Payroll Accrual"
"GLI","03/31/2018","12504","18005","GLI033118","GLI033118",159.42,"Payroll Accrual"
"GLI","03/31/2018","124704","18005","GLI033118","GLI033118",2101.06,"Payroll Accrual"
"GLI","03/31/2018","12906","179775","GLI033118","GLI033118",24.48,"Payroll Accrual"
"GLI","03/31/2018","12506","179775","GLI033118","GLI033118",91.08,"Payroll Accrual"
"GLI","03/31/2018","12306B","179775","GLI033118","GLI033118",1224.14,"Payroll Accrual"
"GLI","03/31/2018","12506","179693","GLI033118","GLI033118",16.8,"Payroll Accrual"
"GLI","03/31/2018","12505","179693","GLI033118","GLI033118",16.8,"Payroll Accrual"
"GLI","03/31/2018","12504","179693","GLI033118","GLI033118",16.8,"Payroll Accrual"
"GLI","03/31/2018","12502","179693","GLI033118","GLI033118",16.8,"Payroll Accrual"
"GLI","03/31/2018","12501","179693","GLI033118","GLI033118",16.8,"Payroll Accrual"
"GLI","03/31/2018","12206B","179693","GLI033118","GLI033118",219.64,"Payroll Accrual"
"GLI","03/31/2018","12205B","179693","GLI033118","GLI033118",219.64,"Payroll Accrual"
"GLI","03/31/2018","12204B","179693","GLI033118","GLI033118",219.64,"Payroll Accrual"
"GLI","03/31/2018","12202B","179693","GLI033118","GLI033118",219.64,"Payroll Accrual"
"GLI","03/31/2018","12201B","179693","GLI033118","GLI033118",219.64,"Payroll Accrual"
"GLI","03/31/2018","12504","178079","GLI033118","GLI033118",156.66,"Payroll Accrual"
"GLI","03/31/2018","12404","178079","GLI033118","GLI033118",132,"Payroll Accrual"
"GLI","03/31/2018","12304D","178079","GLI033118","GLI033118",2353.07,"Payroll Accrual"
"GLI","03/31/2018","12527","178060","GLI033118","GLI033118",10.02,"Payroll Accrual"
"GLI","03/31/2018","12327","178060","GLI033118","GLI033118",130.9,"Payroll Accrual"
"GLI","03/31/2018","12904","178050","GLI033118","GLI033118",21.63,"Payroll Accrual"
"GLI","03/31/2018","12504","178050","GLI033118","GLI033118",108.58,"Payroll Accrual"
"GLI","03/31/2018","124704","178050","GLI033118","GLI033118",1442.1,"Payroll Accrual"
"GLI","03/31/2018","12903","177950","GLI033118","GLI033118",21.58,"Payroll Accrual"
"GLI","03/31/2018","12503","177950","GLI033118","GLI033118",110.03,"Payroll Accrual"
"GLI","03/31/2018","124723","177950","GLI033118","GLI033118",1438.41,"Payroll Accrual"
"GLI","03/31/2018","12516","176505","GLI033118","GLI033118",12.13,"Payroll Accrual"
"GLI","03/31/2018","12316","176505","GLI033118","GLI033118",158.6,"Payroll Accrual"
"GLI","03/31/2018","12906","172077","GLI033118","GLI033118",37.33,"Payroll Accrual"
"GLI","03/31/2018","12506","172077","GLI033118","GLI033118",130.51,"Payroll Accrual"
"GLI","03/31/2018","12306B","172077","GLI033118","GLI033118",1866.68,"Payroll Accrual"
"GLI","03/31/2018","12905","171055","GLI033118","GLI033118",83.88,"Payroll Accrual"
"GLI","03/31/2018","12505","171055","GLI033118","GLI033118",308.02,"Payroll Accrual"
"GLI","03/31/2018","124703","171055","GLI033118","GLI033118",4194,"Payroll Accrual"
"GLI","03/31/2018","12527","168942","GLI033118","GLI033118",20.22,"Payroll Accrual"
"GLI","03/31/2018","12327","168942","GLI033118","GLI033118",264.3,"Payroll Accrual"
"GLI","03/31/2018","12516","167906","GLI033118","GLI033118",107.53,"Payroll Accrual"
"GLI","03/31/2018","12416","167906","GLI033118","GLI033118",112,"Payroll Accrual"
"GLI","03/31/2018","12316","167906","GLI033118","GLI033118",1310.75,"Payroll Accrual"
"GLI","03/31/2018","12914","167812","GLI033118","GLI033118",0.62,"Payroll Accrual"
"GLI","03/31/2018","12906","167812","GLI033118","GLI033118",1.51,"Payroll Accrual"
"GLI","03/31/2018","12905","167812","GLI033118","GLI033118",1.39,"Payroll Accrual"
"GLI","03/31/2018","12904","167812","GLI033118","GLI033118",0.54,"Payroll Accrual"
"GLI","03/31/2018","12902","167812","GLI033118","GLI033118",0.48,"Payroll Accrual"
"GLI","03/31/2018","12901","167812","GLI033118","GLI033118",0.48,"Payroll Accrual"
"GLI","03/31/2018","12514","167812","GLI033118","GLI033118",2.38,"Payroll Accrual"
"GLI","03/31/2018","12506","167812","GLI033118","GLI033118",0.27,"Payroll Accrual"
"GLI","03/31/2018","12505","167812","GLI033118","GLI033118",0.25,"Payroll Accrual"
"GLI","03/31/2018","12504","167812","GLI033118","GLI033118",2.06,"Payroll Accrual"
"GLI","03/31/2018","12502","167812","GLI033118","GLI033118",1.84,"Payroll Accrual"
"GLI","03/31/2018","12501","167812","GLI033118","GLI033118",1.84,"Payroll Accrual"
"GLI","03/31/2018","12214","167812","GLI033118","GLI033118",31.17,"Payroll Accrual"
"GLI","03/31/2018","12206C","167812","GLI033118","GLI033118",18.42,"Payroll Accrual"
"GLI","03/31/2018","12205C","167812","GLI033118","GLI033118",17,"Payroll Accrual"
"GLI","03/31/2018","12204C","167812","GLI033118","GLI033118",26.92,"Payroll Accrual"
"GLI","03/31/2018","12202C","167812","GLI033118","GLI033118",24.09,"Payroll Accrual"
"GLI","03/31/2018","12201C","167812","GLI033118","GLI033118",24.09,"Payroll Accrual"
"GLI","03/31/2018","12504","167580","GLI033118","GLI033118",158.49,"Payroll Accrual"
"GLI","03/31/2018","124704","167580","GLI033118","GLI033118",2094.5,"Payroll Accrual"
"GLI","03/31/2018","12504","165987","GLI033118","GLI033118",60.78,"Payroll Accrual"
"GLI","03/31/2018","12304C","165987","GLI033118","GLI033118",794.52,"Payroll Accrual"
"GLI","03/31/2018","12502","165400","GLI033118","GLI033118",30.37,"Payroll Accrual"
"GLI","03/31/2018","12501","165400","GLI033118","GLI033118",30.37,"Payroll Accrual"
"GLI","03/31/2018","12302","165400","GLI033118","GLI033118",475.94,"Payroll Accrual"
"GLI","03/31/2018","12301","165400","GLI033118","GLI033118",475.94,"Payroll Accrual"
"GLI","03/31/2018","12503","165378","GLI033118","GLI033118",105.79,"Payroll Accrual"
"GLI","03/31/2018","124723","165378","GLI033118","GLI033118",1382.92,"Payroll Accrual"
"GLI","03/31/2018","12905","165357","GLI033118","GLI033118",49.9,"Payroll Accrual"
"GLI","03/31/2018","12505","165357","GLI033118","GLI033118",247.56,"Payroll Accrual"
"GLI","03/31/2018","12305B","165357","GLI033118","GLI033118",3326.62,"Payroll Accrual"
"GLI","03/31/2018","12905","165275","GLI033118","GLI033118",23.1,"Payroll Accrual"
"GLI","03/31/2018","12505","165275","GLI033118","GLI033118",84.27,"Payroll Accrual"
"GLI","03/31/2018","124703","165275","GLI033118","GLI033118",1155.05,"Payroll Accrual"
"GLI","03/31/2018","12524","164920","GLI033118","GLI033118",55.19,"Payroll Accrual"
"GLI","03/31/2018","124724","164920","GLI033118","GLI033118",721.5,"Payroll Accrual"
"GLI","03/31/2018","12904","164015","GLI033118","GLI033118",48.6,"Payroll Accrual"
"GLI","03/31/2018","12504","164015","GLI033118","GLI033118",184.77,"Payroll Accrual"
"GLI","03/31/2018","124704","164015","GLI033118","GLI033118",2429.8,"Payroll Accrual"
"GLI","03/31/2018","12912","163096","GLI033118","GLI033118",6.87,"Payroll Accrual"
"GLI","03/31/2018","12902","163096","GLI033118","GLI033118",12.18,"Payroll Accrual"
"GLI","03/31/2018","12901","163096","GLI033118","GLI033118",12.18,"Payroll Accrual"
"GLI","03/31/2018","12512","163096","GLI033118","GLI033118",24.97,"Payroll Accrual"
"GLI","03/31/2018","12502","163096","GLI033118","GLI033118",45.28,"Payroll Accrual"
"GLI","03/31/2018","12501","163096","GLI033118","GLI033118",45.28,"Payroll Accrual"
"GLI","03/31/2018","12212","163096","GLI033118","GLI033118",343.59,"Payroll Accrual"
"GLI","03/31/2018","12202C","163096","GLI033118","GLI033118",609.09,"Payroll Accrual"
"GLI","03/31/2018","12201C","163096","GLI033118","GLI033118",609.09,"Payroll Accrual"
"GLI","03/31/2018","12906","16250","GLI033118","GLI033118",19.44,"Payroll Accrual"
"GLI","03/31/2018","12506","16250","GLI033118","GLI033118",84.79,"Payroll Accrual"
"GLI","03/31/2018","12306B","16250","GLI033118","GLI033118",1295.98,"Payroll Accrual"
"GLI","03/31/2018","12906","162428","GLI033118","GLI033118",37.36,"Payroll Accrual"
"GLI","03/31/2018","12506","162428","GLI033118","GLI033118",187.4,"Payroll Accrual"
"GLI","03/31/2018","12306B","162428","GLI033118","GLI033118",2490.6,"Payroll Accrual"
"GLI","03/31/2018","12902","161351","GLI033118","GLI033118",11.28,"Payroll Accrual"
"GLI","03/31/2018","12901","161351","GLI033118","GLI033118",7.52,"Payroll Accrual"
"GLI","03/31/2018","12502","161351","GLI033118","GLI033118",49.45,"Payroll Accrual"
"GLI","03/31/2018","12501","161351","GLI033118","GLI033118",30.28,"Payroll Accrual"
"GLI","03/31/2018","12402","161351","GLI033118","GLI033118",316.2,"Payroll Accrual"
"GLI","03/31/2018","12401","161351","GLI033118","GLI033118",210.8,"Payroll Accrual"
"GLI","03/31/2018","11102","161351","GLI033118","GLI033118",435.74,"Payroll Accrual"
"GLI","03/31/2018","11101","161351","GLI033118","GLI033118",290.5,"Payroll Accrual"
"GLI","03/31/2018","12506","161205","GLI033118","GLI033118",59.23,"Payroll Accrual"
"GLI","03/31/2018","12306C","161205","GLI033118","GLI033118",774.24,"Payroll Accrual"
"GLI","03/31/2018","12503","161010","GLI033118","GLI033118",48.8,"Payroll Accrual"
"GLI","03/31/2018","124723","161010","GLI033118","GLI033118",637.84,"Payroll Accrual"
"GLI","03/31/2018","12905","160930","GLI033118","GLI033118",58.46,"Payroll Accrual"
"GLI","03/31/2018","12505","160930","GLI033118","GLI033118",216.69,"Payroll Accrual"
"GLI","03/31/2018","12305C","160930","GLI033118","GLI033118",2923.17,"Payroll Accrual"
"GLI","03/31/2018","12503","159100","GLI033118","GLI033118",64.8,"Payroll Accrual"
"GLI","03/31/2018","124723","159100","GLI033118","GLI033118",847.14,"Payroll Accrual"
"GLI","03/31/2018","12906","1588879","GLI033118","GLI033118",9.13,"Payroll Accrual"
"GLI","03/31/2018","12905","1588879","GLI033118","GLI033118",8.43,"Payroll Accrual"
"GLI","03/31/2018","12514","1588879","GLI033118","GLI033118",19.07,"Payroll Accrual"
"GLI","03/31/2018","12506","1588879","GLI033118","GLI033118",2.14,"Payroll Accrual"
"GLI","03/31/2018","12505","1588879","GLI033118","GLI033118",1.97,"Payroll Accrual"
"GLI","03/31/2018","12504","1588879","GLI033118","GLI033118",16.47,"Payroll Accrual"
"GLI","03/31/2018","12502","1588879","GLI033118","GLI033118",14.73,"Payroll Accrual"
"GLI","03/31/2018","12501","1588879","GLI033118","GLI033118",14.73,"Payroll Accrual"
"GLI","03/31/2018","12214","1588879","GLI033118","GLI033118",249.28,"Payroll Accrual"
"GLI","03/31/2018","12206C","1588879","GLI033118","GLI033118",147.3,"Payroll Accrual"
"GLI","03/31/2018","12205C","1588879","GLI033118","GLI033118",135.97,"Payroll Accrual"
"GLI","03/31/2018","12204C","1588879","GLI033118","GLI033118",215.29,"Payroll Accrual"
"GLI","03/31/2018","12202C","1588879","GLI033118","GLI033118",192.63,"Payroll Accrual"
"GLI","03/31/2018","12201C","1588879","GLI033118","GLI033118",192.63,"Payroll Accrual"
"GLI","03/31/2018","12506","158820","GLI033118","GLI033118",5.26,"Payroll Accrual"
"GLI","03/31/2018","12505","158820","GLI033118","GLI033118",5.26,"Payroll Accrual"
"GLI","03/31/2018","12504","158820","GLI033118","GLI033118",5.26,"Payroll Accrual"
"GLI","03/31/2018","12502","158820","GLI033118","GLI033118",5.26,"Payroll Accrual"
"GLI","03/31/2018","12501","158820","GLI033118","GLI033118",5.26,"Payroll Accrual"
"GLI","03/31/2018","12206B","158820","GLI033118","GLI033118",68.68,"Payroll Accrual"
"GLI","03/31/2018","12205B","158820","GLI033118","GLI033118",68.68,"Payroll Accrual"
"GLI","03/31/2018","12204B","158820","GLI033118","GLI033118",68.68,"Payroll Accrual"
"GLI","03/31/2018","12202B","158820","GLI033118","GLI033118",68.68,"Payroll Accrual"
"GLI","03/31/2018","12201B","158820","GLI033118","GLI033118",68.68,"Payroll Accrual"
"GLI","03/31/2018","12527","158668","GLI033118","GLI033118",18.5,"Payroll Accrual"
"GLI","03/31/2018","12327","158668","GLI033118","GLI033118",241.78,"Payroll Accrual"
"GLI","03/31/2018","12914","157995","GLI033118","GLI033118",7.11,"Payroll Accrual"
"GLI","03/31/2018","12906","157995","GLI033118","GLI033118",14.46,"Payroll Accrual"
"GLI","03/31/2018","12905","157995","GLI033118","GLI033118",13.35,"Payroll Accrual"
"GLI","03/31/2018","12904","157995","GLI033118","GLI033118",6.14,"Payroll Accrual"
"GLI","03/31/2018","12902","157995","GLI033118","GLI033118",5.49,"Payroll Accrual"
"GLI","03/31/2018","12901","157995","GLI033118","GLI033118",5.49,"Payroll Accrual"
"GLI","03/31/2018","12514","157995","GLI033118","GLI033118",21.42,"Payroll Accrual"
"GLI","03/31/2018","12506","157995","GLI033118","GLI033118",2.4,"Payroll Accrual"
"GLI","03/31/2018","12505","157995","GLI033118","GLI033118",2.21,"Payroll Accrual"
"GLI","03/31/2018","12504","157995","GLI033118","GLI033118",18.5,"Payroll Accrual"
"GLI","03/31/2018","12502","157995","GLI033118","GLI033118",16.55,"Payroll Accrual"
"GLI","03/31/2018","12501","157995","GLI033118","GLI033118",16.55,"Payroll Accrual"
"GLI","03/31/2018","12214","157995","GLI033118","GLI033118",355.39,"Payroll Accrual"
"GLI","03/31/2018","12206C","157995","GLI033118","GLI033118",210,"Payroll Accrual"
"GLI","03/31/2018","12205C","157995","GLI033118","GLI033118",193.85,"Payroll Accrual"
"GLI","03/31/2018","12204C","157995","GLI033118","GLI033118",306.92,"Payroll Accrual"
"GLI","03/31/2018","12202C","157995","GLI033118","GLI033118",274.62,"Payroll Accrual"
"GLI","03/31/2018","12201C","157995","GLI033118","GLI033118",274.62,"Payroll Accrual"
"GLI","03/31/2018","12527","156988","GLI033118","GLI033118",20.1,"Payroll Accrual"
"GLI","03/31/2018","12327","156988","GLI033118","GLI033118",262.8,"Payroll Accrual"
"GLI","03/31/2018","12503","156894","GLI033118","GLI033118",23.06,"Payroll Accrual"
"GLI","03/31/2018","124723","156894","GLI033118","GLI033118",301.44,"Payroll Accrual"
"GLI","03/31/2018","12516","156874","GLI033118","GLI033118",176.54,"Payroll Accrual"
"GLI","03/31/2018","12316","156874","GLI033118","GLI033118",2307.7,"Payroll Accrual"
"GLI","03/31/2018","12516","156844","GLI033118","GLI033118",68.18,"Payroll Accrual"
"GLI","03/31/2018","12316","156844","GLI033118","GLI033118",970.11,"Payroll Accrual"
"GLI","03/31/2018","12504","15668","GLI033118","GLI033118",66.11,"Payroll Accrual"
"GLI","03/31/2018","12204A","15668","GLI033118","GLI033118",881.27,"Payroll Accrual"
"GLI","03/31/2018","12504","15654","GLI033118","GLI033118",44.21,"Payroll Accrual"
"GLI","03/31/2018","12304C","15654","GLI033118","GLI033118",577.92,"Payroll Accrual"
"GLI","03/31/2018","12505","15648","GLI033118","GLI033118",51.17,"Payroll Accrual"
"GLI","03/31/2018","124703","15648","GLI033118","GLI033118",668.85,"Payroll Accrual"
"GLI","03/31/2018","12506","15646","GLI033118","GLI033118",72.53,"Payroll Accrual"
"GLI","03/31/2018","12306C","15646","GLI033118","GLI033118",970.8,"Payroll Accrual"
"GLI","03/31/2018","12506","155872","GLI033118","GLI033118",5.52,"Payroll Accrual"
"GLI","03/31/2018","12505","155872","GLI033118","GLI033118",5.52,"Payroll Accrual"
"GLI","03/31/2018","12504","155872","GLI033118","GLI033118",5.52,"Payroll Accrual"
"GLI","03/31/2018","12502","155872","GLI033118","GLI033118",5.52,"Payroll Accrual"
"GLI","03/31/2018","12501","155872","GLI033118","GLI033118",5.52,"Payroll Accrual"
"GLI","03/31/2018","12206B","155872","GLI033118","GLI033118",72.1,"Payroll Accrual"
"GLI","03/31/2018","12205B","155872","GLI033118","GLI033118",72.1,"Payroll Accrual"
"GLI","03/31/2018","12204B","155872","GLI033118","GLI033118",72.1,"Payroll Accrual"
"GLI","03/31/2018","12202B","155872","GLI033118","GLI033118",72.1,"Payroll Accrual"
"GLI","03/31/2018","12201B","155872","GLI033118","GLI033118",72.1,"Payroll Accrual"
"GLI","03/31/2018","12503","155477","GLI033118","GLI033118",55.05,"Payroll Accrual"
"GLI","03/31/2018","124723","155477","GLI033118","GLI033118",824.18,"Payroll Accrual"
"GLI","03/31/2018","12527","154474","GLI033118","GLI033118",8.2,"Payroll Accrual"
"GLI","03/31/2018","12327","154474","GLI033118","GLI033118",107.2,"Payroll Accrual"
"GLI","03/31/2018","12904","152525","GLI033118","GLI033118",26.76,"Payroll Accrual"
"GLI","03/31/2018","12504","152525","GLI033118","GLI033118",121.84,"Payroll Accrual"
"GLI","03/31/2018","124704","152525","GLI033118","GLI033118",1783.9,"Payroll Accrual"
"GLI","03/31/2018","12512","152512","GLI033118","GLI033118",10.07,"Payroll Accrual"
"GLI","03/31/2018","12502","152512","GLI033118","GLI033118",17.84,"Payroll Accrual"
"GLI","03/31/2018","12501","152512","GLI033118","GLI033118",17.84,"Payroll Accrual"
"GLI","03/31/2018","12212","152512","GLI033118","GLI033118",131.55,"Payroll Accrual"
"GLI","03/31/2018","12202C","152512","GLI033118","GLI033118",233.2,"Payroll Accrual"
"GLI","03/31/2018","12201C","152512","GLI033118","GLI033118",233.2,"Payroll Accrual"
"GLI","03/31/2018","12927","152510","GLI033118","GLI033118",14.3,"Payroll Accrual"
"GLI","03/31/2018","12527","152510","GLI033118","GLI033118",68.37,"Payroll Accrual"
"GLI","03/31/2018","12327","152510","GLI033118","GLI033118",953.26,"Payroll Accrual"
"GLI","03/31/2018","12503","152499","GLI033118","GLI033118",77.53,"Payroll Accrual"
"GLI","03/31/2018","12303","152499","GLI033118","GLI033118",1013.43,"Payroll Accrual"
"GLI","03/31/2018","12924","152495","GLI033118","GLI033118",25.66,"Payroll Accrual"
"GLI","03/31/2018","12524","152495","GLI033118","GLI033118",130.88,"Payroll Accrual"
"GLI","03/31/2018","124724","152495","GLI033118","GLI033118",1710.8,"Payroll Accrual"
"GLI","03/31/2018","12903","152432","GLI033118","GLI033118",10.8,"Payroll Accrual"
"GLI","03/31/2018","12503","152432","GLI033118","GLI033118",55.07,"Payroll Accrual"
"GLI","03/31/2018","12303","152432","GLI033118","GLI033118",719.97,"Payroll Accrual"
"GLI","03/31/2018","12904","152410","GLI033118","GLI033118",50.66,"Payroll Accrual"
"GLI","03/31/2018","12504","152410","GLI033118","GLI033118",193.03,"Payroll Accrual"
"GLI","03/31/2018","124704","152410","GLI033118","GLI033118",2532.9,"Payroll Accrual"
"GLI","03/31/2018","12404","152410","GLI033118","GLI033118",104.08,"Payroll Accrual"
"GLI","03/31/2018","12904","152235","GLI033118","GLI033118",75.38,"Payroll Accrual"
"GLI","03/31/2018","12504","152235","GLI033118","GLI033118",288.33,"Payroll Accrual"
"GLI","03/31/2018","124704","152235","GLI033118","GLI033118",3769,"Payroll Accrual"
"GLI","03/31/2018","12404","152235","GLI033118","GLI033118",340,"Payroll Accrual"
"GLI","03/31/2018","12904","151410","GLI033118","GLI033118",20.43,"Payroll Accrual"
"GLI","03/31/2018","12504","151410","GLI033118","GLI033118",98.35,"Payroll Accrual"
"GLI","03/31/2018","12204C","151410","GLI033118","GLI033118",1361.7,"Payroll Accrual"
"GLI","03/31/2018","12503","151203","GLI033118","GLI033118",27.95,"Payroll Accrual"
"GLI","03/31/2018","124723","151203","GLI033118","GLI033118",365.4,"Payroll Accrual"
"GLI","03/31/2018","12904","150126","GLI033118","GLI033118",50.26,"Payroll Accrual"
"GLI","03/31/2018","12504","150126","GLI033118","GLI033118",256.34,"Payroll Accrual"
"GLI","03/31/2018","124704","150126","GLI033118","GLI033118",3350.8,"Payroll Accrual"
"GLI","03/31/2018","12905","150120","GLI033118","GLI033118",32.54,"Payroll Accrual"
"GLI","03/31/2018","12505","150120","GLI033118","GLI033118",164.21,"Payroll Accrual"
"GLI","03/31/2018","12105","150120","GLI033118","GLI033118",2169.23,"Payroll Accrual"
"GLI","03/31/2018","12905","150105","GLI033118","GLI033118",38.08,"Payroll Accrual"
"GLI","03/31/2018","12505","150105","GLI033118","GLI033118",191.85,"Payroll Accrual"
"GLI","03/31/2018","124703","150105","GLI033118","GLI033118",2538.7,"Payroll Accrual"
"GLI","03/31/2018","12405","150105","GLI033118","GLI033118",1000.96,"Payroll Accrual"
"GLI","03/31/2018","12904","149878","GLI033118","GLI033118",16.51,"Payroll Accrual"
"GLI","03/31/2018","12504","149878","GLI033118","GLI033118",100.83,"Payroll Accrual"
"GLI","03/31/2018","12304D","149878","GLI033118","GLI033118",1651.08,"Payroll Accrual"
"GLI","03/31/2018","12901","148050","GLI033118","GLI033118",57.69,"Payroll Accrual"
"GLI","03/31/2018","12501","148050","GLI033118","GLI033118",284.54,"Payroll Accrual"
"GLI","03/31/2018","12101","148050","GLI033118","GLI033118",3846,"Payroll Accrual"
"GLI","03/31/2018","12902","146480","GLI033118","GLI033118",10.49,"Payroll Accrual"
"GLI","03/31/2018","12901","146480","GLI033118","GLI033118",10.49,"Payroll Accrual"
"GLI","03/31/2018","12502","146480","GLI033118","GLI033118",40.11,"Payroll Accrual"
"GLI","03/31/2018","12501","146480","GLI033118","GLI033118",40.11,"Payroll Accrual"
"GLI","03/31/2018","12302","146480","GLI033118","GLI033118",524.41,"Payroll Accrual"
"GLI","03/31/2018","12301","146480","GLI033118","GLI033118",524.41,"Payroll Accrual"
"GLI","03/31/2018","12901","146450","GLI033118","GLI033118",55.38,"Payroll Accrual"
"GLI","03/31/2018","12501","146450","GLI033118","GLI033118",205.14,"Payroll Accrual"
"GLI","03/31/2018","12301B","146450","GLI033118","GLI033118",2769.24,"Payroll Accrual"
"GLI","03/31/2018","12904","145801","GLI033118","GLI033118",38.54,"Payroll Accrual"
"GLI","03/31/2018","12504","145801","GLI033118","GLI033118",191.85,"Payroll Accrual"
"GLI","03/31/2018","124704","145801","GLI033118","GLI033118",2569.6,"Payroll Accrual"
"GLI","03/31/2018","12505","145789","GLI033118","GLI033118",210.88,"Payroll Accrual"
"GLI","03/31/2018","124703","145789","GLI033118","GLI033118",2756.6,"Payroll Accrual"
"GLI","03/31/2018","12503","144788","GLI033118","GLI033118",110.03,"Payroll Accrual"
"GLI","03/31/2018","12303","144788","GLI033118","GLI033118",1438.43,"Payroll Accrual"
"GLI","03/31/2018","12503","143895","GLI033118","GLI033118",52.59,"Payroll Accrual"
"GLI","03/31/2018","124723","143895","GLI033118","GLI033118",687.36,"Payroll Accrual"
"GLI","03/31/2018","12905","141069","GLI033118","GLI033118",64.4,"Payroll Accrual"
"GLI","03/31/2018","12505","141069","GLI033118","GLI033118",243.73,"Payroll Accrual"
"GLI","03/31/2018","12305B","141069","GLI033118","GLI033118",3220.26,"Payroll Accrual"
"GLI","03/31/2018","12504","141060","GLI033118","GLI033118",215.22,"Payroll Accrual"
"GLI","03/31/2018","12304B","141060","GLI033118","GLI033118",2858.73,"Payroll Accrual"
"GLI","03/31/2018","12904","140790","GLI033118","GLI033118",27.69,"Payroll Accrual"
"GLI","03/31/2018","12903","140790","GLI033118","GLI033118",27.69,"Payroll Accrual"
"GLI","03/31/2018","12504","140790","GLI033118","GLI033118",104.62,"Payroll Accrual"
"GLI","03/31/2018","12503","140790","GLI033118","GLI033118",104.62,"Payroll Accrual"
"GLI","03/31/2018","12104","140790","GLI033118","GLI033118",1384.62,"Payroll Accrual"
"GLI","03/31/2018","12103","140790","GLI033118","GLI033118",1384.62,"Payroll Accrual"
"GLI","03/31/2018","12916","138380","GLI033118","GLI033118",18.61,"Payroll Accrual"
"GLI","03/31/2018","12516","138380","GLI033118","GLI033118",58.14,"Payroll Accrual"
"GLI","03/31/2018","12316","138380","GLI033118","GLI033118",930.3,"Payroll Accrual"
"GLI","03/31/2018","12504","13725","GLI033118","GLI033118",321.4,"Payroll Accrual"
"GLI","03/31/2018","124704","13725","GLI033118","GLI033118",4672.3,"Payroll Accrual"
"GLI","03/31/2018","12404","13725","GLI033118","GLI033118",133.41,"Payroll Accrual"
"GLI","03/31/2018","12905","137101","GLI033118","GLI033118",27.96,"Payroll Accrual"
"GLI","03/31/2018","12505","137101","GLI033118","GLI033118",142.59,"Payroll Accrual"
"GLI","03/31/2018","124703","137101","GLI033118","GLI033118",1863.9,"Payroll Accrual"
"GLI","03/31/2018","12904","136170","GLI033118","GLI033118",20.05,"Payroll Accrual"
"GLI","03/31/2018","12504","136170","GLI033118","GLI033118",149.62,"Payroll Accrual"
"GLI","03/31/2018","124704","136170","GLI033118","GLI033118",2005.32,"Payroll Accrual"
"GLI","03/31/2018","12503","135987","GLI033118","GLI033118",29.49,"Payroll Accrual"
"GLI","03/31/2018","124723","135987","GLI033118","GLI033118",385.44,"Payroll Accrual"
"GLI","03/31/2018","12505","135770","GLI033118","GLI033118",313.07,"Payroll Accrual"
"GLI","03/31/2018","124703","135770","GLI033118","GLI033118",4092.4,"Payroll Accrual"
"GLI","03/31/2018","12506","132987","GLI033118","GLI033118",13.35,"Payroll Accrual"
"GLI","03/31/2018","12505","132987","GLI033118","GLI033118",13.35,"Payroll Accrual"
"GLI","03/31/2018","12504","132987","GLI033118","GLI033118",13.35,"Payroll Accrual"
"GLI","03/31/2018","12502","132987","GLI033118","GLI033118",13.35,"Payroll Accrual"
"GLI","03/31/2018","12501","132987","GLI033118","GLI033118",13.35,"Payroll Accrual"
"GLI","03/31/2018","12206B","132987","GLI033118","GLI033118",180.13,"Payroll Accrual"
"GLI","03/31/2018","12205B","132987","GLI033118","GLI033118",180.13,"Payroll Accrual"
"GLI","03/31/2018","12204B","132987","GLI033118","GLI033118",180.13,"Payroll Accrual"
"GLI","03/31/2018","12202B","132987","GLI033118","GLI033118",180.13,"Payroll Accrual"
"GLI","03/31/2018","12201B","132987","GLI033118","GLI033118",180.13,"Payroll Accrual"
"GLI","03/31/2018","12915","132500","GLI033118","GLI033118",11.17,"Payroll Accrual"
"GLI","03/31/2018","12906","132500","GLI033118","GLI033118",7.62,"Payroll Accrual"
"GLI","03/31/2018","12905","132500","GLI033118","GLI033118",7.62,"Payroll Accrual"
"GLI","03/31/2018","12904","132500","GLI033118","GLI033118",8.12,"Payroll Accrual"
"GLI","03/31/2018","12902","132500","GLI033118","GLI033118",8.12,"Payroll Accrual"
"GLI","03/31/2018","12901","132500","GLI033118","GLI033118",8.12,"Payroll Accrual"
"GLI","03/31/2018","12515","132500","GLI033118","GLI033118",42.15,"Payroll Accrual"
"GLI","03/31/2018","12506","132500","GLI033118","GLI033118",28.74,"Payroll Accrual"
"GLI","03/31/2018","12505","132500","GLI033118","GLI033118",28.74,"Payroll Accrual"
"GLI","03/31/2018","12504","132500","GLI033118","GLI033118",30.65,"Payroll Accrual"
"GLI","03/31/2018","12502","132500","GLI033118","GLI033118",30.65,"Payroll Accrual"
"GLI","03/31/2018","12501","132500","GLI033118","GLI033118",30.65,"Payroll Accrual"
"GLI","03/31/2018","12315","132500","GLI033118","GLI033118",558.46,"Payroll Accrual"
"GLI","03/31/2018","12306","132500","GLI033118","GLI033118",380.77,"Payroll Accrual"
"GLI","03/31/2018","12305","132500","GLI033118","GLI033118",380.77,"Payroll Accrual"
"GLI","03/31/2018","12304","132500","GLI033118","GLI033118",406.16,"Payroll Accrual"
"GLI","03/31/2018","12302","132500","GLI033118","GLI033118",406.16,"Payroll Accrual"
"GLI","03/31/2018","12301","132500","GLI033118","GLI033118",406.16,"Payroll Accrual"
"GLI","03/31/2018","12904","131370","GLI033118","GLI033118",39.55,"Payroll Accrual"
"GLI","03/31/2018","12504","131370","GLI033118","GLI033118",151.3,"Payroll Accrual"
"GLI","03/31/2018","124704","131370","GLI033118","GLI033118",1977.7,"Payroll Accrual"
"GLI","03/31/2018","12924","131315","GLI033118","GLI033118",46.07,"Payroll Accrual"
"GLI","03/31/2018","12524","131315","GLI033118","GLI033118",175.81,"Payroll Accrual"
"GLI","03/31/2018","124724","131315","GLI033118","GLI033118",2303.7,"Payroll Accrual"
"GLI","03/31/2018","12904","12800","GLI033118","GLI033118",19.61,"Payroll Accrual"
"GLI","03/31/2018","12504","12800","GLI033118","GLI033118",94.18,"Payroll Accrual"
"GLI","03/31/2018","12304D","12800","GLI033118","GLI033118",1307.32,"Payroll Accrual"
"GLI","03/31/2018","12903","12725","GLI033118","GLI033118",7.58,"Payroll Accrual"
"GLI","03/31/2018","12503","12725","GLI033118","GLI033118",38.67,"Payroll Accrual"
"GLI","03/31/2018","124723","12725","GLI033118","GLI033118",505.54,"Payroll Accrual"
"GLI","03/31/2018","12504","126887","GLI033118","GLI033118",141.23,"Payroll Accrual"
"GLI","03/31/2018","12304B","126887","GLI033118","GLI033118",1846.16,"Payroll Accrual"
"GLI","03/31/2018","12527","1265688","GLI033118","GLI033118",14.83,"Payroll Accrual"
"GLI","03/31/2018","12327","1265688","GLI033118","GLI033118",193.8,"Payroll Accrual"
"GLI","03/31/2018","12902","126200","GLI033118","GLI033118",15.58,"Payroll Accrual"
"GLI","03/31/2018","12901","126200","GLI033118","GLI033118",15.58,"Payroll Accrual"
"GLI","03/31/2018","12502","126200","GLI033118","GLI033118",79.44,"Payroll Accrual"
"GLI","03/31/2018","12501","126200","GLI033118","GLI033118",79.44,"Payroll Accrual"
"GLI","03/31/2018","12202A","126200","GLI033118","GLI033118",1038.46,"Payroll Accrual"
"GLI","03/31/2018","12201A","126200","GLI033118","GLI033118",1038.46,"Payroll Accrual"
"GLI","03/31/2018","12505","125888","GLI033118","GLI033118",10.31,"Payroll Accrual"
"GLI","03/31/2018","12504","125888","GLI033118","GLI033118",10.31,"Payroll Accrual"
"GLI","03/31/2018","12502","125888","GLI033118","GLI033118",10.31,"Payroll Accrual"
"GLI","03/31/2018","12501","125888","GLI033118","GLI033118",10.31,"Payroll Accrual"
"GLI","03/31/2018","12305F","125888","GLI033118","GLI033118",134.79,"Payroll Accrual"
"GLI","03/31/2018","12304F","125888","GLI033118","GLI033118",134.79,"Payroll Accrual"
"GLI","03/31/2018","12302F","125888","GLI033118","GLI033118",134.79,"Payroll Accrual"
"GLI","03/31/2018","12301F","125888","GLI033118","GLI033118",134.79,"Payroll Accrual"
"GLI","03/31/2018","12906","125774","GLI033118","GLI033118",9.06,"Payroll Accrual"
"GLI","03/31/2018","12905","125774","GLI033118","GLI033118",8.37,"Payroll Accrual"
"GLI","03/31/2018","12514","125774","GLI033118","GLI033118",18.93,"Payroll Accrual"
"GLI","03/31/2018","12506","125774","GLI033118","GLI033118",2.12,"Payroll Accrual"
"GLI","03/31/2018","12505","125774","GLI033118","GLI033118",1.96,"Payroll Accrual"
"GLI","03/31/2018","12504","125774","GLI033118","GLI033118",16.35,"Payroll Accrual"
"GLI","03/31/2018","12502","125774","GLI033118","GLI033118",14.62,"Payroll Accrual"
"GLI","03/31/2018","12501","125774","GLI033118","GLI033118",14.62,"Payroll Accrual"
"GLI","03/31/2018","12214","125774","GLI033118","GLI033118",247.4,"Payroll Accrual"
"GLI","03/31/2018","12206C","125774","GLI033118","GLI033118",146.19,"Payroll Accrual"
"GLI","03/31/2018","12205C","125774","GLI033118","GLI033118",134.95,"Payroll Accrual"
"GLI","03/31/2018","12204C","125774","GLI033118","GLI033118",213.66,"Payroll Accrual"
"GLI","03/31/2018","12202C","125774","GLI033118","GLI033118",191.17,"Payroll Accrual"
"GLI","03/31/2018","12201C","125774","GLI033118","GLI033118",191.17,"Payroll Accrual"
"GLI","03/31/2018","12527","12555","GLI033118","GLI033118",21.48,"Payroll Accrual"
"GLI","03/31/2018","12327","12555","GLI033118","GLI033118",280.8,"Payroll Accrual"
"GLI","03/31/2018","12506","12544","GLI033118","GLI033118",14.14,"Payroll Accrual"
"GLI","03/31/2018","12505","12544","GLI033118","GLI033118",14.14,"Payroll Accrual"
"GLI","03/31/2018","12504","12544","GLI033118","GLI033118",14.14,"Payroll Accrual"
"GLI","03/31/2018","12502","12544","GLI033118","GLI033118",14.14,"Payroll Accrual"
"GLI","03/31/2018","12501","12544","GLI033118","GLI033118",14.14,"Payroll Accrual"
"GLI","03/31/2018","12206B","12544","GLI033118","GLI033118",207.6,"Payroll Accrual"
"GLI","03/31/2018","12205B","12544","GLI033118","GLI033118",207.6,"Payroll Accrual"
"GLI","03/31/2018","12204B","12544","GLI033118","GLI033118",207.6,"Payroll Accrual"
"GLI","03/31/2018","12202B","12544","GLI033118","GLI033118",207.6,"Payroll Accrual"
"GLI","03/31/2018","12201B","12544","GLI033118","GLI033118",207.6,"Payroll Accrual"
"GLI","03/31/2018","12503","125028","GLI033118","GLI033118",82.35,"Payroll Accrual"
"GLI","03/31/2018","124723","125028","GLI033118","GLI033118",1076.46,"Payroll Accrual"
"GLI","03/31/2018","12503","12447","GLI033118","GLI033118",84.11,"Payroll Accrual"
"GLI","03/31/2018","124723","12447","GLI033118","GLI033118",1099.5,"Payroll Accrual"
"GLI","03/31/2018","12504","1244452","GLI033118","GLI033118",105.29,"Payroll Accrual"
"GLI","03/31/2018","12304D","1244452","GLI033118","GLI033118",1376.24,"Payroll Accrual"
"GLI","03/31/2018","12903","124360","GLI033118","GLI033118",18.69,"Payroll Accrual"
"GLI","03/31/2018","12503","124360","GLI033118","GLI033118",63.84,"Payroll Accrual"
"GLI","03/31/2018","12303","124360","GLI033118","GLI033118",1245.58,"Payroll Accrual"
"GLI","03/31/2018","12924","124101","GLI033118","GLI033118",22.1,"Payroll Accrual"
"GLI","03/31/2018","12524","124101","GLI033118","GLI033118",112.7,"Payroll Accrual"
"GLI","03/31/2018","12224","124101","GLI033118","GLI033118",1473.26,"Payroll Accrual"
"GLI","03/31/2018","12527","123564","GLI033118","GLI033118",24.78,"Payroll Accrual"
"GLI","03/31/2018","12327","123564","GLI033118","GLI033118",323.9,"Payroll Accrual"
"GLI","03/31/2018","12904","123525","GLI033118","GLI033118",4.01,"Payroll Accrual"
"GLI","03/31/2018","12504","123525","GLI033118","GLI033118",15.32,"Payroll Accrual"
"GLI","03/31/2018","12304B","123525","GLI033118","GLI033118",200.25,"Payroll Accrual"
"GLI","03/31/2018","12906","123100","GLI033118","GLI033118",20.08,"Payroll Accrual"
"GLI","03/31/2018","12905","123100","GLI033118","GLI033118",20.08,"Payroll Accrual"
"GLI","03/31/2018","12904","123100","GLI033118","GLI033118",20.08,"Payroll Accrual"
"GLI","03/31/2018","12902","123100","GLI033118","GLI033118",20.08,"Payroll Accrual"
"GLI","03/31/2018","12901","123100","GLI033118","GLI033118",20.08,"Payroll Accrual"
"GLI","03/31/2018","12506","123100","GLI033118","GLI033118",99.71,"Payroll Accrual"
"GLI","03/31/2018","12505","123100","GLI033118","GLI033118",99.71,"Payroll Accrual"
"GLI","03/31/2018","12504","123100","GLI033118","GLI033118",99.71,"Payroll Accrual"
"GLI","03/31/2018","12502","123100","GLI033118","GLI033118",99.71,"Payroll Accrual"
"GLI","03/31/2018","12501","123100","GLI033118","GLI033118",99.71,"Payroll Accrual"
"GLI","03/31/2018","12106","123100","GLI033118","GLI033118",1338.46,"Payroll Accrual"
"GLI","03/31/2018","12105","123100","GLI033118","GLI033118",1338.46,"Payroll Accrual"
"GLI","03/31/2018","12104","123100","GLI033118","GLI033118",1338.46,"Payroll Accrual"
"GLI","03/31/2018","12102","123100","GLI033118","GLI033118",1338.46,"Payroll Accrual"
"GLI","03/31/2018","12101","123100","GLI033118","GLI033118",1338.46,"Payroll Accrual"
"GLI","03/31/2018","12505","122558","GLI033118","GLI033118",18.15,"Payroll Accrual"
"GLI","03/31/2018","124703","122558","GLI033118","GLI033118",237.3,"Payroll Accrual"
"GLI","03/31/2018","12524","122369","GLI033118","GLI033118",64.35,"Payroll Accrual"
"GLI","03/31/2018","124724","122369","GLI033118","GLI033118",841.2,"Payroll Accrual"
"GLI","03/31/2018","12511","12236","GLI033118","GLI033118",34.14,"Payroll Accrual"
"GLI","03/31/2018","12506","12236","GLI033118","GLI033118",24.84,"Payroll Accrual"
"GLI","03/31/2018","12505","12236","GLI033118","GLI033118",24.84,"Payroll Accrual"
"GLI","03/31/2018","12504","12236","GLI033118","GLI033118",24.84,"Payroll Accrual"
"GLI","03/31/2018","12502","12236","GLI033118","GLI033118",23.28,"Payroll Accrual"
"GLI","03/31/2018","12501","12236","GLI033118","GLI033118",23.28,"Payroll Accrual"
"GLI","03/31/2018","12311","12236","GLI033118","GLI033118",507.69,"Payroll Accrual"
"GLI","03/31/2018","12306H","12236","GLI033118","GLI033118",369.23,"Payroll Accrual"
"GLI","03/31/2018","12305H","12236","GLI033118","GLI033118",369.23,"Payroll Accrual"
"GLI","03/31/2018","12304H","12236","GLI033118","GLI033118",369.23,"Payroll Accrual"
"GLI","03/31/2018","12302H","12236","GLI033118","GLI033118",346.15,"Payroll Accrual"
"GLI","03/31/2018","12301H","12236","GLI033118","GLI033118",346.15,"Payroll Accrual"
"GLI","03/31/2018","12506","122332","GLI033118","GLI033118",119.9,"Payroll Accrual"
"GLI","03/31/2018","12306C","122332","GLI033118","GLI033118",1589.98,"Payroll Accrual"
"GLI","03/31/2018","12904","121362","GLI033118","GLI033118",50.48,"Payroll Accrual"
"GLI","03/31/2018","12504","121362","GLI033118","GLI033118",183.19,"Payroll Accrual"
"GLI","03/31/2018","12304B","121362","GLI033118","GLI033118",2523.95,"Payroll Accrual"
"GLI","03/31/2018","12504","118746","GLI033118","GLI033118",91.22,"Payroll Accrual"
"GLI","03/31/2018","12304C","118746","GLI033118","GLI033118",1192.38,"Payroll Accrual"
"GLI","03/31/2018","12503","118520","GLI033118","GLI033118",64.84,"Payroll Accrual"
"GLI","03/31/2018","124723","118520","GLI033118","GLI033118",847.56,"Payroll Accrual"
"GLI","03/31/2018","12901","118030","GLI033118","GLI033118",41.54,"Payroll Accrual"
"GLI","03/31/2018","12501","118030","GLI033118","GLI033118",150.38,"Payroll Accrual"
"GLI","03/31/2018","12301B","118030","GLI033118","GLI033118",2076.93,"Payroll Accrual"
"GLI","03/31/2018","12906","118010","GLI033118","GLI033118",25.49,"Payroll Accrual"
"GLI","03/31/2018","12506","118010","GLI033118","GLI033118",124.18,"Payroll Accrual"
"GLI","03/31/2018","12306B","118010","GLI033118","GLI033118",1699.28,"Payroll Accrual"
"GLI","03/31/2018","12905","11732","GLI033118","GLI033118",28.24,"Payroll Accrual"
"GLI","03/31/2018","12505","11732","GLI033118","GLI033118",105.61,"Payroll Accrual"
"GLI","03/31/2018","12405","11732","GLI033118","GLI033118",272,"Payroll Accrual"
"GLI","03/31/2018","12205A","11732","GLI033118","GLI033118",1140.02,"Payroll Accrual"
"GLI","03/31/2018","12502","117205","GLI033118","GLI033118",66.28,"Payroll Accrual"
"GLI","03/31/2018","12501","117205","GLI033118","GLI033118",66.28,"Payroll Accrual"
"GLI","03/31/2018","12302","117205","GLI033118","GLI033118",866.48,"Payroll Accrual"
"GLI","03/31/2018","12301","117205","GLI033118","GLI033118",866.48,"Payroll Accrual"
"GLI","03/31/2018","12905","11660","GLI033118","GLI033118",53.46,"Payroll Accrual"
"GLI","03/31/2018","12505","11660","GLI033118","GLI033118",202.74,"Payroll Accrual"
"GLI","03/31/2018","124703","11660","GLI033118","GLI033118",2672.8,"Payroll Accrual"
"GLI","03/31/2018","12904","116185","GLI033118","GLI033118",33.25,"Payroll Accrual"
"GLI","03/31/2018","12504","116185","GLI033118","GLI033118",127.17,"Payroll Accrual"
"GLI","03/31/2018","12304C","116185","GLI033118","GLI033118",1662.37,"Payroll Accrual"
"GLI","03/31/2018","12504","115896","GLI033118","GLI033118",63.36,"Payroll Accrual"
"GLI","03/31/2018","12304C","115896","GLI033118","GLI033118",907.15,"Payroll Accrual"
"GLI","03/31/2018","12506","1158850","GLI033118","GLI033118",18.98,"Payroll Accrual"
"GLI","03/31/2018","12306C","1158850","GLI033118","GLI033118",248.04,"Payroll Accrual"
"GLI","03/31/2018","12527","115676","GLI033118","GLI033118",59.72,"Payroll Accrual"
"GLI","03/31/2018","12327","115676","GLI033118","GLI033118",780.72,"Payroll Accrual"
"GLI","03/31/2018","12527","115355","GLI033118","GLI033118",11.29,"Payroll Accrual"
"GLI","03/31/2018","12327","115355","GLI033118","GLI033118",147.6,"Payroll Accrual"
"GLI","03/31/2018","12906","115255","GLI033118","GLI033118",50,"Payroll Accrual"
"GLI","03/31/2018","12506","115255","GLI033118","GLI033118",191.25,"Payroll Accrual"
"GLI","03/31/2018","12306B","115255","GLI033118","GLI033118",2500,"Payroll Accrual"
"GLI","03/31/2018","12902","1151450","GLI033118","GLI033118",14.29,"Payroll Accrual"
"GLI","03/31/2018","12901","1151450","GLI033118","GLI033118",9.53,"Payroll Accrual"
"GLI","03/31/2018","12502","1151450","GLI033118","GLI033118",68.81,"Payroll Accrual"
"GLI","03/31/2018","12501","1151450","GLI033118","GLI033118",44.51,"Payroll Accrual"
"GLI","03/31/2018","11102","1151450","GLI033118","GLI033118",952.94,"Payroll Accrual"
"GLI","03/31/2018","11101","1151450","GLI033118","GLI033118",635.29,"Payroll Accrual"
"GLI","03/31/2018","12904","1150920","GLI033118","GLI033118",27.63,"Payroll Accrual"
"GLI","03/31/2018","12504","1150920","GLI033118","GLI033118",136.79,"Payroll Accrual"
"GLI","03/31/2018","124704","1150920","GLI033118","GLI033118",1842,"Payroll Accrual"
"GLI","03/31/2018","12915","1150510","GLI033118","GLI033118",8.12,"Payroll Accrual"
"GLI","03/31/2018","12906","1150510","GLI033118","GLI033118",5.54,"Payroll Accrual"
"GLI","03/31/2018","12905","1150510","GLI033118","GLI033118",5.54,"Payroll Accrual"
"GLI","03/31/2018","12904","1150510","GLI033118","GLI033118",5.91,"Payroll Accrual"
"GLI","03/31/2018","12902","1150510","GLI033118","GLI033118",5.91,"Payroll Accrual"
"GLI","03/31/2018","12901","1150510","GLI033118","GLI033118",5.91,"Payroll Accrual"
"GLI","03/31/2018","12515","1150510","GLI033118","GLI033118",30.78,"Payroll Accrual"
"GLI","03/31/2018","12506","1150510","GLI033118","GLI033118",20.99,"Payroll Accrual"
"GLI","03/31/2018","12505","1150510","GLI033118","GLI033118",20.99,"Payroll Accrual"
"GLI","03/31/2018","12504","1150510","GLI033118","GLI033118",22.38,"Payroll Accrual"
"GLI","03/31/2018","12502","1150510","GLI033118","GLI033118",22.38,"Payroll Accrual"
"GLI","03/31/2018","12501","1150510","GLI033118","GLI033118",22.38,"Payroll Accrual"
"GLI","03/31/2018","12315","1150510","GLI033118","GLI033118",406.16,"Payroll Accrual"
"GLI","03/31/2018","12306","1150510","GLI033118","GLI033118",276.92,"Payroll Accrual"
"GLI","03/31/2018","12305","1150510","GLI033118","GLI033118",276.92,"Payroll Accrual"
"GLI","03/31/2018","12304","1150510","GLI033118","GLI033118",295.39,"Payroll Accrual"
"GLI","03/31/2018","12302","1150510","GLI033118","GLI033118",295.39,"Payroll Accrual"
"GLI","03/31/2018","12301","1150510","GLI033118","GLI033118",295.39,"Payroll Accrual"
"GLI","03/31/2018","12504","1149710","GLI033118","GLI033118",117.58,"Payroll Accrual"
"GLI","03/31/2018","12304D","1149710","GLI033118","GLI033118",1737.92,"Payroll Accrual"
"GLI","03/31/2018","12906","1149636","GLI033118","GLI033118",18.89,"Payroll Accrual"
"GLI","03/31/2018","12506","1149636","GLI033118","GLI033118",90.95,"Payroll Accrual"
"GLI","03/31/2018","12306C","1149636","GLI033118","GLI033118",1259.44,"Payroll Accrual"
"GLI","03/31/2018","12504","1149300","GLI033118","GLI033118",126.67,"Payroll Accrual"
"GLI","03/31/2018","124704","1149300","GLI033118","GLI033118",1709.8,"Payroll Accrual"
"GLI","03/31/2018","12904","1147062","GLI033118","GLI033118",36.15,"Payroll Accrual"
"GLI","03/31/2018","12504","1147062","GLI033118","GLI033118",112.86,"Payroll Accrual"
"GLI","03/31/2018","12204A","1147062","GLI033118","GLI033118",1807.7,"Payroll Accrual"
"GLI","03/31/2018","12505","1147061","GLI033118","GLI033118",218.58,"Payroll Accrual"
"GLI","03/31/2018","124703","1147061","GLI033118","GLI033118",2874.4,"Payroll Accrual"
"GLI","03/31/2018","12405","1147061","GLI033118","GLI033118",258.16,"Payroll Accrual"
"GLI","03/31/2018","12905","1146991","GLI033118","GLI033118",66.17,"Payroll Accrual"
"GLI","03/31/2018","12505","1146991","GLI033118","GLI033118",247.28,"Payroll Accrual"
"GLI","03/31/2018","124703","1146991","GLI033118","GLI033118",3308.5,"Payroll Accrual"
"GLI","03/31/2018","12405","1146991","GLI033118","GLI033118",272.08,"Payroll Accrual"
"GLI","03/31/2018","12504","1146989","GLI033118","GLI033118",122.12,"Payroll Accrual"
"GLI","03/31/2018","124704","1146989","GLI033118","GLI033118",1619,"Payroll Accrual"
"GLI","03/31/2018","12503","1144901","GLI033118","GLI033118",60.47,"Payroll Accrual"
"GLI","03/31/2018","124723","1144901","GLI033118","GLI033118",790.44,"Payroll Accrual"
"GLI","03/31/2018","12503","114444","GLI033118","GLI033118",57.33,"Payroll Accrual"
"GLI","03/31/2018","124723","114444","GLI033118","GLI033118",749.42,"Payroll Accrual"
"GLI","03/31/2018","12506","1144265","GLI033118","GLI033118",92.52,"Payroll Accrual"
"GLI","03/31/2018","12406","1144265","GLI033118","GLI033118",140,"Payroll Accrual"
"GLI","03/31/2018","12306B","1144265","GLI033118","GLI033118",1122.8,"Payroll Accrual"
"GLI","03/31/2018","12506","1143575","GLI033118","GLI033118",5.15,"Payroll Accrual"
"GLI","03/31/2018","12505","1143575","GLI033118","GLI033118",5.15,"Payroll Accrual"
"GLI","03/31/2018","12504","1143575","GLI033118","GLI033118",5.15,"Payroll Accrual"
"GLI","03/31/2018","12502","1143575","GLI033118","GLI033118",5.15,"Payroll Accrual"
"GLI","03/31/2018","12501","1143575","GLI033118","GLI033118",5.15,"Payroll Accrual"
"GLI","03/31/2018","12206B","1143575","GLI033118","GLI033118",67.27,"Payroll Accrual"
"GLI","03/31/2018","12205B","1143575","GLI033118","GLI033118",67.27,"Payroll Accrual"
"GLI","03/31/2018","12204B","1143575","GLI033118","GLI033118",67.27,"Payroll Accrual"
"GLI","03/31/2018","12202B","1143575","GLI033118","GLI033118",67.27,"Payroll Accrual"
"GLI","03/31/2018","12201B","1143575","GLI033118","GLI033118",67.27,"Payroll Accrual"
"GLI","03/31/2018","12903","11420","GLI033118","GLI033118",18.27,"Payroll Accrual"
"GLI","03/31/2018","12503","11420","GLI033118","GLI033118",93.18,"Payroll Accrual"
"GLI","03/31/2018","124723","11420","GLI033118","GLI033118",1106,"Payroll Accrual"
"GLI","03/31/2018","12403","11420","GLI033118","GLI033118",112,"Payroll Accrual"
"GLI","03/31/2018","12914","1141210","GLI033118","GLI033118",5.57,"Payroll Accrual"
"GLI","03/31/2018","12906","1141210","GLI033118","GLI033118",0.24,"Payroll Accrual"
"GLI","03/31/2018","12905","1141210","GLI033118","GLI033118",-0.79,"Payroll Accrual"
"GLI","03/31/2018","12904","1141210","GLI033118","GLI033118",4.81,"Payroll Accrual"
"GLI","03/31/2018","12902","1141210","GLI033118","GLI033118",4.31,"Payroll Accrual"
"GLI","03/31/2018","12901","1141210","GLI033118","GLI033118",4.31,"Payroll Accrual"
"GLI","03/31/2018","12514","1141210","GLI033118","GLI033118",4.96,"Payroll Accrual"
"GLI","03/31/2018","12506","1141210","GLI033118","GLI033118",-0.71,"Payroll Accrual"
"GLI","03/31/2018","12505","1141210","GLI033118","GLI033118",-0.9,"Payroll Accrual"
"GLI","03/31/2018","12504","1141210","GLI033118","GLI033118",2.05,"Payroll Accrual"
"GLI","03/31/2018","12502","1141210","GLI033118","GLI033118",0.11,"Payroll Accrual"
"GLI","03/31/2018","12501","1141210","GLI033118","GLI033118",0.11,"Payroll Accrual"
"GLI","03/31/2018","12214","1141210","GLI033118","GLI033118",278.61,"Payroll Accrual"
"GLI","03/31/2018","12206C","1141210","GLI033118","GLI033118",164.63,"Payroll Accrual"
"GLI","03/31/2018","12205C","1141210","GLI033118","GLI033118",151.97,"Payroll Accrual"
"GLI","03/31/2018","12204C","1141210","GLI033118","GLI033118",240.62,"Payroll Accrual"
"GLI","03/31/2018","12202C","1141210","GLI033118","GLI033118",215.29,"Payroll Accrual"
"GLI","03/31/2018","12201C","1141210","GLI033118","GLI033118",215.29,"Payroll Accrual"
"GLI","03/31/2018","12504","1140870","GLI033118","GLI033118",342.43,"Payroll Accrual"
"GLI","03/31/2018","12404","1140870","GLI033118","GLI033118",144,"Payroll Accrual"
"GLI","03/31/2018","12304B","1140870","GLI033118","GLI033118",4332.2,"Payroll Accrual"
"GLI","03/31/2018","12904","1137590","GLI033118","GLI033118",45.57,"Payroll Accrual"
"GLI","03/31/2018","12504","1137590","GLI033118","GLI033118",172.56,"Payroll Accrual"
"GLI","03/31/2018","124704","1137590","GLI033118","GLI033118",2278.3,"Payroll Accrual"
"GLI","03/31/2018","12524","1135710","GLI033118","GLI033118",205.41,"Payroll Accrual"
"GLI","03/31/2018","124724","1135710","GLI033118","GLI033118",2685.15,"Payroll Accrual"
"GLI","03/31/2018","12503","1135450","GLI033118","GLI033118",44.99,"Payroll Accrual"
"GLI","03/31/2018","124723","1135450","GLI033118","GLI033118",588.14,"Payroll Accrual"
"GLI","03/31/2018","12504","1135410","GLI033118","GLI033118",136.37,"Payroll Accrual"
"GLI","03/31/2018","124704","1135410","GLI033118","GLI033118",1923.5,"Payroll Accrual"
"GLI","03/31/2018","12404","1135410","GLI033118","GLI033118",159.36,"Payroll Accrual"
"GLI","03/31/2018","12911","1135260","GLI033118","GLI033118",8.88,"Payroll Accrual"
"GLI","03/31/2018","12906","1135260","GLI033118","GLI033118",6.46,"Payroll Accrual"
"GLI","03/31/2018","12905","1135260","GLI033118","GLI033118",6.46,"Payroll Accrual"
"GLI","03/31/2018","12904","1135260","GLI033118","GLI033118",6.46,"Payroll Accrual"
"GLI","03/31/2018","12902","1135260","GLI033118","GLI033118",6.06,"Payroll Accrual"
"GLI","03/31/2018","12901","1135260","GLI033118","GLI033118",6.06,"Payroll Accrual"
"GLI","03/31/2018","12511","1135260","GLI033118","GLI033118",42,"Payroll Accrual"
"GLI","03/31/2018","12506","1135260","GLI033118","GLI033118",30.54,"Payroll Accrual"
"GLI","03/31/2018","12505","1135260","GLI033118","GLI033118",30.54,"Payroll Accrual"
"GLI","03/31/2018","12504","1135260","GLI033118","GLI033118",30.54,"Payroll Accrual"
"GLI","03/31/2018","12502","1135260","GLI033118","GLI033118",28.64,"Payroll Accrual"
"GLI","03/31/2018","12501","1135260","GLI033118","GLI033118",28.64,"Payroll Accrual"
"GLI","03/31/2018","12311","1135260","GLI033118","GLI033118",592.31,"Payroll Accrual"
"GLI","03/31/2018","12306H","1135260","GLI033118","GLI033118",430.77,"Payroll Accrual"
"GLI","03/31/2018","12305H","1135260","GLI033118","GLI033118",430.77,"Payroll Accrual"
"GLI","03/31/2018","12304H","1135260","GLI033118","GLI033118",430.77,"Payroll Accrual"
"GLI","03/31/2018","12302H","1135260","GLI033118","GLI033118",403.85,"Payroll Accrual"
"GLI","03/31/2018","12301H","1135260","GLI033118","GLI033118",403.85,"Payroll Accrual"
"GLI","03/31/2018","12506","1133727","GLI033118","GLI033118",135.02,"Payroll Accrual"
"GLI","03/31/2018","12306D","1133727","GLI033118","GLI033118",1765.04,"Payroll Accrual"
"GLI","03/31/2018","12504","1133500","GLI033118","GLI033118",123.13,"Payroll Accrual"
"GLI","03/31/2018","124704","1133500","GLI033118","GLI033118",1609.5,"Payroll Accrual"
"GLI","03/31/2018","12506","1132600","GLI033118","GLI033118",7.77,"Payroll Accrual"
"GLI","03/31/2018","12505","1132600","GLI033118","GLI033118",7.77,"Payroll Accrual"
"GLI","03/31/2018","12504","1132600","GLI033118","GLI033118",7.77,"Payroll Accrual"
"GLI","03/31/2018","12502","1132600","GLI033118","GLI033118",7.77,"Payroll Accrual"
"GLI","03/31/2018","12501","1132600","GLI033118","GLI033118",7.77,"Payroll Accrual"
"GLI","03/31/2018","12206B","1132600","GLI033118","GLI033118",101.61,"Payroll Accrual"
"GLI","03/31/2018","12205B","1132600","GLI033118","GLI033118",101.61,"Payroll Accrual"
"GLI","03/31/2018","12204B","1132600","GLI033118","GLI033118",101.61,"Payroll Accrual"
"GLI","03/31/2018","12202B","1132600","GLI033118","GLI033118",101.61,"Payroll Accrual"
"GLI","03/31/2018","12201B","1132600","GLI033118","GLI033118",101.61,"Payroll Accrual"
"GLI","03/31/2018","12906","1132595","GLI033118","GLI033118",68.46,"Payroll Accrual"
"GLI","03/31/2018","12506","1132595","GLI033118","GLI033118",257,"Payroll Accrual"
"GLI","03/31/2018","12106","1132595","GLI033118","GLI033118",3423.08,"Payroll Accrual"
"GLI","03/31/2018","12904","1132590","GLI033118","GLI033118",37.18,"Payroll Accrual"
"GLI","03/31/2018","12504","1132590","GLI033118","GLI033118",138.71,"Payroll Accrual"
"GLI","03/31/2018","12304B","1132590","GLI033118","GLI033118",1858.61,"Payroll Accrual"
"GLI","03/31/2018","12905","1132218","GLI033118","GLI033118",58.19,"Payroll Accrual"
"GLI","03/31/2018","12505","1132218","GLI033118","GLI033118",219.95,"Payroll Accrual"
"GLI","03/31/2018","12305B","1132218","GLI033118","GLI033118",2909.46,"Payroll Accrual"
"GLI","03/31/2018","12506","1132205","GLI033118","GLI033118",95.67,"Payroll Accrual"
"GLI","03/31/2018","12306B","1132205","GLI033118","GLI033118",1306.69,"Payroll Accrual"
"GLI","03/31/2018","12927","113085","GLI033118","GLI033118",13.85,"Payroll Accrual"
"GLI","03/31/2018","12924","113085","GLI033118","GLI033118",13.85,"Payroll Accrual"
"GLI","03/31/2018","12527","113085","GLI033118","GLI033118",69.75,"Payroll Accrual"
"GLI","03/31/2018","12524","113085","GLI033118","GLI033118",69.75,"Payroll Accrual"
"GLI","03/31/2018","12127","113085","GLI033118","GLI033118",923.08,"Payroll Accrual"
"GLI","03/31/2018","12124","113085","GLI033118","GLI033118",923.08,"Payroll Accrual"
"GLI","03/31/2018","12504","1130700","GLI033118","GLI033118",75.42,"Payroll Accrual"
"GLI","03/31/2018","12404","1130700","GLI033118","GLI033118",96,"Payroll Accrual"
"GLI","03/31/2018","12304C","1130700","GLI033118","GLI033118",890.34,"Payroll Accrual"
"GLI","03/31/2018","12906","113020","GLI033118","GLI033118",50.77,"Payroll Accrual"
"GLI","03/31/2018","12506","113020","GLI033118","GLI033118",190.06,"Payroll Accrual"
"GLI","03/31/2018","12306B","113020","GLI033118","GLI033118",2538.46,"Payroll Accrual"
"GLI","03/31/2018","12904","113011","GLI033118","GLI033118",11.45,"Payroll Accrual"
"GLI","03/31/2018","12504","113011","GLI033118","GLI033118",43.8,"Payroll Accrual"
"GLI","03/31/2018","12404","113011","GLI033118","GLI033118",384,"Payroll Accrual"
"GLI","03/31/2018","12304C","113011","GLI033118","GLI033118",188.64,"Payroll Accrual"
"GLI","03/31/2018","12506","1130090","GLI033118","GLI033118",137.66,"Payroll Accrual"
"GLI","03/31/2018","12306B","1130090","GLI033118","GLI033118",1805.12,"Payroll Accrual"
"GLI","03/31/2018","12916","113000","GLI033118","GLI033118",14.4,"Payroll Accrual"
"GLI","03/31/2018","12516","113000","GLI033118","GLI033118",55.07,"Payroll Accrual"
"GLI","03/31/2018","12316","113000","GLI033118","GLI033118",719.78,"Payroll Accrual"
"GLI","03/31/2018","12527","1129560","GLI033118","GLI033118",64.96,"Payroll Accrual"
"GLI","03/31/2018","12327","1129560","GLI033118","GLI033118",849.12,"Payroll Accrual"
"GLI","03/31/2018","12916","1126060","GLI033118","GLI033118",23.81,"Payroll Accrual"
"GLI","03/31/2018","12516","1126060","GLI033118","GLI033118",121.02,"Payroll Accrual"
"GLI","03/31/2018","12316","1126060","GLI033118","GLI033118",1587.44,"Payroll Accrual"
"GLI","03/31/2018","12906","1126055","GLI033118","GLI033118",19.33,"Payroll Accrual"
"GLI","03/31/2018","12506","1126055","GLI033118","GLI033118",73.92,"Payroll Accrual"
"GLI","03/31/2018","12306C","1126055","GLI033118","GLI033118",966.28,"Payroll Accrual"
"GLI","03/31/2018","12905","1126040","GLI033118","GLI033118",59.19,"Payroll Accrual"
"GLI","03/31/2018","12505","1126040","GLI033118","GLI033118",214.74,"Payroll Accrual"
"GLI","03/31/2018","124703","1126040","GLI033118","GLI033118",2959.27,"Payroll Accrual"
"GLI","03/31/2018","12905","1125565","GLI033118","GLI033118",66.51,"Payroll Accrual"
"GLI","03/31/2018","12505","1125565","GLI033118","GLI033118",245.48,"Payroll Accrual"
"GLI","03/31/2018","124703","1125565","GLI033118","GLI033118",3325.3,"Payroll Accrual"
"GLI","03/31/2018","12906","1124875","GLI033118","GLI033118",40.67,"Payroll Accrual"
"GLI","03/31/2018","12506","1124875","GLI033118","GLI033118",153.18,"Payroll Accrual"
"GLI","03/31/2018","12406","1124875","GLI033118","GLI033118",200,"Payroll Accrual"
"GLI","03/31/2018","12306B","1124875","GLI033118","GLI033118",1833.25,"Payroll Accrual"
"GLI","03/31/2018","12904","1124436","GLI033118","GLI033118",52.23,"Payroll Accrual"
"GLI","03/31/2018","12504","1124436","GLI033118","GLI033118",250.66,"Payroll Accrual"
"GLI","03/31/2018","124704","1124436","GLI033118","GLI033118",3482.2,"Payroll Accrual"
"GLI","03/31/2018","12404","1124436","GLI033118","GLI033118",527.52,"Payroll Accrual"
"GLI","03/31/2018","12904","1124430","GLI033118","GLI033118",19.03,"Payroll Accrual"
"GLI","03/31/2018","12504","1124430","GLI033118","GLI033118",95.3,"Payroll Accrual"
"GLI","03/31/2018","124704","1124430","GLI033118","GLI033118",1060.41,"Payroll Accrual"
"GLI","03/31/2018","12404","1124430","GLI033118","GLI033118",208,"Payroll Accrual"
"GLI","03/31/2018","12904","1124400","GLI033118","GLI033118",19.57,"Payroll Accrual"
"GLI","03/31/2018","12504","1124400","GLI033118","GLI033118",98.51,"Payroll Accrual"
"GLI","03/31/2018","124704","1124400","GLI033118","GLI033118",1304.92,"Payroll Accrual"
"GLI","03/31/2018","12527","1123355","GLI033118","GLI033118",86.06,"Payroll Accrual"
"GLI","03/31/2018","12327","1123355","GLI033118","GLI033118",1125,"Payroll Accrual"
"GLI","03/31/2018","12914","1123340","GLI033118","GLI033118",16.25,"Payroll Accrual"
"GLI","03/31/2018","12906","1123340","GLI033118","GLI033118",38.59,"Payroll Accrual"
"GLI","03/31/2018","12905","1123340","GLI033118","GLI033118",35.62,"Payroll Accrual"
"GLI","03/31/2018","12904","1123340","GLI033118","GLI033118",14.03,"Payroll Accrual"
"GLI","03/31/2018","12902","1123340","GLI033118","GLI033118",12.55,"Payroll Accrual"
"GLI","03/31/2018","12901","1123340","GLI033118","GLI033118",12.55,"Payroll Accrual"
"GLI","03/31/2018","12514","1123340","GLI033118","GLI033118",60.55,"Payroll Accrual"
"GLI","03/31/2018","12506","1123340","GLI033118","GLI033118",6.78,"Payroll Accrual"
"GLI","03/31/2018","12505","1123340","GLI033118","GLI033118",6.26,"Payroll Accrual"
"GLI","03/31/2018","12504","1123340","GLI033118","GLI033118",52.29,"Payroll Accrual"
"GLI","03/31/2018","12502","1123340","GLI033118","GLI033118",46.79,"Payroll Accrual"
"GLI","03/31/2018","12501","1123340","GLI033118","GLI033118",46.79,"Payroll Accrual"
"GLI","03/31/2018","12214","1123340","GLI033118","GLI033118",812.31,"Payroll Accrual"
"GLI","03/31/2018","12206C","1123340","GLI033118","GLI033118",480,"Payroll Accrual"
"GLI","03/31/2018","12205C","1123340","GLI033118","GLI033118",443.08,"Payroll Accrual"
"GLI","03/31/2018","12204C","1123340","GLI033118","GLI033118",701.54,"Payroll Accrual"
"GLI","03/31/2018","12202C","1123340","GLI033118","GLI033118",627.69,"Payroll Accrual"
"GLI","03/31/2018","12201C","1123340","GLI033118","GLI033118",627.69,"Payroll Accrual"
"GLI","03/31/2018","12905","112273","GLI033118","GLI033118",14.21,"Payroll Accrual"
"GLI","03/31/2018","12505","112273","GLI033118","GLI033118",72.49,"Payroll Accrual"
"GLI","03/31/2018","12405","112273","GLI033118","GLI033118",192,"Payroll Accrual"
"GLI","03/31/2018","12205A","112273","GLI033118","GLI033118",755.52,"Payroll Accrual"
"GLI","03/31/2018","12503","1122445","GLI033118","GLI033118",28.65,"Payroll Accrual"
"GLI","03/31/2018","124723","1122445","GLI033118","GLI033118",374.52,"Payroll Accrual"
"GLI","03/31/2018","12905","1122352","GLI033118","GLI033118",25.62,"Payroll Accrual"
"GLI","03/31/2018","12505","1122352","GLI033118","GLI033118",129.36,"Payroll Accrual"
"GLI","03/31/2018","124703","1122352","GLI033118","GLI033118",1708.1,"Payroll Accrual"
"GLI","03/31/2018","12503","1122246","GLI033118","GLI033118",99.78,"Payroll Accrual"
"GLI","03/31/2018","12303","1122246","GLI033118","GLI033118",1349.54,"Payroll Accrual"
"GLI","03/31/2018","12927","1122110","GLI033118","GLI033118",73.85,"Payroll Accrual"
"GLI","03/31/2018","12527","1122110","GLI033118","GLI033118",270.82,"Payroll Accrual"
"GLI","03/31/2018","12327","1122110","GLI033118","GLI033118",3692.31,"Payroll Accrual"
"GLI","03/31/2018","12927","1121250","GLI033118","GLI033118",17.26,"Payroll Accrual"
"GLI","03/31/2018","12527","1121250","GLI033118","GLI033118",88.02,"Payroll Accrual"
"GLI","03/31/2018","12427","1121250","GLI033118","GLI033118",448,"Payroll Accrual"
"GLI","03/31/2018","12327","1121250","GLI033118","GLI033118",702.66,"Payroll Accrual"
"GLI","03/31/2018","12524","112098","GLI033118","GLI033118",26.16,"Payroll Accrual"
"GLI","03/31/2018","12505","112098","GLI033118","GLI033118",26.16,"Payroll Accrual"
"GLI","03/31/2018","12504","112098","GLI033118","GLI033118",26.16,"Payroll Accrual"
"GLI","03/31/2018","12501","112098","GLI033118","GLI033118",26.16,"Payroll Accrual"
"GLI","03/31/2018","12324F","112098","GLI033118","GLI033118",341.9,"Payroll Accrual"
"GLI","03/31/2018","12305F","112098","GLI033118","GLI033118",341.9,"Payroll Accrual"
"GLI","03/31/2018","12304F","112098","GLI033118","GLI033118",341.9,"Payroll Accrual"
"GLI","03/31/2018","12301F","112098","GLI033118","GLI033118",341.9,"Payroll Accrual"
"GLI","03/31/2018","12506","1120225","GLI033118","GLI033118",66.79,"Payroll Accrual"
"GLI","03/31/2018","12505","1120225","GLI033118","GLI033118",66.79,"Payroll Accrual"
"GLI","03/31/2018","12504","1120225","GLI033118","GLI033118",66.79,"Payroll Accrual"
"GLI","03/31/2018","12502","1120225","GLI033118","GLI033118",66.79,"Payroll Accrual"
"GLI","03/31/2018","12501","1120225","GLI033118","GLI033118",66.79,"Payroll Accrual"
"GLI","03/31/2018","12006","1120225","GLI033118","GLI033118",923.08,"Payroll Accrual"
"GLI","03/31/2018","12005","1120225","GLI033118","GLI033118",923.08,"Payroll Accrual"
"GLI","03/31/2018","12004","1120225","GLI033118","GLI033118",923.08,"Payroll Accrual"
"GLI","03/31/2018","12002","1120225","GLI033118","GLI033118",923.08,"Payroll Accrual"
"GLI","03/31/2018","12001","1120225","GLI033118","GLI033118",923.08,"Payroll Accrual"
"GLI","03/31/2018","12906","1120120","GLI033118","GLI033118",18.56,"Payroll Accrual"
"GLI","03/31/2018","12506","1120120","GLI033118","GLI033118",90.51,"Payroll Accrual"
"GLI","03/31/2018","12306B","1120120","GLI033118","GLI033118",1237.12,"Payroll Accrual"
"GLI","03/31/2018","12927","1120110","GLI033118","GLI033118",30,"Payroll Accrual"
"GLI","03/31/2018","12527","1120110","GLI033118","GLI033118",151.69,"Payroll Accrual"
"GLI","03/31/2018","12127","1120110","GLI033118","GLI033118",2000,"Payroll Accrual"
"GLI","03/31/2018","12506","1118800","GLI033118","GLI033118",106.46,"Payroll Accrual"
"GLI","03/31/2018","12306B","1118800","GLI033118","GLI033118",1470.51,"Payroll Accrual"
"GLI","03/31/2018","12505","1118722","GLI033118","GLI033118",312.38,"Payroll Accrual"
"GLI","03/31/2018","124703","1118722","GLI033118","GLI033118",4117.6,"Payroll Accrual"
"GLI","03/31/2018","12904","1117960","GLI033118","GLI033118",38.46,"Payroll Accrual"
"GLI","03/31/2018","12504","1117960","GLI033118","GLI033118",143.98,"Payroll Accrual"
"GLI","03/31/2018","124704","1117960","GLI033118","GLI033118",1923.08,"Payroll Accrual"
"GLI","03/31/2018","12504","1117901","GLI033118","GLI033118",147.74,"Payroll Accrual"
"GLI","03/31/2018","124704","1117901","GLI033118","GLI033118",1931.22,"Payroll Accrual"
"GLI","03/31/2018","12503","1117850","GLI033118","GLI033118",85.33,"Payroll Accrual"
"GLI","03/31/2018","124723","1117850","GLI033118","GLI033118",1115.45,"Payroll Accrual"
"GLI","03/31/2018","12903","1117842","GLI033118","GLI033118",18.5,"Payroll Accrual"
"GLI","03/31/2018","12503","1117842","GLI033118","GLI033118",94.34,"Payroll Accrual"
"GLI","03/31/2018","12403","1117842","GLI033118","GLI033118",210,"Payroll Accrual"
"GLI","03/31/2018","12303","1117842","GLI033118","GLI033118",1023.16,"Payroll Accrual"
"GLI","03/31/2018","12903","1117600","GLI033118","GLI033118",36.28,"Payroll Accrual"
"GLI","03/31/2018","12503","1117600","GLI033118","GLI033118",103.51,"Payroll Accrual"
"GLI","03/31/2018","12403","1117600","GLI033118","GLI033118",124,"Payroll Accrual"
"GLI","03/31/2018","12303","1117600","GLI033118","GLI033118",1690,"Payroll Accrual"
"GLI","03/31/2018","12924","1116800","GLI033118","GLI033118",30,"Payroll Accrual"
"GLI","03/31/2018","12524","1116800","GLI033118","GLI033118",153,"Payroll Accrual"
"GLI","03/31/2018","124724","1116800","GLI033118","GLI033118",2000,"Payroll Accrual"
"GLI","03/31/2018","12506","111568","GLI033118","GLI033118",35.15,"Payroll Accrual"
"GLI","03/31/2018","12306C","111568","GLI033118","GLI033118",459.48,"Payroll Accrual"
"GLI","03/31/2018","12905","1114921","GLI033118","GLI033118",30.18,"Payroll Accrual"
"GLI","03/31/2018","12505","1114921","GLI033118","GLI033118",130.1,"Payroll Accrual"
"GLI","03/31/2018","124703","1114921","GLI033118","GLI033118",1471.95,"Payroll Accrual"
"GLI","03/31/2018","12405","1114921","GLI033118","GLI033118",540,"Payroll Accrual"
"GLI","03/31/2018","12906","1114831","GLI033118","GLI033118",9.04,"Payroll Accrual"
"GLI","03/31/2018","12506","1114831","GLI033118","GLI033118",46.12,"Payroll Accrual"
"GLI","03/31/2018","12306D","1114831","GLI033118","GLI033118",602.84,"Payroll Accrual"
"GLI","03/31/2018","12904","1114105","GLI033118","GLI033118",48.06,"Payroll Accrual"
"GLI","03/31/2018","12504","1114105","GLI033118","GLI033118",132.99,"Payroll Accrual"
"GLI","03/31/2018","12304B","1114105","GLI033118","GLI033118",2403.01,"Payroll Accrual"
"GLI","03/31/2018","12527","1114010","GLI033118","GLI033118",34.07,"Payroll Accrual"
"GLI","03/31/2018","12327","1114010","GLI033118","GLI033118",445.3,"Payroll Accrual"
"GLI","03/31/2018","12904","1113940","GLI033118","GLI033118",39.93,"Payroll Accrual"
"GLI","03/31/2018","12504","1113940","GLI033118","GLI033118",149.18,"Payroll Accrual"
"GLI","03/31/2018","124704","1113940","GLI033118","GLI033118",1996.38,"Payroll Accrual"
"GLI","03/31/2018","12506","111254","GLI033118","GLI033118",16.79,"Payroll Accrual"
"GLI","03/31/2018","12505","111254","GLI033118","GLI033118",16.79,"Payroll Accrual"
"GLI","03/31/2018","12504","111254","GLI033118","GLI033118",16.79,"Payroll Accrual"
"GLI","03/31/2018","12502","111254","GLI033118","GLI033118",16.79,"Payroll Accrual"
"GLI","03/31/2018","12501","111254","GLI033118","GLI033118",16.79,"Payroll Accrual"
"GLI","03/31/2018","12206B","111254","GLI033118","GLI033118",219.44,"Payroll Accrual"
"GLI","03/31/2018","12205B","111254","GLI033118","GLI033118",219.44,"Payroll Accrual"
"GLI","03/31/2018","12204B","111254","GLI033118","GLI033118",219.44,"Payroll Accrual"
"GLI","03/31/2018","12202B","111254","GLI033118","GLI033118",219.44,"Payroll Accrual"
"GLI","03/31/2018","12201B","111254","GLI033118","GLI033118",219.44,"Payroll Accrual"
"GLI","03/31/2018","12516","111245","GLI033118","GLI033118",138.08,"Payroll Accrual"
"GLI","03/31/2018","12316","111245","GLI033118","GLI033118",1827.61,"Payroll Accrual"
"GLI","03/31/2018","12924","1112411","GLI033118","GLI033118",8.66,"Payroll Accrual"
"GLI","03/31/2018","12524","1112411","GLI033118","GLI033118",44.16,"Payroll Accrual"
"GLI","03/31/2018","124724","1112411","GLI033118","GLI033118",577.33,"Payroll Accrual"
"GLI","03/31/2018","12904","111210","GLI033118","GLI033118",25.8,"Payroll Accrual"
"GLI","03/31/2018","12504","111210","GLI033118","GLI033118",129.87,"Payroll Accrual"
"GLI","03/31/2018","124704","111210","GLI033118","GLI033118",1720.3,"Payroll Accrual"
"GLI","03/31/2018","12905","1111325","GLI033118","GLI033118",33.41,"Payroll Accrual"
"GLI","03/31/2018","12505","1111325","GLI033118","GLI033118",125.43,"Payroll Accrual"
"GLI","03/31/2018","12205A","1111325","GLI033118","GLI033118",1670.48,"Payroll Accrual"
"GLI","03/31/2018","12903","1110800","GLI033118","GLI033118",8.99,"Payroll Accrual"
"GLI","03/31/2018","12503","1110800","GLI033118","GLI033118",45.84,"Payroll Accrual"
"GLI","03/31/2018","12303","1110800","GLI033118","GLI033118",599.33,"Payroll Accrual"
"GLI","03/31/2018","12911","1110660","GLI033118","GLI033118",5.37,"Payroll Accrual"
"GLI","03/31/2018","12906","1110660","GLI033118","GLI033118",3.91,"Payroll Accrual"
"GLI","03/31/2018","12905","1110660","GLI033118","GLI033118",3.91,"Payroll Accrual"
"GLI","03/31/2018","12904","1110660","GLI033118","GLI033118",3.91,"Payroll Accrual"
"GLI","03/31/2018","12902","1110660","GLI033118","GLI033118",3.66,"Payroll Accrual"
"GLI","03/31/2018","12901","1110660","GLI033118","GLI033118",3.66,"Payroll Accrual"
"GLI","03/31/2018","12511","1110660","GLI033118","GLI033118",25.66,"Payroll Accrual"
"GLI","03/31/2018","12506","1110660","GLI033118","GLI033118",18.19,"Payroll Accrual"
"GLI","03/31/2018","12505","1110660","GLI033118","GLI033118",18.19,"Payroll Accrual"
"GLI","03/31/2018","12504","1110660","GLI033118","GLI033118",18.19,"Payroll Accrual"
"GLI","03/31/2018","12502","1110660","GLI033118","GLI033118",16.94,"Payroll Accrual"
"GLI","03/31/2018","12501","1110660","GLI033118","GLI033118",16.94,"Payroll Accrual"
"GLI","03/31/2018","12311","1110660","GLI033118","GLI033118",358.16,"Payroll Accrual"
"GLI","03/31/2018","12306H","1110660","GLI033118","GLI033118",260.48,"Payroll Accrual"
"GLI","03/31/2018","12305H","1110660","GLI033118","GLI033118",260.48,"Payroll Accrual"
"GLI","03/31/2018","12304H","1110660","GLI033118","GLI033118",260.48,"Payroll Accrual"
"GLI","03/31/2018","12302H","1110660","GLI033118","GLI033118",244.2,"Payroll Accrual"
"GLI","03/31/2018","12301H","1110660","GLI033118","GLI033118",244.2,"Payroll Accrual"
"GLI","03/31/2018","12905","1110650","GLI033118","GLI033118",49.81,"Payroll Accrual"
"GLI","03/31/2018","12505","1110650","GLI033118","GLI033118",254.03,"Payroll Accrual"
"GLI","03/31/2018","124703","1110650","GLI033118","GLI033118",3320.7,"Payroll Accrual"
"GLI","03/31/2018","12504","1109827","GLI033118","GLI033118",106.62,"Payroll Accrual"
"GLI","03/31/2018","124704","1109827","GLI033118","GLI033118",1416.36,"Payroll Accrual"
"GLI","03/31/2018","12904","1108248","GLI033118","GLI033118",22.69,"Payroll Accrual"
"GLI","03/31/2018","12504","1108248","GLI033118","GLI033118",86.8,"Payroll Accrual"
"GLI","03/31/2018","124704","1108248","GLI033118","GLI033118",1134.73,"Payroll Accrual"
"GLI","03/31/2018","12905","1108200","GLI033118","GLI033118",38.3,"Payroll Accrual"
"GLI","03/31/2018","12505","1108200","GLI033118","GLI033118",195.28,"Payroll Accrual"
"GLI","03/31/2018","12305B","1108200","GLI033118","GLI033118",2552.72,"Payroll Accrual"
"GLI","03/31/2018","12505","1107950","GLI033118","GLI033118",123.49,"Payroll Accrual"
"GLI","03/31/2018","124703","1107950","GLI033118","GLI033118",1348.37,"Payroll Accrual"
"GLI","03/31/2018","12405","1107950","GLI033118","GLI033118",288.48,"Payroll Accrual"
"GLI","03/31/2018","12904","1106421","GLI033118","GLI033118",38.68,"Payroll Accrual"
"GLI","03/31/2018","12504","1106421","GLI033118","GLI033118",170.97,"Payroll Accrual"
"GLI","03/31/2018","124704","1106421","GLI033118","GLI033118",2578.8,"Payroll Accrual"
"GLI","03/31/2018","12404","1106421","GLI033118","GLI033118",118.16,"Payroll Accrual"
"GLI","03/31/2018","12905","1106400","GLI033118","GLI033118",37.35,"Payroll Accrual"
"GLI","03/31/2018","12505","1106400","GLI033118","GLI033118",189.18,"Payroll Accrual"
"GLI","03/31/2018","124703","1106400","GLI033118","GLI033118",2490,"Payroll Accrual"
"GLI","03/31/2018","12904","1106399","GLI033118","GLI033118",65.26,"Payroll Accrual"
"GLI","03/31/2018","12504","1106399","GLI033118","GLI033118",249.62,"Payroll Accrual"
"GLI","03/31/2018","124704","1106399","GLI033118","GLI033118",3263.1,"Payroll Accrual"
"GLI","03/31/2018","12404","1106399","GLI033118","GLI033118",295.2,"Payroll Accrual"
"GLI","03/31/2018","12924","1103065","GLI033118","GLI033118",7.08,"Payroll Accrual"
"GLI","03/31/2018","12905","1103065","GLI033118","GLI033118",7.08,"Payroll Accrual"
"GLI","03/31/2018","12904","1103065","GLI033118","GLI033118",7.08,"Payroll Accrual"
"GLI","03/31/2018","12901","1103065","GLI033118","GLI033118",7.08,"Payroll Accrual"
"GLI","03/31/2018","12524","1103065","GLI033118","GLI033118",22.68,"Payroll Accrual"
"GLI","03/31/2018","12505","1103065","GLI033118","GLI033118",22.68,"Payroll Accrual"
"GLI","03/31/2018","12504","1103065","GLI033118","GLI033118",22.68,"Payroll Accrual"
"GLI","03/31/2018","12501","1103065","GLI033118","GLI033118",22.68,"Payroll Accrual"
"GLI","03/31/2018","12324F","1103065","GLI033118","GLI033118",354.16,"Payroll Accrual"
"GLI","03/31/2018","12305F","1103065","GLI033118","GLI033118",354.16,"Payroll Accrual"
"GLI","03/31/2018","12304F","1103065","GLI033118","GLI033118",354.16,"Payroll Accrual"
"GLI","03/31/2018","12301F","1103065","GLI033118","GLI033118",354.16,"Payroll Accrual"
"GLI","03/31/2018","12903","1102198","GLI033118","GLI033118",35.63,"Payroll Accrual"
"GLI","03/31/2018","12503","1102198","GLI033118","GLI033118",179.09,"Payroll Accrual"
"GLI","03/31/2018","12103","1102198","GLI033118","GLI033118",2375.18,"Payroll Accrual"
"GLI","03/31/2018","12504","1102195","GLI033118","GLI033118",263.49,"Payroll Accrual"
"GLI","03/31/2018","12104","1102195","GLI033118","GLI033118",3461.54,"Payroll Accrual"
"GLI","03/31/2018","12504","110123","GLI033118","GLI033118",123.51,"Payroll Accrual"
"GLI","03/31/2018","124704","110123","GLI033118","GLI033118",1796.52,"Payroll Accrual"
"GLI","03/31/2018","12527","1100820","GLI033118","GLI033118",86.58,"Payroll Accrual"
"GLI","03/31/2018","12327","1100820","GLI033118","GLI033118",1131.83,"Payroll Accrual"
"GLI","03/31/2018","12905","1100625","GLI033118","GLI033118",25.43,"Payroll Accrual"
"GLI","03/31/2018","12505","1100625","GLI033118","GLI033118",129.68,"Payroll Accrual"
"GLI","03/31/2018","124703","1100625","GLI033118","GLI033118",1695.1,"Payroll Accrual"
"GLI","03/31/2018","12503","110048","GLI033118","GLI033118",22.06,"Payroll Accrual"
"GLI","03/31/2018","124723","110048","GLI033118","GLI033118",288.4,"Payroll Accrual"
"GLI","03/31/2018","12503","10568","GLI033118","GLI033118",59.61,"Payroll Accrual"
"GLI","03/31/2018","124723","10568","GLI033118","GLI033118",779.16,"Payroll Accrual"
