﻿journal,date,account,control,document,reference,amount,description
GLI,6/30/2020,232103,GLI063020,GLI063020,GLI063020,-44370.74,Payroll Accrual
GLI,6/30/2020,132101,GLI063020,GLI063020,GLI063020,-323449.52,Payroll Accrual
GLI,6/30/2020,12006,1130426,GLI063020,GLI063020,1114.15,Payroll Accrual
GLI,6/30/2020,12005,1130426,GLI063020,GLI063020,1114.15,Payroll Accrual
GLI,6/30/2020,12004,1130426,GLI063020,GLI063020,1114.15,Payroll Accrual
GLI,6/30/2020,12002,1130426,GLI063020,GLI063020,1114.15,Payroll Accrual
GLI,6/30/2020,12001,1130426,GLI063020,GLI063020,1004.93,Payroll Accrual
GLI,6/30/2020,22504,298432,GLI063020,GLI063020,36.04,Payroll Accrual
GLI,6/30/2020,22304B,298432,GLI063020,GLI063020,579.95,Payroll Accrual
GLI,6/30/2020,22510,297632,GLI063020,GLI063020,2.48,Payroll Accrual
GLI,6/30/2020,22506,297632,GLI063020,GLI063020,5.16,Payroll Accrual
GLI,6/30/2020,22504,297632,GLI063020,GLI063020,5.16,Payroll Accrual
GLI,6/30/2020,22502,297632,GLI063020,GLI063020,5.16,Payroll Accrual
GLI,6/30/2020,22501,297632,GLI063020,GLI063020,2.68,Payroll Accrual
GLI,6/30/2020,22210B,297632,GLI063020,GLI063020,32.37,Payroll Accrual
GLI,6/30/2020,22206B,297632,GLI063020,GLI063020,67.44,Payroll Accrual
GLI,6/30/2020,22204B,297632,GLI063020,GLI063020,67.44,Payroll Accrual
GLI,6/30/2020,22202B,297632,GLI063020,GLI063020,67.44,Payroll Accrual
GLI,6/30/2020,22201B,297632,GLI063020,GLI063020,35.07,Payroll Accrual
GLI,6/30/2020,22506,296347,GLI063020,GLI063020,53.76,Payroll Accrual
GLI,6/30/2020,22306,296347,GLI063020,GLI063020,744.97,Payroll Accrual
GLI,6/30/2020,22503,295435,GLI063020,GLI063020,68.97,Payroll Accrual
GLI,6/30/2020,224723,295435,GLI063020,GLI063020,938.82,Payroll Accrual
GLI,6/30/2020,22904,295148,GLI063020,GLI063020,13.39,Payroll Accrual
GLI,6/30/2020,22504,295148,GLI063020,GLI063020,65.06,Payroll Accrual
GLI,6/30/2020,224704,295148,GLI063020,GLI063020,892.8,Payroll Accrual
GLI,6/30/2020,22510,291582,GLI063020,GLI063020,8.77,Payroll Accrual
GLI,6/30/2020,21301C,291582,GLI063020,GLI063020,114.73,Payroll Accrual
GLI,6/30/2020,22910,289563,GLI063020,GLI063020,1.23,Payroll Accrual
GLI,6/30/2020,22906,289563,GLI063020,GLI063020,2.55,Payroll Accrual
GLI,6/30/2020,22904,289563,GLI063020,GLI063020,2.55,Payroll Accrual
GLI,6/30/2020,22902,289563,GLI063020,GLI063020,2.55,Payroll Accrual
GLI,6/30/2020,22901,289563,GLI063020,GLI063020,1.33,Payroll Accrual
GLI,6/30/2020,22510,289563,GLI063020,GLI063020,4.72,Payroll Accrual
GLI,6/30/2020,22506,289563,GLI063020,GLI063020,11.5,Payroll Accrual
GLI,6/30/2020,22504,289563,GLI063020,GLI063020,11.5,Payroll Accrual
GLI,6/30/2020,22502,289563,GLI063020,GLI063020,11.5,Payroll Accrual
GLI,6/30/2020,22501,289563,GLI063020,GLI063020,5.24,Payroll Accrual
GLI,6/30/2020,22210B,289563,GLI063020,GLI063020,81.72,Payroll Accrual
GLI,6/30/2020,22206B,289563,GLI063020,GLI063020,170.25,Payroll Accrual
GLI,6/30/2020,22204B,289563,GLI063020,GLI063020,170.25,Payroll Accrual
GLI,6/30/2020,22202B,289563,GLI063020,GLI063020,170.25,Payroll Accrual
GLI,6/30/2020,22201B,289563,GLI063020,GLI063020,88.53,Payroll Accrual
GLI,6/30/2020,22504,279630,GLI063020,GLI063020,115.95,Payroll Accrual
GLI,6/30/2020,224704,279630,GLI063020,GLI063020,1515.7,Payroll Accrual
GLI,6/30/2020,22904,276431,GLI063020,GLI063020,10.5,Payroll Accrual
GLI,6/30/2020,22504,276431,GLI063020,GLI063020,50.32,Payroll Accrual
GLI,6/30/2020,224704,276431,GLI063020,GLI063020,700.05,Payroll Accrual
GLI,6/30/2020,22504,275342,GLI063020,GLI063020,64.69,Payroll Accrual
GLI,6/30/2020,224704,275342,GLI063020,GLI063020,845.68,Payroll Accrual
GLI,6/30/2020,22506,274225,GLI063020,GLI063020,84.26,Payroll Accrual
GLI,6/30/2020,22406,274225,GLI063020,GLI063020,168,Payroll Accrual
GLI,6/30/2020,22306,274225,GLI063020,GLI063020,1143.03,Payroll Accrual
GLI,6/30/2020,22504,273315,GLI063020,GLI063020,121.59,Payroll Accrual
GLI,6/30/2020,224704,273315,GLI063020,GLI063020,1684.8,Payroll Accrual
GLI,6/30/2020,22503,269854,GLI063020,GLI063020,43.33,Payroll Accrual
GLI,6/30/2020,224723,269854,GLI063020,GLI063020,566.52,Payroll Accrual
GLI,6/30/2020,22503,269547,GLI063020,GLI063020,45.91,Payroll Accrual
GLI,6/30/2020,224723,269547,GLI063020,GLI063020,600.24,Payroll Accrual
GLI,6/30/2020,22503,264972,GLI063020,GLI063020,44.75,Payroll Accrual
GLI,6/30/2020,224723,264972,GLI063020,GLI063020,585,Payroll Accrual
GLI,6/30/2020,22504,264852,GLI063020,GLI063020,75.66,Payroll Accrual
GLI,6/30/2020,224704,264852,GLI063020,GLI063020,1031.28,Payroll Accrual
GLI,6/30/2020,22903,264387,GLI063020,GLI063020,10.73,Payroll Accrual
GLI,6/30/2020,22503,264387,GLI063020,GLI063020,54.75,Payroll Accrual
GLI,6/30/2020,224723,264387,GLI063020,GLI063020,715.61,Payroll Accrual
GLI,6/30/2020,22506,264220,GLI063020,GLI063020,60.66,Payroll Accrual
GLI,6/30/2020,22306,264220,GLI063020,GLI063020,887.25,Payroll Accrual
GLI,6/30/2020,22510,264110,GLI063020,GLI063020,10.71,Payroll Accrual
GLI,6/30/2020,21301C,264110,GLI063020,GLI063020,140,Payroll Accrual
GLI,6/30/2020,22503,259756,GLI063020,GLI063020,74.21,Payroll Accrual
GLI,6/30/2020,22303,259756,GLI063020,GLI063020,1012.27,Payroll Accrual
GLI,6/30/2020,22503,259375,GLI063020,GLI063020,44.49,Payroll Accrual
GLI,6/30/2020,224723,259375,GLI063020,GLI063020,581.64,Payroll Accrual
GLI,6/30/2020,22510,258964,GLI063020,GLI063020,5.39,Payroll Accrual
GLI,6/30/2020,22506,258964,GLI063020,GLI063020,11.23,Payroll Accrual
GLI,6/30/2020,22504,258964,GLI063020,GLI063020,11.23,Payroll Accrual
GLI,6/30/2020,22502,258964,GLI063020,GLI063020,11.23,Payroll Accrual
GLI,6/30/2020,22501,258964,GLI063020,GLI063020,5.84,Payroll Accrual
GLI,6/30/2020,22210B,258964,GLI063020,GLI063020,70.44,Payroll Accrual
GLI,6/30/2020,22206B,258964,GLI063020,GLI063020,146.76,Payroll Accrual
GLI,6/30/2020,22204B,258964,GLI063020,GLI063020,146.76,Payroll Accrual
GLI,6/30/2020,22202B,258964,GLI063020,GLI063020,146.76,Payroll Accrual
GLI,6/30/2020,22201B,258964,GLI063020,GLI063020,76.32,Payroll Accrual
GLI,6/30/2020,22503,257935,GLI063020,GLI063020,22.62,Payroll Accrual
GLI,6/30/2020,224723,257935,GLI063020,GLI063020,295.68,Payroll Accrual
GLI,6/30/2020,22504,256984,GLI063020,GLI063020,64.75,Payroll Accrual
GLI,6/30/2020,224704,256984,GLI063020,GLI063020,866.4,Payroll Accrual
GLI,6/30/2020,22904,256879,GLI063020,GLI063020,4.16,Payroll Accrual
GLI,6/30/2020,22504,256879,GLI063020,GLI063020,21.19,Payroll Accrual
GLI,6/30/2020,22304C,256879,GLI063020,GLI063020,277,Payroll Accrual
GLI,6/30/2020,22910,256845,GLI063020,GLI063020,1.68,Payroll Accrual
GLI,6/30/2020,22902,256845,GLI063020,GLI063020,12.7,Payroll Accrual
GLI,6/30/2020,22901,256845,GLI063020,GLI063020,4.29,Payroll Accrual
GLI,6/30/2020,22510,256845,GLI063020,GLI063020,2.27,Payroll Accrual
GLI,6/30/2020,22502,256845,GLI063020,GLI063020,58.47,Payroll Accrual
GLI,6/30/2020,22501,256845,GLI063020,GLI063020,15.61,Payroll Accrual
GLI,6/30/2020,21110,256845,GLI063020,GLI063020,112.05,Payroll Accrual
GLI,6/30/2020,21102,256845,GLI063020,GLI063020,846.61,Payroll Accrual
GLI,6/30/2020,21101,256845,GLI063020,GLI063020,286.35,Payroll Accrual
GLI,6/30/2020,22503,247583,GLI063020,GLI063020,11.87,Payroll Accrual
GLI,6/30/2020,224723,247583,GLI063020,GLI063020,155.09,Payroll Accrual
GLI,6/30/2020,22904,247000,GLI063020,GLI063020,20.13,Payroll Accrual
GLI,6/30/2020,22504,247000,GLI063020,GLI063020,102.7,Payroll Accrual
GLI,6/30/2020,22404,247000,GLI063020,GLI063020,60,Payroll Accrual
GLI,6/30/2020,22304B,247000,GLI063020,GLI063020,1282.41,Payroll Accrual
GLI,6/30/2020,22503,246783,GLI063020,GLI063020,65,Payroll Accrual
GLI,6/30/2020,22303,246783,GLI063020,GLI063020,958.57,Payroll Accrual
GLI,6/30/2020,22903,24665,GLI063020,GLI063020,8.43,Payroll Accrual
GLI,6/30/2020,22503,24665,GLI063020,GLI063020,42.99,Payroll Accrual
GLI,6/30/2020,224723,24665,GLI063020,GLI063020,561.89,Payroll Accrual
GLI,6/30/2020,22503,24551,GLI063020,GLI063020,61.15,Payroll Accrual
GLI,6/30/2020,224723,24551,GLI063020,GLI063020,799.4,Payroll Accrual
GLI,6/30/2020,22506,243180,GLI063020,GLI063020,59.66,Payroll Accrual
GLI,6/30/2020,22306,243180,GLI063020,GLI063020,1003.61,Payroll Accrual
GLI,6/30/2020,22904,241085,GLI063020,GLI063020,12.71,Payroll Accrual
GLI,6/30/2020,22504,241085,GLI063020,GLI063020,61.99,Payroll Accrual
GLI,6/30/2020,224704,241085,GLI063020,GLI063020,847.4,Payroll Accrual
GLI,6/30/2020,22504,232874,GLI063020,GLI063020,16.18,Payroll Accrual
GLI,6/30/2020,22304C,232874,GLI063020,GLI063020,211.42,Payroll Accrual
GLI,6/30/2020,22504,230810,GLI063020,GLI063020,8.59,Payroll Accrual
GLI,6/30/2020,22304C,230810,GLI063020,GLI063020,112.3,Payroll Accrual
GLI,6/30/2020,22504,230601,GLI063020,GLI063020,230.79,Payroll Accrual
GLI,6/30/2020,22104,230601,GLI063020,GLI063020,3163.47,Payroll Accrual
GLI,6/30/2020,22510,2141225,GLI063020,GLI063020,10.16,Payroll Accrual
GLI,6/30/2020,22502,2141225,GLI063020,GLI063020,10.16,Payroll Accrual
GLI,6/30/2020,22501,2141225,GLI063020,GLI063020,10.78,Payroll Accrual
GLI,6/30/2020,22310,2141225,GLI063020,GLI063020,269.18,Payroll Accrual
GLI,6/30/2020,22302,2141225,GLI063020,GLI063020,269.18,Payroll Accrual
GLI,6/30/2020,22301,2141225,GLI063020,GLI063020,277.34,Payroll Accrual
GLI,6/30/2020,22503,213520,GLI063020,GLI063020,49.15,Payroll Accrual
GLI,6/30/2020,224723,213520,GLI063020,GLI063020,642.46,Payroll Accrual
GLI,6/30/2020,22504,2130150,GLI063020,GLI063020,75.61,Payroll Accrual
GLI,6/30/2020,224704,2130150,GLI063020,GLI063020,988.45,Payroll Accrual
GLI,6/30/2020,22404,2130150,GLI063020,GLI063020,304.72,Payroll Accrual
GLI,6/30/2020,22503,2126055,GLI063020,GLI063020,90.86,Payroll Accrual
GLI,6/30/2020,22103,2126055,GLI063020,GLI063020,1187.69,Payroll Accrual
GLI,6/30/2020,22503,211568,GLI063020,GLI063020,62.84,Payroll Accrual
GLI,6/30/2020,22303,211568,GLI063020,GLI063020,821.52,Payroll Accrual
GLI,6/30/2020,22904,2114160,GLI063020,GLI063020,40.39,Payroll Accrual
GLI,6/30/2020,22504,2114160,GLI063020,GLI063020,136.74,Payroll Accrual
GLI,6/30/2020,22304B,2114160,GLI063020,GLI063020,2019.49,Payroll Accrual
GLI,6/30/2020,22504,2106410,GLI063020,GLI063020,182.91,Payroll Accrual
GLI,6/30/2020,22304B,2106410,GLI063020,GLI063020,2540.67,Payroll Accrual
GLI,6/30/2020,22506,2106350,GLI063020,GLI063020,116.39,Payroll Accrual
GLI,6/30/2020,22106,2106350,GLI063020,GLI063020,1693.08,Payroll Accrual
GLI,6/30/2020,22904,210123,GLI063020,GLI063020,21.64,Payroll Accrual
GLI,6/30/2020,22504,210123,GLI063020,GLI063020,92.48,Payroll Accrual
GLI,6/30/2020,224704,210123,GLI063020,GLI063020,1250.4,Payroll Accrual
GLI,6/30/2020,22404,210123,GLI063020,GLI063020,192,Payroll Accrual
GLI,6/30/2020,12504,198567,GLI063020,GLI063020,53.53,Payroll Accrual
GLI,6/30/2020,12304C,198567,GLI063020,GLI063020,699.66,Payroll Accrual
GLI,6/30/2020,12501,198543,GLI063020,GLI063020,5.35,Payroll Accrual
GLI,6/30/2020,11301C,198543,GLI063020,GLI063020,70,Payroll Accrual
GLI,6/30/2020,12505,198542,GLI063020,GLI063020,64.86,Payroll Accrual
GLI,6/30/2020,12205A,198542,GLI063020,GLI063020,890.17,Payroll Accrual
GLI,6/30/2020,12527,198532,GLI063020,GLI063020,5.44,Payroll Accrual
GLI,6/30/2020,12327,198532,GLI063020,GLI063020,71.16,Payroll Accrual
GLI,6/30/2020,12503,198531,GLI063020,GLI063020,31.31,Payroll Accrual
GLI,6/30/2020,124723,198531,GLI063020,GLI063020,409.25,Payroll Accrual
GLI,6/30/2020,12524,198431,GLI063020,GLI063020,19.79,Payroll Accrual
GLI,6/30/2020,124724,198431,GLI063020,GLI063020,258.7,Payroll Accrual
GLI,6/30/2020,12504,198234,GLI063020,GLI063020,68.06,Payroll Accrual
GLI,6/30/2020,12304B,198234,GLI063020,GLI063020,889.63,Payroll Accrual
GLI,6/30/2020,12527,198134,GLI063020,GLI063020,9.67,Payroll Accrual
GLI,6/30/2020,12327,198134,GLI063020,GLI063020,126.48,Payroll Accrual
GLI,6/30/2020,12904,197643,GLI063020,GLI063020,15,Payroll Accrual
GLI,6/30/2020,12504,197643,GLI063020,GLI063020,68.13,Payroll Accrual
GLI,6/30/2020,12304D,197643,GLI063020,GLI063020,999.52,Payroll Accrual
GLI,6/30/2020,12516,197642,GLI063020,GLI063020,64.72,Payroll Accrual
GLI,6/30/2020,12316,197642,GLI063020,GLI063020,883.09,Payroll Accrual
GLI,6/30/2020,12527,197530,GLI063020,GLI063020,24.6,Payroll Accrual
GLI,6/30/2020,12327,197530,GLI063020,GLI063020,321.6,Payroll Accrual
GLI,6/30/2020,12501,197523,GLI063020,GLI063020,60.39,Payroll Accrual
GLI,6/30/2020,12301B,197523,GLI063020,GLI063020,789.32,Payroll Accrual
GLI,6/30/2020,12503,196485,GLI063020,GLI063020,22,Payroll Accrual
GLI,6/30/2020,124723,196485,GLI063020,GLI063020,287.46,Payroll Accrual
GLI,6/30/2020,12503,196452,GLI063020,GLI063020,47.48,Payroll Accrual
GLI,6/30/2020,12303,196452,GLI063020,GLI063020,697.85,Payroll Accrual
GLI,6/30/2020,12906,196341,GLI063020,GLI063020,3.85,Payroll Accrual
GLI,6/30/2020,12905,196341,GLI063020,GLI063020,3.15,Payroll Accrual
GLI,6/30/2020,12514,196341,GLI063020,GLI063020,12.55,Payroll Accrual
GLI,6/30/2020,12506,196341,GLI063020,GLI063020,0.9,Payroll Accrual
GLI,6/30/2020,12505,196341,GLI063020,GLI063020,0.74,Payroll Accrual
GLI,6/30/2020,12504,196341,GLI063020,GLI063020,9.95,Payroll Accrual
GLI,6/30/2020,12502,196341,GLI063020,GLI063020,8.22,Payroll Accrual
GLI,6/30/2020,12501,196341,GLI063020,GLI063020,8.22,Payroll Accrual
GLI,6/30/2020,12214,196341,GLI063020,GLI063020,249,Payroll Accrual
GLI,6/30/2020,12206C,196341,GLI063020,GLI063020,147.13,Payroll Accrual
GLI,6/30/2020,12205C,196341,GLI063020,GLI063020,135.82,Payroll Accrual
GLI,6/30/2020,12204C,196341,GLI063020,GLI063020,215.04,Payroll Accrual
GLI,6/30/2020,12202C,196341,GLI063020,GLI063020,192.41,Payroll Accrual
GLI,6/30/2020,12201C,196341,GLI063020,GLI063020,192.41,Payroll Accrual
GLI,6/30/2020,12503,196325,GLI063020,GLI063020,16.41,Payroll Accrual
GLI,6/30/2020,124723,196325,GLI063020,GLI063020,214.58,Payroll Accrual
GLI,6/30/2020,12503,196314,GLI063020,GLI063020,69.41,Payroll Accrual
GLI,6/30/2020,12303,196314,GLI063020,GLI063020,907.18,Payroll Accrual
GLI,6/30/2020,12524,195975,GLI063020,GLI063020,118.65,Payroll Accrual
GLI,6/30/2020,12124,195975,GLI063020,GLI063020,1550.96,Payroll Accrual
GLI,6/30/2020,12503,195826,GLI063020,GLI063020,20.36,Payroll Accrual
GLI,6/30/2020,124723,195826,GLI063020,GLI063020,266.14,Payroll Accrual
GLI,6/30/2020,12504,195628,GLI063020,GLI063020,95.52,Payroll Accrual
GLI,6/30/2020,12304B,195628,GLI063020,GLI063020,1291.12,Payroll Accrual
GLI,6/30/2020,12506,195401,GLI063020,GLI063020,76.97,Payroll Accrual
GLI,6/30/2020,12306D,195401,GLI063020,GLI063020,1100.48,Payroll Accrual
GLI,6/30/2020,12503,195359,GLI063020,GLI063020,53.35,Payroll Accrual
GLI,6/30/2020,124723,195359,GLI063020,GLI063020,697.34,Payroll Accrual
GLI,6/30/2020,12906,195123,GLI063020,GLI063020,9.22,Payroll Accrual
GLI,6/30/2020,12506,195123,GLI063020,GLI063020,41.96,Payroll Accrual
GLI,6/30/2020,12306C,195123,GLI063020,GLI063020,614.64,Payroll Accrual
GLI,6/30/2020,12504,194675,GLI063020,GLI063020,127.9,Payroll Accrual
GLI,6/30/2020,124704,194675,GLI063020,GLI063020,1904,Payroll Accrual
GLI,6/30/2020,12527,193542,GLI063020,GLI063020,43.37,Payroll Accrual
GLI,6/30/2020,12327,193542,GLI063020,GLI063020,609.24,Payroll Accrual
GLI,6/30/2020,12506,193457,GLI063020,GLI063020,92.97,Payroll Accrual
GLI,6/30/2020,12306D,193457,GLI063020,GLI063020,1257.62,Payroll Accrual
GLI,6/30/2020,12503,193287,GLI063020,GLI063020,46.2,Payroll Accrual
GLI,6/30/2020,124723,193287,GLI063020,GLI063020,603.98,Payroll Accrual
GLI,6/30/2020,12505,191350,GLI063020,GLI063020,74.88,Payroll Accrual
GLI,6/30/2020,124703,191350,GLI063020,GLI063020,998.9,Payroll Accrual
GLI,6/30/2020,12504,191060,GLI063020,GLI063020,278.78,Payroll Accrual
GLI,6/30/2020,12304B,191060,GLI063020,GLI063020,3644.12,Payroll Accrual
GLI,6/30/2020,12903,190910,GLI063020,GLI063020,19.66,Payroll Accrual
GLI,6/30/2020,12503,190910,GLI063020,GLI063020,98.25,Payroll Accrual
GLI,6/30/2020,12103,190910,GLI063020,GLI063020,1310.77,Payroll Accrual
GLI,6/30/2020,12906,190892,GLI063020,GLI063020,27.76,Payroll Accrual
GLI,6/30/2020,12506,190892,GLI063020,GLI063020,103.82,Payroll Accrual
GLI,6/30/2020,12306C,190892,GLI063020,GLI063020,1387.97,Payroll Accrual
GLI,6/30/2020,12524,190600,GLI063020,GLI063020,68.3,Payroll Accrual
GLI,6/30/2020,124724,190600,GLI063020,GLI063020,1160.28,Payroll Accrual
GLI,6/30/2020,12504,190324,GLI063020,GLI063020,130.25,Payroll Accrual
GLI,6/30/2020,124704,190324,GLI063020,GLI063020,1739.65,Payroll Accrual
GLI,6/30/2020,12503,189596,GLI063020,GLI063020,7.09,Payroll Accrual
GLI,6/30/2020,124723,189596,GLI063020,GLI063020,92.66,Payroll Accrual
GLI,6/30/2020,12527,189432,GLI063020,GLI063020,21.4,Payroll Accrual
GLI,6/30/2020,12327,189432,GLI063020,GLI063020,279.72,Payroll Accrual
GLI,6/30/2020,12505,188338,GLI063020,GLI063020,111.48,Payroll Accrual
GLI,6/30/2020,12305B,188338,GLI063020,GLI063020,1568.74,Payroll Accrual
GLI,6/30/2020,12504,187675,GLI063020,GLI063020,138.26,Payroll Accrual
GLI,6/30/2020,124704,187675,GLI063020,GLI063020,1966.16,Payroll Accrual
GLI,6/30/2020,12516,187526,GLI063020,GLI063020,60.25,Payroll Accrual
GLI,6/30/2020,12316,187526,GLI063020,GLI063020,807.56,Payroll Accrual
GLI,6/30/2020,12502,187347,GLI063020,GLI063020,15.68,Payroll Accrual
GLI,6/30/2020,12501,187347,GLI063020,GLI063020,10.46,Payroll Accrual
GLI,6/30/2020,11102,187347,GLI063020,GLI063020,205.04,Payroll Accrual
GLI,6/30/2020,11101,187347,GLI063020,GLI063020,136.7,Payroll Accrual
GLI,6/30/2020,12527,186724,GLI063020,GLI063020,19.32,Payroll Accrual
GLI,6/30/2020,12327,186724,GLI063020,GLI063020,252.6,Payroll Accrual
GLI,6/30/2020,12506,186100,GLI063020,GLI063020,30.87,Payroll Accrual
GLI,6/30/2020,12505,186100,GLI063020,GLI063020,30.87,Payroll Accrual
GLI,6/30/2020,12504,186100,GLI063020,GLI063020,30.87,Payroll Accrual
GLI,6/30/2020,12502,186100,GLI063020,GLI063020,30.87,Payroll Accrual
GLI,6/30/2020,12501,186100,GLI063020,GLI063020,30.87,Payroll Accrual
GLI,6/30/2020,12106,186100,GLI063020,GLI063020,409.62,Payroll Accrual
GLI,6/30/2020,12105,186100,GLI063020,GLI063020,409.62,Payroll Accrual
GLI,6/30/2020,12104,186100,GLI063020,GLI063020,409.62,Payroll Accrual
GLI,6/30/2020,12102,186100,GLI063020,GLI063020,409.62,Payroll Accrual
GLI,6/30/2020,12101,186100,GLI063020,GLI063020,409.62,Payroll Accrual
GLI,6/30/2020,12527,185647,GLI063020,GLI063020,21.05,Payroll Accrual
GLI,6/30/2020,12327,185647,GLI063020,GLI063020,275.16,Payroll Accrual
GLI,6/30/2020,12515,185600,GLI063020,GLI063020,31.66,Payroll Accrual
GLI,6/30/2020,12506,185600,GLI063020,GLI063020,21.59,Payroll Accrual
GLI,6/30/2020,12505,185600,GLI063020,GLI063020,21.59,Payroll Accrual
GLI,6/30/2020,12504,185600,GLI063020,GLI063020,23.03,Payroll Accrual
GLI,6/30/2020,12502,185600,GLI063020,GLI063020,23.03,Payroll Accrual
GLI,6/30/2020,12501,185600,GLI063020,GLI063020,23.03,Payroll Accrual
GLI,6/30/2020,12315,185600,GLI063020,GLI063020,420.54,Payroll Accrual
GLI,6/30/2020,12306,185600,GLI063020,GLI063020,286.73,Payroll Accrual
GLI,6/30/2020,12305,185600,GLI063020,GLI063020,286.73,Payroll Accrual
GLI,6/30/2020,12304,185600,GLI063020,GLI063020,305.85,Payroll Accrual
GLI,6/30/2020,12302,185600,GLI063020,GLI063020,305.85,Payroll Accrual
GLI,6/30/2020,12301,185600,GLI063020,GLI063020,305.85,Payroll Accrual
GLI,6/30/2020,12505,184920,GLI063020,GLI063020,108.61,Payroll Accrual
GLI,6/30/2020,124703,184920,GLI063020,GLI063020,1442,Payroll Accrual
GLI,6/30/2020,12524,184806,GLI063020,GLI063020,162.87,Payroll Accrual
GLI,6/30/2020,124724,184806,GLI063020,GLI063020,2149,Payroll Accrual
GLI,6/30/2020,12905,184620,GLI063020,GLI063020,17.4,Payroll Accrual
GLI,6/30/2020,12505,184620,GLI063020,GLI063020,88.76,Payroll Accrual
GLI,6/30/2020,124703,184620,GLI063020,GLI063020,1160.28,Payroll Accrual
GLI,6/30/2020,12905,184614,GLI063020,GLI063020,13.5,Payroll Accrual
GLI,6/30/2020,12505,184614,GLI063020,GLI063020,68.86,Payroll Accrual
GLI,6/30/2020,124703,184614,GLI063020,GLI063020,900.2,Payroll Accrual
GLI,6/30/2020,12506,184610,GLI063020,GLI063020,107.96,Payroll Accrual
GLI,6/30/2020,12306B,184610,GLI063020,GLI063020,1510.75,Payroll Accrual
GLI,6/30/2020,12924,184605,GLI063020,GLI063020,10.92,Payroll Accrual
GLI,6/30/2020,12524,184605,GLI063020,GLI063020,55.71,Payroll Accrual
GLI,6/30/2020,124724,184605,GLI063020,GLI063020,728.26,Payroll Accrual
GLI,6/30/2020,12916,182713,GLI063020,GLI063020,13.42,Payroll Accrual
GLI,6/30/2020,12516,182713,GLI063020,GLI063020,54.49,Payroll Accrual
GLI,6/30/2020,12316,182713,GLI063020,GLI063020,894.82,Payroll Accrual
GLI,6/30/2020,12906,181520,GLI063020,GLI063020,5.78,Payroll Accrual
GLI,6/30/2020,12905,181520,GLI063020,GLI063020,5.08,Payroll Accrual
GLI,6/30/2020,12514,181520,GLI063020,GLI063020,14.95,Payroll Accrual
GLI,6/30/2020,12506,181520,GLI063020,GLI063020,1.35,Payroll Accrual
GLI,6/30/2020,12505,181520,GLI063020,GLI063020,1.19,Payroll Accrual
GLI,6/30/2020,12504,181520,GLI063020,GLI063020,12.35,Payroll Accrual
GLI,6/30/2020,12502,181520,GLI063020,GLI063020,10.61,Payroll Accrual
GLI,6/30/2020,12501,181520,GLI063020,GLI063020,10.61,Payroll Accrual
GLI,6/30/2020,12214,181520,GLI063020,GLI063020,249.67,Payroll Accrual
GLI,6/30/2020,12206C,181520,GLI063020,GLI063020,147.53,Payroll Accrual
GLI,6/30/2020,12205C,181520,GLI063020,GLI063020,136.19,Payroll Accrual
GLI,6/30/2020,12204C,181520,GLI063020,GLI063020,215.63,Payroll Accrual
GLI,6/30/2020,12202C,181520,GLI063020,GLI063020,192.93,Payroll Accrual
GLI,6/30/2020,12201C,181520,GLI063020,GLI063020,192.93,Payroll Accrual
GLI,6/30/2020,12504,18005,GLI063020,GLI063020,184.88,Payroll Accrual
GLI,6/30/2020,124704,18005,GLI063020,GLI063020,2453.85,Payroll Accrual
GLI,6/30/2020,12906,179775,GLI063020,GLI063020,18.95,Payroll Accrual
GLI,6/30/2020,12506,179775,GLI063020,GLI063020,68,Payroll Accrual
GLI,6/30/2020,12306B,179775,GLI063020,GLI063020,947.58,Payroll Accrual
GLI,6/30/2020,12506,179693,GLI063020,GLI063020,10.45,Payroll Accrual
GLI,6/30/2020,12505,179693,GLI063020,GLI063020,10.45,Payroll Accrual
GLI,6/30/2020,12504,179693,GLI063020,GLI063020,10.45,Payroll Accrual
GLI,6/30/2020,12502,179693,GLI063020,GLI063020,10.45,Payroll Accrual
GLI,6/30/2020,12501,179693,GLI063020,GLI063020,10.45,Payroll Accrual
GLI,6/30/2020,12206B,179693,GLI063020,GLI063020,136.67,Payroll Accrual
GLI,6/30/2020,12205B,179693,GLI063020,GLI063020,136.67,Payroll Accrual
GLI,6/30/2020,12204B,179693,GLI063020,GLI063020,136.67,Payroll Accrual
GLI,6/30/2020,12202B,179693,GLI063020,GLI063020,136.67,Payroll Accrual
GLI,6/30/2020,12201B,179693,GLI063020,GLI063020,136.67,Payroll Accrual
GLI,6/30/2020,12503,178323,GLI063020,GLI063020,42.49,Payroll Accrual
GLI,6/30/2020,124723,178323,GLI063020,GLI063020,555.37,Payroll Accrual
GLI,6/30/2020,12504,178079,GLI063020,GLI063020,75.12,Payroll Accrual
GLI,6/30/2020,12404,178079,GLI063020,GLI063020,264,Payroll Accrual
GLI,6/30/2020,12304D,178079,GLI063020,GLI063020,1064.09,Payroll Accrual
GLI,6/30/2020,12527,178060,GLI063020,GLI063020,12.28,Payroll Accrual
GLI,6/30/2020,12327,178060,GLI063020,GLI063020,160.56,Payroll Accrual
GLI,6/30/2020,12904,178050,GLI063020,GLI063020,17.99,Payroll Accrual
GLI,6/30/2020,12504,178050,GLI063020,GLI063020,88.49,Payroll Accrual
GLI,6/30/2020,124704,178050,GLI063020,GLI063020,1199.03,Payroll Accrual
GLI,6/30/2020,12924,176430,GLI063020,GLI063020,2.11,Payroll Accrual
GLI,6/30/2020,12905,176430,GLI063020,GLI063020,2.11,Payroll Accrual
GLI,6/30/2020,12904,176430,GLI063020,GLI063020,2.11,Payroll Accrual
GLI,6/30/2020,12902,176430,GLI063020,GLI063020,2.11,Payroll Accrual
GLI,6/30/2020,12901,176430,GLI063020,GLI063020,2.11,Payroll Accrual
GLI,6/30/2020,12524,176430,GLI063020,GLI063020,8.82,Payroll Accrual
GLI,6/30/2020,12505,176430,GLI063020,GLI063020,8.82,Payroll Accrual
GLI,6/30/2020,12504,176430,GLI063020,GLI063020,8.82,Payroll Accrual
GLI,6/30/2020,12502,176430,GLI063020,GLI063020,8.82,Payroll Accrual
GLI,6/30/2020,12501,176430,GLI063020,GLI063020,8.82,Payroll Accrual
GLI,6/30/2020,12324F,176430,GLI063020,GLI063020,140.4,Payroll Accrual
GLI,6/30/2020,12305F,176430,GLI063020,GLI063020,140.4,Payroll Accrual
GLI,6/30/2020,12304F,176430,GLI063020,GLI063020,140.4,Payroll Accrual
GLI,6/30/2020,12302F,176430,GLI063020,GLI063020,140.4,Payroll Accrual
GLI,6/30/2020,12301F,176430,GLI063020,GLI063020,140.4,Payroll Accrual
GLI,6/30/2020,12503,175943,GLI063020,GLI063020,55.3,Payroll Accrual
GLI,6/30/2020,124723,175943,GLI063020,GLI063020,722.88,Payroll Accrual
GLI,6/30/2020,12902,175873,GLI063020,GLI063020,10.66,Payroll Accrual
GLI,6/30/2020,12901,175873,GLI063020,GLI063020,7.1,Payroll Accrual
GLI,6/30/2020,12502,175873,GLI063020,GLI063020,54.38,Payroll Accrual
GLI,6/30/2020,12501,175873,GLI063020,GLI063020,36.25,Payroll Accrual
GLI,6/30/2020,12402,175873,GLI063020,GLI063020,8.4,Payroll Accrual
GLI,6/30/2020,12401,175873,GLI063020,GLI063020,5.6,Payroll Accrual
GLI,6/30/2020,11102,175873,GLI063020,GLI063020,702.4,Payroll Accrual
GLI,6/30/2020,11101,175873,GLI063020,GLI063020,468.26,Payroll Accrual
GLI,6/30/2020,12527,175843,GLI063020,GLI063020,31.82,Payroll Accrual
GLI,6/30/2020,12327,175843,GLI063020,GLI063020,415.92,Payroll Accrual
GLI,6/30/2020,12527,175839,GLI063020,GLI063020,30.2,Payroll Accrual
GLI,6/30/2020,12327,175839,GLI063020,GLI063020,394.8,Payroll Accrual
GLI,6/30/2020,12503,175394,GLI063020,GLI063020,46.33,Payroll Accrual
GLI,6/30/2020,124723,175394,GLI063020,GLI063020,605.64,Payroll Accrual
GLI,6/30/2020,12524,174934,GLI063020,GLI063020,27.6,Payroll Accrual
GLI,6/30/2020,12224,174934,GLI063020,GLI063020,360.84,Payroll Accrual
GLI,6/30/2020,12506,174836,GLI063020,GLI063020,74.39,Payroll Accrual
GLI,6/30/2020,12306C,174836,GLI063020,GLI063020,972.48,Payroll Accrual
GLI,6/30/2020,12503,174738,GLI063020,GLI063020,36.5,Payroll Accrual
GLI,6/30/2020,124723,174738,GLI063020,GLI063020,477.09,Payroll Accrual
GLI,6/30/2020,12505,174384,GLI063020,GLI063020,37.03,Payroll Accrual
GLI,6/30/2020,124703,174384,GLI063020,GLI063020,725.76,Payroll Accrual
GLI,6/30/2020,12506,174123,GLI063020,GLI063020,4.65,Payroll Accrual
GLI,6/30/2020,12505,174123,GLI063020,GLI063020,4.65,Payroll Accrual
GLI,6/30/2020,12504,174123,GLI063020,GLI063020,4.65,Payroll Accrual
GLI,6/30/2020,12502,174123,GLI063020,GLI063020,4.65,Payroll Accrual
GLI,6/30/2020,12501,174123,GLI063020,GLI063020,4.65,Payroll Accrual
GLI,6/30/2020,12206B,174123,GLI063020,GLI063020,60.74,Payroll Accrual
GLI,6/30/2020,12205B,174123,GLI063020,GLI063020,60.74,Payroll Accrual
GLI,6/30/2020,12204B,174123,GLI063020,GLI063020,60.74,Payroll Accrual
GLI,6/30/2020,12202B,174123,GLI063020,GLI063020,60.74,Payroll Accrual
GLI,6/30/2020,12201B,174123,GLI063020,GLI063020,60.74,Payroll Accrual
GLI,6/30/2020,12506,173209,GLI063020,GLI063020,56.06,Payroll Accrual
GLI,6/30/2020,12306D,173209,GLI063020,GLI063020,732.76,Payroll Accrual
GLI,6/30/2020,12504,172308,GLI063020,GLI063020,90.44,Payroll Accrual
GLI,6/30/2020,12304B,172308,GLI063020,GLI063020,1449.68,Payroll Accrual
GLI,6/30/2020,12906,172077,GLI063020,GLI063020,12.96,Payroll Accrual
GLI,6/30/2020,12506,172077,GLI063020,GLI063020,32.45,Payroll Accrual
GLI,6/30/2020,12306B,172077,GLI063020,GLI063020,647.91,Payroll Accrual
GLI,6/30/2020,12505,171055,GLI063020,GLI063020,86.19,Payroll Accrual
GLI,6/30/2020,124703,171055,GLI063020,GLI063020,1394.05,Payroll Accrual
GLI,6/30/2020,12501,170150,GLI063020,GLI063020,24.68,Payroll Accrual
GLI,6/30/2020,11301C,170150,GLI063020,GLI063020,322.5,Payroll Accrual
GLI,6/30/2020,12504,169964,GLI063020,GLI063020,69.99,Payroll Accrual
GLI,6/30/2020,12304B,169964,GLI063020,GLI063020,914.83,Payroll Accrual
GLI,6/30/2020,12524,169753,GLI063020,GLI063020,4.22,Payroll Accrual
GLI,6/30/2020,124724,169753,GLI063020,GLI063020,55.2,Payroll Accrual
GLI,6/30/2020,12506,168815,GLI063020,GLI063020,15.15,Payroll Accrual
GLI,6/30/2020,12306D,168815,GLI063020,GLI063020,198.1,Payroll Accrual
GLI,6/30/2020,12504,168754,GLI063020,GLI063020,59.05,Payroll Accrual
GLI,6/30/2020,124704,168754,GLI063020,GLI063020,809.1,Payroll Accrual
GLI,6/30/2020,12904,168753,GLI063020,GLI063020,18.16,Payroll Accrual
GLI,6/30/2020,12504,168753,GLI063020,GLI063020,83.59,Payroll Accrual
GLI,6/30/2020,124704,168753,GLI063020,GLI063020,1210.44,Payroll Accrual
GLI,6/30/2020,12504,168575,GLI063020,GLI063020,17.97,Payroll Accrual
GLI,6/30/2020,12304C,168575,GLI063020,GLI063020,234.84,Payroll Accrual
GLI,6/30/2020,12504,168573,GLI063020,GLI063020,72.1,Payroll Accrual
GLI,6/30/2020,124704,168573,GLI063020,GLI063020,942.48,Payroll Accrual
GLI,6/30/2020,12906,168351,GLI063020,GLI063020,20.48,Payroll Accrual
GLI,6/30/2020,12506,168351,GLI063020,GLI063020,102.15,Payroll Accrual
GLI,6/30/2020,12106,168351,GLI063020,GLI063020,1365.39,Payroll Accrual
GLI,6/30/2020,12503,168243,GLI063020,GLI063020,47.39,Payroll Accrual
GLI,6/30/2020,12303,168243,GLI063020,GLI063020,661.83,Payroll Accrual
GLI,6/30/2020,12905,167934,GLI063020,GLI063020,14.81,Payroll Accrual
GLI,6/30/2020,12505,167934,GLI063020,GLI063020,74.01,Payroll Accrual
GLI,6/30/2020,124703,167934,GLI063020,GLI063020,987.38,Payroll Accrual
GLI,6/30/2020,12506,167906,GLI063020,GLI063020,62.15,Payroll Accrual
GLI,6/30/2020,12306C,167906,GLI063020,GLI063020,849.6,Payroll Accrual
GLI,6/30/2020,12906,167812,GLI063020,GLI063020,1.42,Payroll Accrual
GLI,6/30/2020,12905,167812,GLI063020,GLI063020,1.31,Payroll Accrual
GLI,6/30/2020,12514,167812,GLI063020,GLI063020,2.96,Payroll Accrual
GLI,6/30/2020,12506,167812,GLI063020,GLI063020,0.33,Payroll Accrual
GLI,6/30/2020,12505,167812,GLI063020,GLI063020,0.31,Payroll Accrual
GLI,6/30/2020,12504,167812,GLI063020,GLI063020,2.57,Payroll Accrual
GLI,6/30/2020,12502,167812,GLI063020,GLI063020,2.29,Payroll Accrual
GLI,6/30/2020,12501,167812,GLI063020,GLI063020,2.29,Payroll Accrual
GLI,6/30/2020,12214,167812,GLI063020,GLI063020,38.78,Payroll Accrual
GLI,6/30/2020,12206C,167812,GLI063020,GLI063020,22.91,Payroll Accrual
GLI,6/30/2020,12205C,167812,GLI063020,GLI063020,21.15,Payroll Accrual
GLI,6/30/2020,12204C,167812,GLI063020,GLI063020,33.49,Payroll Accrual
GLI,6/30/2020,12202C,167812,GLI063020,GLI063020,29.96,Payroll Accrual
GLI,6/30/2020,12201C,167812,GLI063020,GLI063020,29.96,Payroll Accrual
GLI,6/30/2020,12504,167580,GLI063020,GLI063020,121.57,Payroll Accrual
GLI,6/30/2020,124704,167580,GLI063020,GLI063020,1812.93,Payroll Accrual
GLI,6/30/2020,12506,167542,GLI063020,GLI063020,26.47,Payroll Accrual
GLI,6/30/2020,12306C,167542,GLI063020,GLI063020,345.96,Payroll Accrual
GLI,6/30/2020,12506,167321,GLI063020,GLI063020,20.72,Payroll Accrual
GLI,6/30/2020,12306C,167321,GLI063020,GLI063020,270.84,Payroll Accrual
GLI,6/30/2020,12503,166873,GLI063020,GLI063020,33.21,Payroll Accrual
GLI,6/30/2020,124723,166873,GLI063020,GLI063020,434.15,Payroll Accrual
GLI,6/30/2020,12527,165982,GLI063020,GLI063020,28.76,Payroll Accrual
GLI,6/30/2020,12327,165982,GLI063020,GLI063020,375.96,Payroll Accrual
GLI,6/30/2020,12906,165980,GLI063020,GLI063020,1.58,Payroll Accrual
GLI,6/30/2020,12905,165980,GLI063020,GLI063020,1.58,Payroll Accrual
GLI,6/30/2020,12904,165980,GLI063020,GLI063020,1.58,Payroll Accrual
GLI,6/30/2020,12902,165980,GLI063020,GLI063020,1.58,Payroll Accrual
GLI,6/30/2020,12901,165980,GLI063020,GLI063020,1.58,Payroll Accrual
GLI,6/30/2020,12506,165980,GLI063020,GLI063020,-0.28,Payroll Accrual
GLI,6/30/2020,12505,165980,GLI063020,GLI063020,-0.28,Payroll Accrual
GLI,6/30/2020,12504,165980,GLI063020,GLI063020,-0.28,Payroll Accrual
GLI,6/30/2020,12502,165980,GLI063020,GLI063020,-0.28,Payroll Accrual
GLI,6/30/2020,12501,165980,GLI063020,GLI063020,-0.28,Payroll Accrual
GLI,6/30/2020,12206B,165980,GLI063020,GLI063020,105.22,Payroll Accrual
GLI,6/30/2020,12205B,165980,GLI063020,GLI063020,105.22,Payroll Accrual
GLI,6/30/2020,12204B,165980,GLI063020,GLI063020,105.22,Payroll Accrual
GLI,6/30/2020,12202B,165980,GLI063020,GLI063020,105.22,Payroll Accrual
GLI,6/30/2020,12201B,165980,GLI063020,GLI063020,105.22,Payroll Accrual
GLI,6/30/2020,12911,165972,GLI063020,GLI063020,2.09,Payroll Accrual
GLI,6/30/2020,12906,165972,GLI063020,GLI063020,1.52,Payroll Accrual
GLI,6/30/2020,12905,165972,GLI063020,GLI063020,1.52,Payroll Accrual
GLI,6/30/2020,12904,165972,GLI063020,GLI063020,1.52,Payroll Accrual
GLI,6/30/2020,12902,165972,GLI063020,GLI063020,1.42,Payroll Accrual
GLI,6/30/2020,12901,165972,GLI063020,GLI063020,1.42,Payroll Accrual
GLI,6/30/2020,12511,165972,GLI063020,GLI063020,7.42,Payroll Accrual
GLI,6/30/2020,12506,165972,GLI063020,GLI063020,4.52,Payroll Accrual
GLI,6/30/2020,12505,165972,GLI063020,GLI063020,4.52,Payroll Accrual
GLI,6/30/2020,12504,165972,GLI063020,GLI063020,4.52,Payroll Accrual
GLI,6/30/2020,12502,165972,GLI063020,GLI063020,4.03,Payroll Accrual
GLI,6/30/2020,12501,165972,GLI063020,GLI063020,4.03,Payroll Accrual
GLI,6/30/2020,12311,165972,GLI063020,GLI063020,139.25,Payroll Accrual
GLI,6/30/2020,12306H,165972,GLI063020,GLI063020,101.27,Payroll Accrual
GLI,6/30/2020,12305H,165972,GLI063020,GLI063020,101.27,Payroll Accrual
GLI,6/30/2020,12304H,165972,GLI063020,GLI063020,101.27,Payroll Accrual
GLI,6/30/2020,12302H,165972,GLI063020,GLI063020,94.94,Payroll Accrual
GLI,6/30/2020,12301H,165972,GLI063020,GLI063020,94.94,Payroll Accrual
GLI,6/30/2020,12527,165876,GLI063020,GLI063020,19.52,Payroll Accrual
GLI,6/30/2020,12327,165876,GLI063020,GLI063020,255.12,Payroll Accrual
GLI,6/30/2020,12504,165823,GLI063020,GLI063020,24.27,Payroll Accrual
GLI,6/30/2020,12304C,165823,GLI063020,GLI063020,791.98,Payroll Accrual
GLI,6/30/2020,12524,165780,GLI063020,GLI063020,48.7,Payroll Accrual
GLI,6/30/2020,124724,165780,GLI063020,GLI063020,636.61,Payroll Accrual
GLI,6/30/2020,12504,165732,GLI063020,GLI063020,78.29,Payroll Accrual
GLI,6/30/2020,12304B,165732,GLI063020,GLI063020,1023.4,Payroll Accrual
GLI,6/30/2020,12503,165478,GLI063020,GLI063020,39.81,Payroll Accrual
GLI,6/30/2020,124723,165478,GLI063020,GLI063020,520.32,Payroll Accrual
GLI,6/30/2020,12903,165473,GLI063020,GLI063020,8.6,Payroll Accrual
GLI,6/30/2020,12503,165473,GLI063020,GLI063020,41.02,Payroll Accrual
GLI,6/30/2020,124723,165473,GLI063020,GLI063020,573.3,Payroll Accrual
GLI,6/30/2020,12516,165428,GLI063020,GLI063020,137.87,Payroll Accrual
GLI,6/30/2020,12316,165428,GLI063020,GLI063020,1802.31,Payroll Accrual
GLI,6/30/2020,12905,165357,GLI063020,GLI063020,27.72,Payroll Accrual
GLI,6/30/2020,12505,165357,GLI063020,GLI063020,138,Payroll Accrual
GLI,6/30/2020,12305B,165357,GLI063020,GLI063020,1848.12,Payroll Accrual
GLI,6/30/2020,12506,165321,GLI063020,GLI063020,16.64,Payroll Accrual
GLI,6/30/2020,12306C,165321,GLI063020,GLI063020,217.56,Payroll Accrual
GLI,6/30/2020,12503,165288,GLI063020,GLI063020,26.84,Payroll Accrual
GLI,6/30/2020,124723,165288,GLI063020,GLI063020,350.88,Payroll Accrual
GLI,6/30/2020,12905,165275,GLI063020,GLI063020,10.84,Payroll Accrual
GLI,6/30/2020,12505,165275,GLI063020,GLI063020,35.54,Payroll Accrual
GLI,6/30/2020,124703,165275,GLI063020,GLI063020,541.75,Payroll Accrual
GLI,6/30/2020,12524,164920,GLI063020,GLI063020,39.93,Payroll Accrual
GLI,6/30/2020,124724,164920,GLI063020,GLI063020,521.95,Payroll Accrual
GLI,6/30/2020,12906,164732,GLI063020,GLI063020,5.26,Payroll Accrual
GLI,6/30/2020,12905,164732,GLI063020,GLI063020,4.65,Payroll Accrual
GLI,6/30/2020,12514,164732,GLI063020,GLI063020,13.22,Payroll Accrual
GLI,6/30/2020,12506,164732,GLI063020,GLI063020,1.23,Payroll Accrual
GLI,6/30/2020,12505,164732,GLI063020,GLI063020,1.09,Payroll Accrual
GLI,6/30/2020,12504,164732,GLI063020,GLI063020,10.98,Payroll Accrual
GLI,6/30/2020,12502,164732,GLI063020,GLI063020,9.48,Payroll Accrual
GLI,6/30/2020,12501,164732,GLI063020,GLI063020,9.48,Payroll Accrual
GLI,6/30/2020,12214,164732,GLI063020,GLI063020,215.07,Payroll Accrual
GLI,6/30/2020,12206C,164732,GLI063020,GLI063020,127.09,Payroll Accrual
GLI,6/30/2020,12205C,164732,GLI063020,GLI063020,117.31,Payroll Accrual
GLI,6/30/2020,12204C,164732,GLI063020,GLI063020,185.74,Payroll Accrual
GLI,6/30/2020,12202C,164732,GLI063020,GLI063020,166.19,Payroll Accrual
GLI,6/30/2020,12201C,164732,GLI063020,GLI063020,166.19,Payroll Accrual
GLI,6/30/2020,12516,164329,GLI063020,GLI063020,64.4,Payroll Accrual
GLI,6/30/2020,12316,164329,GLI063020,GLI063020,841.74,Payroll Accrual
GLI,6/30/2020,12904,164015,GLI063020,GLI063020,44.92,Payroll Accrual
GLI,6/30/2020,12504,164015,GLI063020,GLI063020,169.64,Payroll Accrual
GLI,6/30/2020,124704,164015,GLI063020,GLI063020,2245.81,Payroll Accrual
GLI,6/30/2020,12404,164015,GLI063020,GLI063020,1308.4,Payroll Accrual
GLI,6/30/2020,12502,163700,GLI063020,GLI063020,148.3,Payroll Accrual
GLI,6/30/2020,12501,163700,GLI063020,GLI063020,98.87,Payroll Accrual
GLI,6/30/2020,11102,163700,GLI063020,GLI063020,1986.46,Payroll Accrual
GLI,6/30/2020,11101,163700,GLI063020,GLI063020,1324.31,Payroll Accrual
GLI,6/30/2020,12524,163278,GLI063020,GLI063020,60.94,Payroll Accrual
GLI,6/30/2020,124724,163278,GLI063020,GLI063020,796.6,Payroll Accrual
GLI,6/30/2020,12512,163096,GLI063020,GLI063020,14.41,Payroll Accrual
GLI,6/30/2020,12502,163096,GLI063020,GLI063020,28.05,Payroll Accrual
GLI,6/30/2020,12501,163096,GLI063020,GLI063020,28.05,Payroll Accrual
GLI,6/30/2020,12212,163096,GLI063020,GLI063020,230.63,Payroll Accrual
GLI,6/30/2020,12202C,163096,GLI063020,GLI063020,408.84,Payroll Accrual
GLI,6/30/2020,12201C,163096,GLI063020,GLI063020,408.84,Payroll Accrual
GLI,6/30/2020,12505,162984,GLI063020,GLI063020,57.81,Payroll Accrual
GLI,6/30/2020,12205A,162984,GLI063020,GLI063020,755.6,Payroll Accrual
GLI,6/30/2020,12501,162800,GLI063020,GLI063020,4.59,Payroll Accrual
GLI,6/30/2020,11301C,162800,GLI063020,GLI063020,60,Payroll Accrual
GLI,6/30/2020,12904,16250,GLI063020,GLI063020,10.07,Payroll Accrual
GLI,6/30/2020,12504,16250,GLI063020,GLI063020,32.9,Payroll Accrual
GLI,6/30/2020,12304D,16250,GLI063020,GLI063020,671.76,Payroll Accrual
GLI,6/30/2020,12906,162428,GLI063020,GLI063020,20.74,Payroll Accrual
GLI,6/30/2020,12506,162428,GLI063020,GLI063020,100.49,Payroll Accrual
GLI,6/30/2020,12306B,162428,GLI063020,GLI063020,1382.75,Payroll Accrual
GLI,6/30/2020,12903,161010,GLI063020,GLI063020,11.16,Payroll Accrual
GLI,6/30/2020,12503,161010,GLI063020,GLI063020,56.9,Payroll Accrual
GLI,6/30/2020,124723,161010,GLI063020,GLI063020,743.8,Payroll Accrual
GLI,6/30/2020,12905,160930,GLI063020,GLI063020,32.43,Payroll Accrual
GLI,6/30/2020,12505,160930,GLI063020,GLI063020,123.37,Payroll Accrual
GLI,6/30/2020,12405,160930,GLI063020,GLI063020,80,Payroll Accrual
GLI,6/30/2020,12305C,160930,GLI063020,GLI063020,1541.44,Payroll Accrual
GLI,6/30/2020,12502,159875,GLI063020,GLI063020,42.08,Payroll Accrual
GLI,6/30/2020,12501,159875,GLI063020,GLI063020,28.05,Payroll Accrual
GLI,6/30/2020,11102,159875,GLI063020,GLI063020,550,Payroll Accrual
GLI,6/30/2020,11101,159875,GLI063020,GLI063020,366.67,Payroll Accrual
GLI,6/30/2020,12503,159873,GLI063020,GLI063020,55.2,Payroll Accrual
GLI,6/30/2020,124723,159873,GLI063020,GLI063020,721.64,Payroll Accrual
GLI,6/30/2020,12504,159857,GLI063020,GLI063020,51.06,Payroll Accrual
GLI,6/30/2020,12304C,159857,GLI063020,GLI063020,709.67,Payroll Accrual
GLI,6/30/2020,12503,159375,GLI063020,GLI063020,27.01,Payroll Accrual
GLI,6/30/2020,124723,159375,GLI063020,GLI063020,353.21,Payroll Accrual
GLI,6/30/2020,12524,158963,GLI063020,GLI063020,64.16,Payroll Accrual
GLI,6/30/2020,124724,158963,GLI063020,GLI063020,838.74,Payroll Accrual
GLI,6/30/2020,12906,1588879,GLI063020,GLI063020,7.57,Payroll Accrual
GLI,6/30/2020,12905,1588879,GLI063020,GLI063020,6.99,Payroll Accrual
GLI,6/30/2020,12514,1588879,GLI063020,GLI063020,15.82,Payroll Accrual
GLI,6/30/2020,12506,1588879,GLI063020,GLI063020,1.77,Payroll Accrual
GLI,6/30/2020,12505,1588879,GLI063020,GLI063020,1.64,Payroll Accrual
GLI,6/30/2020,12504,1588879,GLI063020,GLI063020,13.66,Payroll Accrual
GLI,6/30/2020,12502,1588879,GLI063020,GLI063020,12.22,Payroll Accrual
GLI,6/30/2020,12501,1588879,GLI063020,GLI063020,12.22,Payroll Accrual
GLI,6/30/2020,12214,1588879,GLI063020,GLI063020,206.75,Payroll Accrual
GLI,6/30/2020,12206C,1588879,GLI063020,GLI063020,122.17,Payroll Accrual
GLI,6/30/2020,12205C,1588879,GLI063020,GLI063020,112.77,Payroll Accrual
GLI,6/30/2020,12204C,1588879,GLI063020,GLI063020,178.55,Payroll Accrual
GLI,6/30/2020,12202C,1588879,GLI063020,GLI063020,159.76,Payroll Accrual
GLI,6/30/2020,12201C,1588879,GLI063020,GLI063020,159.76,Payroll Accrual
GLI,6/30/2020,12914,157995,GLI063020,GLI063020,6.01,Payroll Accrual
GLI,6/30/2020,12906,157995,GLI063020,GLI063020,12.51,Payroll Accrual
GLI,6/30/2020,12905,157995,GLI063020,GLI063020,11.55,Payroll Accrual
GLI,6/30/2020,12904,157995,GLI063020,GLI063020,5.19,Payroll Accrual
GLI,6/30/2020,12902,157995,GLI063020,GLI063020,4.64,Payroll Accrual
GLI,6/30/2020,12901,157995,GLI063020,GLI063020,4.64,Payroll Accrual
GLI,6/30/2020,12514,157995,GLI063020,GLI063020,18.7,Payroll Accrual
GLI,6/30/2020,12506,157995,GLI063020,GLI063020,2.09,Payroll Accrual
GLI,6/30/2020,12505,157995,GLI063020,GLI063020,1.93,Payroll Accrual
GLI,6/30/2020,12504,157995,GLI063020,GLI063020,16.15,Payroll Accrual
GLI,6/30/2020,12502,157995,GLI063020,GLI063020,14.45,Payroll Accrual
GLI,6/30/2020,12501,157995,GLI063020,GLI063020,14.45,Payroll Accrual
GLI,6/30/2020,12214,157995,GLI063020,GLI063020,300.39,Payroll Accrual
GLI,6/30/2020,12206C,157995,GLI063020,GLI063020,177.5,Payroll Accrual
GLI,6/30/2020,12205C,157995,GLI063020,GLI063020,163.85,Payroll Accrual
GLI,6/30/2020,12204C,157995,GLI063020,GLI063020,259.42,Payroll Accrual
GLI,6/30/2020,12202C,157995,GLI063020,GLI063020,232.12,Payroll Accrual
GLI,6/30/2020,12201C,157995,GLI063020,GLI063020,232.12,Payroll Accrual
GLI,6/30/2020,12905,157953,GLI063020,GLI063020,25.94,Payroll Accrual
GLI,6/30/2020,12505,157953,GLI063020,GLI063020,117.77,Payroll Accrual
GLI,6/30/2020,124703,157953,GLI063020,GLI063020,1729,Payroll Accrual
GLI,6/30/2020,12405,157953,GLI063020,GLI063020,532,Payroll Accrual
GLI,6/30/2020,12503,157939,GLI063020,GLI063020,48.95,Payroll Accrual
GLI,6/30/2020,124723,157939,GLI063020,GLI063020,682.26,Payroll Accrual
GLI,6/30/2020,12504,157493,GLI063020,GLI063020,48.12,Payroll Accrual
GLI,6/30/2020,12204A,157493,GLI063020,GLI063020,649.04,Payroll Accrual
GLI,6/30/2020,12503,157394,GLI063020,GLI063020,39.29,Payroll Accrual
GLI,6/30/2020,124723,157394,GLI063020,GLI063020,513.48,Payroll Accrual
GLI,6/30/2020,12506,157392,GLI063020,GLI063020,8.87,Payroll Accrual
GLI,6/30/2020,12505,157392,GLI063020,GLI063020,8.87,Payroll Accrual
GLI,6/30/2020,12504,157392,GLI063020,GLI063020,8.87,Payroll Accrual
GLI,6/30/2020,12502,157392,GLI063020,GLI063020,8.87,Payroll Accrual
GLI,6/30/2020,12501,157392,GLI063020,GLI063020,8.87,Payroll Accrual
GLI,6/30/2020,12206B,157392,GLI063020,GLI063020,115.97,Payroll Accrual
GLI,6/30/2020,12205B,157392,GLI063020,GLI063020,115.97,Payroll Accrual
GLI,6/30/2020,12204B,157392,GLI063020,GLI063020,115.97,Payroll Accrual
GLI,6/30/2020,12202B,157392,GLI063020,GLI063020,115.97,Payroll Accrual
GLI,6/30/2020,12201B,157392,GLI063020,GLI063020,115.97,Payroll Accrual
GLI,6/30/2020,12516,156844,GLI063020,GLI063020,89.32,Payroll Accrual
GLI,6/30/2020,12316,156844,GLI063020,GLI063020,1271.39,Payroll Accrual
GLI,6/30/2020,12524,1566882,GLI063020,GLI063020,107.58,Payroll Accrual
GLI,6/30/2020,124724,1566882,GLI063020,GLI063020,1448.55,Payroll Accrual
GLI,6/30/2020,12903,15668,GLI063020,GLI063020,15.07,Payroll Accrual
GLI,6/30/2020,12503,15668,GLI063020,GLI063020,75.54,Payroll Accrual
GLI,6/30/2020,12303,15668,GLI063020,GLI063020,1004.57,Payroll Accrual
GLI,6/30/2020,12906,15646,GLI063020,GLI063020,11.65,Payroll Accrual
GLI,6/30/2020,12506,15646,GLI063020,GLI063020,56.17,Payroll Accrual
GLI,6/30/2020,12306B,15646,GLI063020,GLI063020,776.44,Payroll Accrual
GLI,6/30/2020,12527,156398,GLI063020,GLI063020,23.11,Payroll Accrual
GLI,6/30/2020,12327,156398,GLI063020,GLI063020,302.16,Payroll Accrual
GLI,6/30/2020,12903,155477,GLI063020,GLI063020,8.29,Payroll Accrual
GLI,6/30/2020,12503,155477,GLI063020,GLI063020,31.88,Payroll Accrual
GLI,6/30/2020,124723,155477,GLI063020,GLI063020,553.05,Payroll Accrual
GLI,6/30/2020,12906,155214,GLI063020,GLI063020,5.47,Payroll Accrual
GLI,6/30/2020,12905,155214,GLI063020,GLI063020,5.05,Payroll Accrual
GLI,6/30/2020,12514,155214,GLI063020,GLI063020,11.41,Payroll Accrual
GLI,6/30/2020,12506,155214,GLI063020,GLI063020,1.28,Payroll Accrual
GLI,6/30/2020,12505,155214,GLI063020,GLI063020,1.18,Payroll Accrual
GLI,6/30/2020,12504,155214,GLI063020,GLI063020,9.86,Payroll Accrual
GLI,6/30/2020,12502,155214,GLI063020,GLI063020,8.82,Payroll Accrual
GLI,6/30/2020,12501,155214,GLI063020,GLI063020,8.82,Payroll Accrual
GLI,6/30/2020,12214,155214,GLI063020,GLI063020,149.26,Payroll Accrual
GLI,6/30/2020,12206C,155214,GLI063020,GLI063020,88.2,Payroll Accrual
GLI,6/30/2020,12205C,155214,GLI063020,GLI063020,81.41,Payroll Accrual
GLI,6/30/2020,12204C,155214,GLI063020,GLI063020,128.91,Payroll Accrual
GLI,6/30/2020,12202C,155214,GLI063020,GLI063020,115.34,Payroll Accrual
GLI,6/30/2020,12201C,155214,GLI063020,GLI063020,115.34,Payroll Accrual
GLI,6/30/2020,12527,154983,GLI063020,GLI063020,1.18,Payroll Accrual
GLI,6/30/2020,12327,154983,GLI063020,GLI063020,15.47,Payroll Accrual
GLI,6/30/2020,12527,154876,GLI063020,GLI063020,11.93,Payroll Accrual
GLI,6/30/2020,12327,154876,GLI063020,GLI063020,156,Payroll Accrual
GLI,6/30/2020,12503,154785,GLI063020,GLI063020,48.05,Payroll Accrual
GLI,6/30/2020,12303,154785,GLI063020,GLI063020,627.94,Payroll Accrual
GLI,6/30/2020,12527,154474,GLI063020,GLI063020,6.65,Payroll Accrual
GLI,6/30/2020,12327,154474,GLI063020,GLI063020,87,Payroll Accrual
GLI,6/30/2020,12506,154328,GLI063020,GLI063020,56.7,Payroll Accrual
GLI,6/30/2020,12306D,154328,GLI063020,GLI063020,741.13,Payroll Accrual
GLI,6/30/2020,12906,154225,GLI063020,GLI063020,12.84,Payroll Accrual
GLI,6/30/2020,12506,154225,GLI063020,GLI063020,58.45,Payroll Accrual
GLI,6/30/2020,12306D,154225,GLI063020,GLI063020,855.82,Payroll Accrual
GLI,6/30/2020,12927,154219,GLI063020,GLI063020,30.11,Payroll Accrual
GLI,6/30/2020,12527,154219,GLI063020,GLI063020,113.64,Payroll Accrual
GLI,6/30/2020,12127,154219,GLI063020,GLI063020,1505.44,Payroll Accrual
GLI,6/30/2020,12504,153865,GLI063020,GLI063020,80.3,Payroll Accrual
GLI,6/30/2020,124704,153865,GLI063020,GLI063020,1049.73,Payroll Accrual
GLI,6/30/2020,12504,153835,GLI063020,GLI063020,24.69,Payroll Accrual
GLI,6/30/2020,12304C,153835,GLI063020,GLI063020,322.79,Payroll Accrual
GLI,6/30/2020,12504,152964,GLI063020,GLI063020,80.6,Payroll Accrual
GLI,6/30/2020,124704,152964,GLI063020,GLI063020,1053.52,Payroll Accrual
GLI,6/30/2020,12904,152525,GLI063020,GLI063020,14.95,Payroll Accrual
GLI,6/30/2020,12504,152525,GLI063020,GLI063020,56.81,Payroll Accrual
GLI,6/30/2020,124704,152525,GLI063020,GLI063020,996.73,Payroll Accrual
GLI,6/30/2020,12927,152510,GLI063020,GLI063020,11.56,Payroll Accrual
GLI,6/30/2020,12527,152510,GLI063020,GLI063020,51.27,Payroll Accrual
GLI,6/30/2020,12327,152510,GLI063020,GLI063020,770.68,Payroll Accrual
GLI,6/30/2020,12504,152499,GLI063020,GLI063020,129.61,Payroll Accrual
GLI,6/30/2020,12304B,152499,GLI063020,GLI063020,1694.18,Payroll Accrual
GLI,6/30/2020,12504,152410,GLI063020,GLI063020,119.06,Payroll Accrual
GLI,6/30/2020,124704,152410,GLI063020,GLI063020,1576.33,Payroll Accrual
GLI,6/30/2020,12504,152235,GLI063020,GLI063020,238.65,Payroll Accrual
GLI,6/30/2020,124704,152235,GLI063020,GLI063020,3139.64,Payroll Accrual
GLI,6/30/2020,12905,151702,GLI063020,GLI063020,16.44,Payroll Accrual
GLI,6/30/2020,12505,151702,GLI063020,GLI063020,79.18,Payroll Accrual
GLI,6/30/2020,12305B,151702,GLI063020,GLI063020,1096.02,Payroll Accrual
GLI,6/30/2020,12504,150126,GLI063020,GLI063020,241.55,Payroll Accrual
GLI,6/30/2020,124704,150126,GLI063020,GLI063020,3157.56,Payroll Accrual
GLI,6/30/2020,12905,150120,GLI063020,GLI063020,23.1,Payroll Accrual
GLI,6/30/2020,12505,150120,GLI063020,GLI063020,115.53,Payroll Accrual
GLI,6/30/2020,12105,150120,GLI063020,GLI063020,1540.15,Payroll Accrual
GLI,6/30/2020,12905,150105,GLI063020,GLI063020,18.92,Payroll Accrual
GLI,6/30/2020,12505,150105,GLI063020,GLI063020,94.14,Payroll Accrual
GLI,6/30/2020,124703,150105,GLI063020,GLI063020,1261.47,Payroll Accrual
GLI,6/30/2020,12904,149878,GLI063020,GLI063020,11.11,Payroll Accrual
GLI,6/30/2020,12504,149878,GLI063020,GLI063020,68.6,Payroll Accrual
GLI,6/30/2020,12404,149878,GLI063020,GLI063020,240,Payroll Accrual
GLI,6/30/2020,12304D,149878,GLI063020,GLI063020,871.27,Payroll Accrual
GLI,6/30/2020,12512,149852,GLI063020,GLI063020,7.86,Payroll Accrual
GLI,6/30/2020,12502,149852,GLI063020,GLI063020,13.93,Payroll Accrual
GLI,6/30/2020,12501,149852,GLI063020,GLI063020,13.93,Payroll Accrual
GLI,6/30/2020,12212,149852,GLI063020,GLI063020,102.72,Payroll Accrual
GLI,6/30/2020,12202C,149852,GLI063020,GLI063020,182.09,Payroll Accrual
GLI,6/30/2020,12201C,149852,GLI063020,GLI063020,182.09,Payroll Accrual
GLI,6/30/2020,12524,148765,GLI063020,GLI063020,25.74,Payroll Accrual
GLI,6/30/2020,124724,148765,GLI063020,GLI063020,336.48,Payroll Accrual
GLI,6/30/2020,12502,147852,GLI063020,GLI063020,17.14,Payroll Accrual
GLI,6/30/2020,12501,147852,GLI063020,GLI063020,7.73,Payroll Accrual
GLI,6/30/2020,11102,147852,GLI063020,GLI063020,368.67,Payroll Accrual
GLI,6/30/2020,11101,147852,GLI063020,GLI063020,245.78,Payroll Accrual
GLI,6/30/2020,12524,147832,GLI063020,GLI063020,51.11,Payroll Accrual
GLI,6/30/2020,124724,147832,GLI063020,GLI063020,668.04,Payroll Accrual
GLI,6/30/2020,12524,146982,GLI063020,GLI063020,38.61,Payroll Accrual
GLI,6/30/2020,124724,146982,GLI063020,GLI063020,504.72,Payroll Accrual
GLI,6/30/2020,12527,145982,GLI063020,GLI063020,96.62,Payroll Accrual
GLI,6/30/2020,12327,145982,GLI063020,GLI063020,1357.36,Payroll Accrual
GLI,6/30/2020,12504,145801,GLI063020,GLI063020,131.52,Payroll Accrual
GLI,6/30/2020,124704,145801,GLI063020,GLI063020,1805.79,Payroll Accrual
GLI,6/30/2020,12905,145789,GLI063020,GLI063020,13.76,Payroll Accrual
GLI,6/30/2020,12505,145789,GLI063020,GLI063020,55.68,Payroll Accrual
GLI,6/30/2020,124703,145789,GLI063020,GLI063020,917.42,Payroll Accrual
GLI,6/30/2020,12502,145785,GLI063020,GLI063020,31.12,Payroll Accrual
GLI,6/30/2020,12501,145785,GLI063020,GLI063020,20.74,Payroll Accrual
GLI,6/30/2020,11102,145785,GLI063020,GLI063020,406.75,Payroll Accrual
GLI,6/30/2020,11101,145785,GLI063020,GLI063020,271.16,Payroll Accrual
GLI,6/30/2020,12506,145087,GLI063020,GLI063020,9.03,Payroll Accrual
GLI,6/30/2020,12505,145087,GLI063020,GLI063020,9.03,Payroll Accrual
GLI,6/30/2020,12504,145087,GLI063020,GLI063020,9.03,Payroll Accrual
GLI,6/30/2020,12502,145087,GLI063020,GLI063020,9.03,Payroll Accrual
GLI,6/30/2020,12501,145087,GLI063020,GLI063020,9.03,Payroll Accrual
GLI,6/30/2020,12206B,145087,GLI063020,GLI063020,118.12,Payroll Accrual
GLI,6/30/2020,12205B,145087,GLI063020,GLI063020,118.12,Payroll Accrual
GLI,6/30/2020,12204B,145087,GLI063020,GLI063020,118.12,Payroll Accrual
GLI,6/30/2020,12202B,145087,GLI063020,GLI063020,118.12,Payroll Accrual
GLI,6/30/2020,12201B,145087,GLI063020,GLI063020,118.12,Payroll Accrual
GLI,6/30/2020,12512,143769,GLI063020,GLI063020,14.15,Payroll Accrual
GLI,6/30/2020,12502,143769,GLI063020,GLI063020,25.08,Payroll Accrual
GLI,6/30/2020,12501,143769,GLI063020,GLI063020,25.08,Payroll Accrual
GLI,6/30/2020,12212,143769,GLI063020,GLI063020,184.96,Payroll Accrual
GLI,6/30/2020,12202C,143769,GLI063020,GLI063020,327.89,Payroll Accrual
GLI,6/30/2020,12201C,143769,GLI063020,GLI063020,327.89,Payroll Accrual
GLI,6/30/2020,12924,143659,GLI063020,GLI063020,13.54,Payroll Accrual
GLI,6/30/2020,12524,143659,GLI063020,GLI063020,69.07,Payroll Accrual
GLI,6/30/2020,124724,143659,GLI063020,GLI063020,902.85,Payroll Accrual
GLI,6/30/2020,12524,143298,GLI063020,GLI063020,10.8,Payroll Accrual
GLI,6/30/2020,12505,143298,GLI063020,GLI063020,10.8,Payroll Accrual
GLI,6/30/2020,12504,143298,GLI063020,GLI063020,10.8,Payroll Accrual
GLI,6/30/2020,12502,143298,GLI063020,GLI063020,10.8,Payroll Accrual
GLI,6/30/2020,12501,143298,GLI063020,GLI063020,10.8,Payroll Accrual
GLI,6/30/2020,12324F,143298,GLI063020,GLI063020,141.05,Payroll Accrual
GLI,6/30/2020,12305F,143298,GLI063020,GLI063020,141.05,Payroll Accrual
GLI,6/30/2020,12304F,143298,GLI063020,GLI063020,141.05,Payroll Accrual
GLI,6/30/2020,12302F,143298,GLI063020,GLI063020,141.05,Payroll Accrual
GLI,6/30/2020,12301F,143298,GLI063020,GLI063020,141.05,Payroll Accrual
GLI,6/30/2020,12505,141069,GLI063020,GLI063020,131.35,Payroll Accrual
GLI,6/30/2020,12305B,141069,GLI063020,GLI063020,1754.19,Payroll Accrual
GLI,6/30/2020,12504,141060,GLI063020,GLI063020,294.32,Payroll Accrual
GLI,6/30/2020,12304B,141060,GLI063020,GLI063020,3889.48,Payroll Accrual
GLI,6/30/2020,12501,140882,GLI063020,GLI063020,9.24,Payroll Accrual
GLI,6/30/2020,11301C,140882,GLI063020,GLI063020,120.8,Payroll Accrual
GLI,6/30/2020,12904,140790,GLI063020,GLI063020,39.32,Payroll Accrual
GLI,6/30/2020,12504,140790,GLI063020,GLI063020,147.47,Payroll Accrual
GLI,6/30/2020,124704,140790,GLI063020,GLI063020,1966.16,Payroll Accrual
GLI,6/30/2020,12506,139856,GLI063020,GLI063020,65.54,Payroll Accrual
GLI,6/30/2020,12306B,139856,GLI063020,GLI063020,899.04,Payroll Accrual
GLI,6/30/2020,12506,139846,GLI063020,GLI063020,53.56,Payroll Accrual
GLI,6/30/2020,12306C,139846,GLI063020,GLI063020,700.14,Payroll Accrual
GLI,6/30/2020,12503,139475,GLI063020,GLI063020,75.32,Payroll Accrual
GLI,6/30/2020,12303,139475,GLI063020,GLI063020,1071.08,Payroll Accrual
GLI,6/30/2020,12527,138945,GLI063020,GLI063020,22.11,Payroll Accrual
GLI,6/30/2020,12327,138945,GLI063020,GLI063020,289.08,Payroll Accrual
GLI,6/30/2020,12516,138380,GLI063020,GLI063020,34.7,Payroll Accrual
GLI,6/30/2020,12416,138380,GLI063020,GLI063020,120,Payroll Accrual
GLI,6/30/2020,12316,138380,GLI063020,GLI063020,566.85,Payroll Accrual
GLI,6/30/2020,12501,13815,GLI063020,GLI063020,36.72,Payroll Accrual
GLI,6/30/2020,11301C,13815,GLI063020,GLI063020,480,Payroll Accrual
GLI,6/30/2020,12504,137854,GLI063020,GLI063020,62.77,Payroll Accrual
GLI,6/30/2020,12304D,137854,GLI063020,GLI063020,862.81,Payroll Accrual
GLI,6/30/2020,12504,137837,GLI063020,GLI063020,124.25,Payroll Accrual
GLI,6/30/2020,12304D,137837,GLI063020,GLI063020,1754.77,Payroll Accrual
GLI,6/30/2020,12506,137593,GLI063020,GLI063020,8.13,Payroll Accrual
GLI,6/30/2020,12505,137593,GLI063020,GLI063020,8.13,Payroll Accrual
GLI,6/30/2020,12504,137593,GLI063020,GLI063020,8.13,Payroll Accrual
GLI,6/30/2020,12502,137593,GLI063020,GLI063020,8.13,Payroll Accrual
GLI,6/30/2020,12501,137593,GLI063020,GLI063020,8.13,Payroll Accrual
GLI,6/30/2020,12206B,137593,GLI063020,GLI063020,131.35,Payroll Accrual
GLI,6/30/2020,12205B,137593,GLI063020,GLI063020,131.35,Payroll Accrual
GLI,6/30/2020,12204B,137593,GLI063020,GLI063020,131.35,Payroll Accrual
GLI,6/30/2020,12202B,137593,GLI063020,GLI063020,131.35,Payroll Accrual
GLI,6/30/2020,12201B,137593,GLI063020,GLI063020,131.35,Payroll Accrual
GLI,6/30/2020,12503,137495,GLI063020,GLI063020,30.32,Payroll Accrual
GLI,6/30/2020,12303,137495,GLI063020,GLI063020,396.36,Payroll Accrual
GLI,6/30/2020,12504,13725,GLI063020,GLI063020,177.8,Payroll Accrual
GLI,6/30/2020,124704,13725,GLI063020,GLI063020,2853.27,Payroll Accrual
GLI,6/30/2020,12905,137101,GLI063020,GLI063020,14.86,Payroll Accrual
GLI,6/30/2020,12505,137101,GLI063020,GLI063020,75.37,Payroll Accrual
GLI,6/30/2020,124703,137101,GLI063020,GLI063020,990.36,Payroll Accrual
GLI,6/30/2020,12503,136942,GLI063020,GLI063020,38.18,Payroll Accrual
GLI,6/30/2020,124723,136942,GLI063020,GLI063020,498.95,Payroll Accrual
GLI,6/30/2020,12904,136170,GLI063020,GLI063020,24.76,Payroll Accrual
GLI,6/30/2020,12504,136170,GLI063020,GLI063020,168.32,Payroll Accrual
GLI,6/30/2020,124704,136170,GLI063020,GLI063020,2476.04,Payroll Accrual
GLI,6/30/2020,12903,135987,GLI063020,GLI063020,10.97,Payroll Accrual
GLI,6/30/2020,12503,135987,GLI063020,GLI063020,55.92,Payroll Accrual
GLI,6/30/2020,124723,135987,GLI063020,GLI063020,730.95,Payroll Accrual
GLI,6/30/2020,12505,135770,GLI063020,GLI063020,108.42,Payroll Accrual
GLI,6/30/2020,124703,135770,GLI063020,GLI063020,1417.29,Payroll Accrual
GLI,6/30/2020,12503,135289,GLI063020,GLI063020,15.14,Payroll Accrual
GLI,6/30/2020,124723,135289,GLI063020,GLI063020,197.93,Payroll Accrual
GLI,6/30/2020,12904,132987,GLI063020,GLI063020,21.44,Payroll Accrual
GLI,6/30/2020,12504,132987,GLI063020,GLI063020,107.41,Payroll Accrual
GLI,6/30/2020,12304D,132987,GLI063020,GLI063020,1429.14,Payroll Accrual
GLI,6/30/2020,12506,132785,GLI063020,GLI063020,8.76,Payroll Accrual
GLI,6/30/2020,12505,132785,GLI063020,GLI063020,8.76,Payroll Accrual
GLI,6/30/2020,12504,132785,GLI063020,GLI063020,8.76,Payroll Accrual
GLI,6/30/2020,12502,132785,GLI063020,GLI063020,8.76,Payroll Accrual
GLI,6/30/2020,12501,132785,GLI063020,GLI063020,8.76,Payroll Accrual
GLI,6/30/2020,12206B,132785,GLI063020,GLI063020,114.48,Payroll Accrual
GLI,6/30/2020,12205B,132785,GLI063020,GLI063020,114.48,Payroll Accrual
GLI,6/30/2020,12204B,132785,GLI063020,GLI063020,114.48,Payroll Accrual
GLI,6/30/2020,12202B,132785,GLI063020,GLI063020,114.48,Payroll Accrual
GLI,6/30/2020,12201B,132785,GLI063020,GLI063020,114.48,Payroll Accrual
GLI,6/30/2020,12503,132584,GLI063020,GLI063020,45.08,Payroll Accrual
GLI,6/30/2020,124723,132584,GLI063020,GLI063020,589.37,Payroll Accrual
GLI,6/30/2020,12515,132500,GLI063020,GLI063020,29.69,Payroll Accrual
GLI,6/30/2020,12506,132500,GLI063020,GLI063020,20.24,Payroll Accrual
GLI,6/30/2020,12505,132500,GLI063020,GLI063020,20.24,Payroll Accrual
GLI,6/30/2020,12504,132500,GLI063020,GLI063020,21.59,Payroll Accrual
GLI,6/30/2020,12502,132500,GLI063020,GLI063020,21.59,Payroll Accrual
GLI,6/30/2020,12501,132500,GLI063020,GLI063020,21.59,Payroll Accrual
GLI,6/30/2020,12315,132500,GLI063020,GLI063020,396.51,Payroll Accrual
GLI,6/30/2020,12306,132500,GLI063020,GLI063020,270.35,Payroll Accrual
GLI,6/30/2020,12305,132500,GLI063020,GLI063020,270.35,Payroll Accrual
GLI,6/30/2020,12304,132500,GLI063020,GLI063020,288.37,Payroll Accrual
GLI,6/30/2020,12302,132500,GLI063020,GLI063020,288.37,Payroll Accrual
GLI,6/30/2020,12301,132500,GLI063020,GLI063020,288.37,Payroll Accrual
GLI,6/30/2020,12503,132489,GLI063020,GLI063020,44.88,Payroll Accrual
GLI,6/30/2020,124723,132489,GLI063020,GLI063020,586.7,Payroll Accrual
GLI,6/30/2020,12904,131370,GLI063020,GLI063020,25.77,Payroll Accrual
GLI,6/30/2020,12504,131370,GLI063020,GLI063020,97.06,Payroll Accrual
GLI,6/30/2020,124704,131370,GLI063020,GLI063020,1288.63,Payroll Accrual
GLI,6/30/2020,12924,131315,GLI063020,GLI063020,29.08,Payroll Accrual
GLI,6/30/2020,12524,131315,GLI063020,GLI063020,109.3,Payroll Accrual
GLI,6/30/2020,124724,131315,GLI063020,GLI063020,1453.9,Payroll Accrual
GLI,6/30/2020,12902,126200,GLI063020,GLI063020,11.06,Payroll Accrual
GLI,6/30/2020,12901,126200,GLI063020,GLI063020,11.06,Payroll Accrual
GLI,6/30/2020,12502,126200,GLI063020,GLI063020,56.4,Payroll Accrual
GLI,6/30/2020,12501,126200,GLI063020,GLI063020,56.4,Payroll Accrual
GLI,6/30/2020,12202A,126200,GLI063020,GLI063020,737.31,Payroll Accrual
GLI,6/30/2020,12201A,126200,GLI063020,GLI063020,737.31,Payroll Accrual
GLI,6/30/2020,12503,125028,GLI063020,GLI063020,64.83,Payroll Accrual
GLI,6/30/2020,124723,125028,GLI063020,GLI063020,847.49,Payroll Accrual
GLI,6/30/2020,12524,124101,GLI063020,GLI063020,56.1,Payroll Accrual
GLI,6/30/2020,12224,124101,GLI063020,GLI063020,750.47,Payroll Accrual
GLI,6/30/2020,12527,123578,GLI063020,GLI063020,47.41,Payroll Accrual
GLI,6/30/2020,12327,123578,GLI063020,GLI063020,619.68,Payroll Accrual
GLI,6/30/2020,12527,123564,GLI063020,GLI063020,43.76,Payroll Accrual
GLI,6/30/2020,12327,123564,GLI063020,GLI063020,572.04,Payroll Accrual
GLI,6/30/2020,12504,123525,GLI063020,GLI063020,35.58,Payroll Accrual
GLI,6/30/2020,12304B,123525,GLI063020,GLI063020,465.15,Payroll Accrual
GLI,6/30/2020,12506,123100,GLI063020,GLI063020,42.36,Payroll Accrual
GLI,6/30/2020,12505,123100,GLI063020,GLI063020,42.36,Payroll Accrual
GLI,6/30/2020,12504,123100,GLI063020,GLI063020,42.36,Payroll Accrual
GLI,6/30/2020,12502,123100,GLI063020,GLI063020,42.36,Payroll Accrual
GLI,6/30/2020,12501,123100,GLI063020,GLI063020,42.36,Payroll Accrual
GLI,6/30/2020,12106,123100,GLI063020,GLI063020,591.64,Payroll Accrual
GLI,6/30/2020,12105,123100,GLI063020,GLI063020,591.64,Payroll Accrual
GLI,6/30/2020,12104,123100,GLI063020,GLI063020,591.64,Payroll Accrual
GLI,6/30/2020,12102,123100,GLI063020,GLI063020,591.64,Payroll Accrual
GLI,6/30/2020,12101,123100,GLI063020,GLI063020,591.64,Payroll Accrual
GLI,6/30/2020,12905,122558,GLI063020,GLI063020,15.42,Payroll Accrual
GLI,6/30/2020,12505,122558,GLI063020,GLI063020,75.43,Payroll Accrual
GLI,6/30/2020,124703,122558,GLI063020,GLI063020,1028.23,Payroll Accrual
GLI,6/30/2020,12511,12236,GLI063020,GLI063020,27.1,Payroll Accrual
GLI,6/30/2020,12506,12236,GLI063020,GLI063020,19.71,Payroll Accrual
GLI,6/30/2020,12505,12236,GLI063020,GLI063020,19.71,Payroll Accrual
GLI,6/30/2020,12504,12236,GLI063020,GLI063020,19.71,Payroll Accrual
GLI,6/30/2020,12502,12236,GLI063020,GLI063020,18.47,Payroll Accrual
GLI,6/30/2020,12501,12236,GLI063020,GLI063020,18.47,Payroll Accrual
GLI,6/30/2020,12311,12236,GLI063020,GLI063020,389.9,Payroll Accrual
GLI,6/30/2020,12306H,12236,GLI063020,GLI063020,283.56,Payroll Accrual
GLI,6/30/2020,12305H,12236,GLI063020,GLI063020,283.56,Payroll Accrual
GLI,6/30/2020,12304H,12236,GLI063020,GLI063020,283.56,Payroll Accrual
GLI,6/30/2020,12302H,12236,GLI063020,GLI063020,265.84,Payroll Accrual
GLI,6/30/2020,12301H,12236,GLI063020,GLI063020,265.84,Payroll Accrual
GLI,6/30/2020,12906,122332,GLI063020,GLI063020,12.86,Payroll Accrual
GLI,6/30/2020,12506,122332,GLI063020,GLI063020,62.35,Payroll Accrual
GLI,6/30/2020,12306B,122332,GLI063020,GLI063020,857.24,Payroll Accrual
GLI,6/30/2020,12903,118520,GLI063020,GLI063020,18.4,Payroll Accrual
GLI,6/30/2020,12503,118520,GLI063020,GLI063020,92.26,Payroll Accrual
GLI,6/30/2020,12303,118520,GLI063020,GLI063020,1226.04,Payroll Accrual
GLI,6/30/2020,12501,118030,GLI063020,GLI063020,116.64,Payroll Accrual
GLI,6/30/2020,12301B,118030,GLI063020,GLI063020,1638.47,Payroll Accrual
GLI,6/30/2020,12906,118010,GLI063020,GLI063020,14.1,Payroll Accrual
GLI,6/30/2020,12506,118010,GLI063020,GLI063020,68.68,Payroll Accrual
GLI,6/30/2020,12306B,118010,GLI063020,GLI063020,940.05,Payroll Accrual
GLI,6/30/2020,12905,11732,GLI063020,GLI063020,23.12,Payroll Accrual
GLI,6/30/2020,12505,11732,GLI063020,GLI063020,84.56,Payroll Accrual
GLI,6/30/2020,12205A,11732,GLI063020,GLI063020,1155.78,Payroll Accrual
GLI,6/30/2020,12505,11660,GLI063020,GLI063020,67.32,Payroll Accrual
GLI,6/30/2020,124703,11660,GLI063020,GLI063020,922.32,Payroll Accrual
GLI,6/30/2020,12904,116185,GLI063020,GLI063020,20.57,Payroll Accrual
GLI,6/30/2020,12504,116185,GLI063020,GLI063020,77.15,Payroll Accrual
GLI,6/30/2020,124704,116185,GLI063020,GLI063020,1028.47,Payroll Accrual
GLI,6/30/2020,12506,115255,GLI063020,GLI063020,135.79,Payroll Accrual
GLI,6/30/2020,12306B,115255,GLI063020,GLI063020,1775,Payroll Accrual
GLI,6/30/2020,12906,1150920,GLI063020,GLI063020,4.47,Payroll Accrual
GLI,6/30/2020,12506,1150920,GLI063020,GLI063020,15.5,Payroll Accrual
GLI,6/30/2020,12306D,1150920,GLI063020,GLI063020,297.92,Payroll Accrual
GLI,6/30/2020,12504,115021,GLI063020,GLI063020,53.83,Payroll Accrual
GLI,6/30/2020,12304C,115021,GLI063020,GLI063020,740.81,Payroll Accrual
GLI,6/30/2020,12504,1149710,GLI063020,GLI063020,71.39,Payroll Accrual
GLI,6/30/2020,12404,1149710,GLI063020,GLI063020,120,Payroll Accrual
GLI,6/30/2020,12304D,1149710,GLI063020,GLI063020,954.75,Payroll Accrual
GLI,6/30/2020,12924,1149636,GLI063020,GLI063020,2.26,Payroll Accrual
GLI,6/30/2020,12905,1149636,GLI063020,GLI063020,2.26,Payroll Accrual
GLI,6/30/2020,12904,1149636,GLI063020,GLI063020,2.26,Payroll Accrual
GLI,6/30/2020,12902,1149636,GLI063020,GLI063020,2.26,Payroll Accrual
GLI,6/30/2020,12901,1149636,GLI063020,GLI063020,2.26,Payroll Accrual
GLI,6/30/2020,12524,1149636,GLI063020,GLI063020,4.33,Payroll Accrual
GLI,6/30/2020,12505,1149636,GLI063020,GLI063020,4.33,Payroll Accrual
GLI,6/30/2020,12504,1149636,GLI063020,GLI063020,4.33,Payroll Accrual
GLI,6/30/2020,12502,1149636,GLI063020,GLI063020,4.33,Payroll Accrual
GLI,6/30/2020,12501,1149636,GLI063020,GLI063020,4.33,Payroll Accrual
GLI,6/30/2020,12324F,1149636,GLI063020,GLI063020,150.93,Payroll Accrual
GLI,6/30/2020,12305F,1149636,GLI063020,GLI063020,150.93,Payroll Accrual
GLI,6/30/2020,12304F,1149636,GLI063020,GLI063020,150.93,Payroll Accrual
GLI,6/30/2020,12302F,1149636,GLI063020,GLI063020,150.93,Payroll Accrual
GLI,6/30/2020,12301F,1149636,GLI063020,GLI063020,150.93,Payroll Accrual
GLI,6/30/2020,12501,1149160,GLI063020,GLI063020,7.65,Payroll Accrual
GLI,6/30/2020,11301C,1149160,GLI063020,GLI063020,100,Payroll Accrual
GLI,6/30/2020,12505,1147061,GLI063020,GLI063020,90.25,Payroll Accrual
GLI,6/30/2020,124703,1147061,GLI063020,GLI063020,1216.81,Payroll Accrual
GLI,6/30/2020,12505,1146991,GLI063020,GLI063020,80.93,Payroll Accrual
GLI,6/30/2020,124703,1146991,GLI063020,GLI063020,1157.38,Payroll Accrual
GLI,6/30/2020,12504,1146989,GLI063020,GLI063020,89.1,Payroll Accrual
GLI,6/30/2020,124704,1146989,GLI063020,GLI063020,1206.94,Payroll Accrual
GLI,6/30/2020,12506,1144265,GLI063020,GLI063020,91.02,Payroll Accrual
GLI,6/30/2020,12306B,1144265,GLI063020,GLI063020,1267.02,Payroll Accrual
GLI,6/30/2020,12504,1140870,GLI063020,GLI063020,213.4,Payroll Accrual
GLI,6/30/2020,12304B,1140870,GLI063020,GLI063020,2789.6,Payroll Accrual
GLI,6/30/2020,12904,1137590,GLI063020,GLI063020,30.11,Payroll Accrual
GLI,6/30/2020,12504,1137590,GLI063020,GLI063020,111.92,Payroll Accrual
GLI,6/30/2020,124704,1137590,GLI063020,GLI063020,1505.35,Payroll Accrual
GLI,6/30/2020,12404,1137590,GLI063020,GLI063020,472,Payroll Accrual
GLI,6/30/2020,12904,1135410,GLI063020,GLI063020,19.15,Payroll Accrual
GLI,6/30/2020,12504,1135410,GLI063020,GLI063020,130.99,Payroll Accrual
GLI,6/30/2020,124704,1135410,GLI063020,GLI063020,1915.13,Payroll Accrual
GLI,6/30/2020,12404,1135410,GLI063020,GLI063020,238,Payroll Accrual
GLI,6/30/2020,12511,1135260,GLI063020,GLI063020,29.4,Payroll Accrual
GLI,6/30/2020,12506,1135260,GLI063020,GLI063020,21.38,Payroll Accrual
GLI,6/30/2020,12505,1135260,GLI063020,GLI063020,21.38,Payroll Accrual
GLI,6/30/2020,12504,1135260,GLI063020,GLI063020,21.38,Payroll Accrual
GLI,6/30/2020,12502,1135260,GLI063020,GLI063020,20.05,Payroll Accrual
GLI,6/30/2020,12501,1135260,GLI063020,GLI063020,20.05,Payroll Accrual
GLI,6/30/2020,12311,1135260,GLI063020,GLI063020,420.54,Payroll Accrual
GLI,6/30/2020,12306H,1135260,GLI063020,GLI063020,305.85,Payroll Accrual
GLI,6/30/2020,12305H,1135260,GLI063020,GLI063020,305.85,Payroll Accrual
GLI,6/30/2020,12304H,1135260,GLI063020,GLI063020,305.85,Payroll Accrual
GLI,6/30/2020,12302H,1135260,GLI063020,GLI063020,286.73,Payroll Accrual
GLI,6/30/2020,12301H,1135260,GLI063020,GLI063020,286.73,Payroll Accrual
GLI,6/30/2020,12506,1133727,GLI063020,GLI063020,30.27,Payroll Accrual
GLI,6/30/2020,12306D,1133727,GLI063020,GLI063020,395.68,Payroll Accrual
GLI,6/30/2020,12506,1132205,GLI063020,GLI063020,48,Payroll Accrual
GLI,6/30/2020,12306D,1132205,GLI063020,GLI063020,702.45,Payroll Accrual
GLI,6/30/2020,12527,113085,GLI063020,GLI063020,94.87,Payroll Accrual
GLI,6/30/2020,12127,113085,GLI063020,GLI063020,1310.77,Payroll Accrual
GLI,6/30/2020,12504,1130700,GLI063020,GLI063020,54.18,Payroll Accrual
GLI,6/30/2020,12304C,1130700,GLI063020,GLI063020,716.89,Payroll Accrual
GLI,6/30/2020,12506,113020,GLI063020,GLI063020,132.69,Payroll Accrual
GLI,6/30/2020,12306B,113020,GLI063020,GLI063020,1802.31,Payroll Accrual
GLI,6/30/2020,12501,113011,GLI063020,GLI063020,12.62,Payroll Accrual
GLI,6/30/2020,11301C,113011,GLI063020,GLI063020,165,Payroll Accrual
GLI,6/30/2020,12506,1130090,GLI063020,GLI063020,83.05,Payroll Accrual
GLI,6/30/2020,12306B,1130090,GLI063020,GLI063020,1110.8,Payroll Accrual
GLI,6/30/2020,12927,1129560,GLI063020,GLI063020,10.62,Payroll Accrual
GLI,6/30/2020,12527,1129560,GLI063020,GLI063020,54.17,Payroll Accrual
GLI,6/30/2020,12327,1129560,GLI063020,GLI063020,707.99,Payroll Accrual
GLI,6/30/2020,12516,1126060,GLI063020,GLI063020,79.14,Payroll Accrual
GLI,6/30/2020,12316,1126060,GLI063020,GLI063020,1054.56,Payroll Accrual
GLI,6/30/2020,12505,1126040,GLI063020,GLI063020,140.84,Payroll Accrual
GLI,6/30/2020,124703,1126040,GLI063020,GLI063020,1911.64,Payroll Accrual
GLI,6/30/2020,12505,1125565,GLI063020,GLI063020,92.26,Payroll Accrual
GLI,6/30/2020,124703,1125565,GLI063020,GLI063020,1347.22,Payroll Accrual
GLI,6/30/2020,12506,1124875,GLI063020,GLI063020,85.53,Payroll Accrual
GLI,6/30/2020,12306B,1124875,GLI063020,GLI063020,1149,Payroll Accrual
GLI,6/30/2020,12504,1124436,GLI063020,GLI063020,175.48,Payroll Accrual
GLI,6/30/2020,124704,1124436,GLI063020,GLI063020,2561.37,Payroll Accrual
GLI,6/30/2020,12404,1124436,GLI063020,GLI063020,1857.12,Payroll Accrual
GLI,6/30/2020,12904,1124400,GLI063020,GLI063020,14.7,Payroll Accrual
GLI,6/30/2020,12504,1124400,GLI063020,GLI063020,72.12,Payroll Accrual
GLI,6/30/2020,124704,1124400,GLI063020,GLI063020,979.88,Payroll Accrual
GLI,6/30/2020,12906,1123340,GLI063020,GLI063020,28.4,Payroll Accrual
GLI,6/30/2020,12905,1123340,GLI063020,GLI063020,26.22,Payroll Accrual
GLI,6/30/2020,12514,1123340,GLI063020,GLI063020,59.3,Payroll Accrual
GLI,6/30/2020,12506,1123340,GLI063020,GLI063020,6.64,Payroll Accrual
GLI,6/30/2020,12505,1123340,GLI063020,GLI063020,6.13,Payroll Accrual
GLI,6/30/2020,12504,1123340,GLI063020,GLI063020,51.22,Payroll Accrual
GLI,6/30/2020,12502,1123340,GLI063020,GLI063020,45.83,Payroll Accrual
GLI,6/30/2020,12501,1123340,GLI063020,GLI063020,45.83,Payroll Accrual
GLI,6/30/2020,12214,1123340,GLI063020,GLI063020,781,Payroll Accrual
GLI,6/30/2020,12206C,1123340,GLI063020,GLI063020,461.5,Payroll Accrual
GLI,6/30/2020,12205C,1123340,GLI063020,GLI063020,426,Payroll Accrual
GLI,6/30/2020,12204C,1123340,GLI063020,GLI063020,674.5,Payroll Accrual
GLI,6/30/2020,12202C,1123340,GLI063020,GLI063020,603.5,Payroll Accrual
GLI,6/30/2020,12201C,1123340,GLI063020,GLI063020,603.5,Payroll Accrual
GLI,6/30/2020,12924,1122352,GLI063020,GLI063020,19.26,Payroll Accrual
GLI,6/30/2020,12524,1122352,GLI063020,GLI063020,95.39,Payroll Accrual
GLI,6/30/2020,124724,1122352,GLI063020,GLI063020,1284,Payroll Accrual
GLI,6/30/2020,12505,1122342,GLI063020,GLI063020,200.53,Payroll Accrual
GLI,6/30/2020,12105,1122342,GLI063020,GLI063020,2621.54,Payroll Accrual
GLI,6/30/2020,12927,1122110,GLI063020,GLI063020,52.43,Payroll Accrual
GLI,6/30/2020,12527,1122110,GLI063020,GLI063020,189.34,Payroll Accrual
GLI,6/30/2020,12327,1122110,GLI063020,GLI063020,2621.54,Payroll Accrual
GLI,6/30/2020,12501,1121240,GLI063020,GLI063020,4.59,Payroll Accrual
GLI,6/30/2020,11301C,1121240,GLI063020,GLI063020,60,Payroll Accrual
GLI,6/30/2020,12506,1120225,GLI063020,GLI063020,42.54,Payroll Accrual
GLI,6/30/2020,12505,1120225,GLI063020,GLI063020,42.54,Payroll Accrual
GLI,6/30/2020,12504,1120225,GLI063020,GLI063020,42.54,Payroll Accrual
GLI,6/30/2020,12502,1120225,GLI063020,GLI063020,42.54,Payroll Accrual
GLI,6/30/2020,12501,1120225,GLI063020,GLI063020,42.54,Payroll Accrual
GLI,6/30/2020,12006,1120225,GLI063020,GLI063020,591.64,Payroll Accrual
GLI,6/30/2020,12005,1120225,GLI063020,GLI063020,591.64,Payroll Accrual
GLI,6/30/2020,12004,1120225,GLI063020,GLI063020,591.64,Payroll Accrual
GLI,6/30/2020,12002,1120225,GLI063020,GLI063020,591.64,Payroll Accrual
GLI,6/30/2020,12001,1120225,GLI063020,GLI063020,591.64,Payroll Accrual
GLI,6/30/2020,12906,1120120,GLI063020,GLI063020,15.13,Payroll Accrual
GLI,6/30/2020,12506,1120120,GLI063020,GLI063020,69.23,Payroll Accrual
GLI,6/30/2020,12306B,1120120,GLI063020,GLI063020,1008.7,Payroll Accrual
GLI,6/30/2020,12927,1120110,GLI063020,GLI063020,21.3,Payroll Accrual
GLI,6/30/2020,12527,1120110,GLI063020,GLI063020,106.62,Payroll Accrual
GLI,6/30/2020,12127,1120110,GLI063020,GLI063020,1420,Payroll Accrual
GLI,6/30/2020,12505,1118722,GLI063020,GLI063020,128.05,Payroll Accrual
GLI,6/30/2020,124703,1118722,GLI063020,GLI063020,1728.02,Payroll Accrual
GLI,6/30/2020,12904,1117960,GLI063020,GLI063020,27.31,Payroll Accrual
GLI,6/30/2020,12504,1117960,GLI063020,GLI063020,93.23,Payroll Accrual
GLI,6/30/2020,124704,1117960,GLI063020,GLI063020,1365.39,Payroll Accrual
GLI,6/30/2020,12504,1117901,GLI063020,GLI063020,155.8,Payroll Accrual
GLI,6/30/2020,124704,1117901,GLI063020,GLI063020,2036.65,Payroll Accrual
GLI,6/30/2020,12904,1117842,GLI063020,GLI063020,40.53,Payroll Accrual
GLI,6/30/2020,12504,1117842,GLI063020,GLI063020,205.14,Payroll Accrual
GLI,6/30/2020,12304B,1117842,GLI063020,GLI063020,2701.6,Payroll Accrual
GLI,6/30/2020,12503,1117600,GLI063020,GLI063020,89.71,Payroll Accrual
GLI,6/30/2020,12303,1117600,GLI063020,GLI063020,1428.2,Payroll Accrual
GLI,6/30/2020,12524,1116800,GLI063020,GLI063020,-1.53,Payroll Accrual
GLI,6/30/2020,12905,1114921,GLI063020,GLI063020,22.79,Payroll Accrual
GLI,6/30/2020,12505,1114921,GLI063020,GLI063020,86.14,Payroll Accrual
GLI,6/30/2020,124703,1114921,GLI063020,GLI063020,1519.63,Payroll Accrual
GLI,6/30/2020,12906,1114831,GLI063020,GLI063020,6.08,Payroll Accrual
GLI,6/30/2020,12506,1114831,GLI063020,GLI063020,31.01,Payroll Accrual
GLI,6/30/2020,12306D,1114831,GLI063020,GLI063020,405.3,Payroll Accrual
GLI,6/30/2020,12504,1113940,GLI063020,GLI063020,94.79,Payroll Accrual
GLI,6/30/2020,124704,1113940,GLI063020,GLI063020,1283.98,Payroll Accrual
GLI,6/30/2020,12501,111250,GLI063020,GLI063020,6.12,Payroll Accrual
GLI,6/30/2020,11301C,111250,GLI063020,GLI063020,80,Payroll Accrual
GLI,6/30/2020,12924,1112411,GLI063020,GLI063020,13.23,Payroll Accrual
GLI,6/30/2020,12524,1112411,GLI063020,GLI063020,67.47,Payroll Accrual
GLI,6/30/2020,124724,1112411,GLI063020,GLI063020,882,Payroll Accrual
GLI,6/30/2020,12904,111210,GLI063020,GLI063020,20.05,Payroll Accrual
GLI,6/30/2020,12504,111210,GLI063020,GLI063020,94.66,Payroll Accrual
GLI,6/30/2020,124704,111210,GLI063020,GLI063020,1336.86,Payroll Accrual
GLI,6/30/2020,12505,1111325,GLI063020,GLI063020,85.78,Payroll Accrual
GLI,6/30/2020,12105,1111325,GLI063020,GLI063020,1146.93,Payroll Accrual
GLI,6/30/2020,12503,1110800,GLI063020,GLI063020,7.12,Payroll Accrual
GLI,6/30/2020,12303,1110800,GLI063020,GLI063020,93.04,Payroll Accrual
GLI,6/30/2020,12511,1110660,GLI063020,GLI063020,14.36,Payroll Accrual
GLI,6/30/2020,12506,1110660,GLI063020,GLI063020,9.56,Payroll Accrual
GLI,6/30/2020,12505,1110660,GLI063020,GLI063020,9.56,Payroll Accrual
GLI,6/30/2020,12504,1110660,GLI063020,GLI063020,9.56,Payroll Accrual
GLI,6/30/2020,12502,1110660,GLI063020,GLI063020,8.77,Payroll Accrual
GLI,6/30/2020,12501,1110660,GLI063020,GLI063020,8.77,Payroll Accrual
GLI,6/30/2020,12311,1110660,GLI063020,GLI063020,230.08,Payroll Accrual
GLI,6/30/2020,12306H,1110660,GLI063020,GLI063020,167.33,Payroll Accrual
GLI,6/30/2020,12305H,1110660,GLI063020,GLI063020,167.33,Payroll Accrual
GLI,6/30/2020,12304H,1110660,GLI063020,GLI063020,167.33,Payroll Accrual
GLI,6/30/2020,12302H,1110660,GLI063020,GLI063020,156.88,Payroll Accrual
GLI,6/30/2020,12301H,1110660,GLI063020,GLI063020,156.88,Payroll Accrual
GLI,6/30/2020,12505,1109700,GLI063020,GLI063020,120.5,Payroll Accrual
GLI,6/30/2020,12305B,1109700,GLI063020,GLI063020,1612.38,Payroll Accrual
GLI,6/30/2020,12905,1108200,GLI063020,GLI063020,22.58,Payroll Accrual
GLI,6/30/2020,12505,1108200,GLI063020,GLI063020,115.12,Payroll Accrual
GLI,6/30/2020,12305B,1108200,GLI063020,GLI063020,1504.94,Payroll Accrual
GLI,6/30/2020,12505,1107950,GLI063020,GLI063020,95.99,Payroll Accrual
GLI,6/30/2020,124703,1107950,GLI063020,GLI063020,1372.5,Payroll Accrual
GLI,6/30/2020,12904,1106421,GLI063020,GLI063020,44.17,Payroll Accrual
GLI,6/30/2020,12504,1106421,GLI063020,GLI063020,152.52,Payroll Accrual
GLI,6/30/2020,124704,1106421,GLI063020,GLI063020,2208.36,Payroll Accrual
GLI,6/30/2020,12905,1106400,GLI063020,GLI063020,15.18,Payroll Accrual
GLI,6/30/2020,12505,1106400,GLI063020,GLI063020,73.25,Payroll Accrual
GLI,6/30/2020,124703,1106400,GLI063020,GLI063020,1011.78,Payroll Accrual
GLI,6/30/2020,12904,1106399,GLI063020,GLI063020,49.38,Payroll Accrual
GLI,6/30/2020,12504,1106399,GLI063020,GLI063020,187.34,Payroll Accrual
GLI,6/30/2020,124704,1106399,GLI063020,GLI063020,2468.83,Payroll Accrual
GLI,6/30/2020,12404,1106399,GLI063020,GLI063020,1547.2,Payroll Accrual
GLI,6/30/2020,12524,1103065,GLI063020,GLI063020,11.39,Payroll Accrual
GLI,6/30/2020,12505,1103065,GLI063020,GLI063020,11.39,Payroll Accrual
GLI,6/30/2020,12504,1103065,GLI063020,GLI063020,11.39,Payroll Accrual
GLI,6/30/2020,12502,1103065,GLI063020,GLI063020,11.39,Payroll Accrual
GLI,6/30/2020,12501,1103065,GLI063020,GLI063020,11.39,Payroll Accrual
GLI,6/30/2020,12324F,1103065,GLI063020,GLI063020,203.92,Payroll Accrual
GLI,6/30/2020,12305F,1103065,GLI063020,GLI063020,203.92,Payroll Accrual
GLI,6/30/2020,12304F,1103065,GLI063020,GLI063020,203.92,Payroll Accrual
GLI,6/30/2020,12302F,1103065,GLI063020,GLI063020,203.92,Payroll Accrual
GLI,6/30/2020,12301F,1103065,GLI063020,GLI063020,203.92,Payroll Accrual
GLI,6/30/2020,12504,1102198,GLI063020,GLI063020,80.8,Payroll Accrual
GLI,6/30/2020,12503,1102198,GLI063020,GLI063020,80.8,Payroll Accrual
GLI,6/30/2020,12104,1102198,GLI063020,GLI063020,1069.23,Payroll Accrual
GLI,6/30/2020,12103,1102198,GLI063020,GLI063020,1069.23,Payroll Accrual
GLI,6/30/2020,12504,1102195,GLI063020,GLI063020,185.99,Payroll Accrual
GLI,6/30/2020,12104,1102195,GLI063020,GLI063020,2457.69,Payroll Accrual
GLI,6/30/2020,12905,1100625,GLI063020,GLI063020,12.77,Payroll Accrual
GLI,6/30/2020,12505,1100625,GLI063020,GLI063020,65.12,Payroll Accrual
GLI,6/30/2020,124703,1100625,GLI063020,GLI063020,851.27,Payroll Accrual
GLI,6/30/2020,12503,10568,GLI063020,GLI063020,41.58,Payroll Accrual
GLI,6/30/2020,124723,10568,GLI063020,GLI063020,580.72,Payroll Accrual
