journal,date,account,control,document,reference,amount,description
GLI,8/31/2016,232103,GLI083116,GLI083116,GLI083116,-40385.62,Payroll Accrual
GLI,8/31/2016,132101,GLI083116,GLI083116,GLI083116,-351557.31,Payroll Accrual
GLI,8/31/2016,12006,1130426,GLI083116,GLI083116,1224,Payroll Accrual
GLI,8/31/2016,12005,1130426,GLI083116,GLI083116,1224,Payroll Accrual
GLI,8/31/2016,12004,1130426,GLI083116,GLI083116,1224,Payroll Accrual
GLI,8/31/2016,12002,1130426,GLI083116,GLI083116,1224,Payroll Accrual
GLI,8/31/2016,12001,1130426,GLI083116,GLI083116,1104.01,Payroll Accrual
GLI,8/31/2016,22910,291600,GLI083116,GLI083116,1.95,Payroll Accrual
GLI,8/31/2016,22906,291600,GLI083116,GLI083116,4.05,Payroll Accrual
GLI,8/31/2016,22904,291600,GLI083116,GLI083116,4.05,Payroll Accrual
GLI,8/31/2016,22902,291600,GLI083116,GLI083116,4.05,Payroll Accrual
GLI,8/31/2016,22901,291600,GLI083116,GLI083116,2.11,Payroll Accrual
GLI,8/31/2016,22510,291600,GLI083116,GLI083116,2.14,Payroll Accrual
GLI,8/31/2016,22506,291600,GLI083116,GLI083116,10.2,Payroll Accrual
GLI,8/31/2016,22504,291600,GLI083116,GLI083116,10.2,Payroll Accrual
GLI,8/31/2016,22502,291600,GLI083116,GLI083116,10.2,Payroll Accrual
GLI,8/31/2016,22501,291600,GLI083116,GLI083116,2.76,Payroll Accrual
GLI,8/31/2016,22210B,291600,GLI083116,GLI083116,97.29,Payroll Accrual
GLI,8/31/2016,22206B,291600,GLI083116,GLI083116,202.7,Payroll Accrual
GLI,8/31/2016,22204B,291600,GLI083116,GLI083116,202.7,Payroll Accrual
GLI,8/31/2016,22202B,291600,GLI083116,GLI083116,202.7,Payroll Accrual
GLI,8/31/2016,22201B,291600,GLI083116,GLI083116,105.4,Payroll Accrual
GLI,8/31/2016,22506,288000,GLI083116,GLI083116,58.98,Payroll Accrual
GLI,8/31/2016,22306,288000,GLI083116,GLI083116,771,Payroll Accrual
GLI,8/31/2016,22904,285800,GLI083116,GLI083116,68.83,Payroll Accrual
GLI,8/31/2016,22504,285800,GLI083116,GLI083116,348.49,Payroll Accrual
GLI,8/31/2016,22404,285800,GLI083116,GLI083116,80,Payroll Accrual
GLI,8/31/2016,22304B,285800,GLI083116,GLI083116,4508.48,Payroll Accrual
GLI,8/31/2016,22503,284730,GLI083116,GLI083116,46.58,Payroll Accrual
GLI,8/31/2016,224723,284730,GLI083116,GLI083116,670.56,Payroll Accrual
GLI,8/31/2016,22504,282715,GLI083116,GLI083116,87.06,Payroll Accrual
GLI,8/31/2016,224704,282715,GLI083116,GLI083116,1199.85,Payroll Accrual
GLI,8/31/2016,22503,282713,GLI083116,GLI083116,63.35,Payroll Accrual
GLI,8/31/2016,224723,282713,GLI083116,GLI083116,828.12,Payroll Accrual
GLI,8/31/2016,22504,279630,GLI083116,GLI083116,117.65,Payroll Accrual
GLI,8/31/2016,224704,279630,GLI083116,GLI083116,1217.92,Payroll Accrual
GLI,8/31/2016,22404,279630,GLI083116,GLI083116,320,Payroll Accrual
GLI,8/31/2016,22906,274225,GLI083116,GLI083116,15.38,Payroll Accrual
GLI,8/31/2016,22506,274225,GLI083116,GLI083116,67.06,Payroll Accrual
GLI,8/31/2016,22406,274225,GLI083116,GLI083116,144,Payroll Accrual
GLI,8/31/2016,22306,274225,GLI083116,GLI083116,881.64,Payroll Accrual
GLI,8/31/2016,22904,273315,GLI083116,GLI083116,28.41,Payroll Accrual
GLI,8/31/2016,22504,273315,GLI083116,GLI083116,108.71,Payroll Accrual
GLI,8/31/2016,224704,273315,GLI083116,GLI083116,1420.88,Payroll Accrual
GLI,8/31/2016,22506,264220,GLI083116,GLI083116,54.99,Payroll Accrual
GLI,8/31/2016,22306,264220,GLI083116,GLI083116,788.13,Payroll Accrual
GLI,8/31/2016,22503,263840,GLI083116,GLI083116,63.53,Payroll Accrual
GLI,8/31/2016,224723,263840,GLI083116,GLI083116,830.52,Payroll Accrual
GLI,8/31/2016,22903,241310,GLI083116,GLI083116,2.08,Payroll Accrual
GLI,8/31/2016,22503,241310,GLI083116,GLI083116,10.59,Payroll Accrual
GLI,8/31/2016,224723,241310,GLI083116,GLI083116,138.46,Payroll Accrual
GLI,8/31/2016,22903,241120,GLI083116,GLI083116,14.59,Payroll Accrual
GLI,8/31/2016,22503,241120,GLI083116,GLI083116,68.81,Payroll Accrual
GLI,8/31/2016,22303,241120,GLI083116,GLI083116,972.68,Payroll Accrual
GLI,8/31/2016,22903,241085,GLI083116,GLI083116,22.79,Payroll Accrual
GLI,8/31/2016,22503,241085,GLI083116,GLI083116,115.03,Payroll Accrual
GLI,8/31/2016,22303,241085,GLI083116,GLI083116,1519.47,Payroll Accrual
GLI,8/31/2016,22504,230810,GLI083116,GLI083116,20.09,Payroll Accrual
GLI,8/31/2016,22304C,230810,GLI083116,GLI083116,262.53,Payroll Accrual
GLI,8/31/2016,22504,230601,GLI083116,GLI083116,185.6,Payroll Accrual
GLI,8/31/2016,22104,230601,GLI083116,GLI083116,2551.74,Payroll Accrual
GLI,8/31/2016,22503,223050,GLI083116,GLI083116,43.1,Payroll Accrual
GLI,8/31/2016,224723,223050,GLI083116,GLI083116,563.36,Payroll Accrual
GLI,8/31/2016,22910,2141225,GLI083116,GLI083116,3.3,Payroll Accrual
GLI,8/31/2016,22902,2141225,GLI083116,GLI083116,3.3,Payroll Accrual
GLI,8/31/2016,22901,2141225,GLI083116,GLI083116,3.4,Payroll Accrual
GLI,8/31/2016,22510,2141225,GLI083116,GLI083116,9.8,Payroll Accrual
GLI,8/31/2016,22502,2141225,GLI083116,GLI083116,9.8,Payroll Accrual
GLI,8/31/2016,22501,2141225,GLI083116,GLI083116,10.3,Payroll Accrual
GLI,8/31/2016,22310,2141225,GLI083116,GLI083116,219.8,Payroll Accrual
GLI,8/31/2016,22302,2141225,GLI083116,GLI083116,219.8,Payroll Accrual
GLI,8/31/2016,22301,2141225,GLI083116,GLI083116,226.46,Payroll Accrual
GLI,8/31/2016,22503,213520,GLI083116,GLI083116,47.37,Payroll Accrual
GLI,8/31/2016,224723,213520,GLI083116,GLI083116,638.39,Payroll Accrual
GLI,8/31/2016,22910,213406,GLI083116,GLI083116,0.75,Payroll Accrual
GLI,8/31/2016,22906,213406,GLI083116,GLI083116,1.56,Payroll Accrual
GLI,8/31/2016,22904,213406,GLI083116,GLI083116,1.56,Payroll Accrual
GLI,8/31/2016,22902,213406,GLI083116,GLI083116,1.56,Payroll Accrual
GLI,8/31/2016,22901,213406,GLI083116,GLI083116,0.81,Payroll Accrual
GLI,8/31/2016,22510,213406,GLI083116,GLI083116,3.81,Payroll Accrual
GLI,8/31/2016,22506,213406,GLI083116,GLI083116,7.95,Payroll Accrual
GLI,8/31/2016,22504,213406,GLI083116,GLI083116,7.95,Payroll Accrual
GLI,8/31/2016,22502,213406,GLI083116,GLI083116,7.95,Payroll Accrual
GLI,8/31/2016,22501,213406,GLI083116,GLI083116,4.13,Payroll Accrual
GLI,8/31/2016,22210B,213406,GLI083116,GLI083116,49.87,Payroll Accrual
GLI,8/31/2016,22206B,213406,GLI083116,GLI083116,103.9,Payroll Accrual
GLI,8/31/2016,22204B,213406,GLI083116,GLI083116,103.9,Payroll Accrual
GLI,8/31/2016,22202B,213406,GLI083116,GLI083116,103.9,Payroll Accrual
GLI,8/31/2016,22201B,213406,GLI083116,GLI083116,54.03,Payroll Accrual
GLI,8/31/2016,22504,2132390,GLI083116,GLI083116,15.29,Payroll Accrual
GLI,8/31/2016,22304C,2132390,GLI083116,GLI083116,199.89,Payroll Accrual
GLI,8/31/2016,22904,2132360,GLI083116,GLI083116,38.48,Payroll Accrual
GLI,8/31/2016,22504,2132360,GLI083116,GLI083116,141.6,Payroll Accrual
GLI,8/31/2016,224704,2132360,GLI083116,GLI083116,1735.57,Payroll Accrual
GLI,8/31/2016,22404,2132360,GLI083116,GLI083116,188,Payroll Accrual
GLI,8/31/2016,22904,2130150,GLI083116,GLI083116,31.67,Payroll Accrual
GLI,8/31/2016,22504,2130150,GLI083116,GLI083116,120.48,Payroll Accrual
GLI,8/31/2016,224704,2130150,GLI083116,GLI083116,1583.45,Payroll Accrual
GLI,8/31/2016,22504,2126053,GLI083116,GLI083116,37.76,Payroll Accrual
GLI,8/31/2016,22304C,2126053,GLI083116,GLI083116,493.5,Payroll Accrual
GLI,8/31/2016,22903,2124820,GLI083116,GLI083116,13.1,Payroll Accrual
GLI,8/31/2016,22503,2124820,GLI083116,GLI083116,66.79,Payroll Accrual
GLI,8/31/2016,224723,2124820,GLI083116,GLI083116,873.15,Payroll Accrual
GLI,8/31/2016,22904,2119120,GLI083116,GLI083116,6.07,Payroll Accrual
GLI,8/31/2016,22504,2119120,GLI083116,GLI083116,87.36,Payroll Accrual
GLI,8/31/2016,224704,2119120,GLI083116,GLI083116,1214.66,Payroll Accrual
GLI,8/31/2016,22904,2118050,GLI083116,GLI083116,29.83,Payroll Accrual
GLI,8/31/2016,22504,2118050,GLI083116,GLI083116,152.12,Payroll Accrual
GLI,8/31/2016,224704,2118050,GLI083116,GLI083116,1988.5,Payroll Accrual
GLI,8/31/2016,22504,2106410,GLI083116,GLI083116,276.5,Payroll Accrual
GLI,8/31/2016,22404,2106410,GLI083116,GLI083116,270,Payroll Accrual
GLI,8/31/2016,22304B,2106410,GLI083116,GLI083116,3344.29,Payroll Accrual
GLI,8/31/2016,22506,2106350,GLI083116,GLI083116,156.74,Payroll Accrual
GLI,8/31/2016,22106,2106350,GLI083116,GLI083116,2120.01,Payroll Accrual
GLI,8/31/2016,22504,210073,GLI083116,GLI083116,84.77,Payroll Accrual
GLI,8/31/2016,224704,210073,GLI083116,GLI083116,1127.18,Payroll Accrual
GLI,8/31/2016,12503,196345,GLI083116,GLI083116,69.78,Payroll Accrual
GLI,8/31/2016,12303,196345,GLI083116,GLI083116,912.1,Payroll Accrual
GLI,8/31/2016,12906,196341,GLI083116,GLI083116,5.7,Payroll Accrual
GLI,8/31/2016,12905,196341,GLI083116,GLI083116,4.78,Payroll Accrual
GLI,8/31/2016,12514,196341,GLI083116,GLI083116,17.19,Payroll Accrual
GLI,8/31/2016,12506,196341,GLI083116,GLI083116,1.33,Payroll Accrual
GLI,8/31/2016,12505,196341,GLI083116,GLI083116,1.12,Payroll Accrual
GLI,8/31/2016,12504,196341,GLI083116,GLI083116,13.81,Payroll Accrual
GLI,8/31/2016,12502,196341,GLI083116,GLI083116,11.55,Payroll Accrual
GLI,8/31/2016,12501,196341,GLI083116,GLI083116,11.55,Payroll Accrual
GLI,8/31/2016,12214,196341,GLI083116,GLI083116,324.75,Payroll Accrual
GLI,8/31/2016,12206C,196341,GLI083116,GLI083116,191.9,Payroll Accrual
GLI,8/31/2016,12205C,196341,GLI083116,GLI083116,177.14,Payroll Accrual
GLI,8/31/2016,12204C,196341,GLI083116,GLI083116,280.47,Payroll Accrual
GLI,8/31/2016,12202C,196341,GLI083116,GLI083116,250.95,Payroll Accrual
GLI,8/31/2016,12201C,196341,GLI083116,GLI083116,250.95,Payroll Accrual
GLI,8/31/2016,12524,195413,GLI083116,GLI083116,44.55,Payroll Accrual
GLI,8/31/2016,124724,195413,GLI083116,GLI083116,582.4,Payroll Accrual
GLI,8/31/2016,12506,195401,GLI083116,GLI083116,72.53,Payroll Accrual
GLI,8/31/2016,12306D,195401,GLI083116,GLI083116,1017.32,Payroll Accrual
GLI,8/31/2016,12504,194675,GLI083116,GLI083116,122.52,Payroll Accrual
GLI,8/31/2016,124704,194675,GLI083116,GLI083116,1667.2,Payroll Accrual
GLI,8/31/2016,12505,191350,GLI083116,GLI083116,185.22,Payroll Accrual
GLI,8/31/2016,124703,191350,GLI083116,GLI083116,2421.12,Payroll Accrual
GLI,8/31/2016,12504,191060,GLI083116,GLI083116,257,Payroll Accrual
GLI,8/31/2016,12304B,191060,GLI083116,GLI083116,3359.41,Payroll Accrual
GLI,8/31/2016,12524,190933,GLI083116,GLI083116,55.56,Payroll Accrual
GLI,8/31/2016,124724,190933,GLI083116,GLI083116,783.68,Payroll Accrual
GLI,8/31/2016,12524,190910,GLI083116,GLI083116,117.58,Payroll Accrual
GLI,8/31/2016,124724,190910,GLI083116,GLI083116,1537,Payroll Accrual
GLI,8/31/2016,12906,190892,GLI083116,GLI083116,23.64,Payroll Accrual
GLI,8/31/2016,12506,190892,GLI083116,GLI083116,88.46,Payroll Accrual
GLI,8/31/2016,12306C,190892,GLI083116,GLI083116,1182.24,Payroll Accrual
GLI,8/31/2016,12905,190600,GLI083116,GLI083116,26.45,Payroll Accrual
GLI,8/31/2016,12505,190600,GLI083116,GLI083116,95.88,Payroll Accrual
GLI,8/31/2016,124703,190600,GLI083116,GLI083116,1322.69,Payroll Accrual
GLI,8/31/2016,12905,188338,GLI083116,GLI083116,102.24,Payroll Accrual
GLI,8/31/2016,12505,188338,GLI083116,GLI083116,382.09,Payroll Accrual
GLI,8/31/2016,12305B,188338,GLI083116,GLI083116,5111.95,Payroll Accrual
GLI,8/31/2016,12904,187675,GLI083116,GLI083116,69.12,Payroll Accrual
GLI,8/31/2016,12504,187675,GLI083116,GLI083116,261.22,Payroll Accrual
GLI,8/31/2016,124704,187675,GLI083116,GLI083116,3456,Payroll Accrual
GLI,8/31/2016,12905,186210,GLI083116,GLI083116,28.55,Payroll Accrual
GLI,8/31/2016,12505,186210,GLI083116,GLI083116,145.62,Payroll Accrual
GLI,8/31/2016,124703,186210,GLI083116,GLI083116,1903.6,Payroll Accrual
GLI,8/31/2016,12906,186100,GLI083116,GLI083116,7.56,Payroll Accrual
GLI,8/31/2016,12905,186100,GLI083116,GLI083116,7.56,Payroll Accrual
GLI,8/31/2016,12904,186100,GLI083116,GLI083116,7.56,Payroll Accrual
GLI,8/31/2016,12902,186100,GLI083116,GLI083116,7.56,Payroll Accrual
GLI,8/31/2016,12901,186100,GLI083116,GLI083116,7.56,Payroll Accrual
GLI,8/31/2016,12506,186100,GLI083116,GLI083116,28.73,Payroll Accrual
GLI,8/31/2016,12505,186100,GLI083116,GLI083116,28.73,Payroll Accrual
GLI,8/31/2016,12504,186100,GLI083116,GLI083116,28.73,Payroll Accrual
GLI,8/31/2016,12502,186100,GLI083116,GLI083116,28.73,Payroll Accrual
GLI,8/31/2016,12501,186100,GLI083116,GLI083116,28.73,Payroll Accrual
GLI,8/31/2016,12106,186100,GLI083116,GLI083116,378,Payroll Accrual
GLI,8/31/2016,12105,186100,GLI083116,GLI083116,378,Payroll Accrual
GLI,8/31/2016,12104,186100,GLI083116,GLI083116,378,Payroll Accrual
GLI,8/31/2016,12102,186100,GLI083116,GLI083116,378,Payroll Accrual
GLI,8/31/2016,12101,186100,GLI083116,GLI083116,378,Payroll Accrual
GLI,8/31/2016,12515,185600,GLI083116,GLI083116,34.27,Payroll Accrual
GLI,8/31/2016,12506,185600,GLI083116,GLI083116,23.37,Payroll Accrual
GLI,8/31/2016,12505,185600,GLI083116,GLI083116,23.37,Payroll Accrual
GLI,8/31/2016,12504,185600,GLI083116,GLI083116,24.92,Payroll Accrual
GLI,8/31/2016,12502,185600,GLI083116,GLI083116,24.92,Payroll Accrual
GLI,8/31/2016,12501,185600,GLI083116,GLI083116,24.92,Payroll Accrual
GLI,8/31/2016,12315,185600,GLI083116,GLI083116,462,Payroll Accrual
GLI,8/31/2016,12306,185600,GLI083116,GLI083116,315,Payroll Accrual
GLI,8/31/2016,12305,185600,GLI083116,GLI083116,315,Payroll Accrual
GLI,8/31/2016,12304,185600,GLI083116,GLI083116,336,Payroll Accrual
GLI,8/31/2016,12302,185600,GLI083116,GLI083116,336,Payroll Accrual
GLI,8/31/2016,12301,185600,GLI083116,GLI083116,336,Payroll Accrual
GLI,8/31/2016,12502,185101,GLI083116,GLI083116,21.99,Payroll Accrual
GLI,8/31/2016,12501,185101,GLI083116,GLI083116,21.99,Payroll Accrual
GLI,8/31/2016,12202A,185101,GLI083116,GLI083116,449.31,Payroll Accrual
GLI,8/31/2016,12201A,185101,GLI083116,GLI083116,449.31,Payroll Accrual
GLI,8/31/2016,12905,184920,GLI083116,GLI083116,39.66,Payroll Accrual
GLI,8/31/2016,12505,184920,GLI083116,GLI083116,196.08,Payroll Accrual
GLI,8/31/2016,124703,184920,GLI083116,GLI083116,2644.08,Payroll Accrual
GLI,8/31/2016,12924,184806,GLI083116,GLI083116,42.62,Payroll Accrual
GLI,8/31/2016,12524,184806,GLI083116,GLI083116,163.02,Payroll Accrual
GLI,8/31/2016,124724,184806,GLI083116,GLI083116,2131,Payroll Accrual
GLI,8/31/2016,12502,184625,GLI083116,GLI083116,113.53,Payroll Accrual
GLI,8/31/2016,12501,184625,GLI083116,GLI083116,75.69,Payroll Accrual
GLI,8/31/2016,12102A,184625,GLI083116,GLI083116,1512,Payroll Accrual
GLI,8/31/2016,12101A,184625,GLI083116,GLI083116,1008,Payroll Accrual
GLI,8/31/2016,12504,184620,GLI083116,GLI083116,55.6,Payroll Accrual
GLI,8/31/2016,12304C,184620,GLI083116,GLI083116,726.72,Payroll Accrual
GLI,8/31/2016,12505,184614,GLI083116,GLI083116,26.99,Payroll Accrual
GLI,8/31/2016,124703,184614,GLI083116,GLI083116,352.8,Payroll Accrual
GLI,8/31/2016,12906,184610,GLI083116,GLI083116,24.34,Payroll Accrual
GLI,8/31/2016,12506,184610,GLI083116,GLI083116,87.8,Payroll Accrual
GLI,8/31/2016,12306B,184610,GLI083116,GLI083116,1217.13,Payroll Accrual
GLI,8/31/2016,12914,181520,GLI083116,GLI083116,3.62,Payroll Accrual
GLI,8/31/2016,12906,181520,GLI083116,GLI083116,1.87,Payroll Accrual
GLI,8/31/2016,12905,181520,GLI083116,GLI083116,1.19,Payroll Accrual
GLI,8/31/2016,12904,181520,GLI083116,GLI083116,3.12,Payroll Accrual
GLI,8/31/2016,12902,181520,GLI083116,GLI083116,2.79,Payroll Accrual
GLI,8/31/2016,12901,181520,GLI083116,GLI083116,2.79,Payroll Accrual
GLI,8/31/2016,12514,181520,GLI083116,GLI083116,5.33,Payroll Accrual
GLI,8/31/2016,12506,181520,GLI083116,GLI083116,-0.06,Payroll Accrual
GLI,8/31/2016,12505,181520,GLI083116,GLI083116,-0.18,Payroll Accrual
GLI,8/31/2016,12504,181520,GLI083116,GLI083116,3.44,Payroll Accrual
GLI,8/31/2016,12502,181520,GLI083116,GLI083116,2.18,Payroll Accrual
GLI,8/31/2016,12501,181520,GLI083116,GLI083116,2.18,Payroll Accrual
GLI,8/31/2016,12214,181520,GLI083116,GLI083116,180.77,Payroll Accrual
GLI,8/31/2016,12206C,181520,GLI083116,GLI083116,106.82,Payroll Accrual
GLI,8/31/2016,12205C,181520,GLI083116,GLI083116,98.6,Payroll Accrual
GLI,8/31/2016,12204C,181520,GLI083116,GLI083116,156.12,Payroll Accrual
GLI,8/31/2016,12202C,181520,GLI083116,GLI083116,139.68,Payroll Accrual
GLI,8/31/2016,12201C,181520,GLI083116,GLI083116,139.68,Payroll Accrual
GLI,8/31/2016,12904,18005,GLI083116,GLI083116,31.26,Payroll Accrual
GLI,8/31/2016,12504,18005,GLI083116,GLI083116,115.79,Payroll Accrual
GLI,8/31/2016,124704,18005,GLI083116,GLI083116,1371.12,Payroll Accrual
GLI,8/31/2016,12404,18005,GLI083116,GLI083116,192,Payroll Accrual
GLI,8/31/2016,12904,179780,GLI083116,GLI083116,23.4,Payroll Accrual
GLI,8/31/2016,12504,179780,GLI083116,GLI083116,115.26,Payroll Accrual
GLI,8/31/2016,124704,179780,GLI083116,GLI083116,1560.08,Payroll Accrual
GLI,8/31/2016,12906,179775,GLI083116,GLI083116,8.07,Payroll Accrual
GLI,8/31/2016,12506,179775,GLI083116,GLI083116,19.67,Payroll Accrual
GLI,8/31/2016,12306B,179775,GLI083116,GLI083116,403.43,Payroll Accrual
GLI,8/31/2016,12906,179693,GLI083116,GLI083116,8.15,Payroll Accrual
GLI,8/31/2016,12905,179693,GLI083116,GLI083116,8.15,Payroll Accrual
GLI,8/31/2016,12506,179693,GLI083116,GLI083116,1.91,Payroll Accrual
GLI,8/31/2016,12505,179693,GLI083116,GLI083116,1.91,Payroll Accrual
GLI,8/31/2016,12504,179693,GLI083116,GLI083116,10.06,Payroll Accrual
GLI,8/31/2016,12502,179693,GLI083116,GLI083116,10.06,Payroll Accrual
GLI,8/31/2016,12501,179693,GLI083116,GLI083116,10.06,Payroll Accrual
GLI,8/31/2016,12206B,179693,GLI083116,GLI083116,169.07,Payroll Accrual
GLI,8/31/2016,12205B,179693,GLI083116,GLI083116,169.07,Payroll Accrual
GLI,8/31/2016,12204B,179693,GLI083116,GLI083116,169.07,Payroll Accrual
GLI,8/31/2016,12202B,179693,GLI083116,GLI083116,169.07,Payroll Accrual
GLI,8/31/2016,12201B,179693,GLI083116,GLI083116,169.07,Payroll Accrual
GLI,8/31/2016,12904,178079,GLI083116,GLI083116,36.16,Payroll Accrual
GLI,8/31/2016,12504,178079,GLI083116,GLI083116,136.81,Payroll Accrual
GLI,8/31/2016,12304D,178079,GLI083116,GLI083116,1807.63,Payroll Accrual
GLI,8/31/2016,12527,178060,GLI083116,GLI083116,5.47,Payroll Accrual
GLI,8/31/2016,12327,178060,GLI083116,GLI083116,71.4,Payroll Accrual
GLI,8/31/2016,12904,178050,GLI083116,GLI083116,15.56,Payroll Accrual
GLI,8/31/2016,12504,178050,GLI083116,GLI083116,77.91,Payroll Accrual
GLI,8/31/2016,124704,178050,GLI083116,GLI083116,1037.6,Payroll Accrual
GLI,8/31/2016,12516,176505,GLI083116,GLI083116,8.5,Payroll Accrual
GLI,8/31/2016,12316,176505,GLI083116,GLI083116,111.2,Payroll Accrual
GLI,8/31/2016,12524,173800,GLI083116,GLI083116,22.44,Payroll Accrual
GLI,8/31/2016,124724,173800,GLI083116,GLI083116,293.4,Payroll Accrual
GLI,8/31/2016,12906,172077,GLI083116,GLI083116,31.31,Payroll Accrual
GLI,8/31/2016,12506,172077,GLI083116,GLI083116,107.68,Payroll Accrual
GLI,8/31/2016,12306B,172077,GLI083116,GLI083116,1565.73,Payroll Accrual
GLI,8/31/2016,12905,171055,GLI083116,GLI083116,71.03,Payroll Accrual
GLI,8/31/2016,12505,171055,GLI083116,GLI083116,259.14,Payroll Accrual
GLI,8/31/2016,124703,171055,GLI083116,GLI083116,3551.68,Payroll Accrual
GLI,8/31/2016,12905,170150,GLI083116,GLI083116,35.31,Payroll Accrual
GLI,8/31/2016,12505,170150,GLI083116,GLI083116,134.21,Payroll Accrual
GLI,8/31/2016,124703,170150,GLI083116,GLI083116,1765.47,Payroll Accrual
GLI,8/31/2016,12904,170101,GLI083116,GLI083116,16.32,Payroll Accrual
GLI,8/31/2016,12504,170101,GLI083116,GLI083116,83.22,Payroll Accrual
GLI,8/31/2016,124704,170101,GLI083116,GLI083116,1087.84,Payroll Accrual
GLI,8/31/2016,12504,169420,GLI083116,GLI083116,99.99,Payroll Accrual
GLI,8/31/2016,124704,169420,GLI083116,GLI083116,1307.03,Payroll Accrual
GLI,8/31/2016,12503,169000,GLI083116,GLI083116,9.03,Payroll Accrual
GLI,8/31/2016,124723,169000,GLI083116,GLI083116,118.08,Payroll Accrual
GLI,8/31/2016,12503,168506,GLI083116,GLI083116,7.08,Payroll Accrual
GLI,8/31/2016,124723,168506,GLI083116,GLI083116,92.64,Payroll Accrual
GLI,8/31/2016,12516,167906,GLI083116,GLI083116,79.86,Payroll Accrual
GLI,8/31/2016,12316,167906,GLI083116,GLI083116,1059.73,Payroll Accrual
GLI,8/31/2016,12904,167812,GLI083116,GLI083116,1.31,Payroll Accrual
GLI,8/31/2016,12504,167812,GLI083116,GLI083116,5.01,Payroll Accrual
GLI,8/31/2016,12204C,167812,GLI083116,GLI083116,65.45,Payroll Accrual
GLI,8/31/2016,12504,167580,GLI083116,GLI083116,107,Payroll Accrual
GLI,8/31/2016,124704,167580,GLI083116,GLI083116,1431.68,Payroll Accrual
GLI,8/31/2016,12527,165500,GLI083116,GLI083116,51.64,Payroll Accrual
GLI,8/31/2016,12327,165500,GLI083116,GLI083116,728.4,Payroll Accrual
GLI,8/31/2016,12904,165410,GLI083116,GLI083116,15.93,Payroll Accrual
GLI,8/31/2016,12504,165410,GLI083116,GLI083116,79.77,Payroll Accrual
GLI,8/31/2016,12304D,165410,GLI083116,GLI083116,1061.96,Payroll Accrual
GLI,8/31/2016,12524,165400,GLI083116,GLI083116,10.66,Payroll Accrual
GLI,8/31/2016,12505,165400,GLI083116,GLI083116,10.66,Payroll Accrual
GLI,8/31/2016,12504,165400,GLI083116,GLI083116,10.66,Payroll Accrual
GLI,8/31/2016,12501,165400,GLI083116,GLI083116,10.66,Payroll Accrual
GLI,8/31/2016,12324F,165400,GLI083116,GLI083116,231.58,Payroll Accrual
GLI,8/31/2016,12305F,165400,GLI083116,GLI083116,231.58,Payroll Accrual
GLI,8/31/2016,12304F,165400,GLI083116,GLI083116,231.58,Payroll Accrual
GLI,8/31/2016,12301F,165400,GLI083116,GLI083116,231.58,Payroll Accrual
GLI,8/31/2016,12503,165378,GLI083116,GLI083116,46.83,Payroll Accrual
GLI,8/31/2016,124723,165378,GLI083116,GLI083116,612.08,Payroll Accrual
GLI,8/31/2016,12905,165357,GLI083116,GLI083116,99.84,Payroll Accrual
GLI,8/31/2016,12505,165357,GLI083116,GLI083116,505.44,Payroll Accrual
GLI,8/31/2016,12305B,165357,GLI083116,GLI083116,6655.59,Payroll Accrual
GLI,8/31/2016,12527,165275,GLI083116,GLI083116,13.76,Payroll Accrual
GLI,8/31/2016,12327,165275,GLI083116,GLI083116,179.9,Payroll Accrual
GLI,8/31/2016,12527,164991,GLI083116,GLI083116,14.86,Payroll Accrual
GLI,8/31/2016,12327,164991,GLI083116,GLI083116,194.2,Payroll Accrual
GLI,8/31/2016,12924,164920,GLI083116,GLI083116,10.59,Payroll Accrual
GLI,8/31/2016,12524,164920,GLI083116,GLI083116,53.99,Payroll Accrual
GLI,8/31/2016,124724,164920,GLI083116,GLI083116,705.75,Payroll Accrual
GLI,8/31/2016,12904,164015,GLI083116,GLI083116,62.84,Payroll Accrual
GLI,8/31/2016,12504,164015,GLI083116,GLI083116,239.93,Payroll Accrual
GLI,8/31/2016,124704,164015,GLI083116,GLI083116,3142.08,Payroll Accrual
GLI,8/31/2016,12912,163096,GLI083116,GLI083116,5.73,Payroll Accrual
GLI,8/31/2016,12902,163096,GLI083116,GLI083116,10.16,Payroll Accrual
GLI,8/31/2016,12901,163096,GLI083116,GLI083116,10.16,Payroll Accrual
GLI,8/31/2016,12512,163096,GLI083116,GLI083116,20.71,Payroll Accrual
GLI,8/31/2016,12502,163096,GLI083116,GLI083116,37.65,Payroll Accrual
GLI,8/31/2016,12501,163096,GLI083116,GLI083116,37.65,Payroll Accrual
GLI,8/31/2016,12212,163096,GLI083116,GLI083116,286.57,Payroll Accrual
GLI,8/31/2016,12202C,163096,GLI083116,GLI083116,508.02,Payroll Accrual
GLI,8/31/2016,12201C,163096,GLI083116,GLI083116,508.02,Payroll Accrual
GLI,8/31/2016,12527,163062,GLI083116,GLI083116,20.74,Payroll Accrual
GLI,8/31/2016,12327,163062,GLI083116,GLI083116,271.1,Payroll Accrual
GLI,8/31/2016,12503,162795,GLI083116,GLI083116,49.94,Payroll Accrual
GLI,8/31/2016,12303,162795,GLI083116,GLI083116,652.82,Payroll Accrual
GLI,8/31/2016,12906,16250,GLI083116,GLI083116,11.27,Payroll Accrual
GLI,8/31/2016,12506,16250,GLI083116,GLI083116,40.83,Payroll Accrual
GLI,8/31/2016,12306B,16250,GLI083116,GLI083116,751.52,Payroll Accrual
GLI,8/31/2016,12906,162428,GLI083116,GLI083116,26.05,Payroll Accrual
GLI,8/31/2016,12506,162428,GLI083116,GLI083116,128.4,Payroll Accrual
GLI,8/31/2016,12306B,162428,GLI083116,GLI083116,1736.88,Payroll Accrual
GLI,8/31/2016,12504,161350,GLI083116,GLI083116,226.24,Payroll Accrual
GLI,8/31/2016,12304B,161350,GLI083116,GLI083116,3113.01,Payroll Accrual
GLI,8/31/2016,12916,161095,GLI083116,GLI083116,18.1,Payroll Accrual
GLI,8/31/2016,12516,161095,GLI083116,GLI083116,92.29,Payroll Accrual
GLI,8/31/2016,12416,161095,GLI083116,GLI083116,136,Payroll Accrual
GLI,8/31/2016,12316,161095,GLI083116,GLI083116,1070.41,Payroll Accrual
GLI,8/31/2016,12515,161051,GLI083116,GLI083116,9.62,Payroll Accrual
GLI,8/31/2016,12506,161051,GLI083116,GLI083116,4.8,Payroll Accrual
GLI,8/31/2016,12505,161051,GLI083116,GLI083116,4.8,Payroll Accrual
GLI,8/31/2016,12504,161051,GLI083116,GLI083116,5.48,Payroll Accrual
GLI,8/31/2016,12502,161051,GLI083116,GLI083116,5.48,Payroll Accrual
GLI,8/31/2016,12501,161051,GLI083116,GLI083116,5.48,Payroll Accrual
GLI,8/31/2016,12315,161051,GLI083116,GLI083116,198.48,Payroll Accrual
GLI,8/31/2016,12306,161051,GLI083116,GLI083116,135.33,Payroll Accrual
GLI,8/31/2016,12305,161051,GLI083116,GLI083116,135.33,Payroll Accrual
GLI,8/31/2016,12304,161051,GLI083116,GLI083116,144.35,Payroll Accrual
GLI,8/31/2016,12302,161051,GLI083116,GLI083116,144.35,Payroll Accrual
GLI,8/31/2016,12301,161051,GLI083116,GLI083116,144.35,Payroll Accrual
GLI,8/31/2016,12503,161010,GLI083116,GLI083116,21.05,Payroll Accrual
GLI,8/31/2016,124723,161010,GLI083116,GLI083116,275.24,Payroll Accrual
GLI,8/31/2016,12905,160930,GLI083116,GLI083116,66.43,Payroll Accrual
GLI,8/31/2016,12505,160930,GLI083116,GLI083116,249.14,Payroll Accrual
GLI,8/31/2016,12305C,160930,GLI083116,GLI083116,3321.43,Payroll Accrual
GLI,8/31/2016,12503,159100,GLI083116,GLI083116,58.67,Payroll Accrual
GLI,8/31/2016,124723,159100,GLI083116,GLI083116,766.92,Payroll Accrual
GLI,8/31/2016,12906,157995,GLI083116,GLI083116,8.38,Payroll Accrual
GLI,8/31/2016,12905,157995,GLI083116,GLI083116,7.73,Payroll Accrual
GLI,8/31/2016,12514,157995,GLI083116,GLI083116,17.5,Payroll Accrual
GLI,8/31/2016,12506,157995,GLI083116,GLI083116,1.96,Payroll Accrual
GLI,8/31/2016,12505,157995,GLI083116,GLI083116,1.81,Payroll Accrual
GLI,8/31/2016,12504,157995,GLI083116,GLI083116,15.11,Payroll Accrual
GLI,8/31/2016,12502,157995,GLI083116,GLI083116,13.52,Payroll Accrual
GLI,8/31/2016,12501,157995,GLI083116,GLI083116,13.52,Payroll Accrual
GLI,8/31/2016,12214,157995,GLI083116,GLI083116,257.4,Payroll Accrual
GLI,8/31/2016,12206C,157995,GLI083116,GLI083116,152.1,Payroll Accrual
GLI,8/31/2016,12205C,157995,GLI083116,GLI083116,140.4,Payroll Accrual
GLI,8/31/2016,12204C,157995,GLI083116,GLI083116,222.3,Payroll Accrual
GLI,8/31/2016,12202C,157995,GLI083116,GLI083116,198.9,Payroll Accrual
GLI,8/31/2016,12201C,157995,GLI083116,GLI083116,198.9,Payroll Accrual
GLI,8/31/2016,12904,152525,GLI083116,GLI083116,22.46,Payroll Accrual
GLI,8/31/2016,12504,152525,GLI083116,GLI083116,113.32,Payroll Accrual
GLI,8/31/2016,124704,152525,GLI083116,GLI083116,1497.12,Payroll Accrual
GLI,8/31/2016,12904,152520,GLI083116,GLI083116,14.6,Payroll Accrual
GLI,8/31/2016,12504,152520,GLI083116,GLI083116,72.97,Payroll Accrual
GLI,8/31/2016,124704,152520,GLI083116,GLI083116,973.04,Payroll Accrual
GLI,8/31/2016,12512,152512,GLI083116,GLI083116,0.6,Payroll Accrual
GLI,8/31/2016,12502,152512,GLI083116,GLI083116,1.06,Payroll Accrual
GLI,8/31/2016,12501,152512,GLI083116,GLI083116,1.06,Payroll Accrual
GLI,8/31/2016,12212,152512,GLI083116,GLI083116,7.87,Payroll Accrual
GLI,8/31/2016,12202C,152512,GLI083116,GLI083116,13.94,Payroll Accrual
GLI,8/31/2016,12201C,152512,GLI083116,GLI083116,13.94,Payroll Accrual
GLI,8/31/2016,12927,152510,GLI083116,GLI083116,11.19,Payroll Accrual
GLI,8/31/2016,12527,152510,GLI083116,GLI083116,57.07,Payroll Accrual
GLI,8/31/2016,12327,152510,GLI083116,GLI083116,745.92,Payroll Accrual
GLI,8/31/2016,12503,152499,GLI083116,GLI083116,87.44,Payroll Accrual
GLI,8/31/2016,124723,152499,GLI083116,GLI083116,1143.03,Payroll Accrual
GLI,8/31/2016,12924,152495,GLI083116,GLI083116,15,Payroll Accrual
GLI,8/31/2016,12524,152495,GLI083116,GLI083116,76.49,Payroll Accrual
GLI,8/31/2016,124724,152495,GLI083116,GLI083116,999.9,Payroll Accrual
GLI,8/31/2016,12527,152490,GLI083116,GLI083116,31.12,Payroll Accrual
GLI,8/31/2016,12327,152490,GLI083116,GLI083116,406.7,Payroll Accrual
GLI,8/31/2016,12503,152432,GLI083116,GLI083116,49.94,Payroll Accrual
GLI,8/31/2016,124723,152432,GLI083116,GLI083116,652.82,Payroll Accrual
GLI,8/31/2016,12904,152410,GLI083116,GLI083116,33.65,Payroll Accrual
GLI,8/31/2016,12504,152410,GLI083116,GLI083116,171.16,Payroll Accrual
GLI,8/31/2016,124704,152410,GLI083116,GLI083116,2243.2,Payroll Accrual
GLI,8/31/2016,12904,152235,GLI083116,GLI083116,58.46,Payroll Accrual
GLI,8/31/2016,12504,152235,GLI083116,GLI083116,221.31,Payroll Accrual
GLI,8/31/2016,124704,152235,GLI083116,GLI083116,2922.88,Payroll Accrual
GLI,8/31/2016,12904,151410,GLI083116,GLI083116,17.18,Payroll Accrual
GLI,8/31/2016,12504,151410,GLI083116,GLI083116,80.91,Payroll Accrual
GLI,8/31/2016,12204C,151410,GLI083116,GLI083116,1145.46,Payroll Accrual
GLI,8/31/2016,12503,151203,GLI083116,GLI083116,22.95,Payroll Accrual
GLI,8/31/2016,124723,151203,GLI083116,GLI083116,300,Payroll Accrual
GLI,8/31/2016,12904,150126,GLI083116,GLI083116,32.68,Payroll Accrual
GLI,8/31/2016,12504,150126,GLI083116,GLI083116,155.89,Payroll Accrual
GLI,8/31/2016,124704,150126,GLI083116,GLI083116,2178.8,Payroll Accrual
GLI,8/31/2016,12924,150120,GLI083116,GLI083116,22.68,Payroll Accrual
GLI,8/31/2016,12524,150120,GLI083116,GLI083116,115.66,Payroll Accrual
GLI,8/31/2016,124724,150120,GLI083116,GLI083116,1512.01,Payroll Accrual
GLI,8/31/2016,12905,150105,GLI083116,GLI083116,43.55,Payroll Accrual
GLI,8/31/2016,12505,150105,GLI083116,GLI083116,220.1,Payroll Accrual
GLI,8/31/2016,124703,150105,GLI083116,GLI083116,2903.04,Payroll Accrual
GLI,8/31/2016,12504,149878,GLI083116,GLI083116,82.18,Payroll Accrual
GLI,8/31/2016,12304D,149878,GLI083116,GLI083116,1257.94,Payroll Accrual
GLI,8/31/2016,12916,148275,GLI083116,GLI083116,40.64,Payroll Accrual
GLI,8/31/2016,12516,148275,GLI083116,GLI083116,155.44,Payroll Accrual
GLI,8/31/2016,12316,148275,GLI083116,GLI083116,2032,Payroll Accrual
GLI,8/31/2016,12527,148156,GLI083116,GLI083116,4,Payroll Accrual
GLI,8/31/2016,12327,148156,GLI083116,GLI083116,52.3,Payroll Accrual
GLI,8/31/2016,12916,147000,GLI083116,GLI083116,29.7,Payroll Accrual
GLI,8/31/2016,12516,147000,GLI083116,GLI083116,147.39,Payroll Accrual
GLI,8/31/2016,12316,147000,GLI083116,GLI083116,1980.01,Payroll Accrual
GLI,8/31/2016,12906,146480,GLI083116,GLI083116,10.84,Payroll Accrual
GLI,8/31/2016,12905,146480,GLI083116,GLI083116,10.84,Payroll Accrual
GLI,8/31/2016,12506,146480,GLI083116,GLI083116,2.54,Payroll Accrual
GLI,8/31/2016,12505,146480,GLI083116,GLI083116,2.54,Payroll Accrual
GLI,8/31/2016,12504,146480,GLI083116,GLI083116,13.38,Payroll Accrual
GLI,8/31/2016,12502,146480,GLI083116,GLI083116,13.38,Payroll Accrual
GLI,8/31/2016,12501,146480,GLI083116,GLI083116,13.38,Payroll Accrual
GLI,8/31/2016,12206B,146480,GLI083116,GLI083116,174.88,Payroll Accrual
GLI,8/31/2016,12205B,146480,GLI083116,GLI083116,174.88,Payroll Accrual
GLI,8/31/2016,12204B,146480,GLI083116,GLI083116,174.88,Payroll Accrual
GLI,8/31/2016,12202B,146480,GLI083116,GLI083116,174.88,Payroll Accrual
GLI,8/31/2016,12201B,146480,GLI083116,GLI083116,174.88,Payroll Accrual
GLI,8/31/2016,12901,146450,GLI083116,GLI083116,43.2,Payroll Accrual
GLI,8/31/2016,12501,146450,GLI083116,GLI083116,160.17,Payroll Accrual
GLI,8/31/2016,12301B,146450,GLI083116,GLI083116,2160.01,Payroll Accrual
GLI,8/31/2016,12504,145801,GLI083116,GLI083116,40.93,Payroll Accrual
GLI,8/31/2016,124704,145801,GLI083116,GLI083116,535,Payroll Accrual
GLI,8/31/2016,12506,143180,GLI083116,GLI083116,63.77,Payroll Accrual
GLI,8/31/2016,12306B,143180,GLI083116,GLI083116,991.68,Payroll Accrual
GLI,8/31/2016,12905,141069,GLI083116,GLI083116,99.43,Payroll Accrual
GLI,8/31/2016,12505,141069,GLI083116,GLI083116,366.83,Payroll Accrual
GLI,8/31/2016,12305B,141069,GLI083116,GLI083116,4971.72,Payroll Accrual
GLI,8/31/2016,12903,141060,GLI083116,GLI083116,33,Payroll Accrual
GLI,8/31/2016,12503,141060,GLI083116,GLI083116,125.08,Payroll Accrual
GLI,8/31/2016,12103,141060,GLI083116,GLI083116,1650,Payroll Accrual
GLI,8/31/2016,12904,140790,GLI083116,GLI083116,43.2,Payroll Accrual
GLI,8/31/2016,12504,140790,GLI083116,GLI083116,162.59,Payroll Accrual
GLI,8/31/2016,12104,140790,GLI083116,GLI083116,2160.01,Payroll Accrual
GLI,8/31/2016,12506,138400,GLI083116,GLI083116,1.38,Payroll Accrual
GLI,8/31/2016,12505,138400,GLI083116,GLI083116,1.38,Payroll Accrual
GLI,8/31/2016,12504,138400,GLI083116,GLI083116,1.38,Payroll Accrual
GLI,8/31/2016,12502,138400,GLI083116,GLI083116,1.38,Payroll Accrual
GLI,8/31/2016,12501,138400,GLI083116,GLI083116,1.38,Payroll Accrual
GLI,8/31/2016,12206B,138400,GLI083116,GLI083116,18,Payroll Accrual
GLI,8/31/2016,12205B,138400,GLI083116,GLI083116,18,Payroll Accrual
GLI,8/31/2016,12204B,138400,GLI083116,GLI083116,18,Payroll Accrual
GLI,8/31/2016,12202B,138400,GLI083116,GLI083116,18,Payroll Accrual
GLI,8/31/2016,12201B,138400,GLI083116,GLI083116,18,Payroll Accrual
GLI,8/31/2016,12503,138385,GLI083116,GLI083116,30.81,Payroll Accrual
GLI,8/31/2016,124723,138385,GLI083116,GLI083116,402.78,Payroll Accrual
GLI,8/31/2016,12916,138380,GLI083116,GLI083116,11.82,Payroll Accrual
GLI,8/31/2016,12516,138380,GLI083116,GLI083116,32.4,Payroll Accrual
GLI,8/31/2016,12316,138380,GLI083116,GLI083116,591.24,Payroll Accrual
GLI,8/31/2016,12504,13725,GLI083116,GLI083116,213.78,Payroll Accrual
GLI,8/31/2016,124704,13725,GLI083116,GLI083116,3210.48,Payroll Accrual
GLI,8/31/2016,12505,137101,GLI083116,GLI083116,99.15,Payroll Accrual
GLI,8/31/2016,124703,137101,GLI083116,GLI083116,1296.18,Payroll Accrual
GLI,8/31/2016,12904,136170,GLI083116,GLI083116,14.06,Payroll Accrual
GLI,8/31/2016,12504,136170,GLI083116,GLI083116,104.17,Payroll Accrual
GLI,8/31/2016,124704,136170,GLI083116,GLI083116,1406.24,Payroll Accrual
GLI,8/31/2016,12505,135770,GLI083116,GLI083116,226.53,Payroll Accrual
GLI,8/31/2016,124703,135770,GLI083116,GLI083116,2961.2,Payroll Accrual
GLI,8/31/2016,12503,132688,GLI083116,GLI083116,57.61,Payroll Accrual
GLI,8/31/2016,124723,132688,GLI083116,GLI083116,753.12,Payroll Accrual
GLI,8/31/2016,12915,132500,GLI083116,GLI083116,8.71,Payroll Accrual
GLI,8/31/2016,12906,132500,GLI083116,GLI083116,5.94,Payroll Accrual
GLI,8/31/2016,12905,132500,GLI083116,GLI083116,5.94,Payroll Accrual
GLI,8/31/2016,12904,132500,GLI083116,GLI083116,6.34,Payroll Accrual
GLI,8/31/2016,12902,132500,GLI083116,GLI083116,6.34,Payroll Accrual
GLI,8/31/2016,12901,132500,GLI083116,GLI083116,6.34,Payroll Accrual
GLI,8/31/2016,12515,132500,GLI083116,GLI083116,32.91,Payroll Accrual
GLI,8/31/2016,12506,132500,GLI083116,GLI083116,22.43,Payroll Accrual
GLI,8/31/2016,12505,132500,GLI083116,GLI083116,22.43,Payroll Accrual
GLI,8/31/2016,12504,132500,GLI083116,GLI083116,23.94,Payroll Accrual
GLI,8/31/2016,12502,132500,GLI083116,GLI083116,23.94,Payroll Accrual
GLI,8/31/2016,12501,132500,GLI083116,GLI083116,23.94,Payroll Accrual
GLI,8/31/2016,12315,132500,GLI083116,GLI083116,435.6,Payroll Accrual
GLI,8/31/2016,12306,132500,GLI083116,GLI083116,297,Payroll Accrual
GLI,8/31/2016,12305,132500,GLI083116,GLI083116,297,Payroll Accrual
GLI,8/31/2016,12304,132500,GLI083116,GLI083116,316.8,Payroll Accrual
GLI,8/31/2016,12302,132500,GLI083116,GLI083116,316.8,Payroll Accrual
GLI,8/31/2016,12301,132500,GLI083116,GLI083116,316.8,Payroll Accrual
GLI,8/31/2016,12904,131370,GLI083116,GLI083116,35.25,Payroll Accrual
GLI,8/31/2016,12504,131370,GLI083116,GLI083116,134.84,Payroll Accrual
GLI,8/31/2016,124704,131370,GLI083116,GLI083116,1762.64,Payroll Accrual
GLI,8/31/2016,12924,131315,GLI083116,GLI083116,42.02,Payroll Accrual
GLI,8/31/2016,12524,131315,GLI083116,GLI083116,160.72,Payroll Accrual
GLI,8/31/2016,124724,131315,GLI083116,GLI083116,2101,Payroll Accrual
GLI,8/31/2016,12503,130510,GLI083116,GLI083116,64.69,Payroll Accrual
GLI,8/31/2016,124723,130510,GLI083116,GLI083116,845.64,Payroll Accrual
GLI,8/31/2016,12505,12956,GLI083116,GLI083116,10.14,Payroll Accrual
GLI,8/31/2016,12504,12956,GLI083116,GLI083116,10.14,Payroll Accrual
GLI,8/31/2016,12502,12956,GLI083116,GLI083116,10.14,Payroll Accrual
GLI,8/31/2016,12501,12956,GLI083116,GLI083116,10.14,Payroll Accrual
GLI,8/31/2016,12305F,12956,GLI083116,GLI083116,132.6,Payroll Accrual
GLI,8/31/2016,12304F,12956,GLI083116,GLI083116,132.6,Payroll Accrual
GLI,8/31/2016,12302F,12956,GLI083116,GLI083116,132.6,Payroll Accrual
GLI,8/31/2016,12301F,12956,GLI083116,GLI083116,132.6,Payroll Accrual
GLI,8/31/2016,12503,12725,GLI083116,GLI083116,48.66,Payroll Accrual
GLI,8/31/2016,124723,12725,GLI083116,GLI083116,636.12,Payroll Accrual
GLI,8/31/2016,12902,126200,GLI083116,GLI083116,8.33,Payroll Accrual
GLI,8/31/2016,12901,126200,GLI083116,GLI083116,8.33,Payroll Accrual
GLI,8/31/2016,12502,126200,GLI083116,GLI083116,42.46,Payroll Accrual
GLI,8/31/2016,12501,126200,GLI083116,GLI083116,42.46,Payroll Accrual
GLI,8/31/2016,12202A,126200,GLI083116,GLI083116,555,Payroll Accrual
GLI,8/31/2016,12201A,126200,GLI083116,GLI083116,555,Payroll Accrual
GLI,8/31/2016,12506,125050,GLI083116,GLI083116,69.9,Payroll Accrual
GLI,8/31/2016,12306D,125050,GLI083116,GLI083116,913.77,Payroll Accrual
GLI,8/31/2016,12503,125028,GLI083116,GLI083116,55.4,Payroll Accrual
GLI,8/31/2016,124723,125028,GLI083116,GLI083116,724.2,Payroll Accrual
GLI,8/31/2016,12503,124360,GLI083116,GLI083116,2.53,Payroll Accrual
GLI,8/31/2016,124723,124360,GLI083116,GLI083116,33,Payroll Accrual
GLI,8/31/2016,12924,124101,GLI083116,GLI083116,12.02,Payroll Accrual
GLI,8/31/2016,12524,124101,GLI083116,GLI083116,61.3,Payroll Accrual
GLI,8/31/2016,12224,124101,GLI083116,GLI083116,801.24,Payroll Accrual
GLI,8/31/2016,12527,123530,GLI083116,GLI083116,15.33,Payroll Accrual
GLI,8/31/2016,12327,123530,GLI083116,GLI083116,200.4,Payroll Accrual
GLI,8/31/2016,12904,123525,GLI083116,GLI083116,4.05,Payroll Accrual
GLI,8/31/2016,12504,123525,GLI083116,GLI083116,15.5,Payroll Accrual
GLI,8/31/2016,12304B,123525,GLI083116,GLI083116,202.65,Payroll Accrual
GLI,8/31/2016,12906,123468,GLI083116,GLI083116,0.57,Payroll Accrual
GLI,8/31/2016,12905,123468,GLI083116,GLI083116,0.57,Payroll Accrual
GLI,8/31/2016,12506,123468,GLI083116,GLI083116,0.13,Payroll Accrual
GLI,8/31/2016,12505,123468,GLI083116,GLI083116,0.13,Payroll Accrual
GLI,8/31/2016,12504,123468,GLI083116,GLI083116,0.7,Payroll Accrual
GLI,8/31/2016,12502,123468,GLI083116,GLI083116,0.7,Payroll Accrual
GLI,8/31/2016,12501,123468,GLI083116,GLI083116,0.7,Payroll Accrual
GLI,8/31/2016,12206B,123468,GLI083116,GLI083116,142.01,Payroll Accrual
GLI,8/31/2016,12205B,123468,GLI083116,GLI083116,142.01,Payroll Accrual
GLI,8/31/2016,12204B,123468,GLI083116,GLI083116,142.01,Payroll Accrual
GLI,8/31/2016,12202B,123468,GLI083116,GLI083116,142.01,Payroll Accrual
GLI,8/31/2016,12201B,123468,GLI083116,GLI083116,142.01,Payroll Accrual
GLI,8/31/2016,12527,123324,GLI083116,GLI083116,4.02,Payroll Accrual
GLI,8/31/2016,12327,123324,GLI083116,GLI083116,52.6,Payroll Accrual
GLI,8/31/2016,12906,123100,GLI083116,GLI083116,15.66,Payroll Accrual
GLI,8/31/2016,12905,123100,GLI083116,GLI083116,15.66,Payroll Accrual
GLI,8/31/2016,12904,123100,GLI083116,GLI083116,15.66,Payroll Accrual
GLI,8/31/2016,12902,123100,GLI083116,GLI083116,15.66,Payroll Accrual
GLI,8/31/2016,12901,123100,GLI083116,GLI083116,15.66,Payroll Accrual
GLI,8/31/2016,12506,123100,GLI083116,GLI083116,77.91,Payroll Accrual
GLI,8/31/2016,12505,123100,GLI083116,GLI083116,77.91,Payroll Accrual
GLI,8/31/2016,12504,123100,GLI083116,GLI083116,77.91,Payroll Accrual
GLI,8/31/2016,12502,123100,GLI083116,GLI083116,77.91,Payroll Accrual
GLI,8/31/2016,12501,123100,GLI083116,GLI083116,77.91,Payroll Accrual
GLI,8/31/2016,12106,123100,GLI083116,GLI083116,1044,Payroll Accrual
GLI,8/31/2016,12105,123100,GLI083116,GLI083116,1044,Payroll Accrual
GLI,8/31/2016,12104,123100,GLI083116,GLI083116,1044,Payroll Accrual
GLI,8/31/2016,12102,123100,GLI083116,GLI083116,1044,Payroll Accrual
GLI,8/31/2016,12101,123100,GLI083116,GLI083116,1044,Payroll Accrual
GLI,8/31/2016,12904,121362,GLI083116,GLI083116,85.8,Payroll Accrual
GLI,8/31/2016,12504,121362,GLI083116,GLI083116,319.54,Payroll Accrual
GLI,8/31/2016,12304B,121362,GLI083116,GLI083116,4290.05,Payroll Accrual
GLI,8/31/2016,12503,121130,GLI083116,GLI083116,59.66,Payroll Accrual
GLI,8/31/2016,124723,121130,GLI083116,GLI083116,779.82,Payroll Accrual
GLI,8/31/2016,12511,121063,GLI083116,GLI083116,20.69,Payroll Accrual
GLI,8/31/2016,12506,121063,GLI083116,GLI083116,14.98,Payroll Accrual
GLI,8/31/2016,12505,121063,GLI083116,GLI083116,14.98,Payroll Accrual
GLI,8/31/2016,12504,121063,GLI083116,GLI083116,14.98,Payroll Accrual
GLI,8/31/2016,12502,121063,GLI083116,GLI083116,14.03,Payroll Accrual
GLI,8/31/2016,12501,121063,GLI083116,GLI083116,14.03,Payroll Accrual
GLI,8/31/2016,12311,121063,GLI083116,GLI083116,273.83,Payroll Accrual
GLI,8/31/2016,12306H,121063,GLI083116,GLI083116,199.15,Payroll Accrual
GLI,8/31/2016,12305H,121063,GLI083116,GLI083116,199.15,Payroll Accrual
GLI,8/31/2016,12304H,121063,GLI083116,GLI083116,199.15,Payroll Accrual
GLI,8/31/2016,12302H,121063,GLI083116,GLI083116,186.71,Payroll Accrual
GLI,8/31/2016,12301H,121063,GLI083116,GLI083116,186.71,Payroll Accrual
GLI,8/31/2016,12503,118520,GLI083116,GLI083116,48.68,Payroll Accrual
GLI,8/31/2016,124723,118520,GLI083116,GLI083116,636.24,Payroll Accrual
GLI,8/31/2016,12911,118030,GLI083116,GLI083116,6.34,Payroll Accrual
GLI,8/31/2016,12906,118030,GLI083116,GLI083116,4.61,Payroll Accrual
GLI,8/31/2016,12905,118030,GLI083116,GLI083116,4.61,Payroll Accrual
GLI,8/31/2016,12904,118030,GLI083116,GLI083116,4.61,Payroll Accrual
GLI,8/31/2016,12902,118030,GLI083116,GLI083116,4.32,Payroll Accrual
GLI,8/31/2016,12901,118030,GLI083116,GLI083116,4.32,Payroll Accrual
GLI,8/31/2016,12511,118030,GLI083116,GLI083116,24.23,Payroll Accrual
GLI,8/31/2016,12506,118030,GLI083116,GLI083116,17.62,Payroll Accrual
GLI,8/31/2016,12505,118030,GLI083116,GLI083116,17.62,Payroll Accrual
GLI,8/31/2016,12504,118030,GLI083116,GLI083116,17.62,Payroll Accrual
GLI,8/31/2016,12502,118030,GLI083116,GLI083116,16.52,Payroll Accrual
GLI,8/31/2016,12501,118030,GLI083116,GLI083116,16.52,Payroll Accrual
GLI,8/31/2016,12311,118030,GLI083116,GLI083116,316.8,Payroll Accrual
GLI,8/31/2016,12306H,118030,GLI083116,GLI083116,230.4,Payroll Accrual
GLI,8/31/2016,12305H,118030,GLI083116,GLI083116,230.4,Payroll Accrual
GLI,8/31/2016,12304H,118030,GLI083116,GLI083116,230.4,Payroll Accrual
GLI,8/31/2016,12302H,118030,GLI083116,GLI083116,216,Payroll Accrual
GLI,8/31/2016,12301H,118030,GLI083116,GLI083116,216,Payroll Accrual
GLI,8/31/2016,12505,11732,GLI083116,GLI083116,51.4,Payroll Accrual
GLI,8/31/2016,12205A,11732,GLI083116,GLI083116,691.2,Payroll Accrual
GLI,8/31/2016,12505,11660,GLI083116,GLI083116,143.61,Payroll Accrual
GLI,8/31/2016,124703,11660,GLI083116,GLI083116,1896.51,Payroll Accrual
GLI,8/31/2016,12506,116210,GLI083116,GLI083116,62.77,Payroll Accrual
GLI,8/31/2016,12306C,116210,GLI083116,GLI083116,820.49,Payroll Accrual
GLI,8/31/2016,12904,116185,GLI083116,GLI083116,32.82,Payroll Accrual
GLI,8/31/2016,12504,116185,GLI083116,GLI083116,97.22,Payroll Accrual
GLI,8/31/2016,124704,116185,GLI083116,GLI083116,1640.88,Payroll Accrual
GLI,8/31/2016,12906,115255,GLI083116,GLI083116,36,Payroll Accrual
GLI,8/31/2016,12506,115255,GLI083116,GLI083116,137.7,Payroll Accrual
GLI,8/31/2016,12306B,115255,GLI083116,GLI083116,1800.01,Payroll Accrual
GLI,8/31/2016,12904,1150920,GLI083116,GLI083116,27.08,Payroll Accrual
GLI,8/31/2016,12504,1150920,GLI083116,GLI083116,133.99,Payroll Accrual
GLI,8/31/2016,124704,1150920,GLI083116,GLI083116,1805.44,Payroll Accrual
GLI,8/31/2016,12905,1150510,GLI083116,GLI083116,71.76,Payroll Accrual
GLI,8/31/2016,12505,1150510,GLI083116,GLI083116,274.49,Payroll Accrual
GLI,8/31/2016,12305B,1150510,GLI083116,GLI083116,3588.05,Payroll Accrual
GLI,8/31/2016,12504,1149710,GLI083116,GLI083116,100.6,Payroll Accrual
GLI,8/31/2016,12304D,1149710,GLI083116,GLI083116,1404.06,Payroll Accrual
GLI,8/31/2016,12906,1149636,GLI083116,GLI083116,13.86,Payroll Accrual
GLI,8/31/2016,12506,1149636,GLI083116,GLI083116,64.32,Payroll Accrual
GLI,8/31/2016,12306C,1149636,GLI083116,GLI083116,923.85,Payroll Accrual
GLI,8/31/2016,12504,1149300,GLI083116,GLI083116,115.9,Payroll Accrual
GLI,8/31/2016,124704,1149300,GLI083116,GLI083116,1515.04,Payroll Accrual
GLI,8/31/2016,12911,1148720,GLI083116,GLI083116,3.45,Payroll Accrual
GLI,8/31/2016,12906,1148720,GLI083116,GLI083116,2.51,Payroll Accrual
GLI,8/31/2016,12905,1148720,GLI083116,GLI083116,2.51,Payroll Accrual
GLI,8/31/2016,12904,1148720,GLI083116,GLI083116,2.51,Payroll Accrual
GLI,8/31/2016,12902,1148720,GLI083116,GLI083116,2.35,Payroll Accrual
GLI,8/31/2016,12901,1148720,GLI083116,GLI083116,2.35,Payroll Accrual
GLI,8/31/2016,12511,1148720,GLI083116,GLI083116,16.28,Payroll Accrual
GLI,8/31/2016,12506,1148720,GLI083116,GLI083116,11.49,Payroll Accrual
GLI,8/31/2016,12505,1148720,GLI083116,GLI083116,11.49,Payroll Accrual
GLI,8/31/2016,12504,1148720,GLI083116,GLI083116,11.49,Payroll Accrual
GLI,8/31/2016,12502,1148720,GLI083116,GLI083116,10.68,Payroll Accrual
GLI,8/31/2016,12501,1148720,GLI083116,GLI083116,10.68,Payroll Accrual
GLI,8/31/2016,12311,1148720,GLI083116,GLI083116,229.92,Payroll Accrual
GLI,8/31/2016,12306H,1148720,GLI083116,GLI083116,167.22,Payroll Accrual
GLI,8/31/2016,12305H,1148720,GLI083116,GLI083116,167.22,Payroll Accrual
GLI,8/31/2016,12304H,1148720,GLI083116,GLI083116,167.22,Payroll Accrual
GLI,8/31/2016,12302H,1148720,GLI083116,GLI083116,156.77,Payroll Accrual
GLI,8/31/2016,12301H,1148720,GLI083116,GLI083116,156.77,Payroll Accrual
GLI,8/31/2016,12905,1147325,GLI083116,GLI083116,10.1,Payroll Accrual
GLI,8/31/2016,12505,1147325,GLI083116,GLI083116,51.54,Payroll Accrual
GLI,8/31/2016,124703,1147325,GLI083116,GLI083116,673.65,Payroll Accrual
GLI,8/31/2016,12904,1147062,GLI083116,GLI083116,28.2,Payroll Accrual
GLI,8/31/2016,12504,1147062,GLI083116,GLI083116,87.21,Payroll Accrual
GLI,8/31/2016,12204A,1147062,GLI083116,GLI083116,1410.01,Payroll Accrual
GLI,8/31/2016,12505,1147061,GLI083116,GLI083116,231.23,Payroll Accrual
GLI,8/31/2016,124703,1147061,GLI083116,GLI083116,3038.48,Payroll Accrual
GLI,8/31/2016,12905,1146991,GLI083116,GLI083116,50.32,Payroll Accrual
GLI,8/31/2016,12505,1146991,GLI083116,GLI083116,186.92,Payroll Accrual
GLI,8/31/2016,124703,1146991,GLI083116,GLI083116,2516,Payroll Accrual
GLI,8/31/2016,12504,1146989,GLI083116,GLI083116,87.06,Payroll Accrual
GLI,8/31/2016,124704,1146989,GLI083116,GLI083116,1171.04,Payroll Accrual
GLI,8/31/2016,12503,1145001,GLI083116,GLI083116,69.08,Payroll Accrual
GLI,8/31/2016,12303,1145001,GLI083116,GLI083116,903,Payroll Accrual
GLI,8/31/2016,12503,1144901,GLI083116,GLI083116,56.24,Payroll Accrual
GLI,8/31/2016,124723,1144901,GLI083116,GLI083116,735.12,Payroll Accrual
GLI,8/31/2016,12506,1144310,GLI083116,GLI083116,3.69,Payroll Accrual
GLI,8/31/2016,12306C,1144310,GLI083116,GLI083116,48.2,Payroll Accrual
GLI,8/31/2016,12506,1144265,GLI083116,GLI083116,108.07,Payroll Accrual
GLI,8/31/2016,12306B,1144265,GLI083116,GLI083116,1466.15,Payroll Accrual
GLI,8/31/2016,12914,1141210,GLI083116,GLI083116,3.13,Payroll Accrual
GLI,8/31/2016,12906,1141210,GLI083116,GLI083116,0.59,Payroll Accrual
GLI,8/31/2016,12905,1141210,GLI083116,GLI083116,-0.14,Payroll Accrual
GLI,8/31/2016,12904,1141210,GLI083116,GLI083116,2.7,Payroll Accrual
GLI,8/31/2016,12902,1141210,GLI083116,GLI083116,2.42,Payroll Accrual
GLI,8/31/2016,12901,1141210,GLI083116,GLI083116,2.42,Payroll Accrual
GLI,8/31/2016,12514,1141210,GLI083116,GLI083116,4.97,Payroll Accrual
GLI,8/31/2016,12506,1141210,GLI083116,GLI083116,-0.29,Payroll Accrual
GLI,8/31/2016,12505,1141210,GLI083116,GLI083116,-0.43,Payroll Accrual
GLI,8/31/2016,12504,1141210,GLI083116,GLI083116,2.8,Payroll Accrual
GLI,8/31/2016,12502,1141210,GLI083116,GLI083116,1.35,Payroll Accrual
GLI,8/31/2016,12501,1141210,GLI083116,GLI083116,1.35,Payroll Accrual
GLI,8/31/2016,12214,1141210,GLI083116,GLI083116,208.42,Payroll Accrual
GLI,8/31/2016,12206C,1141210,GLI083116,GLI083116,123.16,Payroll Accrual
GLI,8/31/2016,12205C,1141210,GLI083116,GLI083116,113.69,Payroll Accrual
GLI,8/31/2016,12204C,1141210,GLI083116,GLI083116,180,Payroll Accrual
GLI,8/31/2016,12202C,1141210,GLI083116,GLI083116,161.05,Payroll Accrual
GLI,8/31/2016,12201C,1141210,GLI083116,GLI083116,161.05,Payroll Accrual
GLI,8/31/2016,12504,1140870,GLI083116,GLI083116,366.69,Payroll Accrual
GLI,8/31/2016,12404,1140870,GLI083116,GLI083116,72,Payroll Accrual
GLI,8/31/2016,12304B,1140870,GLI083116,GLI083116,4721.39,Payroll Accrual
GLI,8/31/2016,12527,1137596,GLI083116,GLI083116,17.3,Payroll Accrual
GLI,8/31/2016,12327,1137596,GLI083116,GLI083116,226.1,Payroll Accrual
GLI,8/31/2016,12904,1137590,GLI083116,GLI083116,34.91,Payroll Accrual
GLI,8/31/2016,12504,1137590,GLI083116,GLI083116,129.94,Payroll Accrual
GLI,8/31/2016,124704,1137590,GLI083116,GLI083116,1745.6,Payroll Accrual
GLI,8/31/2016,12527,1135810,GLI083116,GLI083116,47.91,Payroll Accrual
GLI,8/31/2016,12327,1135810,GLI083116,GLI083116,626.28,Payroll Accrual
GLI,8/31/2016,12524,1135710,GLI083116,GLI083116,27.81,Payroll Accrual
GLI,8/31/2016,124724,1135710,GLI083116,GLI083116,363.6,Payroll Accrual
GLI,8/31/2016,12503,1135450,GLI083116,GLI083116,34.41,Payroll Accrual
GLI,8/31/2016,124723,1135450,GLI083116,GLI083116,449.82,Payroll Accrual
GLI,8/31/2016,12504,1135410,GLI083116,GLI083116,77.61,Payroll Accrual
GLI,8/31/2016,124704,1135410,GLI083116,GLI083116,402.68,Payroll Accrual
GLI,8/31/2016,12404,1135410,GLI083116,GLI083116,636.4,Payroll Accrual
GLI,8/31/2016,12911,1135260,GLI083116,GLI083116,6.93,Payroll Accrual
GLI,8/31/2016,12906,1135260,GLI083116,GLI083116,5.04,Payroll Accrual
GLI,8/31/2016,12905,1135260,GLI083116,GLI083116,5.04,Payroll Accrual
GLI,8/31/2016,12904,1135260,GLI083116,GLI083116,5.04,Payroll Accrual
GLI,8/31/2016,12902,1135260,GLI083116,GLI083116,4.73,Payroll Accrual
GLI,8/31/2016,12901,1135260,GLI083116,GLI083116,4.73,Payroll Accrual
GLI,8/31/2016,12511,1135260,GLI083116,GLI083116,33.6,Payroll Accrual
GLI,8/31/2016,12506,1135260,GLI083116,GLI083116,24.44,Payroll Accrual
GLI,8/31/2016,12505,1135260,GLI083116,GLI083116,24.44,Payroll Accrual
GLI,8/31/2016,12504,1135260,GLI083116,GLI083116,24.44,Payroll Accrual
GLI,8/31/2016,12502,1135260,GLI083116,GLI083116,22.91,Payroll Accrual
GLI,8/31/2016,12501,1135260,GLI083116,GLI083116,22.91,Payroll Accrual
GLI,8/31/2016,12311,1135260,GLI083116,GLI083116,462,Payroll Accrual
GLI,8/31/2016,12306H,1135260,GLI083116,GLI083116,336,Payroll Accrual
GLI,8/31/2016,12305H,1135260,GLI083116,GLI083116,336,Payroll Accrual
GLI,8/31/2016,12304H,1135260,GLI083116,GLI083116,336,Payroll Accrual
GLI,8/31/2016,12302H,1135260,GLI083116,GLI083116,315,Payroll Accrual
GLI,8/31/2016,12301H,1135260,GLI083116,GLI083116,315,Payroll Accrual
GLI,8/31/2016,12905,1134524,GLI083116,GLI083116,21.49,Payroll Accrual
GLI,8/31/2016,12505,1134524,GLI083116,GLI083116,109.61,Payroll Accrual
GLI,8/31/2016,124703,1134524,GLI083116,GLI083116,1432.8,Payroll Accrual
GLI,8/31/2016,12506,1133727,GLI083116,GLI083116,84.27,Payroll Accrual
GLI,8/31/2016,12306D,1133727,GLI083116,GLI083116,1104.9,Payroll Accrual
GLI,8/31/2016,12504,1133500,GLI083116,GLI083116,71.12,Payroll Accrual
GLI,8/31/2016,124704,1133500,GLI083116,GLI083116,929.7,Payroll Accrual
GLI,8/31/2016,12906,1132600,GLI083116,GLI083116,2.28,Payroll Accrual
GLI,8/31/2016,12905,1132600,GLI083116,GLI083116,2.28,Payroll Accrual
GLI,8/31/2016,12506,1132600,GLI083116,GLI083116,0.53,Payroll Accrual
GLI,8/31/2016,12505,1132600,GLI083116,GLI083116,0.53,Payroll Accrual
GLI,8/31/2016,12504,1132600,GLI083116,GLI083116,2.81,Payroll Accrual
GLI,8/31/2016,12502,1132600,GLI083116,GLI083116,2.81,Payroll Accrual
GLI,8/31/2016,12501,1132600,GLI083116,GLI083116,2.81,Payroll Accrual
GLI,8/31/2016,12206B,1132600,GLI083116,GLI083116,36.76,Payroll Accrual
GLI,8/31/2016,12205B,1132600,GLI083116,GLI083116,36.76,Payroll Accrual
GLI,8/31/2016,12204B,1132600,GLI083116,GLI083116,36.76,Payroll Accrual
GLI,8/31/2016,12202B,1132600,GLI083116,GLI083116,36.76,Payroll Accrual
GLI,8/31/2016,12201B,1132600,GLI083116,GLI083116,36.76,Payroll Accrual
GLI,8/31/2016,12906,1132595,GLI083116,GLI083116,79,Payroll Accrual
GLI,8/31/2016,12506,1132595,GLI083116,GLI083116,298.76,Payroll Accrual
GLI,8/31/2016,12106,1132595,GLI083116,GLI083116,3950,Payroll Accrual
GLI,8/31/2016,12904,1132590,GLI083116,GLI083116,62.46,Payroll Accrual
GLI,8/31/2016,12504,1132590,GLI083116,GLI083116,237.46,Payroll Accrual
GLI,8/31/2016,12304B,1132590,GLI083116,GLI083116,3123.26,Payroll Accrual
GLI,8/31/2016,12527,1132231,GLI083116,GLI083116,14.09,Payroll Accrual
GLI,8/31/2016,12327,1132231,GLI083116,GLI083116,184.2,Payroll Accrual
GLI,8/31/2016,12905,1132218,GLI083116,GLI083116,32.4,Payroll Accrual
GLI,8/31/2016,12505,1132218,GLI083116,GLI083116,122.16,Payroll Accrual
GLI,8/31/2016,124703,1132218,GLI083116,GLI083116,1620.01,Payroll Accrual
GLI,8/31/2016,12506,1132205,GLI083116,GLI083116,86.17,Payroll Accrual
GLI,8/31/2016,12306B,1132205,GLI083116,GLI083116,1176.63,Payroll Accrual
GLI,8/31/2016,12503,1131105,GLI083116,GLI083116,9.62,Payroll Accrual
GLI,8/31/2016,124723,1131105,GLI083116,GLI083116,125.76,Payroll Accrual
GLI,8/31/2016,12927,113085,GLI083116,GLI083116,10.8,Payroll Accrual
GLI,8/31/2016,12924,113085,GLI083116,GLI083116,10.8,Payroll Accrual
GLI,8/31/2016,12527,113085,GLI083116,GLI083116,54.51,Payroll Accrual
GLI,8/31/2016,12524,113085,GLI083116,GLI083116,54.51,Payroll Accrual
GLI,8/31/2016,12127,113085,GLI083116,GLI083116,720,Payroll Accrual
GLI,8/31/2016,12124,113085,GLI083116,GLI083116,720,Payroll Accrual
GLI,8/31/2016,12504,1130700,GLI083116,GLI083116,63.21,Payroll Accrual
GLI,8/31/2016,12304C,1130700,GLI083116,GLI083116,826.32,Payroll Accrual
GLI,8/31/2016,12906,1130510,GLI083116,GLI083116,19.27,Payroll Accrual
GLI,8/31/2016,12506,1130510,GLI083116,GLI083116,86.16,Payroll Accrual
GLI,8/31/2016,12306C,1130510,GLI083116,GLI083116,1284.45,Payroll Accrual
GLI,8/31/2016,12503,1130326,GLI083116,GLI083116,8.8,Payroll Accrual
GLI,8/31/2016,124723,1130326,GLI083116,GLI083116,114.96,Payroll Accrual
GLI,8/31/2016,12906,113020,GLI083116,GLI083116,39.6,Payroll Accrual
GLI,8/31/2016,12506,113020,GLI083116,GLI083116,148.25,Payroll Accrual
GLI,8/31/2016,12306B,113020,GLI083116,GLI083116,1980,Payroll Accrual
GLI,8/31/2016,12904,113011,GLI083116,GLI083116,10.89,Payroll Accrual
GLI,8/31/2016,12504,113011,GLI083116,GLI083116,41.67,Payroll Accrual
GLI,8/31/2016,12304C,113011,GLI083116,GLI083116,544.61,Payroll Accrual
GLI,8/31/2016,12503,1130101,GLI083116,GLI083116,61.48,Payroll Accrual
GLI,8/31/2016,124723,1130101,GLI083116,GLI083116,803.76,Payroll Accrual
GLI,8/31/2016,12904,1130098,GLI083116,GLI083116,14.27,Payroll Accrual
GLI,8/31/2016,12504,1130098,GLI083116,GLI083116,72.79,Payroll Accrual
GLI,8/31/2016,124704,1130098,GLI083116,GLI083116,951.45,Payroll Accrual
GLI,8/31/2016,12506,1130090,GLI083116,GLI083116,59.59,Payroll Accrual
GLI,8/31/2016,12306C,1130090,GLI083116,GLI083116,778.96,Payroll Accrual
GLI,8/31/2016,12916,113000,GLI083116,GLI083116,26.1,Payroll Accrual
GLI,8/31/2016,12516,113000,GLI083116,GLI083116,99.85,Payroll Accrual
GLI,8/31/2016,12316,113000,GLI083116,GLI083116,1305.18,Payroll Accrual
GLI,8/31/2016,12527,1129560,GLI083116,GLI083116,27.98,Payroll Accrual
GLI,8/31/2016,12327,1129560,GLI083116,GLI083116,365.8,Payroll Accrual
GLI,8/31/2016,12503,1129090,GLI083116,GLI083116,13.5,Payroll Accrual
GLI,8/31/2016,124723,1129090,GLI083116,GLI083116,176.52,Payroll Accrual
GLI,8/31/2016,12904,1126110,GLI083116,GLI083116,19.07,Payroll Accrual
GLI,8/31/2016,12504,1126110,GLI083116,GLI083116,87.06,Payroll Accrual
GLI,8/31/2016,12404,1126110,GLI083116,GLI083116,240,Payroll Accrual
GLI,8/31/2016,12304B,1126110,GLI083116,GLI083116,1031.03,Payroll Accrual
GLI,8/31/2016,12916,1126060,GLI083116,GLI083116,10.59,Payroll Accrual
GLI,8/31/2016,12516,1126060,GLI083116,GLI083116,53.75,Payroll Accrual
GLI,8/31/2016,12316,1126060,GLI083116,GLI083116,706,Payroll Accrual
GLI,8/31/2016,12504,1126055,GLI083116,GLI083116,58.87,Payroll Accrual
GLI,8/31/2016,12304C,1126055,GLI083116,GLI083116,769.47,Payroll Accrual
GLI,8/31/2016,12905,1126040,GLI083116,GLI083116,10.01,Payroll Accrual
GLI,8/31/2016,12505,1126040,GLI083116,GLI083116,28.95,Payroll Accrual
GLI,8/31/2016,124703,1126040,GLI083116,GLI083116,500.64,Payroll Accrual
GLI,8/31/2016,12905,1125565,GLI083116,GLI083116,48.81,Payroll Accrual
GLI,8/31/2016,12505,1125565,GLI083116,GLI083116,175.3,Payroll Accrual
GLI,8/31/2016,124703,1125565,GLI083116,GLI083116,2440.56,Payroll Accrual
GLI,8/31/2016,12503,1124895,GLI083116,GLI083116,28.85,Payroll Accrual
GLI,8/31/2016,12303,1124895,GLI083116,GLI083116,377.16,Payroll Accrual
GLI,8/31/2016,12906,1124875,GLI083116,GLI083116,28.24,Payroll Accrual
GLI,8/31/2016,12506,1124875,GLI083116,GLI083116,103.44,Payroll Accrual
GLI,8/31/2016,12306B,1124875,GLI083116,GLI083116,1411.75,Payroll Accrual
GLI,8/31/2016,12904,1124436,GLI083116,GLI083116,39.06,Payroll Accrual
GLI,8/31/2016,12504,1124436,GLI083116,GLI083116,198.55,Payroll Accrual
GLI,8/31/2016,124704,1124436,GLI083116,GLI083116,2604.16,Payroll Accrual
GLI,8/31/2016,12504,1124430,GLI083116,GLI083116,53.86,Payroll Accrual
GLI,8/31/2016,12304C,1124430,GLI083116,GLI083116,723.31,Payroll Accrual
GLI,8/31/2016,12904,1124400,GLI083116,GLI083116,13.4,Payroll Accrual
GLI,8/31/2016,12504,1124400,GLI083116,GLI083116,67.12,Payroll Accrual
GLI,8/31/2016,124704,1124400,GLI083116,GLI083116,893.34,Payroll Accrual
GLI,8/31/2016,12527,1123355,GLI083116,GLI083116,51.88,Payroll Accrual
GLI,8/31/2016,12327,1123355,GLI083116,GLI083116,678.21,Payroll Accrual
GLI,8/31/2016,12914,1123351,GLI083116,GLI083116,3.45,Payroll Accrual
GLI,8/31/2016,12906,1123351,GLI083116,GLI083116,9.27,Payroll Accrual
GLI,8/31/2016,12905,1123351,GLI083116,GLI083116,8.46,Payroll Accrual
GLI,8/31/2016,12904,1123351,GLI083116,GLI083116,2.98,Payroll Accrual
GLI,8/31/2016,12902,1123351,GLI083116,GLI083116,2.66,Payroll Accrual
GLI,8/31/2016,12901,1123351,GLI083116,GLI083116,2.66,Payroll Accrual
GLI,8/31/2016,12514,1123351,GLI083116,GLI083116,16.1,Payroll Accrual
GLI,8/31/2016,12506,1123351,GLI083116,GLI083116,1.69,Payroll Accrual
GLI,8/31/2016,12505,1123351,GLI083116,GLI083116,1.54,Payroll Accrual
GLI,8/31/2016,12504,1123351,GLI083116,GLI083116,13.71,Payroll Accrual
GLI,8/31/2016,12502,1123351,GLI083116,GLI083116,12.12,Payroll Accrual
GLI,8/31/2016,12501,1123351,GLI083116,GLI083116,12.12,Payroll Accrual
GLI,8/31/2016,12214,1123351,GLI083116,GLI083116,229.78,Payroll Accrual
GLI,8/31/2016,12206C,1123351,GLI083116,GLI083116,135.78,Payroll Accrual
GLI,8/31/2016,12205C,1123351,GLI083116,GLI083116,125.33,Payroll Accrual
GLI,8/31/2016,12204C,1123351,GLI083116,GLI083116,198.45,Payroll Accrual
GLI,8/31/2016,12202C,1123351,GLI083116,GLI083116,177.56,Payroll Accrual
GLI,8/31/2016,12201C,1123351,GLI083116,GLI083116,177.56,Payroll Accrual
GLI,8/31/2016,12914,1123340,GLI083116,GLI083116,12.67,Payroll Accrual
GLI,8/31/2016,12906,1123340,GLI083116,GLI083116,30.13,Payroll Accrual
GLI,8/31/2016,12905,1123340,GLI083116,GLI083116,27.8,Payroll Accrual
GLI,8/31/2016,12904,1123340,GLI083116,GLI083116,10.94,Payroll Accrual
GLI,8/31/2016,12902,1123340,GLI083116,GLI083116,9.79,Payroll Accrual
GLI,8/31/2016,12901,1123340,GLI083116,GLI083116,9.79,Payroll Accrual
GLI,8/31/2016,12514,1123340,GLI083116,GLI083116,47.27,Payroll Accrual
GLI,8/31/2016,12506,1123340,GLI083116,GLI083116,5.29,Payroll Accrual
GLI,8/31/2016,12505,1123340,GLI083116,GLI083116,4.89,Payroll Accrual
GLI,8/31/2016,12504,1123340,GLI083116,GLI083116,40.82,Payroll Accrual
GLI,8/31/2016,12502,1123340,GLI083116,GLI083116,36.52,Payroll Accrual
GLI,8/31/2016,12501,1123340,GLI083116,GLI083116,36.52,Payroll Accrual
GLI,8/31/2016,12214,1123340,GLI083116,GLI083116,633.6,Payroll Accrual
GLI,8/31/2016,12206C,1123340,GLI083116,GLI083116,374.4,Payroll Accrual
GLI,8/31/2016,12205C,1123340,GLI083116,GLI083116,345.6,Payroll Accrual
GLI,8/31/2016,12204C,1123340,GLI083116,GLI083116,547.2,Payroll Accrual
GLI,8/31/2016,12202C,1123340,GLI083116,GLI083116,489.6,Payroll Accrual
GLI,8/31/2016,12201C,1123340,GLI083116,GLI083116,489.6,Payroll Accrual
GLI,8/31/2016,12503,1123002,GLI083116,GLI083116,5.07,Payroll Accrual
GLI,8/31/2016,124723,1123002,GLI083116,GLI083116,66.24,Payroll Accrual
GLI,8/31/2016,12505,112273,GLI083116,GLI083116,62.1,Payroll Accrual
GLI,8/31/2016,12205A,112273,GLI083116,GLI083116,811.74,Payroll Accrual
GLI,8/31/2016,12924,1122352,GLI083116,GLI083116,11.25,Payroll Accrual
GLI,8/31/2016,12524,1122352,GLI083116,GLI083116,53.54,Payroll Accrual
GLI,8/31/2016,124724,1122352,GLI083116,GLI083116,749.93,Payroll Accrual
GLI,8/31/2016,12905,1122320,GLI083116,GLI083116,77.64,Payroll Accrual
GLI,8/31/2016,12505,1122320,GLI083116,GLI083116,296.79,Payroll Accrual
GLI,8/31/2016,12305B,1122320,GLI083116,GLI083116,3881.97,Payroll Accrual
GLI,8/31/2016,12503,1122246,GLI083116,GLI083116,89.47,Payroll Accrual
GLI,8/31/2016,12303,1122246,GLI083116,GLI083116,1188.67,Payroll Accrual
GLI,8/31/2016,12527,1122110,GLI083116,GLI083116,132.75,Payroll Accrual
GLI,8/31/2016,12327,1122110,GLI083116,GLI083116,1846.5,Payroll Accrual
GLI,8/31/2016,12927,1121250,GLI083116,GLI083116,10.75,Payroll Accrual
GLI,8/31/2016,12527,1121250,GLI083116,GLI083116,54.82,Payroll Accrual
GLI,8/31/2016,12327,1121250,GLI083116,GLI083116,716.66,Payroll Accrual
GLI,8/31/2016,12924,1121246,GLI083116,GLI083116,13.5,Payroll Accrual
GLI,8/31/2016,12524,1121246,GLI083116,GLI083116,67.38,Payroll Accrual
GLI,8/31/2016,124724,1121246,GLI083116,GLI083116,900.06,Payroll Accrual
GLI,8/31/2016,12527,112098,GLI083116,GLI083116,11.55,Payroll Accrual
GLI,8/31/2016,12524,112098,GLI083116,GLI083116,26.94,Payroll Accrual
GLI,8/31/2016,124724,112098,GLI083116,GLI083116,352.1,Payroll Accrual
GLI,8/31/2016,12327,112098,GLI083116,GLI083116,150.9,Payroll Accrual
GLI,8/31/2016,12503,112057,GLI083116,GLI083116,50.16,Payroll Accrual
GLI,8/31/2016,124723,112057,GLI083116,GLI083116,655.68,Payroll Accrual
GLI,8/31/2016,12506,1120225,GLI083116,GLI083116,52.09,Payroll Accrual
GLI,8/31/2016,12505,1120225,GLI083116,GLI083116,52.09,Payroll Accrual
GLI,8/31/2016,12504,1120225,GLI083116,GLI083116,52.09,Payroll Accrual
GLI,8/31/2016,12502,1120225,GLI083116,GLI083116,52.09,Payroll Accrual
GLI,8/31/2016,12501,1120225,GLI083116,GLI083116,52.09,Payroll Accrual
GLI,8/31/2016,12006,1120225,GLI083116,GLI083116,720,Payroll Accrual
GLI,8/31/2016,12005,1120225,GLI083116,GLI083116,720,Payroll Accrual
GLI,8/31/2016,12004,1120225,GLI083116,GLI083116,720,Payroll Accrual
GLI,8/31/2016,12002,1120225,GLI083116,GLI083116,720,Payroll Accrual
GLI,8/31/2016,12001,1120225,GLI083116,GLI083116,720,Payroll Accrual
GLI,8/31/2016,12906,1120120,GLI083116,GLI083116,12.53,Payroll Accrual
GLI,8/31/2016,12506,1120120,GLI083116,GLI083116,59.76,Payroll Accrual
GLI,8/31/2016,12306B,1120120,GLI083116,GLI083116,835.04,Payroll Accrual
GLI,8/31/2016,12927,1120110,GLI083116,GLI083116,23.4,Payroll Accrual
GLI,8/31/2016,12527,1120110,GLI083116,GLI083116,104.42,Payroll Accrual
GLI,8/31/2016,12127,1120110,GLI083116,GLI083116,1560,Payroll Accrual
GLI,8/31/2016,12906,1118832,GLI083116,GLI083116,9.14,Payroll Accrual
GLI,8/31/2016,12506,1118832,GLI083116,GLI083116,46.64,Payroll Accrual
GLI,8/31/2016,12306C,1118832,GLI083116,GLI083116,609.63,Payroll Accrual
GLI,8/31/2016,12906,1118800,GLI083116,GLI083116,16.67,Payroll Accrual
GLI,8/31/2016,12506,1118800,GLI083116,GLI083116,83.03,Payroll Accrual
GLI,8/31/2016,12306B,1118800,GLI083116,GLI083116,1111.32,Payroll Accrual
GLI,8/31/2016,12505,1118722,GLI083116,GLI083116,214.52,Payroll Accrual
GLI,8/31/2016,124703,1118722,GLI083116,GLI083116,2911.36,Payroll Accrual
GLI,8/31/2016,12904,1117960,GLI083116,GLI083116,30,Payroll Accrual
GLI,8/31/2016,12504,1117960,GLI083116,GLI083116,111.9,Payroll Accrual
GLI,8/31/2016,124704,1117960,GLI083116,GLI083116,1500,Payroll Accrual
GLI,8/31/2016,12524,1117950,GLI083116,GLI083116,13.95,Payroll Accrual
GLI,8/31/2016,124724,1117950,GLI083116,GLI083116,182.4,Payroll Accrual
GLI,8/31/2016,12504,1117901,GLI083116,GLI083116,78.67,Payroll Accrual
GLI,8/31/2016,124704,1117901,GLI083116,GLI083116,1028.45,Payroll Accrual
GLI,8/31/2016,12503,1117850,GLI083116,GLI083116,62.21,Payroll Accrual
GLI,8/31/2016,124723,1117850,GLI083116,GLI083116,813.24,Payroll Accrual
GLI,8/31/2016,12503,1117842,GLI083116,GLI083116,72.79,Payroll Accrual
GLI,8/31/2016,12303,1117842,GLI083116,GLI083116,954.87,Payroll Accrual
GLI,8/31/2016,12503,1117600,GLI083116,GLI083116,76.4,Payroll Accrual
GLI,8/31/2016,12303,1117600,GLI083116,GLI083116,1240.39,Payroll Accrual
GLI,8/31/2016,12504,1116963,GLI083116,GLI083116,29.11,Payroll Accrual
GLI,8/31/2016,12304C,1116963,GLI083116,GLI083116,380.5,Payroll Accrual
GLI,8/31/2016,12924,1116800,GLI083116,GLI083116,6.32,Payroll Accrual
GLI,8/31/2016,12524,1116800,GLI083116,GLI083116,32.22,Payroll Accrual
GLI,8/31/2016,124724,1116800,GLI083116,GLI083116,421.2,Payroll Accrual
GLI,8/31/2016,12905,1114921,GLI083116,GLI083116,27.22,Payroll Accrual
GLI,8/31/2016,12505,1114921,GLI083116,GLI083116,133.27,Payroll Accrual
GLI,8/31/2016,124703,1114921,GLI083116,GLI083116,1814.74,Payroll Accrual
GLI,8/31/2016,12527,1114860,GLI083116,GLI083116,6.63,Payroll Accrual
GLI,8/31/2016,12327,1114860,GLI083116,GLI083116,86.6,Payroll Accrual
GLI,8/31/2016,12506,1114831,GLI083116,GLI083116,56.27,Payroll Accrual
GLI,8/31/2016,12306D,1114831,GLI083116,GLI083116,735.54,Payroll Accrual
GLI,8/31/2016,12906,1114135,GLI083116,GLI083116,3.01,Payroll Accrual
GLI,8/31/2016,12905,1114135,GLI083116,GLI083116,3.01,Payroll Accrual
GLI,8/31/2016,12506,1114135,GLI083116,GLI083116,0.7,Payroll Accrual
GLI,8/31/2016,12505,1114135,GLI083116,GLI083116,0.7,Payroll Accrual
GLI,8/31/2016,12504,1114135,GLI083116,GLI083116,3.71,Payroll Accrual
GLI,8/31/2016,12502,1114135,GLI083116,GLI083116,3.71,Payroll Accrual
GLI,8/31/2016,12501,1114135,GLI083116,GLI083116,3.71,Payroll Accrual
GLI,8/31/2016,12206B,1114135,GLI083116,GLI083116,48.58,Payroll Accrual
GLI,8/31/2016,12205B,1114135,GLI083116,GLI083116,48.58,Payroll Accrual
GLI,8/31/2016,12204B,1114135,GLI083116,GLI083116,48.58,Payroll Accrual
GLI,8/31/2016,12202B,1114135,GLI083116,GLI083116,48.58,Payroll Accrual
GLI,8/31/2016,12201B,1114135,GLI083116,GLI083116,48.58,Payroll Accrual
GLI,8/31/2016,12904,1114105,GLI083116,GLI083116,63.34,Payroll Accrual
GLI,8/31/2016,12504,1114105,GLI083116,GLI083116,229.92,Payroll Accrual
GLI,8/31/2016,12304B,1114105,GLI083116,GLI083116,3166.87,Payroll Accrual
GLI,8/31/2016,12904,1113940,GLI083116,GLI083116,28.56,Payroll Accrual
GLI,8/31/2016,12504,1113940,GLI083116,GLI083116,106.08,Payroll Accrual
GLI,8/31/2016,124704,1113940,GLI083116,GLI083116,1427.92,Payroll Accrual
GLI,8/31/2016,12524,1112411,GLI083116,GLI083116,103.95,Payroll Accrual
GLI,8/31/2016,124724,1112411,GLI083116,GLI083116,1470,Payroll Accrual
GLI,8/31/2016,12904,111210,GLI083116,GLI083116,23.17,Payroll Accrual
GLI,8/31/2016,12504,111210,GLI083116,GLI083116,116.71,Payroll Accrual
GLI,8/31/2016,124704,111210,GLI083116,GLI083116,1544.88,Payroll Accrual
GLI,8/31/2016,12905,1111325,GLI083116,GLI083116,24.45,Payroll Accrual
GLI,8/31/2016,12505,1111325,GLI083116,GLI083116,91.54,Payroll Accrual
GLI,8/31/2016,12405,1111325,GLI083116,GLI083116,144,Payroll Accrual
GLI,8/31/2016,12205A,1111325,GLI083116,GLI083116,1078.56,Payroll Accrual
GLI,8/31/2016,12904,1110800,GLI083116,GLI083116,17.49,Payroll Accrual
GLI,8/31/2016,12504,1110800,GLI083116,GLI083116,77.87,Payroll Accrual
GLI,8/31/2016,12304B,1110800,GLI083116,GLI083116,1165.72,Payroll Accrual
GLI,8/31/2016,12511,1110660,GLI083116,GLI083116,8.86,Payroll Accrual
GLI,8/31/2016,12506,1110660,GLI083116,GLI083116,6.44,Payroll Accrual
GLI,8/31/2016,12505,1110660,GLI083116,GLI083116,6.44,Payroll Accrual
GLI,8/31/2016,12504,1110660,GLI083116,GLI083116,6.44,Payroll Accrual
GLI,8/31/2016,12502,1110660,GLI083116,GLI083116,6.03,Payroll Accrual
GLI,8/31/2016,12501,1110660,GLI083116,GLI083116,6.03,Payroll Accrual
GLI,8/31/2016,12311,1110660,GLI083116,GLI083116,115.74,Payroll Accrual
GLI,8/31/2016,12306H,1110660,GLI083116,GLI083116,84.18,Payroll Accrual
GLI,8/31/2016,12305H,1110660,GLI083116,GLI083116,84.18,Payroll Accrual
GLI,8/31/2016,12304H,1110660,GLI083116,GLI083116,84.18,Payroll Accrual
GLI,8/31/2016,12302H,1110660,GLI083116,GLI083116,78.91,Payroll Accrual
GLI,8/31/2016,12301H,1110660,GLI083116,GLI083116,78.91,Payroll Accrual
GLI,8/31/2016,12905,1110650,GLI083116,GLI083116,38.25,Payroll Accrual
GLI,8/31/2016,12505,1110650,GLI083116,GLI083116,195.06,Payroll Accrual
GLI,8/31/2016,124703,1110650,GLI083116,GLI083116,2549.84,Payroll Accrual
GLI,8/31/2016,12503,1109836,GLI083116,GLI083116,17.52,Payroll Accrual
GLI,8/31/2016,124723,1109836,GLI083116,GLI083116,229.08,Payroll Accrual
GLI,8/31/2016,12504,1109819,GLI083116,GLI083116,62.83,Payroll Accrual
GLI,8/31/2016,12204A,1109819,GLI083116,GLI083116,878.04,Payroll Accrual
GLI,8/31/2016,12904,1108248,GLI083116,GLI083116,18.09,Payroll Accrual
GLI,8/31/2016,12504,1108248,GLI083116,GLI083116,69.19,Payroll Accrual
GLI,8/31/2016,124704,1108248,GLI083116,GLI083116,793.27,Payroll Accrual
GLI,8/31/2016,12404,1108248,GLI083116,GLI083116,111.2,Payroll Accrual
GLI,8/31/2016,12905,1108200,GLI083116,GLI083116,84.16,Payroll Accrual
GLI,8/31/2016,12505,1108200,GLI083116,GLI083116,427.53,Payroll Accrual
GLI,8/31/2016,12305B,1108200,GLI083116,GLI083116,5610.41,Payroll Accrual
GLI,8/31/2016,12906,1108150,GLI083116,GLI083116,2.8,Payroll Accrual
GLI,8/31/2016,12905,1108150,GLI083116,GLI083116,2.8,Payroll Accrual
GLI,8/31/2016,12506,1108150,GLI083116,GLI083116,0.66,Payroll Accrual
GLI,8/31/2016,12505,1108150,GLI083116,GLI083116,0.66,Payroll Accrual
GLI,8/31/2016,12504,1108150,GLI083116,GLI083116,3.46,Payroll Accrual
GLI,8/31/2016,12502,1108150,GLI083116,GLI083116,3.46,Payroll Accrual
GLI,8/31/2016,12501,1108150,GLI083116,GLI083116,3.46,Payroll Accrual
GLI,8/31/2016,12206B,1108150,GLI083116,GLI083116,45.24,Payroll Accrual
GLI,8/31/2016,12205B,1108150,GLI083116,GLI083116,45.24,Payroll Accrual
GLI,8/31/2016,12204B,1108150,GLI083116,GLI083116,45.24,Payroll Accrual
GLI,8/31/2016,12202B,1108150,GLI083116,GLI083116,45.24,Payroll Accrual
GLI,8/31/2016,12201B,1108150,GLI083116,GLI083116,45.24,Payroll Accrual
GLI,8/31/2016,12904,1107950,GLI083116,GLI083116,16.37,Payroll Accrual
GLI,8/31/2016,12504,1107950,GLI083116,GLI083116,80.96,Payroll Accrual
GLI,8/31/2016,124704,1107950,GLI083116,GLI083116,1091.28,Payroll Accrual
GLI,8/31/2016,12904,1106421,GLI083116,GLI083116,31.42,Payroll Accrual
GLI,8/31/2016,12504,1106421,GLI083116,GLI083116,148.18,Payroll Accrual
GLI,8/31/2016,124704,1106421,GLI083116,GLI083116,2094.56,Payroll Accrual
GLI,8/31/2016,12905,1106400,GLI083116,GLI083116,30.74,Payroll Accrual
GLI,8/31/2016,12505,1106400,GLI083116,GLI083116,156.76,Payroll Accrual
GLI,8/31/2016,124703,1106400,GLI083116,GLI083116,2049.12,Payroll Accrual
GLI,8/31/2016,12904,1106399,GLI083116,GLI083116,67.12,Payroll Accrual
GLI,8/31/2016,12504,1106399,GLI083116,GLI083116,256.72,Payroll Accrual
GLI,8/31/2016,124704,1106399,GLI083116,GLI083116,3355.84,Payroll Accrual
GLI,8/31/2016,12924,1106260,GLI083116,GLI083116,9.79,Payroll Accrual
GLI,8/31/2016,12524,1106260,GLI083116,GLI083116,49.69,Payroll Accrual
GLI,8/31/2016,124724,1106260,GLI083116,GLI083116,652.8,Payroll Accrual
GLI,8/31/2016,12924,1103065,GLI083116,GLI083116,5.56,Payroll Accrual
GLI,8/31/2016,12905,1103065,GLI083116,GLI083116,5.56,Payroll Accrual
GLI,8/31/2016,12904,1103065,GLI083116,GLI083116,5.56,Payroll Accrual
GLI,8/31/2016,12901,1103065,GLI083116,GLI083116,5.56,Payroll Accrual
GLI,8/31/2016,12524,1103065,GLI083116,GLI083116,14.16,Payroll Accrual
GLI,8/31/2016,12505,1103065,GLI083116,GLI083116,14.16,Payroll Accrual
GLI,8/31/2016,12504,1103065,GLI083116,GLI083116,14.16,Payroll Accrual
GLI,8/31/2016,12501,1103065,GLI083116,GLI083116,14.16,Payroll Accrual
GLI,8/31/2016,12324F,1103065,GLI083116,GLI083116,277.85,Payroll Accrual
GLI,8/31/2016,12305F,1103065,GLI083116,GLI083116,277.85,Payroll Accrual
GLI,8/31/2016,12304F,1103065,GLI083116,GLI083116,277.85,Payroll Accrual
GLI,8/31/2016,12301F,1103065,GLI083116,GLI083116,277.85,Payroll Accrual
GLI,8/31/2016,12503,1102198,GLI083116,GLI083116,102.33,Payroll Accrual
GLI,8/31/2016,12103,1102198,GLI083116,GLI083116,1350,Payroll Accrual
GLI,8/31/2016,12904,1102195,GLI083116,GLI083116,54,Payroll Accrual
GLI,8/31/2016,12504,1102195,GLI083116,GLI083116,202.82,Payroll Accrual
GLI,8/31/2016,12104,1102195,GLI083116,GLI083116,2700,Payroll Accrual
GLI,8/31/2016,12524,1100820,GLI083116,GLI083116,27.4,Payroll Accrual
GLI,8/31/2016,124724,1100820,GLI083116,GLI083116,358.2,Payroll Accrual
GLI,8/31/2016,12505,1100625,GLI083116,GLI083116,58.45,Payroll Accrual
GLI,8/31/2016,124703,1100625,GLI083116,GLI083116,764.01,Payroll Accrual
GLI,8/31/2016,12503,110048,GLI083116,GLI083116,28.74,Payroll Accrual
GLI,8/31/2016,124723,110048,GLI083116,GLI083116,375.62,Payroll Accrual
