journal,date,account,control,document,reference,amount,description
GLI,6/30/2019,232103,GLI063019,GLI063019,GLI063019,-35626.93,Payroll Accrual
GLI,6/30/2019,132101,GLI063019,GLI063019,GLI063019,-258833.35,Payroll Accrual
GLI,6/30/2019,12006,1130426,GLI063019,GLI063019,894.46,Payroll Accrual
GLI,6/30/2019,12005,1130426,GLI063019,GLI063019,894.46,Payroll Accrual
GLI,6/30/2019,12004,1130426,GLI063019,GLI063019,894.46,Payroll Accrual
GLI,6/30/2019,12002,1130426,GLI063019,GLI063019,894.46,Payroll Accrual
GLI,6/30/2019,12001,1130426,GLI063019,GLI063019,806.78,Payroll Accrual
GLI,6/30/2019,22510,298567,GLI063019,GLI063019,13.77,Payroll Accrual
GLI,6/30/2019,21301C,298567,GLI063019,GLI063019,180,Payroll Accrual
GLI,6/30/2019,22904,298543,GLI063019,GLI063019,9.8,Payroll Accrual
GLI,6/30/2019,22504,298543,GLI063019,GLI063019,40.32,Payroll Accrual
GLI,6/30/2019,224704,298543,GLI063019,GLI063019,653.57,Payroll Accrual
GLI,6/30/2019,22503,298432,GLI063019,GLI063019,40.63,Payroll Accrual
GLI,6/30/2019,22303,298432,GLI063019,GLI063019,609.98,Payroll Accrual
GLI,6/30/2019,22904,295148,GLI063019,GLI063019,7.61,Payroll Accrual
GLI,6/30/2019,22504,295148,GLI063019,GLI063019,32.4,Payroll Accrual
GLI,6/30/2019,224704,295148,GLI063019,GLI063019,507.6,Payroll Accrual
GLI,6/30/2019,22510,289563,GLI063019,GLI063019,5.03,Payroll Accrual
GLI,6/30/2019,22506,289563,GLI063019,GLI063019,10.49,Payroll Accrual
GLI,6/30/2019,22504,289563,GLI063019,GLI063019,10.49,Payroll Accrual
GLI,6/30/2019,22502,289563,GLI063019,GLI063019,10.49,Payroll Accrual
GLI,6/30/2019,22501,289563,GLI063019,GLI063019,5.45,Payroll Accrual
GLI,6/30/2019,22210B,289563,GLI063019,GLI063019,65.79,Payroll Accrual
GLI,6/30/2019,22206B,289563,GLI063019,GLI063019,137.06,Payroll Accrual
GLI,6/30/2019,22204B,289563,GLI063019,GLI063019,137.06,Payroll Accrual
GLI,6/30/2019,22202B,289563,GLI063019,GLI063019,137.06,Payroll Accrual
GLI,6/30/2019,22201B,289563,GLI063019,GLI063019,71.27,Payroll Accrual
GLI,6/30/2019,22504,279630,GLI063019,GLI063019,60.88,Payroll Accrual
GLI,6/30/2019,224704,279630,GLI063019,GLI063019,795.8,Payroll Accrual
GLI,6/30/2019,22404,279630,GLI063019,GLI063019,516.16,Payroll Accrual
GLI,6/30/2019,22504,276431,GLI063019,GLI063019,49.91,Payroll Accrual
GLI,6/30/2019,224704,276431,GLI063019,GLI063019,674.7,Payroll Accrual
GLI,6/30/2019,22504,275342,GLI063019,GLI063019,52.39,Payroll Accrual
GLI,6/30/2019,224704,275342,GLI063019,GLI063019,684.87,Payroll Accrual
GLI,6/30/2019,22506,274225,GLI063019,GLI063019,47.37,Payroll Accrual
GLI,6/30/2019,22406,274225,GLI063019,GLI063019,160,Payroll Accrual
GLI,6/30/2019,22306,274225,GLI063019,GLI063019,619.6,Payroll Accrual
GLI,6/30/2019,22904,273315,GLI063019,GLI063019,41.15,Payroll Accrual
GLI,6/30/2019,22504,273315,GLI063019,GLI063019,147.71,Payroll Accrual
GLI,6/30/2019,224704,273315,GLI063019,GLI063019,2057.4,Payroll Accrual
GLI,6/30/2019,22510,269843,GLI063019,GLI063019,4.19,Payroll Accrual
GLI,6/30/2019,22506,269843,GLI063019,GLI063019,8.74,Payroll Accrual
GLI,6/30/2019,22504,269843,GLI063019,GLI063019,8.74,Payroll Accrual
GLI,6/30/2019,22502,269843,GLI063019,GLI063019,8.74,Payroll Accrual
GLI,6/30/2019,22501,269843,GLI063019,GLI063019,4.54,Payroll Accrual
GLI,6/30/2019,22210B,269843,GLI063019,GLI063019,54.79,Payroll Accrual
GLI,6/30/2019,22206B,269843,GLI063019,GLI063019,114.15,Payroll Accrual
GLI,6/30/2019,22204B,269843,GLI063019,GLI063019,114.15,Payroll Accrual
GLI,6/30/2019,22202B,269843,GLI063019,GLI063019,114.15,Payroll Accrual
GLI,6/30/2019,22201B,269843,GLI063019,GLI063019,59.36,Payroll Accrual
GLI,6/30/2019,22504,265421,GLI063019,GLI063019,32.96,Payroll Accrual
GLI,6/30/2019,22304B,265421,GLI063019,GLI063019,435.83,Payroll Accrual
GLI,6/30/2019,22503,264972,GLI063019,GLI063019,133.32,Payroll Accrual
GLI,6/30/2019,224723,264972,GLI063019,GLI063019,1742.75,Payroll Accrual
GLI,6/30/2019,22503,264387,GLI063019,GLI063019,42.91,Payroll Accrual
GLI,6/30/2019,224723,264387,GLI063019,GLI063019,560.95,Payroll Accrual
GLI,6/30/2019,22506,264220,GLI063019,GLI063019,41.63,Payroll Accrual
GLI,6/30/2019,22306,264220,GLI063019,GLI063019,614.8,Payroll Accrual
GLI,6/30/2019,22510,264110,GLI063019,GLI063019,3.26,Payroll Accrual
GLI,6/30/2019,21301C,264110,GLI063019,GLI063019,42.5,Payroll Accrual
GLI,6/30/2019,22504,256984,GLI063019,GLI063019,122.67,Payroll Accrual
GLI,6/30/2019,224704,256984,GLI063019,GLI063019,1603.6,Payroll Accrual
GLI,6/30/2019,22504,256879,GLI063019,GLI063019,12.71,Payroll Accrual
GLI,6/30/2019,22304C,256879,GLI063019,GLI063019,166.2,Payroll Accrual
GLI,6/30/2019,22903,256689,GLI063019,GLI063019,11.89,Payroll Accrual
GLI,6/30/2019,22503,256689,GLI063019,GLI063019,50.44,Payroll Accrual
GLI,6/30/2019,22303,256689,GLI063019,GLI063019,792.8,Payroll Accrual
GLI,6/30/2019,22903,24665,GLI063019,GLI063019,7.58,Payroll Accrual
GLI,6/30/2019,22503,24665,GLI063019,GLI063019,38.67,Payroll Accrual
GLI,6/30/2019,224723,24665,GLI063019,GLI063019,505.56,Payroll Accrual
GLI,6/30/2019,22903,24551,GLI063019,GLI063019,6.22,Payroll Accrual
GLI,6/30/2019,22503,24551,GLI063019,GLI063019,31.71,Payroll Accrual
GLI,6/30/2019,224723,24551,GLI063019,GLI063019,414.57,Payroll Accrual
GLI,6/30/2019,22506,243180,GLI063019,GLI063019,44.74,Payroll Accrual
GLI,6/30/2019,22406,243180,GLI063019,GLI063019,64,Payroll Accrual
GLI,6/30/2019,22306,243180,GLI063019,GLI063019,681.52,Payroll Accrual
GLI,6/30/2019,22504,241085,GLI063019,GLI063019,115.55,Payroll Accrual
GLI,6/30/2019,224704,241085,GLI063019,GLI063019,1527.6,Payroll Accrual
GLI,6/30/2019,22503,232985,GLI063019,GLI063019,45.18,Payroll Accrual
GLI,6/30/2019,224723,232985,GLI063019,GLI063019,590.59,Payroll Accrual
GLI,6/30/2019,22504,232874,GLI063019,GLI063019,9.55,Payroll Accrual
GLI,6/30/2019,22304C,232874,GLI063019,GLI063019,124.85,Payroll Accrual
GLI,6/30/2019,22504,230601,GLI063019,GLI063019,93.77,Payroll Accrual
GLI,6/30/2019,22104,230601,GLI063019,GLI063019,1315.39,Payroll Accrual
GLI,6/30/2019,22506,223654,GLI063019,GLI063019,32.69,Payroll Accrual
GLI,6/30/2019,22306,223654,GLI063019,GLI063019,427.31,Payroll Accrual
GLI,6/30/2019,22910,22358,GLI063019,GLI063019,0.3,Payroll Accrual
GLI,6/30/2019,22906,22358,GLI063019,GLI063019,0.63,Payroll Accrual
GLI,6/30/2019,22904,22358,GLI063019,GLI063019,0.63,Payroll Accrual
GLI,6/30/2019,22902,22358,GLI063019,GLI063019,0.63,Payroll Accrual
GLI,6/30/2019,22901,22358,GLI063019,GLI063019,0.33,Payroll Accrual
GLI,6/30/2019,22510,22358,GLI063019,GLI063019,1.54,Payroll Accrual
GLI,6/30/2019,22506,22358,GLI063019,GLI063019,3.21,Payroll Accrual
GLI,6/30/2019,22504,22358,GLI063019,GLI063019,3.21,Payroll Accrual
GLI,6/30/2019,22502,22358,GLI063019,GLI063019,3.21,Payroll Accrual
GLI,6/30/2019,22501,22358,GLI063019,GLI063019,1.67,Payroll Accrual
GLI,6/30/2019,22210B,22358,GLI063019,GLI063019,20.11,Payroll Accrual
GLI,6/30/2019,22206B,22358,GLI063019,GLI063019,41.9,Payroll Accrual
GLI,6/30/2019,22204B,22358,GLI063019,GLI063019,41.9,Payroll Accrual
GLI,6/30/2019,22202B,22358,GLI063019,GLI063019,41.9,Payroll Accrual
GLI,6/30/2019,22201B,22358,GLI063019,GLI063019,21.79,Payroll Accrual
GLI,6/30/2019,22503,223050,GLI063019,GLI063019,49.05,Payroll Accrual
GLI,6/30/2019,224723,223050,GLI063019,GLI063019,641.17,Payroll Accrual
GLI,6/30/2019,22910,2141225,GLI063019,GLI063019,2.88,Payroll Accrual
GLI,6/30/2019,22902,2141225,GLI063019,GLI063019,2.88,Payroll Accrual
GLI,6/30/2019,22901,2141225,GLI063019,GLI063019,2.96,Payroll Accrual
GLI,6/30/2019,22510,2141225,GLI063019,GLI063019,7.41,Payroll Accrual
GLI,6/30/2019,22502,2141225,GLI063019,GLI063019,7.41,Payroll Accrual
GLI,6/30/2019,22501,2141225,GLI063019,GLI063019,7.86,Payroll Accrual
GLI,6/30/2019,22310,2141225,GLI063019,GLI063019,191.81,Payroll Accrual
GLI,6/30/2019,22302,2141225,GLI063019,GLI063019,191.81,Payroll Accrual
GLI,6/30/2019,22301,2141225,GLI063019,GLI063019,197.63,Payroll Accrual
GLI,6/30/2019,22904,2130150,GLI063019,GLI063019,28.62,Payroll Accrual
GLI,6/30/2019,22504,2130150,GLI063019,GLI063019,109.47,Payroll Accrual
GLI,6/30/2019,224704,2130150,GLI063019,GLI063019,1431,Payroll Accrual
GLI,6/30/2019,22903,2126055,GLI063019,GLI063019,18.01,Payroll Accrual
GLI,6/30/2019,22503,2126055,GLI063019,GLI063019,68.88,Payroll Accrual
GLI,6/30/2019,22103,2126055,GLI063019,GLI063019,900.41,Payroll Accrual
GLI,6/30/2019,22504,2126053,GLI063019,GLI063019,28.22,Payroll Accrual
GLI,6/30/2019,22304C,2126053,GLI063019,GLI063019,368.8,Payroll Accrual
GLI,6/30/2019,22904,2114160,GLI063019,GLI063019,18.05,Payroll Accrual
GLI,6/30/2019,22504,2114160,GLI063019,GLI063019,43.71,Payroll Accrual
GLI,6/30/2019,22304B,2114160,GLI063019,GLI063019,902.44,Payroll Accrual
GLI,6/30/2019,22503,211260,GLI063019,GLI063019,42.72,Payroll Accrual
GLI,6/30/2019,224723,211260,GLI063019,GLI063019,580.65,Payroll Accrual
GLI,6/30/2019,22904,211201,GLI063019,GLI063019,19.67,Payroll Accrual
GLI,6/30/2019,22504,211201,GLI063019,GLI063019,100.29,Payroll Accrual
GLI,6/30/2019,224704,211201,GLI063019,GLI063019,1311,Payroll Accrual
GLI,6/30/2019,22504,2106410,GLI063019,GLI063019,253.24,Payroll Accrual
GLI,6/30/2019,22304B,2106410,GLI063019,GLI063019,3310.39,Payroll Accrual
GLI,6/30/2019,22506,2106350,GLI063019,GLI063019,135.24,Payroll Accrual
GLI,6/30/2019,22106,2106350,GLI063019,GLI063019,1859.23,Payroll Accrual
GLI,6/30/2019,22904,210123,GLI063019,GLI063019,14.45,Payroll Accrual
GLI,6/30/2019,22504,210123,GLI063019,GLI063019,59.77,Payroll Accrual
GLI,6/30/2019,224704,210123,GLI063019,GLI063019,963.24,Payroll Accrual
GLI,6/30/2019,12505,198542,GLI063019,GLI063019,53.77,Payroll Accrual
GLI,6/30/2019,12305B,198542,GLI063019,GLI063019,725.1,Payroll Accrual
GLI,6/30/2019,12503,198534,GLI063019,GLI063019,38.35,Payroll Accrual
GLI,6/30/2019,124723,198534,GLI063019,GLI063019,501.24,Payroll Accrual
GLI,6/30/2019,12527,198532,GLI063019,GLI063019,24.22,Payroll Accrual
GLI,6/30/2019,12327,198532,GLI063019,GLI063019,316.6,Payroll Accrual
GLI,6/30/2019,12503,198531,GLI063019,GLI063019,24.18,Payroll Accrual
GLI,6/30/2019,124723,198531,GLI063019,GLI063019,316.08,Payroll Accrual
GLI,6/30/2019,12524,198523,GLI063019,GLI063019,32.49,Payroll Accrual
GLI,6/30/2019,124724,198523,GLI063019,GLI063019,424.68,Payroll Accrual
GLI,6/30/2019,12524,198431,GLI063019,GLI063019,33.77,Payroll Accrual
GLI,6/30/2019,124724,198431,GLI063019,GLI063019,441.48,Payroll Accrual
GLI,6/30/2019,12503,198326,GLI063019,GLI063019,30.13,Payroll Accrual
GLI,6/30/2019,124723,198326,GLI063019,GLI063019,393.84,Payroll Accrual
GLI,6/30/2019,12504,197643,GLI063019,GLI063019,76.5,Payroll Accrual
GLI,6/30/2019,12304D,197643,GLI063019,GLI063019,1084.1,Payroll Accrual
GLI,6/30/2019,12516,197642,GLI063019,GLI063019,57.04,Payroll Accrual
GLI,6/30/2019,12316,197642,GLI063019,GLI063019,745.62,Payroll Accrual
GLI,6/30/2019,12503,197560,GLI063019,GLI063019,8.33,Payroll Accrual
GLI,6/30/2019,12303,197560,GLI063019,GLI063019,108.84,Payroll Accrual
GLI,6/30/2019,12906,196341,GLI063019,GLI063019,3.34,Payroll Accrual
GLI,6/30/2019,12905,196341,GLI063019,GLI063019,2.68,Payroll Accrual
GLI,6/30/2019,12514,196341,GLI063019,GLI063019,11.49,Payroll Accrual
GLI,6/30/2019,12506,196341,GLI063019,GLI063019,0.78,Payroll Accrual
GLI,6/30/2019,12505,196341,GLI063019,GLI063019,0.63,Payroll Accrual
GLI,6/30/2019,12504,196341,GLI063019,GLI063019,9.03,Payroll Accrual
GLI,6/30/2019,12502,196341,GLI063019,GLI063019,7.39,Payroll Accrual
GLI,6/30/2019,12501,196341,GLI063019,GLI063019,7.39,Payroll Accrual
GLI,6/30/2019,12214,196341,GLI063019,GLI063019,235.13,Payroll Accrual
GLI,6/30/2019,12206C,196341,GLI063019,GLI063019,138.94,Payroll Accrual
GLI,6/30/2019,12205C,196341,GLI063019,GLI063019,128.25,Payroll Accrual
GLI,6/30/2019,12204C,196341,GLI063019,GLI063019,203.07,Payroll Accrual
GLI,6/30/2019,12202C,196341,GLI063019,GLI063019,181.69,Payroll Accrual
GLI,6/30/2019,12201C,196341,GLI063019,GLI063019,181.69,Payroll Accrual
GLI,6/30/2019,12503,196205,GLI063019,GLI063019,39.53,Payroll Accrual
GLI,6/30/2019,124723,196205,GLI063019,GLI063019,516.74,Payroll Accrual
GLI,6/30/2019,12503,195359,GLI063019,GLI063019,34.45,Payroll Accrual
GLI,6/30/2019,124723,195359,GLI063019,GLI063019,450.36,Payroll Accrual
GLI,6/30/2019,12504,195123,GLI063019,GLI063019,27.91,Payroll Accrual
GLI,6/30/2019,12304C,195123,GLI063019,GLI063019,370.04,Payroll Accrual
GLI,6/30/2019,12904,194675,GLI063019,GLI063019,25.56,Payroll Accrual
GLI,6/30/2019,12504,194675,GLI063019,GLI063019,84.84,Payroll Accrual
GLI,6/30/2019,124704,194675,GLI063019,GLI063019,1278,Payroll Accrual
GLI,6/30/2019,12505,191350,GLI063019,GLI063019,87.58,Payroll Accrual
GLI,6/30/2019,124703,191350,GLI063019,GLI063019,1144.8,Payroll Accrual
GLI,6/30/2019,12504,191060,GLI063019,GLI063019,171.05,Payroll Accrual
GLI,6/30/2019,12304B,191060,GLI063019,GLI063019,2235.97,Payroll Accrual
GLI,6/30/2019,12924,190910,GLI063019,GLI063019,45.78,Payroll Accrual
GLI,6/30/2019,12524,190910,GLI063019,GLI063019,232.76,Payroll Accrual
GLI,6/30/2019,12124,190910,GLI063019,GLI063019,3052.31,Payroll Accrual
GLI,6/30/2019,12906,190892,GLI063019,GLI063019,19.96,Payroll Accrual
GLI,6/30/2019,12506,190892,GLI063019,GLI063019,73.98,Payroll Accrual
GLI,6/30/2019,12306C,190892,GLI063019,GLI063019,997.99,Payroll Accrual
GLI,6/30/2019,12905,188338,GLI063019,GLI063019,38.83,Payroll Accrual
GLI,6/30/2019,12505,188338,GLI063019,GLI063019,141.78,Payroll Accrual
GLI,6/30/2019,12305B,188338,GLI063019,GLI063019,1941.06,Payroll Accrual
GLI,6/30/2019,12904,187675,GLI063019,GLI063019,31.57,Payroll Accrual
GLI,6/30/2019,12504,187675,GLI063019,GLI063019,106.68,Payroll Accrual
GLI,6/30/2019,124704,187675,GLI063019,GLI063019,1578.47,Payroll Accrual
GLI,6/30/2019,12505,187634,GLI063019,GLI063019,53.22,Payroll Accrual
GLI,6/30/2019,124703,187634,GLI063019,GLI063019,695.63,Payroll Accrual
GLI,6/30/2019,12516,187526,GLI063019,GLI063019,45.18,Payroll Accrual
GLI,6/30/2019,12316,187526,GLI063019,GLI063019,590.59,Payroll Accrual
GLI,6/30/2019,12506,187325,GLI063019,GLI063019,19.91,Payroll Accrual
GLI,6/30/2019,12306C,187325,GLI063019,GLI063019,260.28,Payroll Accrual
GLI,6/30/2019,12527,186724,GLI063019,GLI063019,18.09,Payroll Accrual
GLI,6/30/2019,12327,186724,GLI063019,GLI063019,236.4,Payroll Accrual
GLI,6/30/2019,12906,186100,GLI063019,GLI063019,6.58,Payroll Accrual
GLI,6/30/2019,12905,186100,GLI063019,GLI063019,6.58,Payroll Accrual
GLI,6/30/2019,12904,186100,GLI063019,GLI063019,6.58,Payroll Accrual
GLI,6/30/2019,12902,186100,GLI063019,GLI063019,6.58,Payroll Accrual
GLI,6/30/2019,12901,186100,GLI063019,GLI063019,6.58,Payroll Accrual
GLI,6/30/2019,12506,186100,GLI063019,GLI063019,24.96,Payroll Accrual
GLI,6/30/2019,12505,186100,GLI063019,GLI063019,24.96,Payroll Accrual
GLI,6/30/2019,12504,186100,GLI063019,GLI063019,24.96,Payroll Accrual
GLI,6/30/2019,12502,186100,GLI063019,GLI063019,24.96,Payroll Accrual
GLI,6/30/2019,12501,186100,GLI063019,GLI063019,24.96,Payroll Accrual
GLI,6/30/2019,12106,186100,GLI063019,GLI063019,328.85,Payroll Accrual
GLI,6/30/2019,12105,186100,GLI063019,GLI063019,328.85,Payroll Accrual
GLI,6/30/2019,12104,186100,GLI063019,GLI063019,328.85,Payroll Accrual
GLI,6/30/2019,12102,186100,GLI063019,GLI063019,328.85,Payroll Accrual
GLI,6/30/2019,12101,186100,GLI063019,GLI063019,328.85,Payroll Accrual
GLI,6/30/2019,12915,185600,GLI063019,GLI063019,8.95,Payroll Accrual
GLI,6/30/2019,12906,185600,GLI063019,GLI063019,6.1,Payroll Accrual
GLI,6/30/2019,12905,185600,GLI063019,GLI063019,6.1,Payroll Accrual
GLI,6/30/2019,12904,185600,GLI063019,GLI063019,6.51,Payroll Accrual
GLI,6/30/2019,12902,185600,GLI063019,GLI063019,6.51,Payroll Accrual
GLI,6/30/2019,12901,185600,GLI063019,GLI063019,6.51,Payroll Accrual
GLI,6/30/2019,12515,185600,GLI063019,GLI063019,33.52,Payroll Accrual
GLI,6/30/2019,12506,185600,GLI063019,GLI063019,22.85,Payroll Accrual
GLI,6/30/2019,12505,185600,GLI063019,GLI063019,22.85,Payroll Accrual
GLI,6/30/2019,12504,185600,GLI063019,GLI063019,24.38,Payroll Accrual
GLI,6/30/2019,12502,185600,GLI063019,GLI063019,24.38,Payroll Accrual
GLI,6/30/2019,12501,185600,GLI063019,GLI063019,24.38,Payroll Accrual
GLI,6/30/2019,12315,185600,GLI063019,GLI063019,447.62,Payroll Accrual
GLI,6/30/2019,12306,185600,GLI063019,GLI063019,305.19,Payroll Accrual
GLI,6/30/2019,12305,185600,GLI063019,GLI063019,305.19,Payroll Accrual
GLI,6/30/2019,12304,185600,GLI063019,GLI063019,325.54,Payroll Accrual
GLI,6/30/2019,12302,185600,GLI063019,GLI063019,325.54,Payroll Accrual
GLI,6/30/2019,12301,185600,GLI063019,GLI063019,325.54,Payroll Accrual
GLI,6/30/2019,12905,184920,GLI063019,GLI063019,25.72,Payroll Accrual
GLI,6/30/2019,12505,184920,GLI063019,GLI063019,129.46,Payroll Accrual
GLI,6/30/2019,124703,184920,GLI063019,GLI063019,1714.6,Payroll Accrual
GLI,6/30/2019,12924,184806,GLI063019,GLI063019,27.02,Payroll Accrual
GLI,6/30/2019,12524,184806,GLI063019,GLI063019,103.35,Payroll Accrual
GLI,6/30/2019,124724,184806,GLI063019,GLI063019,1351,Payroll Accrual
GLI,6/30/2019,12924,184620,GLI063019,GLI063019,11.21,Payroll Accrual
GLI,6/30/2019,12524,184620,GLI063019,GLI063019,57.17,Payroll Accrual
GLI,6/30/2019,124724,184620,GLI063019,GLI063019,747.3,Payroll Accrual
GLI,6/30/2019,12905,184614,GLI063019,GLI063019,18.49,Payroll Accrual
GLI,6/30/2019,12505,184614,GLI063019,GLI063019,94.3,Payroll Accrual
GLI,6/30/2019,124703,184614,GLI063019,GLI063019,1232.7,Payroll Accrual
GLI,6/30/2019,12906,184610,GLI063019,GLI063019,21.75,Payroll Accrual
GLI,6/30/2019,12506,184610,GLI063019,GLI063019,77.39,Payroll Accrual
GLI,6/30/2019,12306B,184610,GLI063019,GLI063019,1087.38,Payroll Accrual
GLI,6/30/2019,12524,184605,GLI063019,GLI063019,41.77,Payroll Accrual
GLI,6/30/2019,124724,184605,GLI063019,GLI063019,545.93,Payroll Accrual
GLI,6/30/2019,12916,182713,GLI063019,GLI063019,11.39,Payroll Accrual
GLI,6/30/2019,12516,182713,GLI063019,GLI063019,47.88,Payroll Accrual
GLI,6/30/2019,12316,182713,GLI063019,GLI063019,759.31,Payroll Accrual
GLI,6/30/2019,12914,181520,GLI063019,GLI063019,0.69,Payroll Accrual
GLI,6/30/2019,12906,181520,GLI063019,GLI063019,-1.69,Payroll Accrual
GLI,6/30/2019,12905,181520,GLI063019,GLI063019,-1.81,Payroll Accrual
GLI,6/30/2019,12904,181520,GLI063019,GLI063019,0.6,Payroll Accrual
GLI,6/30/2019,12902,181520,GLI063019,GLI063019,0.53,Payroll Accrual
GLI,6/30/2019,12901,181520,GLI063019,GLI063019,0.53,Payroll Accrual
GLI,6/30/2019,12514,181520,GLI063019,GLI063019,-1.5,Payroll Accrual
GLI,6/30/2019,12506,181520,GLI063019,GLI063019,-0.49,Payroll Accrual
GLI,6/30/2019,12505,181520,GLI063019,GLI063019,-0.51,Payroll Accrual
GLI,6/30/2019,12504,181520,GLI063019,GLI063019,-1.86,Payroll Accrual
GLI,6/30/2019,12502,181520,GLI063019,GLI063019,-2.11,Payroll Accrual
GLI,6/30/2019,12501,181520,GLI063019,GLI063019,-2.11,Payroll Accrual
GLI,6/30/2019,12214,181520,GLI063019,GLI063019,34.6,Payroll Accrual
GLI,6/30/2019,12206C,181520,GLI063019,GLI063019,20.44,Payroll Accrual
GLI,6/30/2019,12205C,181520,GLI063019,GLI063019,18.87,Payroll Accrual
GLI,6/30/2019,12204C,181520,GLI063019,GLI063019,29.88,Payroll Accrual
GLI,6/30/2019,12202C,181520,GLI063019,GLI063019,26.73,Payroll Accrual
GLI,6/30/2019,12201C,181520,GLI063019,GLI063019,26.73,Payroll Accrual
GLI,6/30/2019,12904,18005,GLI063019,GLI063019,22.32,Payroll Accrual
GLI,6/30/2019,12504,18005,GLI063019,GLI063019,84.05,Payroll Accrual
GLI,6/30/2019,124704,18005,GLI063019,GLI063019,699.92,Payroll Accrual
GLI,6/30/2019,12404,18005,GLI063019,GLI063019,416,Payroll Accrual
GLI,6/30/2019,12906,179775,GLI063019,GLI063019,13.11,Payroll Accrual
GLI,6/30/2019,12506,179775,GLI063019,GLI063019,47.17,Payroll Accrual
GLI,6/30/2019,12306B,179775,GLI063019,GLI063019,655.35,Payroll Accrual
GLI,6/30/2019,12506,179693,GLI063019,GLI063019,8.09,Payroll Accrual
GLI,6/30/2019,12505,179693,GLI063019,GLI063019,8.09,Payroll Accrual
GLI,6/30/2019,12504,179693,GLI063019,GLI063019,8.09,Payroll Accrual
GLI,6/30/2019,12502,179693,GLI063019,GLI063019,8.09,Payroll Accrual
GLI,6/30/2019,12501,179693,GLI063019,GLI063019,8.09,Payroll Accrual
GLI,6/30/2019,12206B,179693,GLI063019,GLI063019,105.76,Payroll Accrual
GLI,6/30/2019,12205B,179693,GLI063019,GLI063019,105.76,Payroll Accrual
GLI,6/30/2019,12204B,179693,GLI063019,GLI063019,105.76,Payroll Accrual
GLI,6/30/2019,12202B,179693,GLI063019,GLI063019,105.76,Payroll Accrual
GLI,6/30/2019,12201B,179693,GLI063019,GLI063019,105.76,Payroll Accrual
GLI,6/30/2019,12504,178079,GLI063019,GLI063019,113.4,Payroll Accrual
GLI,6/30/2019,12304D,178079,GLI063019,GLI063019,1787.01,Payroll Accrual
GLI,6/30/2019,12527,178060,GLI063019,GLI063019,4.44,Payroll Accrual
GLI,6/30/2019,12327,178060,GLI063019,GLI063019,58.08,Payroll Accrual
GLI,6/30/2019,12904,178050,GLI063019,GLI063019,10.94,Payroll Accrual
GLI,6/30/2019,12504,178050,GLI063019,GLI063019,54.09,Payroll Accrual
GLI,6/30/2019,124704,178050,GLI063019,GLI063019,729.3,Payroll Accrual
GLI,6/30/2019,12524,176439,GLI063019,GLI063019,3.7,Payroll Accrual
GLI,6/30/2019,12505,176439,GLI063019,GLI063019,3.7,Payroll Accrual
GLI,6/30/2019,12504,176439,GLI063019,GLI063019,3.7,Payroll Accrual
GLI,6/30/2019,12502,176439,GLI063019,GLI063019,3.7,Payroll Accrual
GLI,6/30/2019,12501,176439,GLI063019,GLI063019,3.7,Payroll Accrual
GLI,6/30/2019,12324F,176439,GLI063019,GLI063019,65.6,Payroll Accrual
GLI,6/30/2019,12305F,176439,GLI063019,GLI063019,65.6,Payroll Accrual
GLI,6/30/2019,12304F,176439,GLI063019,GLI063019,65.6,Payroll Accrual
GLI,6/30/2019,12302F,176439,GLI063019,GLI063019,65.6,Payroll Accrual
GLI,6/30/2019,12301F,176439,GLI063019,GLI063019,65.6,Payroll Accrual
GLI,6/30/2019,12524,176430,GLI063019,GLI063019,7.9,Payroll Accrual
GLI,6/30/2019,12505,176430,GLI063019,GLI063019,7.9,Payroll Accrual
GLI,6/30/2019,12504,176430,GLI063019,GLI063019,7.9,Payroll Accrual
GLI,6/30/2019,12502,176430,GLI063019,GLI063019,7.9,Payroll Accrual
GLI,6/30/2019,12501,176430,GLI063019,GLI063019,7.9,Payroll Accrual
GLI,6/30/2019,12324F,176430,GLI063019,GLI063019,108.28,Payroll Accrual
GLI,6/30/2019,12305F,176430,GLI063019,GLI063019,108.28,Payroll Accrual
GLI,6/30/2019,12304F,176430,GLI063019,GLI063019,108.28,Payroll Accrual
GLI,6/30/2019,12302F,176430,GLI063019,GLI063019,108.28,Payroll Accrual
GLI,6/30/2019,12301F,176430,GLI063019,GLI063019,108.28,Payroll Accrual
GLI,6/30/2019,12527,176239,GLI063019,GLI063019,2.2,Payroll Accrual
GLI,6/30/2019,12327,176239,GLI063019,GLI063019,28.73,Payroll Accrual
GLI,6/30/2019,12502,175873,GLI063019,GLI063019,10.92,Payroll Accrual
GLI,6/30/2019,12501,175873,GLI063019,GLI063019,7.28,Payroll Accrual
GLI,6/30/2019,11102,175873,GLI063019,GLI063019,142.72,Payroll Accrual
GLI,6/30/2019,11101,175873,GLI063019,GLI063019,95.14,Payroll Accrual
GLI,6/30/2019,12503,175421,GLI063019,GLI063019,36.57,Payroll Accrual
GLI,6/30/2019,12303,175421,GLI063019,GLI063019,478.08,Payroll Accrual
GLI,6/30/2019,12506,175369,GLI063019,GLI063019,7.07,Payroll Accrual
GLI,6/30/2019,12505,175369,GLI063019,GLI063019,7.07,Payroll Accrual
GLI,6/30/2019,12504,175369,GLI063019,GLI063019,7.07,Payroll Accrual
GLI,6/30/2019,12502,175369,GLI063019,GLI063019,7.07,Payroll Accrual
GLI,6/30/2019,12501,175369,GLI063019,GLI063019,7.07,Payroll Accrual
GLI,6/30/2019,12206B,175369,GLI063019,GLI063019,92.46,Payroll Accrual
GLI,6/30/2019,12205B,175369,GLI063019,GLI063019,92.46,Payroll Accrual
GLI,6/30/2019,12204B,175369,GLI063019,GLI063019,92.46,Payroll Accrual
GLI,6/30/2019,12202B,175369,GLI063019,GLI063019,92.46,Payroll Accrual
GLI,6/30/2019,12201B,175369,GLI063019,GLI063019,92.46,Payroll Accrual
GLI,6/30/2019,12906,172077,GLI063019,GLI063019,18.75,Payroll Accrual
GLI,6/30/2019,12506,172077,GLI063019,GLI063019,59.4,Payroll Accrual
GLI,6/30/2019,12306B,172077,GLI063019,GLI063019,937.25,Payroll Accrual
GLI,6/30/2019,12905,171055,GLI063019,GLI063019,34.02,Payroll Accrual
GLI,6/30/2019,12505,171055,GLI063019,GLI063019,114.5,Payroll Accrual
GLI,6/30/2019,124703,171055,GLI063019,GLI063019,1701.2,Payroll Accrual
GLI,6/30/2019,12501,170150,GLI063019,GLI063019,3.26,Payroll Accrual
GLI,6/30/2019,11301C,170150,GLI063019,GLI063019,42.5,Payroll Accrual
GLI,6/30/2019,12506,169852,GLI063019,GLI063019,7.6,Payroll Accrual
GLI,6/30/2019,12505,169852,GLI063019,GLI063019,7.6,Payroll Accrual
GLI,6/30/2019,12504,169852,GLI063019,GLI063019,7.6,Payroll Accrual
GLI,6/30/2019,12502,169852,GLI063019,GLI063019,7.6,Payroll Accrual
GLI,6/30/2019,12501,169852,GLI063019,GLI063019,7.6,Payroll Accrual
GLI,6/30/2019,12206B,169852,GLI063019,GLI063019,104.43,Payroll Accrual
GLI,6/30/2019,12205B,169852,GLI063019,GLI063019,104.43,Payroll Accrual
GLI,6/30/2019,12204B,169852,GLI063019,GLI063019,104.43,Payroll Accrual
GLI,6/30/2019,12202B,169852,GLI063019,GLI063019,104.43,Payroll Accrual
GLI,6/30/2019,12201B,169852,GLI063019,GLI063019,104.43,Payroll Accrual
GLI,6/30/2019,12502,169542,GLI063019,GLI063019,3.05,Payroll Accrual
GLI,6/30/2019,12501,169542,GLI063019,GLI063019,2.03,Payroll Accrual
GLI,6/30/2019,11102,169542,GLI063019,GLI063019,39.82,Payroll Accrual
GLI,6/30/2019,11101,169542,GLI063019,GLI063019,26.54,Payroll Accrual
GLI,6/30/2019,12506,168815,GLI063019,GLI063019,7.22,Payroll Accrual
GLI,6/30/2019,12306D,168815,GLI063019,GLI063019,94.36,Payroll Accrual
GLI,6/30/2019,12504,168753,GLI063019,GLI063019,77.75,Payroll Accrual
GLI,6/30/2019,124704,168753,GLI063019,GLI063019,1092.5,Payroll Accrual
GLI,6/30/2019,12506,168351,GLI063019,GLI063019,159.38,Payroll Accrual
GLI,6/30/2019,12106,168351,GLI063019,GLI063019,2096.16,Payroll Accrual
GLI,6/30/2019,12502,167934,GLI063019,GLI063019,55.29,Payroll Accrual
GLI,6/30/2019,12501,167934,GLI063019,GLI063019,36.87,Payroll Accrual
GLI,6/30/2019,11102,167934,GLI063019,GLI063019,722.77,Payroll Accrual
GLI,6/30/2019,11101,167934,GLI063019,GLI063019,481.84,Payroll Accrual
GLI,6/30/2019,12506,167932,GLI063019,GLI063019,44.48,Payroll Accrual
GLI,6/30/2019,12306D,167932,GLI063019,GLI063019,581.42,Payroll Accrual
GLI,6/30/2019,12506,167912,GLI063019,GLI063019,1.8,Payroll Accrual
GLI,6/30/2019,12505,167912,GLI063019,GLI063019,1.8,Payroll Accrual
GLI,6/30/2019,12504,167912,GLI063019,GLI063019,1.8,Payroll Accrual
GLI,6/30/2019,12502,167912,GLI063019,GLI063019,1.8,Payroll Accrual
GLI,6/30/2019,12501,167912,GLI063019,GLI063019,1.8,Payroll Accrual
GLI,6/30/2019,12206B,167912,GLI063019,GLI063019,23.62,Payroll Accrual
GLI,6/30/2019,12205B,167912,GLI063019,GLI063019,23.62,Payroll Accrual
GLI,6/30/2019,12204B,167912,GLI063019,GLI063019,23.62,Payroll Accrual
GLI,6/30/2019,12202B,167912,GLI063019,GLI063019,23.62,Payroll Accrual
GLI,6/30/2019,12201B,167912,GLI063019,GLI063019,23.62,Payroll Accrual
GLI,6/30/2019,12506,167906,GLI063019,GLI063019,46.93,Payroll Accrual
GLI,6/30/2019,12306C,167906,GLI063019,GLI063019,630.6,Payroll Accrual
GLI,6/30/2019,12914,167812,GLI063019,GLI063019,0.45,Payroll Accrual
GLI,6/30/2019,12906,167812,GLI063019,GLI063019,1.08,Payroll Accrual
GLI,6/30/2019,12905,167812,GLI063019,GLI063019,1,Payroll Accrual
GLI,6/30/2019,12904,167812,GLI063019,GLI063019,0.39,Payroll Accrual
GLI,6/30/2019,12902,167812,GLI063019,GLI063019,0.35,Payroll Accrual
GLI,6/30/2019,12901,167812,GLI063019,GLI063019,0.35,Payroll Accrual
GLI,6/30/2019,12514,167812,GLI063019,GLI063019,1.71,Payroll Accrual
GLI,6/30/2019,12506,167812,GLI063019,GLI063019,0.19,Payroll Accrual
GLI,6/30/2019,12505,167812,GLI063019,GLI063019,0.18,Payroll Accrual
GLI,6/30/2019,12504,167812,GLI063019,GLI063019,1.48,Payroll Accrual
GLI,6/30/2019,12502,167812,GLI063019,GLI063019,1.32,Payroll Accrual
GLI,6/30/2019,12501,167812,GLI063019,GLI063019,1.32,Payroll Accrual
GLI,6/30/2019,12214,167812,GLI063019,GLI063019,22.36,Payroll Accrual
GLI,6/30/2019,12206C,167812,GLI063019,GLI063019,13.21,Payroll Accrual
GLI,6/30/2019,12205C,167812,GLI063019,GLI063019,12.2,Payroll Accrual
GLI,6/30/2019,12204C,167812,GLI063019,GLI063019,19.31,Payroll Accrual
GLI,6/30/2019,12202C,167812,GLI063019,GLI063019,17.28,Payroll Accrual
GLI,6/30/2019,12201C,167812,GLI063019,GLI063019,17.28,Payroll Accrual
GLI,6/30/2019,12504,167580,GLI063019,GLI063019,90.81,Payroll Accrual
GLI,6/30/2019,124704,167580,GLI063019,GLI063019,1258.3,Payroll Accrual
GLI,6/30/2019,12506,165980,GLI063019,GLI063019,6.24,Payroll Accrual
GLI,6/30/2019,12505,165980,GLI063019,GLI063019,6.24,Payroll Accrual
GLI,6/30/2019,12504,165980,GLI063019,GLI063019,6.24,Payroll Accrual
GLI,6/30/2019,12502,165980,GLI063019,GLI063019,6.24,Payroll Accrual
GLI,6/30/2019,12501,165980,GLI063019,GLI063019,6.24,Payroll Accrual
GLI,6/30/2019,12206B,165980,GLI063019,GLI063019,103.85,Payroll Accrual
GLI,6/30/2019,12205B,165980,GLI063019,GLI063019,103.85,Payroll Accrual
GLI,6/30/2019,12204B,165980,GLI063019,GLI063019,103.85,Payroll Accrual
GLI,6/30/2019,12202B,165980,GLI063019,GLI063019,103.85,Payroll Accrual
GLI,6/30/2019,12201B,165980,GLI063019,GLI063019,103.85,Payroll Accrual
GLI,6/30/2019,12511,165972,GLI063019,GLI063019,6.45,Payroll Accrual
GLI,6/30/2019,12506,165972,GLI063019,GLI063019,4.69,Payroll Accrual
GLI,6/30/2019,12505,165972,GLI063019,GLI063019,4.69,Payroll Accrual
GLI,6/30/2019,12504,165972,GLI063019,GLI063019,4.69,Payroll Accrual
GLI,6/30/2019,12502,165972,GLI063019,GLI063019,4.39,Payroll Accrual
GLI,6/30/2019,12501,165972,GLI063019,GLI063019,4.39,Payroll Accrual
GLI,6/30/2019,12311,165972,GLI063019,GLI063019,84.28,Payroll Accrual
GLI,6/30/2019,12306H,165972,GLI063019,GLI063019,61.3,Payroll Accrual
GLI,6/30/2019,12305H,165972,GLI063019,GLI063019,61.3,Payroll Accrual
GLI,6/30/2019,12304H,165972,GLI063019,GLI063019,61.3,Payroll Accrual
GLI,6/30/2019,12302H,165972,GLI063019,GLI063019,57.47,Payroll Accrual
GLI,6/30/2019,12301H,165972,GLI063019,GLI063019,57.47,Payroll Accrual
GLI,6/30/2019,12505,165872,GLI063019,GLI063019,34.56,Payroll Accrual
GLI,6/30/2019,12205A,165872,GLI063019,GLI063019,474,Payroll Accrual
GLI,6/30/2019,12524,165780,GLI063019,GLI063019,38.57,Payroll Accrual
GLI,6/30/2019,124724,165780,GLI063019,GLI063019,504.14,Payroll Accrual
GLI,6/30/2019,12504,165732,GLI063019,GLI063019,54.96,Payroll Accrual
GLI,6/30/2019,12304B,165732,GLI063019,GLI063019,718.34,Payroll Accrual
GLI,6/30/2019,12503,165478,GLI063019,GLI063019,29.48,Payroll Accrual
GLI,6/30/2019,124723,165478,GLI063019,GLI063019,385.32,Payroll Accrual
GLI,6/30/2019,12503,165473,GLI063019,GLI063019,40.45,Payroll Accrual
GLI,6/30/2019,124723,165473,GLI063019,GLI063019,545.86,Payroll Accrual
GLI,6/30/2019,12516,165428,GLI063019,GLI063019,110.69,Payroll Accrual
GLI,6/30/2019,12316,165428,GLI063019,GLI063019,1446.93,Payroll Accrual
GLI,6/30/2019,12902,165400,GLI063019,GLI063019,3.28,Payroll Accrual
GLI,6/30/2019,12901,165400,GLI063019,GLI063019,2.18,Payroll Accrual
GLI,6/30/2019,12502,165400,GLI063019,GLI063019,40.13,Payroll Accrual
GLI,6/30/2019,12501,165400,GLI063019,GLI063019,23.39,Payroll Accrual
GLI,6/30/2019,11102,165400,GLI063019,GLI063019,655.86,Payroll Accrual
GLI,6/30/2019,11101,165400,GLI063019,GLI063019,437.24,Payroll Accrual
GLI,6/30/2019,12905,165357,GLI063019,GLI063019,28.05,Payroll Accrual
GLI,6/30/2019,12505,165357,GLI063019,GLI063019,139.66,Payroll Accrual
GLI,6/30/2019,12405,165357,GLI063019,GLI063019,192,Payroll Accrual
GLI,6/30/2019,12305B,165357,GLI063019,GLI063019,1677.75,Payroll Accrual
GLI,6/30/2019,12527,165327,GLI063019,GLI063019,30.14,Payroll Accrual
GLI,6/30/2019,12327,165327,GLI063019,GLI063019,394,Payroll Accrual
GLI,6/30/2019,12506,165287,GLI063019,GLI063019,38.2,Payroll Accrual
GLI,6/30/2019,12306D,165287,GLI063019,GLI063019,504.53,Payroll Accrual
GLI,6/30/2019,12905,165275,GLI063019,GLI063019,11.78,Payroll Accrual
GLI,6/30/2019,12505,165275,GLI063019,GLI063019,40.95,Payroll Accrual
GLI,6/30/2019,124703,165275,GLI063019,GLI063019,588.78,Payroll Accrual
GLI,6/30/2019,12524,164920,GLI063019,GLI063019,38.58,Payroll Accrual
GLI,6/30/2019,124724,164920,GLI063019,GLI063019,504.4,Payroll Accrual
GLI,6/30/2019,12502,164821,GLI063019,GLI063019,53.73,Payroll Accrual
GLI,6/30/2019,12501,164821,GLI063019,GLI063019,33.68,Payroll Accrual
GLI,6/30/2019,11102,164821,GLI063019,GLI063019,786.26,Payroll Accrual
GLI,6/30/2019,11101,164821,GLI063019,GLI063019,524.17,Payroll Accrual
GLI,6/30/2019,12906,164732,GLI063019,GLI063019,4.13,Payroll Accrual
GLI,6/30/2019,12905,164732,GLI063019,GLI063019,3.71,Payroll Accrual
GLI,6/30/2019,12514,164732,GLI063019,GLI063019,9.81,Payroll Accrual
GLI,6/30/2019,12506,164732,GLI063019,GLI063019,0.97,Payroll Accrual
GLI,6/30/2019,12505,164732,GLI063019,GLI063019,0.87,Payroll Accrual
GLI,6/30/2019,12504,164732,GLI063019,GLI063019,8.24,Payroll Accrual
GLI,6/30/2019,12502,164732,GLI063019,GLI063019,7.19,Payroll Accrual
GLI,6/30/2019,12501,164732,GLI063019,GLI063019,7.19,Payroll Accrual
GLI,6/30/2019,12214,164732,GLI063019,GLI063019,150.52,Payroll Accrual
GLI,6/30/2019,12206C,164732,GLI063019,GLI063019,88.94,Payroll Accrual
GLI,6/30/2019,12205C,164732,GLI063019,GLI063019,82.1,Payroll Accrual
GLI,6/30/2019,12204C,164732,GLI063019,GLI063019,129.99,Payroll Accrual
GLI,6/30/2019,12202C,164732,GLI063019,GLI063019,116.31,Payroll Accrual
GLI,6/30/2019,12201C,164732,GLI063019,GLI063019,116.31,Payroll Accrual
GLI,6/30/2019,12516,164329,GLI063019,GLI063019,15.3,Payroll Accrual
GLI,6/30/2019,12316,164329,GLI063019,GLI063019,200,Payroll Accrual
GLI,6/30/2019,12527,164286,GLI063019,GLI063019,27.05,Payroll Accrual
GLI,6/30/2019,12327,164286,GLI063019,GLI063019,353.54,Payroll Accrual
GLI,6/30/2019,12904,164015,GLI063019,GLI063019,32.66,Payroll Accrual
GLI,6/30/2019,12504,164015,GLI063019,GLI063019,124.28,Payroll Accrual
GLI,6/30/2019,124704,164015,GLI063019,GLI063019,1632.8,Payroll Accrual
GLI,6/30/2019,12404,164015,GLI063019,GLI063019,1308.4,Payroll Accrual
GLI,6/30/2019,12524,163278,GLI063019,GLI063019,27.77,Payroll Accrual
GLI,6/30/2019,124724,163278,GLI063019,GLI063019,363,Payroll Accrual
GLI,6/30/2019,12912,163096,GLI063019,GLI063019,3.7,Payroll Accrual
GLI,6/30/2019,12902,163096,GLI063019,GLI063019,6.55,Payroll Accrual
GLI,6/30/2019,12901,163096,GLI063019,GLI063019,6.55,Payroll Accrual
GLI,6/30/2019,12512,163096,GLI063019,GLI063019,12.44,Payroll Accrual
GLI,6/30/2019,12502,163096,GLI063019,GLI063019,23.36,Payroll Accrual
GLI,6/30/2019,12501,163096,GLI063019,GLI063019,23.36,Payroll Accrual
GLI,6/30/2019,12212,163096,GLI063019,GLI063019,184.83,Payroll Accrual
GLI,6/30/2019,12202C,163096,GLI063019,GLI063019,327.66,Payroll Accrual
GLI,6/30/2019,12201C,163096,GLI063019,GLI063019,327.66,Payroll Accrual
GLI,6/30/2019,12501,162800,GLI063019,GLI063019,11.86,Payroll Accrual
GLI,6/30/2019,11301C,162800,GLI063019,GLI063019,155,Payroll Accrual
GLI,6/30/2019,12906,16250,GLI063019,GLI063019,7.28,Payroll Accrual
GLI,6/30/2019,12506,16250,GLI063019,GLI063019,22.58,Payroll Accrual
GLI,6/30/2019,12306B,16250,GLI063019,GLI063019,485.52,Payroll Accrual
GLI,6/30/2019,12906,162428,GLI063019,GLI063019,14.67,Payroll Accrual
GLI,6/30/2019,12506,162428,GLI063019,GLI063019,71.06,Payroll Accrual
GLI,6/30/2019,12306B,162428,GLI063019,GLI063019,978,Payroll Accrual
GLI,6/30/2019,12903,161010,GLI063019,GLI063019,6.76,Payroll Accrual
GLI,6/30/2019,12503,161010,GLI063019,GLI063019,34.45,Payroll Accrual
GLI,6/30/2019,124723,161010,GLI063019,GLI063019,450.38,Payroll Accrual
GLI,6/30/2019,12905,160930,GLI063019,GLI063019,33.85,Payroll Accrual
GLI,6/30/2019,12505,160930,GLI063019,GLI063019,128.8,Payroll Accrual
GLI,6/30/2019,12405,160930,GLI063019,GLI063019,240,Payroll Accrual
GLI,6/30/2019,12305C,160930,GLI063019,GLI063019,1452.41,Payroll Accrual
GLI,6/30/2019,12904,159863,GLI063019,GLI063019,18.84,Payroll Accrual
GLI,6/30/2019,12504,159863,GLI063019,GLI063019,96.08,Payroll Accrual
GLI,6/30/2019,124704,159863,GLI063019,GLI063019,1255.95,Payroll Accrual
GLI,6/30/2019,12524,158963,GLI063019,GLI063019,8.38,Payroll Accrual
GLI,6/30/2019,124724,158963,GLI063019,GLI063019,109.44,Payroll Accrual
GLI,6/30/2019,12914,1588879,GLI063019,GLI063019,2.69,Payroll Accrual
GLI,6/30/2019,12906,1588879,GLI063019,GLI063019,6.52,Payroll Accrual
GLI,6/30/2019,12905,1588879,GLI063019,GLI063019,6.02,Payroll Accrual
GLI,6/30/2019,12904,1588879,GLI063019,GLI063019,2.32,Payroll Accrual
GLI,6/30/2019,12902,1588879,GLI063019,GLI063019,2.08,Payroll Accrual
GLI,6/30/2019,12901,1588879,GLI063019,GLI063019,2.08,Payroll Accrual
GLI,6/30/2019,12514,1588879,GLI063019,GLI063019,10.29,Payroll Accrual
GLI,6/30/2019,12506,1588879,GLI063019,GLI063019,1.15,Payroll Accrual
GLI,6/30/2019,12505,1588879,GLI063019,GLI063019,1.06,Payroll Accrual
GLI,6/30/2019,12504,1588879,GLI063019,GLI063019,8.88,Payroll Accrual
GLI,6/30/2019,12502,1588879,GLI063019,GLI063019,7.95,Payroll Accrual
GLI,6/30/2019,12501,1588879,GLI063019,GLI063019,7.95,Payroll Accrual
GLI,6/30/2019,12214,1588879,GLI063019,GLI063019,134.48,Payroll Accrual
GLI,6/30/2019,12206C,1588879,GLI063019,GLI063019,79.46,Payroll Accrual
GLI,6/30/2019,12205C,1588879,GLI063019,GLI063019,73.35,Payroll Accrual
GLI,6/30/2019,12204C,1588879,GLI063019,GLI063019,116.14,Payroll Accrual
GLI,6/30/2019,12202C,1588879,GLI063019,GLI063019,103.91,Payroll Accrual
GLI,6/30/2019,12201C,1588879,GLI063019,GLI063019,103.91,Payroll Accrual
GLI,6/30/2019,12914,157995,GLI063019,GLI063019,4.34,Payroll Accrual
GLI,6/30/2019,12906,157995,GLI063019,GLI063019,9.07,Payroll Accrual
GLI,6/30/2019,12905,157995,GLI063019,GLI063019,8.37,Payroll Accrual
GLI,6/30/2019,12904,157995,GLI063019,GLI063019,3.75,Payroll Accrual
GLI,6/30/2019,12902,157995,GLI063019,GLI063019,3.35,Payroll Accrual
GLI,6/30/2019,12901,157995,GLI063019,GLI063019,3.35,Payroll Accrual
GLI,6/30/2019,12514,157995,GLI063019,GLI063019,13.57,Payroll Accrual
GLI,6/30/2019,12506,157995,GLI063019,GLI063019,1.52,Payroll Accrual
GLI,6/30/2019,12505,157995,GLI063019,GLI063019,1.4,Payroll Accrual
GLI,6/30/2019,12504,157995,GLI063019,GLI063019,11.72,Payroll Accrual
GLI,6/30/2019,12502,157995,GLI063019,GLI063019,10.49,Payroll Accrual
GLI,6/30/2019,12501,157995,GLI063019,GLI063019,10.49,Payroll Accrual
GLI,6/30/2019,12214,157995,GLI063019,GLI063019,217.04,Payroll Accrual
GLI,6/30/2019,12206C,157995,GLI063019,GLI063019,128.25,Payroll Accrual
GLI,6/30/2019,12205C,157995,GLI063019,GLI063019,118.38,Payroll Accrual
GLI,6/30/2019,12204C,157995,GLI063019,GLI063019,187.44,Payroll Accrual
GLI,6/30/2019,12202C,157995,GLI063019,GLI063019,167.71,Payroll Accrual
GLI,6/30/2019,12201C,157995,GLI063019,GLI063019,167.71,Payroll Accrual
GLI,6/30/2019,12505,157953,GLI063019,GLI063019,109.2,Payroll Accrual
GLI,6/30/2019,124703,157953,GLI063019,GLI063019,1553.98,Payroll Accrual
GLI,6/30/2019,12914,156988,GLI063019,GLI063019,2.66,Payroll Accrual
GLI,6/30/2019,12906,156988,GLI063019,GLI063019,8.08,Payroll Accrual
GLI,6/30/2019,12905,156988,GLI063019,GLI063019,7.46,Payroll Accrual
GLI,6/30/2019,12904,156988,GLI063019,GLI063019,2.3,Payroll Accrual
GLI,6/30/2019,12902,156988,GLI063019,GLI063019,2.06,Payroll Accrual
GLI,6/30/2019,12901,156988,GLI063019,GLI063019,2.06,Payroll Accrual
GLI,6/30/2019,12514,156988,GLI063019,GLI063019,13.59,Payroll Accrual
GLI,6/30/2019,12506,156988,GLI063019,GLI063019,1.52,Payroll Accrual
GLI,6/30/2019,12505,156988,GLI063019,GLI063019,1.4,Payroll Accrual
GLI,6/30/2019,12504,156988,GLI063019,GLI063019,11.73,Payroll Accrual
GLI,6/30/2019,12502,156988,GLI063019,GLI063019,10.5,Payroll Accrual
GLI,6/30/2019,12501,156988,GLI063019,GLI063019,10.5,Payroll Accrual
GLI,6/30/2019,12214,156988,GLI063019,GLI063019,177.62,Payroll Accrual
GLI,6/30/2019,12206C,156988,GLI063019,GLI063019,104.96,Payroll Accrual
GLI,6/30/2019,12205C,156988,GLI063019,GLI063019,96.89,Payroll Accrual
GLI,6/30/2019,12204C,156988,GLI063019,GLI063019,153.4,Payroll Accrual
GLI,6/30/2019,12202C,156988,GLI063019,GLI063019,137.25,Payroll Accrual
GLI,6/30/2019,12201C,156988,GLI063019,GLI063019,137.25,Payroll Accrual
GLI,6/30/2019,12916,156844,GLI063019,GLI063019,17.78,Payroll Accrual
GLI,6/30/2019,12516,156844,GLI063019,GLI063019,61.96,Payroll Accrual
GLI,6/30/2019,12316,156844,GLI063019,GLI063019,888.82,Payroll Accrual
GLI,6/30/2019,12904,15668,GLI063019,GLI063019,8.31,Payroll Accrual
GLI,6/30/2019,12504,15668,GLI063019,GLI063019,41.06,Payroll Accrual
GLI,6/30/2019,12204A,15668,GLI063019,GLI063019,553.93,Payroll Accrual
GLI,6/30/2019,12905,15648,GLI063019,GLI063019,14.21,Payroll Accrual
GLI,6/30/2019,12505,15648,GLI063019,GLI063019,66.65,Payroll Accrual
GLI,6/30/2019,124703,15648,GLI063019,GLI063019,947.5,Payroll Accrual
GLI,6/30/2019,12906,15646,GLI063019,GLI063019,13,Payroll Accrual
GLI,6/30/2019,12506,15646,GLI063019,GLI063019,64.59,Payroll Accrual
GLI,6/30/2019,12306B,15646,GLI063019,GLI063019,866.6,Payroll Accrual
GLI,6/30/2019,12503,155477,GLI063019,GLI063019,12.3,Payroll Accrual
GLI,6/30/2019,124723,155477,GLI063019,GLI063019,255.78,Payroll Accrual
GLI,6/30/2019,12527,154474,GLI063019,GLI063019,3.02,Payroll Accrual
GLI,6/30/2019,12327,154474,GLI063019,GLI063019,39.5,Payroll Accrual
GLI,6/30/2019,12506,154328,GLI063019,GLI063019,24.25,Payroll Accrual
GLI,6/30/2019,12306D,154328,GLI063019,GLI063019,316.92,Payroll Accrual
GLI,6/30/2019,12506,154225,GLI063019,GLI063019,35.07,Payroll Accrual
GLI,6/30/2019,12306D,154225,GLI063019,GLI063019,525.28,Payroll Accrual
GLI,6/30/2019,12504,152964,GLI063019,GLI063019,47.52,Payroll Accrual
GLI,6/30/2019,124704,152964,GLI063019,GLI063019,621.15,Payroll Accrual
GLI,6/30/2019,12904,152525,GLI063019,GLI063019,10.11,Payroll Accrual
GLI,6/30/2019,12504,152525,GLI063019,GLI063019,36.93,Payroll Accrual
GLI,6/30/2019,124704,152525,GLI063019,GLI063019,673.9,Payroll Accrual
GLI,6/30/2019,12512,152512,GLI063019,GLI063019,4.7,Payroll Accrual
GLI,6/30/2019,12502,152512,GLI063019,GLI063019,8.33,Payroll Accrual
GLI,6/30/2019,12501,152512,GLI063019,GLI063019,8.33,Payroll Accrual
GLI,6/30/2019,12212,152512,GLI063019,GLI063019,61.41,Payroll Accrual
GLI,6/30/2019,12202C,152512,GLI063019,GLI063019,108.87,Payroll Accrual
GLI,6/30/2019,12201C,152512,GLI063019,GLI063019,108.87,Payroll Accrual
GLI,6/30/2019,12927,152510,GLI063019,GLI063019,8.35,Payroll Accrual
GLI,6/30/2019,12527,152510,GLI063019,GLI063019,38.06,Payroll Accrual
GLI,6/30/2019,12327,152510,GLI063019,GLI063019,556.66,Payroll Accrual
GLI,6/30/2019,12504,152499,GLI063019,GLI063019,119.1,Payroll Accrual
GLI,6/30/2019,12304B,152499,GLI063019,GLI063019,1556.77,Payroll Accrual
GLI,6/30/2019,12527,152490,GLI063019,GLI063019,24.73,Payroll Accrual
GLI,6/30/2019,12327,152490,GLI063019,GLI063019,323.28,Payroll Accrual
GLI,6/30/2019,12903,152432,GLI063019,GLI063019,10.76,Payroll Accrual
GLI,6/30/2019,12503,152432,GLI063019,GLI063019,54.91,Payroll Accrual
GLI,6/30/2019,12303,152432,GLI063019,GLI063019,717.74,Payroll Accrual
GLI,6/30/2019,12904,152410,GLI063019,GLI063019,26.96,Payroll Accrual
GLI,6/30/2019,12504,152410,GLI063019,GLI063019,103.1,Payroll Accrual
GLI,6/30/2019,124704,152410,GLI063019,GLI063019,1347.75,Payroll Accrual
GLI,6/30/2019,12904,152235,GLI063019,GLI063019,40.46,Payroll Accrual
GLI,6/30/2019,12504,152235,GLI063019,GLI063019,154.78,Payroll Accrual
GLI,6/30/2019,124704,152235,GLI063019,GLI063019,2023.15,Payroll Accrual
GLI,6/30/2019,12905,151702,GLI063019,GLI063019,15.94,Payroll Accrual
GLI,6/30/2019,12505,151702,GLI063019,GLI063019,78.18,Payroll Accrual
GLI,6/30/2019,12305B,151702,GLI063019,GLI063019,1062.9,Payroll Accrual
GLI,6/30/2019,12904,150126,GLI063019,GLI063019,40.25,Payroll Accrual
GLI,6/30/2019,12504,150126,GLI063019,GLI063019,153.95,Payroll Accrual
GLI,6/30/2019,124704,150126,GLI063019,GLI063019,2012.35,Payroll Accrual
GLI,6/30/2019,12905,150120,GLI063019,GLI063019,18.55,Payroll Accrual
GLI,6/30/2019,12505,150120,GLI063019,GLI063019,93.61,Payroll Accrual
GLI,6/30/2019,12105,150120,GLI063019,GLI063019,1236.46,Payroll Accrual
GLI,6/30/2019,12905,150105,GLI063019,GLI063019,20.48,Payroll Accrual
GLI,6/30/2019,12505,150105,GLI063019,GLI063019,102.08,Payroll Accrual
GLI,6/30/2019,124703,150105,GLI063019,GLI063019,1365.25,Payroll Accrual
GLI,6/30/2019,12904,149878,GLI063019,GLI063019,10.96,Payroll Accrual
GLI,6/30/2019,12504,149878,GLI063019,GLI063019,71.24,Payroll Accrual
GLI,6/30/2019,12304D,149878,GLI063019,GLI063019,1096.73,Payroll Accrual
GLI,6/30/2019,12901,148275,GLI063019,GLI063019,1.32,Payroll Accrual
GLI,6/30/2019,12501,148275,GLI063019,GLI063019,5.05,Payroll Accrual
GLI,6/30/2019,11301C,148275,GLI063019,GLI063019,66,Payroll Accrual
GLI,6/30/2019,12901,146450,GLI063019,GLI063019,31.57,Payroll Accrual
GLI,6/30/2019,12501,146450,GLI063019,GLI063019,116.93,Payroll Accrual
GLI,6/30/2019,12301B,146450,GLI063019,GLI063019,1578.47,Payroll Accrual
GLI,6/30/2019,12503,145987,GLI063019,GLI063019,36.73,Payroll Accrual
GLI,6/30/2019,124723,145987,GLI063019,GLI063019,480.18,Payroll Accrual
GLI,6/30/2019,12524,145972,GLI063019,GLI063019,2.31,Payroll Accrual
GLI,6/30/2019,12505,145972,GLI063019,GLI063019,2.31,Payroll Accrual
GLI,6/30/2019,12504,145972,GLI063019,GLI063019,2.31,Payroll Accrual
GLI,6/30/2019,12502,145972,GLI063019,GLI063019,2.31,Payroll Accrual
GLI,6/30/2019,12501,145972,GLI063019,GLI063019,2.31,Payroll Accrual
GLI,6/30/2019,12324F,145972,GLI063019,GLI063019,30.19,Payroll Accrual
GLI,6/30/2019,12305F,145972,GLI063019,GLI063019,30.19,Payroll Accrual
GLI,6/30/2019,12304F,145972,GLI063019,GLI063019,30.19,Payroll Accrual
GLI,6/30/2019,12302F,145972,GLI063019,GLI063019,30.19,Payroll Accrual
GLI,6/30/2019,12301F,145972,GLI063019,GLI063019,30.19,Payroll Accrual
GLI,6/30/2019,12904,145801,GLI063019,GLI063019,28.81,Payroll Accrual
GLI,6/30/2019,12504,145801,GLI063019,GLI063019,105.47,Payroll Accrual
GLI,6/30/2019,124704,145801,GLI063019,GLI063019,1440.45,Payroll Accrual
GLI,6/30/2019,12905,145789,GLI063019,GLI063019,17.51,Payroll Accrual
GLI,6/30/2019,12505,145789,GLI063019,GLI063019,89.28,Payroll Accrual
GLI,6/30/2019,124703,145789,GLI063019,GLI063019,1167.05,Payroll Accrual
GLI,6/30/2019,12903,144788,GLI063019,GLI063019,23.16,Payroll Accrual
GLI,6/30/2019,12503,144788,GLI063019,GLI063019,118.1,Payroll Accrual
GLI,6/30/2019,12103,144788,GLI063019,GLI063019,1543.85,Payroll Accrual
GLI,6/30/2019,12903,143895,GLI063019,GLI063019,10.76,Payroll Accrual
GLI,6/30/2019,12503,143895,GLI063019,GLI063019,54.86,Payroll Accrual
GLI,6/30/2019,124723,143895,GLI063019,GLI063019,717.08,Payroll Accrual
GLI,6/30/2019,12506,143769,GLI063019,GLI063019,7.77,Payroll Accrual
GLI,6/30/2019,12505,143769,GLI063019,GLI063019,7.77,Payroll Accrual
GLI,6/30/2019,12504,143769,GLI063019,GLI063019,7.77,Payroll Accrual
GLI,6/30/2019,12502,143769,GLI063019,GLI063019,7.77,Payroll Accrual
GLI,6/30/2019,12501,143769,GLI063019,GLI063019,7.77,Payroll Accrual
GLI,6/30/2019,12206B,143769,GLI063019,GLI063019,101.63,Payroll Accrual
GLI,6/30/2019,12205B,143769,GLI063019,GLI063019,101.63,Payroll Accrual
GLI,6/30/2019,12204B,143769,GLI063019,GLI063019,101.63,Payroll Accrual
GLI,6/30/2019,12202B,143769,GLI063019,GLI063019,101.63,Payroll Accrual
GLI,6/30/2019,12201B,143769,GLI063019,GLI063019,101.63,Payroll Accrual
GLI,6/30/2019,12905,141069,GLI063019,GLI063019,35.69,Payroll Accrual
GLI,6/30/2019,12505,141069,GLI063019,GLI063019,135.2,Payroll Accrual
GLI,6/30/2019,12405,141069,GLI063019,GLI063019,88,Payroll Accrual
GLI,6/30/2019,12305B,141069,GLI063019,GLI063019,1696.34,Payroll Accrual
GLI,6/30/2019,12504,141060,GLI063019,GLI063019,116.19,Payroll Accrual
GLI,6/30/2019,12404,141060,GLI063019,GLI063019,144,Payroll Accrual
GLI,6/30/2019,12304B,141060,GLI063019,GLI063019,1396.93,Payroll Accrual
GLI,6/30/2019,12904,140790,GLI063019,GLI063019,31.57,Payroll Accrual
GLI,6/30/2019,12504,140790,GLI063019,GLI063019,119.27,Payroll Accrual
GLI,6/30/2019,124704,140790,GLI063019,GLI063019,1578.47,Payroll Accrual
GLI,6/30/2019,12916,138380,GLI063019,GLI063019,7.67,Payroll Accrual
GLI,6/30/2019,12516,138380,GLI063019,GLI063019,16.3,Payroll Accrual
GLI,6/30/2019,12316,138380,GLI063019,GLI063019,383.4,Payroll Accrual
GLI,6/30/2019,12501,13815,GLI063019,GLI063019,9.56,Payroll Accrual
GLI,6/30/2019,11301C,13815,GLI063019,GLI063019,125,Payroll Accrual
GLI,6/30/2019,12504,13725,GLI063019,GLI063019,135.45,Payroll Accrual
GLI,6/30/2019,124704,13725,GLI063019,GLI063019,2245.4,Payroll Accrual
GLI,6/30/2019,12905,137101,GLI063019,GLI063019,13.1,Payroll Accrual
GLI,6/30/2019,12505,137101,GLI063019,GLI063019,66.39,Payroll Accrual
GLI,6/30/2019,124703,137101,GLI063019,GLI063019,873,Payroll Accrual
GLI,6/30/2019,12511,136510,GLI063019,GLI063019,7.6,Payroll Accrual
GLI,6/30/2019,12506,136510,GLI063019,GLI063019,5.53,Payroll Accrual
GLI,6/30/2019,12505,136510,GLI063019,GLI063019,5.53,Payroll Accrual
GLI,6/30/2019,12504,136510,GLI063019,GLI063019,5.53,Payroll Accrual
GLI,6/30/2019,12502,136510,GLI063019,GLI063019,5.18,Payroll Accrual
GLI,6/30/2019,12501,136510,GLI063019,GLI063019,5.18,Payroll Accrual
GLI,6/30/2019,12311,136510,GLI063019,GLI063019,99.36,Payroll Accrual
GLI,6/30/2019,12306H,136510,GLI063019,GLI063019,72.26,Payroll Accrual
GLI,6/30/2019,12305H,136510,GLI063019,GLI063019,72.26,Payroll Accrual
GLI,6/30/2019,12304H,136510,GLI063019,GLI063019,72.26,Payroll Accrual
GLI,6/30/2019,12302H,136510,GLI063019,GLI063019,67.74,Payroll Accrual
GLI,6/30/2019,12301H,136510,GLI063019,GLI063019,67.74,Payroll Accrual
GLI,6/30/2019,12904,136170,GLI063019,GLI063019,9.68,Payroll Accrual
GLI,6/30/2019,12504,136170,GLI063019,GLI063019,70.28,Payroll Accrual
GLI,6/30/2019,124704,136170,GLI063019,GLI063019,968.28,Payroll Accrual
GLI,6/30/2019,12524,135791,GLI063019,GLI063019,14.2,Payroll Accrual
GLI,6/30/2019,12224,135791,GLI063019,GLI063019,185.7,Payroll Accrual
GLI,6/30/2019,12505,135770,GLI063019,GLI063019,113.4,Payroll Accrual
GLI,6/30/2019,124703,135770,GLI063019,GLI063019,1482.4,Payroll Accrual
GLI,6/30/2019,12503,134679,GLI063019,GLI063019,30.86,Payroll Accrual
GLI,6/30/2019,124723,134679,GLI063019,GLI063019,403.44,Payroll Accrual
GLI,6/30/2019,12904,132987,GLI063019,GLI063019,17.42,Payroll Accrual
GLI,6/30/2019,12504,132987,GLI063019,GLI063019,88.45,Payroll Accrual
GLI,6/30/2019,12304D,132987,GLI063019,GLI063019,1161.34,Payroll Accrual
GLI,6/30/2019,12504,132975,GLI063019,GLI063019,33.2,Payroll Accrual
GLI,6/30/2019,124704,132975,GLI063019,GLI063019,434,Payroll Accrual
GLI,6/30/2019,12527,132875,GLI063019,GLI063019,8.35,Payroll Accrual
GLI,6/30/2019,12327,132875,GLI063019,GLI063019,109.2,Payroll Accrual
GLI,6/30/2019,12506,132574,GLI063019,GLI063019,2.59,Payroll Accrual
GLI,6/30/2019,12505,132574,GLI063019,GLI063019,2.59,Payroll Accrual
GLI,6/30/2019,12504,132574,GLI063019,GLI063019,2.59,Payroll Accrual
GLI,6/30/2019,12502,132574,GLI063019,GLI063019,2.59,Payroll Accrual
GLI,6/30/2019,12501,132574,GLI063019,GLI063019,2.59,Payroll Accrual
GLI,6/30/2019,12206B,132574,GLI063019,GLI063019,33.94,Payroll Accrual
GLI,6/30/2019,12205B,132574,GLI063019,GLI063019,33.94,Payroll Accrual
GLI,6/30/2019,12204B,132574,GLI063019,GLI063019,33.94,Payroll Accrual
GLI,6/30/2019,12202B,132574,GLI063019,GLI063019,33.94,Payroll Accrual
GLI,6/30/2019,12201B,132574,GLI063019,GLI063019,33.94,Payroll Accrual
GLI,6/30/2019,12915,132500,GLI063019,GLI063019,6.37,Payroll Accrual
GLI,6/30/2019,12906,132500,GLI063019,GLI063019,4.34,Payroll Accrual
GLI,6/30/2019,12905,132500,GLI063019,GLI063019,4.34,Payroll Accrual
GLI,6/30/2019,12904,132500,GLI063019,GLI063019,4.63,Payroll Accrual
GLI,6/30/2019,12902,132500,GLI063019,GLI063019,4.63,Payroll Accrual
GLI,6/30/2019,12901,132500,GLI063019,GLI063019,4.63,Payroll Accrual
GLI,6/30/2019,12515,132500,GLI063019,GLI063019,24.02,Payroll Accrual
GLI,6/30/2019,12506,132500,GLI063019,GLI063019,16.38,Payroll Accrual
GLI,6/30/2019,12505,132500,GLI063019,GLI063019,16.38,Payroll Accrual
GLI,6/30/2019,12504,132500,GLI063019,GLI063019,17.47,Payroll Accrual
GLI,6/30/2019,12502,132500,GLI063019,GLI063019,17.47,Payroll Accrual
GLI,6/30/2019,12501,132500,GLI063019,GLI063019,17.47,Payroll Accrual
GLI,6/30/2019,12315,132500,GLI063019,GLI063019,318.32,Payroll Accrual
GLI,6/30/2019,12306,132500,GLI063019,GLI063019,217.04,Payroll Accrual
GLI,6/30/2019,12305,132500,GLI063019,GLI063019,217.04,Payroll Accrual
GLI,6/30/2019,12304,132500,GLI063019,GLI063019,231.51,Payroll Accrual
GLI,6/30/2019,12302,132500,GLI063019,GLI063019,231.51,Payroll Accrual
GLI,6/30/2019,12301,132500,GLI063019,GLI063019,231.51,Payroll Accrual
GLI,6/30/2019,12904,131370,GLI063019,GLI063019,19.99,Payroll Accrual
GLI,6/30/2019,12504,131370,GLI063019,GLI063019,76.46,Payroll Accrual
GLI,6/30/2019,124704,131370,GLI063019,GLI063019,999.55,Payroll Accrual
GLI,6/30/2019,12924,131315,GLI063019,GLI063019,16.18,Payroll Accrual
GLI,6/30/2019,12524,131315,GLI063019,GLI063019,61.51,Payroll Accrual
GLI,6/30/2019,124724,131315,GLI063019,GLI063019,809.2,Payroll Accrual
GLI,6/30/2019,12503,128945,GLI063019,GLI063019,63.56,Payroll Accrual
GLI,6/30/2019,12303,128945,GLI063019,GLI063019,830.93,Payroll Accrual
GLI,6/30/2019,12903,12725,GLI063019,GLI063019,12.43,Payroll Accrual
GLI,6/30/2019,12503,12725,GLI063019,GLI063019,63.38,Payroll Accrual
GLI,6/30/2019,124723,12725,GLI063019,GLI063019,828.59,Payroll Accrual
GLI,6/30/2019,12504,126547,GLI063019,GLI063019,18.98,Payroll Accrual
GLI,6/30/2019,12304C,126547,GLI063019,GLI063019,248.04,Payroll Accrual
GLI,6/30/2019,12902,126200,GLI063019,GLI063019,8.88,Payroll Accrual
GLI,6/30/2019,12901,126200,GLI063019,GLI063019,8.88,Payroll Accrual
GLI,6/30/2019,12502,126200,GLI063019,GLI063019,45.28,Payroll Accrual
GLI,6/30/2019,12501,126200,GLI063019,GLI063019,45.28,Payroll Accrual
GLI,6/30/2019,12202A,126200,GLI063019,GLI063019,591.93,Payroll Accrual
GLI,6/30/2019,12201A,126200,GLI063019,GLI063019,591.93,Payroll Accrual
GLI,6/30/2019,12903,12447,GLI063019,GLI063019,8.43,Payroll Accrual
GLI,6/30/2019,12503,12447,GLI063019,GLI063019,27.34,Payroll Accrual
GLI,6/30/2019,124723,12447,GLI063019,GLI063019,561.9,Payroll Accrual
GLI,6/30/2019,12924,124101,GLI063019,GLI063019,12.56,Payroll Accrual
GLI,6/30/2019,12524,124101,GLI063019,GLI063019,64.04,Payroll Accrual
GLI,6/30/2019,12224,124101,GLI063019,GLI063019,837.07,Payroll Accrual
GLI,6/30/2019,12904,123525,GLI063019,GLI063019,4.8,Payroll Accrual
GLI,6/30/2019,12504,123525,GLI063019,GLI063019,18.36,Payroll Accrual
GLI,6/30/2019,12304B,123525,GLI063019,GLI063019,240,Payroll Accrual
GLI,6/30/2019,12906,123100,GLI063019,GLI063019,11.44,Payroll Accrual
GLI,6/30/2019,12905,123100,GLI063019,GLI063019,11.44,Payroll Accrual
GLI,6/30/2019,12904,123100,GLI063019,GLI063019,11.44,Payroll Accrual
GLI,6/30/2019,12902,123100,GLI063019,GLI063019,11.44,Payroll Accrual
GLI,6/30/2019,12901,123100,GLI063019,GLI063019,11.44,Payroll Accrual
GLI,6/30/2019,12506,123100,GLI063019,GLI063019,56.58,Payroll Accrual
GLI,6/30/2019,12505,123100,GLI063019,GLI063019,56.58,Payroll Accrual
GLI,6/30/2019,12504,123100,GLI063019,GLI063019,56.58,Payroll Accrual
GLI,6/30/2019,12502,123100,GLI063019,GLI063019,56.58,Payroll Accrual
GLI,6/30/2019,12501,123100,GLI063019,GLI063019,56.58,Payroll Accrual
GLI,6/30/2019,12106,123100,GLI063019,GLI063019,762.92,Payroll Accrual
GLI,6/30/2019,12105,123100,GLI063019,GLI063019,762.92,Payroll Accrual
GLI,6/30/2019,12104,123100,GLI063019,GLI063019,762.92,Payroll Accrual
GLI,6/30/2019,12102,123100,GLI063019,GLI063019,762.92,Payroll Accrual
GLI,6/30/2019,12101,123100,GLI063019,GLI063019,762.92,Payroll Accrual
GLI,6/30/2019,12905,122558,GLI063019,GLI063019,17.82,Payroll Accrual
GLI,6/30/2019,12505,122558,GLI063019,GLI063019,89.18,Payroll Accrual
GLI,6/30/2019,124703,122558,GLI063019,GLI063019,1188,Payroll Accrual
GLI,6/30/2019,12911,12236,GLI063019,GLI063019,6.02,Payroll Accrual
GLI,6/30/2019,12906,12236,GLI063019,GLI063019,4.38,Payroll Accrual
GLI,6/30/2019,12905,12236,GLI063019,GLI063019,4.38,Payroll Accrual
GLI,6/30/2019,12904,12236,GLI063019,GLI063019,4.38,Payroll Accrual
GLI,6/30/2019,12902,12236,GLI063019,GLI063019,4.1,Payroll Accrual
GLI,6/30/2019,12901,12236,GLI063019,GLI063019,4.1,Payroll Accrual
GLI,6/30/2019,12511,12236,GLI063019,GLI063019,20.86,Payroll Accrual
GLI,6/30/2019,12506,12236,GLI063019,GLI063019,15.18,Payroll Accrual
GLI,6/30/2019,12505,12236,GLI063019,GLI063019,15.18,Payroll Accrual
GLI,6/30/2019,12504,12236,GLI063019,GLI063019,15.18,Payroll Accrual
GLI,6/30/2019,12502,12236,GLI063019,GLI063019,14.23,Payroll Accrual
GLI,6/30/2019,12501,12236,GLI063019,GLI063019,14.23,Payroll Accrual
GLI,6/30/2019,12311,12236,GLI063019,GLI063019,300.96,Payroll Accrual
GLI,6/30/2019,12306H,12236,GLI063019,GLI063019,218.88,Payroll Accrual
GLI,6/30/2019,12305H,12236,GLI063019,GLI063019,218.88,Payroll Accrual
GLI,6/30/2019,12304H,12236,GLI063019,GLI063019,218.88,Payroll Accrual
GLI,6/30/2019,12302H,12236,GLI063019,GLI063019,205.2,Payroll Accrual
GLI,6/30/2019,12301H,12236,GLI063019,GLI063019,205.2,Payroll Accrual
GLI,6/30/2019,12906,122332,GLI063019,GLI063019,8.66,Payroll Accrual
GLI,6/30/2019,12506,122332,GLI063019,GLI063019,42.48,Payroll Accrual
GLI,6/30/2019,12306B,122332,GLI063019,GLI063019,577.54,Payroll Accrual
GLI,6/30/2019,12506,118746,GLI063019,GLI063019,43.27,Payroll Accrual
GLI,6/30/2019,12306B,118746,GLI063019,GLI063019,565.66,Payroll Accrual
GLI,6/30/2019,12903,118520,GLI063019,GLI063019,12.83,Payroll Accrual
GLI,6/30/2019,12503,118520,GLI063019,GLI063019,65.46,Payroll Accrual
GLI,6/30/2019,12303,118520,GLI063019,GLI063019,855.76,Payroll Accrual
GLI,6/30/2019,12901,118030,GLI063019,GLI063019,23.68,Payroll Accrual
GLI,6/30/2019,12501,118030,GLI063019,GLI063019,85.72,Payroll Accrual
GLI,6/30/2019,12301B,118030,GLI063019,GLI063019,1183.85,Payroll Accrual
GLI,6/30/2019,12906,118010,GLI063019,GLI063019,9.33,Payroll Accrual
GLI,6/30/2019,12506,118010,GLI063019,GLI063019,41.78,Payroll Accrual
GLI,6/30/2019,12306B,118010,GLI063019,GLI063019,621.83,Payroll Accrual
GLI,6/30/2019,12905,11732,GLI063019,GLI063019,15.06,Payroll Accrual
GLI,6/30/2019,12505,11732,GLI063019,GLI063019,55.28,Payroll Accrual
GLI,6/30/2019,12205A,11732,GLI063019,GLI063019,753.03,Payroll Accrual
GLI,6/30/2019,12905,11660,GLI063019,GLI063019,25.32,Payroll Accrual
GLI,6/30/2019,12505,11660,GLI063019,GLI063019,95.14,Payroll Accrual
GLI,6/30/2019,124703,11660,GLI063019,GLI063019,1265.9,Payroll Accrual
GLI,6/30/2019,12904,116185,GLI063019,GLI063019,22.97,Payroll Accrual
GLI,6/30/2019,12504,116185,GLI063019,GLI063019,87.87,Payroll Accrual
GLI,6/30/2019,124704,116185,GLI063019,GLI063019,1148.63,Payroll Accrual
GLI,6/30/2019,12904,115896,GLI063019,GLI063019,9.72,Payroll Accrual
GLI,6/30/2019,12504,115896,GLI063019,GLI063019,43.52,Payroll Accrual
GLI,6/30/2019,12304C,115896,GLI063019,GLI063019,647.68,Payroll Accrual
GLI,6/30/2019,12527,115676,GLI063019,GLI063019,26.84,Payroll Accrual
GLI,6/30/2019,12327,115676,GLI063019,GLI063019,350.76,Payroll Accrual
GLI,6/30/2019,12527,115355,GLI063019,GLI063019,40.11,Payroll Accrual
GLI,6/30/2019,12327,115355,GLI063019,GLI063019,524.42,Payroll Accrual
GLI,6/30/2019,12906,115255,GLI063019,GLI063019,28.5,Payroll Accrual
GLI,6/30/2019,12506,115255,GLI063019,GLI063019,109.01,Payroll Accrual
GLI,6/30/2019,12306B,115255,GLI063019,GLI063019,1425,Payroll Accrual
GLI,6/30/2019,12904,1150920,GLI063019,GLI063019,14.12,Payroll Accrual
GLI,6/30/2019,12504,1150920,GLI063019,GLI063019,67.89,Payroll Accrual
GLI,6/30/2019,124704,1150920,GLI063019,GLI063019,941.35,Payroll Accrual
GLI,6/30/2019,12504,115021,GLI063019,GLI063019,34.79,Payroll Accrual
GLI,6/30/2019,12304B,115021,GLI063019,GLI063019,454.8,Payroll Accrual
GLI,6/30/2019,12504,1149710,GLI063019,GLI063019,74.32,Payroll Accrual
GLI,6/30/2019,12304D,1149710,GLI063019,GLI063019,1071.57,Payroll Accrual
GLI,6/30/2019,12924,1149636,GLI063019,GLI063019,1.85,Payroll Accrual
GLI,6/30/2019,12905,1149636,GLI063019,GLI063019,1.85,Payroll Accrual
GLI,6/30/2019,12904,1149636,GLI063019,GLI063019,1.85,Payroll Accrual
GLI,6/30/2019,12902,1149636,GLI063019,GLI063019,1.85,Payroll Accrual
GLI,6/30/2019,12901,1149636,GLI063019,GLI063019,1.85,Payroll Accrual
GLI,6/30/2019,12524,1149636,GLI063019,GLI063019,4.02,Payroll Accrual
GLI,6/30/2019,12505,1149636,GLI063019,GLI063019,4.02,Payroll Accrual
GLI,6/30/2019,12504,1149636,GLI063019,GLI063019,4.02,Payroll Accrual
GLI,6/30/2019,12502,1149636,GLI063019,GLI063019,4.02,Payroll Accrual
GLI,6/30/2019,12501,1149636,GLI063019,GLI063019,4.02,Payroll Accrual
GLI,6/30/2019,12324F,1149636,GLI063019,GLI063019,123.13,Payroll Accrual
GLI,6/30/2019,12305F,1149636,GLI063019,GLI063019,123.13,Payroll Accrual
GLI,6/30/2019,12304F,1149636,GLI063019,GLI063019,123.13,Payroll Accrual
GLI,6/30/2019,12302F,1149636,GLI063019,GLI063019,123.13,Payroll Accrual
GLI,6/30/2019,12301F,1149636,GLI063019,GLI063019,123.13,Payroll Accrual
GLI,6/30/2019,12504,1149300,GLI063019,GLI063019,82.36,Payroll Accrual
GLI,6/30/2019,124704,1149300,GLI063019,GLI063019,1130.65,Payroll Accrual
GLI,6/30/2019,12501,1149160,GLI063019,GLI063019,9.56,Payroll Accrual
GLI,6/30/2019,11301C,1149160,GLI063019,GLI063019,125,Payroll Accrual
GLI,6/30/2019,12904,1147062,GLI063019,GLI063019,20.61,Payroll Accrual
GLI,6/30/2019,12504,1147062,GLI063019,GLI063019,64.39,Payroll Accrual
GLI,6/30/2019,12204A,1147062,GLI063019,GLI063019,1030.39,Payroll Accrual
GLI,6/30/2019,12505,1147061,GLI063019,GLI063019,94.38,Payroll Accrual
GLI,6/30/2019,124703,1147061,GLI063019,GLI063019,1250.85,Payroll Accrual
GLI,6/30/2019,12405,1147061,GLI063019,GLI063019,507.52,Payroll Accrual
GLI,6/30/2019,12905,1146991,GLI063019,GLI063019,25.58,Payroll Accrual
GLI,6/30/2019,12505,1146991,GLI063019,GLI063019,92.06,Payroll Accrual
GLI,6/30/2019,124703,1146991,GLI063019,GLI063019,1279.15,Payroll Accrual
GLI,6/30/2019,12504,1146989,GLI063019,GLI063019,65.77,Payroll Accrual
GLI,6/30/2019,124704,1146989,GLI063019,GLI063019,882,Payroll Accrual
GLI,6/30/2019,12404,1146989,GLI063019,GLI063019,77.44,Payroll Accrual
GLI,6/30/2019,12506,1144265,GLI063019,GLI063019,74.75,Payroll Accrual
GLI,6/30/2019,12306B,1144265,GLI063019,GLI063019,1030.46,Payroll Accrual
GLI,6/30/2019,12504,1140870,GLI063019,GLI063019,208.72,Payroll Accrual
GLI,6/30/2019,12304B,1140870,GLI063019,GLI063019,2728.3,Payroll Accrual
GLI,6/30/2019,12904,1137590,GLI063019,GLI063019,22.79,Payroll Accrual
GLI,6/30/2019,12504,1137590,GLI063019,GLI063019,85.47,Payroll Accrual
GLI,6/30/2019,124704,1137590,GLI063019,GLI063019,1139.55,Payroll Accrual
GLI,6/30/2019,12404,1137590,GLI063019,GLI063019,431.2,Payroll Accrual
GLI,6/30/2019,12924,1135710,GLI063019,GLI063019,17.62,Payroll Accrual
GLI,6/30/2019,12524,1135710,GLI063019,GLI063019,89.85,Payroll Accrual
GLI,6/30/2019,124724,1135710,GLI063019,GLI063019,1174.5,Payroll Accrual
GLI,6/30/2019,12904,1135410,GLI063019,GLI063019,14.48,Payroll Accrual
GLI,6/30/2019,12504,1135410,GLI063019,GLI063019,100.05,Payroll Accrual
GLI,6/30/2019,124704,1135410,GLI063019,GLI063019,1447.7,Payroll Accrual
GLI,6/30/2019,12511,1135260,GLI063019,GLI063019,23.84,Payroll Accrual
GLI,6/30/2019,12506,1135260,GLI063019,GLI063019,17.34,Payroll Accrual
GLI,6/30/2019,12505,1135260,GLI063019,GLI063019,17.34,Payroll Accrual
GLI,6/30/2019,12504,1135260,GLI063019,GLI063019,17.34,Payroll Accrual
GLI,6/30/2019,12502,1135260,GLI063019,GLI063019,16.25,Payroll Accrual
GLI,6/30/2019,12501,1135260,GLI063019,GLI063019,16.25,Payroll Accrual
GLI,6/30/2019,12311,1135260,GLI063019,GLI063019,337.62,Payroll Accrual
GLI,6/30/2019,12306H,1135260,GLI063019,GLI063019,245.54,Payroll Accrual
GLI,6/30/2019,12305H,1135260,GLI063019,GLI063019,245.54,Payroll Accrual
GLI,6/30/2019,12304H,1135260,GLI063019,GLI063019,245.54,Payroll Accrual
GLI,6/30/2019,12302H,1135260,GLI063019,GLI063019,230.19,Payroll Accrual
GLI,6/30/2019,12301H,1135260,GLI063019,GLI063019,230.19,Payroll Accrual
GLI,6/30/2019,12506,1133727,GLI063019,GLI063019,76.98,Payroll Accrual
GLI,6/30/2019,12306D,1133727,GLI063019,GLI063019,1006.24,Payroll Accrual
GLI,6/30/2019,12504,1133500,GLI063019,GLI063019,61.88,Payroll Accrual
GLI,6/30/2019,124704,1133500,GLI063019,GLI063019,808.85,Payroll Accrual
GLI,6/30/2019,12906,1132595,GLI063019,GLI063019,339.02,Payroll Accrual
GLI,6/30/2019,12506,1132595,GLI063019,GLI063019,1289.77,Payroll Accrual
GLI,6/30/2019,12106,1132595,GLI063019,GLI063019,16951.16,Payroll Accrual
GLI,6/30/2019,12904,1132590,GLI063019,GLI063019,18.03,Payroll Accrual
GLI,6/30/2019,12504,1132590,GLI063019,GLI063019,56.04,Payroll Accrual
GLI,6/30/2019,12404,1132590,GLI063019,GLI063019,320,Payroll Accrual
GLI,6/30/2019,12304B,1132590,GLI063019,GLI063019,581.59,Payroll Accrual
GLI,6/30/2019,12506,1132205,GLI063019,GLI063019,37.39,Payroll Accrual
GLI,6/30/2019,12306D,1132205,GLI063019,GLI063019,543.75,Payroll Accrual
GLI,6/30/2019,12527,113085,GLI063019,GLI063019,77.2,Payroll Accrual
GLI,6/30/2019,12127,113085,GLI063019,GLI063019,1052.31,Payroll Accrual
GLI,6/30/2019,12504,1130700,GLI063019,GLI063019,38.72,Payroll Accrual
GLI,6/30/2019,12304C,1130700,GLI063019,GLI063019,514.92,Payroll Accrual
GLI,6/30/2019,12906,113020,GLI063019,GLI063019,28.94,Payroll Accrual
GLI,6/30/2019,12506,113020,GLI063019,GLI063019,108.33,Payroll Accrual
GLI,6/30/2019,12306B,113020,GLI063019,GLI063019,1446.92,Payroll Accrual
GLI,6/30/2019,12506,1130090,GLI063019,GLI063019,38.11,Payroll Accrual
GLI,6/30/2019,12306B,1130090,GLI063019,GLI063019,503.36,Payroll Accrual
GLI,6/30/2019,12927,1129560,GLI063019,GLI063019,2.7,Payroll Accrual
GLI,6/30/2019,12527,1129560,GLI063019,GLI063019,13.75,Payroll Accrual
GLI,6/30/2019,12327,1129560,GLI063019,GLI063019,179.68,Payroll Accrual
GLI,6/30/2019,12516,1126060,GLI063019,GLI063019,67.44,Payroll Accrual
GLI,6/30/2019,12316,1126060,GLI063019,GLI063019,881.68,Payroll Accrual
GLI,6/30/2019,12905,1126040,GLI063019,GLI063019,55.7,Payroll Accrual
GLI,6/30/2019,12505,1126040,GLI063019,GLI063019,209.75,Payroll Accrual
GLI,6/30/2019,124703,1126040,GLI063019,GLI063019,2784.91,Payroll Accrual
GLI,6/30/2019,12905,1125565,GLI063019,GLI063019,26.37,Payroll Accrual
GLI,6/30/2019,12505,1125565,GLI063019,GLI063019,91.66,Payroll Accrual
GLI,6/30/2019,124703,1125565,GLI063019,GLI063019,1318.7,Payroll Accrual
GLI,6/30/2019,12906,1124875,GLI063019,GLI063019,19.51,Payroll Accrual
GLI,6/30/2019,12506,1124875,GLI063019,GLI063019,72.24,Payroll Accrual
GLI,6/30/2019,12306B,1124875,GLI063019,GLI063019,975.25,Payroll Accrual
GLI,6/30/2019,12904,1124436,GLI063019,GLI063019,35.38,Payroll Accrual
GLI,6/30/2019,12504,1124436,GLI063019,GLI063019,119.7,Payroll Accrual
GLI,6/30/2019,124704,1124436,GLI063019,GLI063019,1769.1,Payroll Accrual
GLI,6/30/2019,12904,1124430,GLI063019,GLI063019,9.02,Payroll Accrual
GLI,6/30/2019,12504,1124430,GLI063019,GLI063019,44.31,Payroll Accrual
GLI,6/30/2019,124704,1124430,GLI063019,GLI063019,601.51,Payroll Accrual
GLI,6/30/2019,12904,1124400,GLI063019,GLI063019,9.8,Payroll Accrual
GLI,6/30/2019,12504,1124400,GLI063019,GLI063019,48.66,Payroll Accrual
GLI,6/30/2019,124704,1124400,GLI063019,GLI063019,653.31,Payroll Accrual
GLI,6/30/2019,12527,1123355,GLI063019,GLI063019,56.54,Payroll Accrual
GLI,6/30/2019,12327,1123355,GLI063019,GLI063019,739.05,Payroll Accrual
GLI,6/30/2019,12914,1123340,GLI063019,GLI063019,9.26,Payroll Accrual
GLI,6/30/2019,12906,1123340,GLI063019,GLI063019,22.35,Payroll Accrual
GLI,6/30/2019,12905,1123340,GLI063019,GLI063019,20.64,Payroll Accrual
GLI,6/30/2019,12904,1123340,GLI063019,GLI063019,8,Payroll Accrual
GLI,6/30/2019,12902,1123340,GLI063019,GLI063019,7.16,Payroll Accrual
GLI,6/30/2019,12901,1123340,GLI063019,GLI063019,7.16,Payroll Accrual
GLI,6/30/2019,12514,1123340,GLI063019,GLI063019,35.25,Payroll Accrual
GLI,6/30/2019,12506,1123340,GLI063019,GLI063019,3.95,Payroll Accrual
GLI,6/30/2019,12505,1123340,GLI063019,GLI063019,3.65,Payroll Accrual
GLI,6/30/2019,12504,1123340,GLI063019,GLI063019,30.45,Payroll Accrual
GLI,6/30/2019,12502,1123340,GLI063019,GLI063019,27.24,Payroll Accrual
GLI,6/30/2019,12501,1123340,GLI063019,GLI063019,27.24,Payroll Accrual
GLI,6/30/2019,12214,1123340,GLI063019,GLI063019,463.02,Payroll Accrual
GLI,6/30/2019,12206C,1123340,GLI063019,GLI063019,273.6,Payroll Accrual
GLI,6/30/2019,12205C,1123340,GLI063019,GLI063019,252.55,Payroll Accrual
GLI,6/30/2019,12204C,1123340,GLI063019,GLI063019,399.88,Payroll Accrual
GLI,6/30/2019,12202C,1123340,GLI063019,GLI063019,357.78,Payroll Accrual
GLI,6/30/2019,12201C,1123340,GLI063019,GLI063019,357.78,Payroll Accrual
GLI,6/30/2019,12503,1122246,GLI063019,GLI063019,51.3,Payroll Accrual
GLI,6/30/2019,12303,1122246,GLI063019,GLI063019,687.79,Payroll Accrual
GLI,6/30/2019,12927,1122110,GLI063019,GLI063019,42.09,Payroll Accrual
GLI,6/30/2019,12527,1122110,GLI063019,GLI063019,154.15,Payroll Accrual
GLI,6/30/2019,12327,1122110,GLI063019,GLI063019,2104.62,Payroll Accrual
GLI,6/30/2019,12501,1121240,GLI063019,GLI063019,14.92,Payroll Accrual
GLI,6/30/2019,11301C,1121240,GLI063019,GLI063019,195,Payroll Accrual
GLI,6/30/2019,12506,1120225,GLI063019,GLI063019,38.07,Payroll Accrual
GLI,6/30/2019,12505,1120225,GLI063019,GLI063019,38.07,Payroll Accrual
GLI,6/30/2019,12504,1120225,GLI063019,GLI063019,38.07,Payroll Accrual
GLI,6/30/2019,12502,1120225,GLI063019,GLI063019,38.07,Payroll Accrual
GLI,6/30/2019,12501,1120225,GLI063019,GLI063019,38.07,Payroll Accrual
GLI,6/30/2019,12006,1120225,GLI063019,GLI063019,526.15,Payroll Accrual
GLI,6/30/2019,12005,1120225,GLI063019,GLI063019,526.15,Payroll Accrual
GLI,6/30/2019,12004,1120225,GLI063019,GLI063019,526.15,Payroll Accrual
GLI,6/30/2019,12002,1120225,GLI063019,GLI063019,526.15,Payroll Accrual
GLI,6/30/2019,12001,1120225,GLI063019,GLI063019,526.15,Payroll Accrual
GLI,6/30/2019,12906,1120120,GLI063019,GLI063019,9.81,Payroll Accrual
GLI,6/30/2019,12506,1120120,GLI063019,GLI063019,45.28,Payroll Accrual
GLI,6/30/2019,12306B,1120120,GLI063019,GLI063019,654.16,Payroll Accrual
GLI,6/30/2019,12927,1120110,GLI063019,GLI063019,17.1,Payroll Accrual
GLI,6/30/2019,12527,1120110,GLI063019,GLI063019,86.46,Payroll Accrual
GLI,6/30/2019,12127,1120110,GLI063019,GLI063019,1140,Payroll Accrual
GLI,6/30/2019,12505,1118722,GLI063019,GLI063019,120.03,Payroll Accrual
GLI,6/30/2019,124703,1118722,GLI063019,GLI063019,1603.25,Payroll Accrual
GLI,6/30/2019,12904,1117960,GLI063019,GLI063019,21.92,Payroll Accrual
GLI,6/30/2019,12504,1117960,GLI063019,GLI063019,82.07,Payroll Accrual
GLI,6/30/2019,124704,1117960,GLI063019,GLI063019,1096.16,Payroll Accrual
GLI,6/30/2019,12504,1117901,GLI063019,GLI063019,94.23,Payroll Accrual
GLI,6/30/2019,124704,1117901,GLI063019,GLI063019,1231.7,Payroll Accrual
GLI,6/30/2019,12904,1117842,GLI063019,GLI063019,40.22,Payroll Accrual
GLI,6/30/2019,12504,1117842,GLI063019,GLI063019,205.13,Payroll Accrual
GLI,6/30/2019,12304B,1117842,GLI063019,GLI063019,2681.4,Payroll Accrual
GLI,6/30/2019,12903,1117600,GLI063019,GLI063019,28.31,Payroll Accrual
GLI,6/30/2019,12503,1117600,GLI063019,GLI063019,90.62,Payroll Accrual
GLI,6/30/2019,12303,1117600,GLI063019,GLI063019,1415.12,Payroll Accrual
GLI,6/30/2019,12906,111568,GLI063019,GLI063019,8.97,Payroll Accrual
GLI,6/30/2019,12506,111568,GLI063019,GLI063019,45.73,Payroll Accrual
GLI,6/30/2019,12306C,111568,GLI063019,GLI063019,597.8,Payroll Accrual
GLI,6/30/2019,12905,1114921,GLI063019,GLI063019,15.83,Payroll Accrual
GLI,6/30/2019,12505,1114921,GLI063019,GLI063019,56.33,Payroll Accrual
GLI,6/30/2019,124703,1114921,GLI063019,GLI063019,1055.25,Payroll Accrual
GLI,6/30/2019,12906,1114831,GLI063019,GLI063019,4.66,Payroll Accrual
GLI,6/30/2019,12506,1114831,GLI063019,GLI063019,23.74,Payroll Accrual
GLI,6/30/2019,12306D,1114831,GLI063019,GLI063019,310.38,Payroll Accrual
GLI,6/30/2019,12904,1113940,GLI063019,GLI063019,18.89,Payroll Accrual
GLI,6/30/2019,12504,1113940,GLI063019,GLI063019,68.81,Payroll Accrual
GLI,6/30/2019,124704,1113940,GLI063019,GLI063019,944.5,Payroll Accrual
GLI,6/30/2019,12904,111254,GLI063019,GLI063019,16.76,Payroll Accrual
GLI,6/30/2019,12504,111254,GLI063019,GLI063019,85.43,Payroll Accrual
GLI,6/30/2019,12304D,111254,GLI063019,GLI063019,1116.73,Payroll Accrual
GLI,6/30/2019,12904,111210,GLI063019,GLI063019,14.99,Payroll Accrual
GLI,6/30/2019,12504,111210,GLI063019,GLI063019,70.65,Payroll Accrual
GLI,6/30/2019,124704,111210,GLI063019,GLI063019,999.2,Payroll Accrual
GLI,6/30/2019,12905,1111325,GLI063019,GLI063019,19.9,Payroll Accrual
GLI,6/30/2019,12505,1111325,GLI063019,GLI063019,73.37,Payroll Accrual
GLI,6/30/2019,12405,1111325,GLI063019,GLI063019,156,Payroll Accrual
GLI,6/30/2019,12205A,1111325,GLI063019,GLI063019,839.09,Payroll Accrual
GLI,6/30/2019,12903,1110800,GLI063019,GLI063019,12.89,Payroll Accrual
GLI,6/30/2019,12503,1110800,GLI063019,GLI063019,49.31,Payroll Accrual
GLI,6/30/2019,12303,1110800,GLI063019,GLI063019,644.69,Payroll Accrual
GLI,6/30/2019,12911,1110660,GLI063019,GLI063019,2.07,Payroll Accrual
GLI,6/30/2019,12906,1110660,GLI063019,GLI063019,1.51,Payroll Accrual
GLI,6/30/2019,12905,1110660,GLI063019,GLI063019,1.51,Payroll Accrual
GLI,6/30/2019,12904,1110660,GLI063019,GLI063019,1.51,Payroll Accrual
GLI,6/30/2019,12902,1110660,GLI063019,GLI063019,1.41,Payroll Accrual
GLI,6/30/2019,12901,1110660,GLI063019,GLI063019,1.41,Payroll Accrual
GLI,6/30/2019,12511,1110660,GLI063019,GLI063019,8.86,Payroll Accrual
GLI,6/30/2019,12506,1110660,GLI063019,GLI063019,5.98,Payroll Accrual
GLI,6/30/2019,12505,1110660,GLI063019,GLI063019,5.98,Payroll Accrual
GLI,6/30/2019,12504,1110660,GLI063019,GLI063019,5.98,Payroll Accrual
GLI,6/30/2019,12502,1110660,GLI063019,GLI063019,5.5,Payroll Accrual
GLI,6/30/2019,12501,1110660,GLI063019,GLI063019,5.5,Payroll Accrual
GLI,6/30/2019,12311,1110660,GLI063019,GLI063019,138.09,Payroll Accrual
GLI,6/30/2019,12306H,1110660,GLI063019,GLI063019,100.43,Payroll Accrual
GLI,6/30/2019,12305H,1110660,GLI063019,GLI063019,100.43,Payroll Accrual
GLI,6/30/2019,12304H,1110660,GLI063019,GLI063019,100.43,Payroll Accrual
GLI,6/30/2019,12302H,1110660,GLI063019,GLI063019,94.15,Payroll Accrual
GLI,6/30/2019,12301H,1110660,GLI063019,GLI063019,94.15,Payroll Accrual
GLI,6/30/2019,12905,1108200,GLI063019,GLI063019,25.74,Payroll Accrual
GLI,6/30/2019,12505,1108200,GLI063019,GLI063019,131.28,Payroll Accrual
GLI,6/30/2019,12305B,1108200,GLI063019,GLI063019,1716.15,Payroll Accrual
GLI,6/30/2019,12505,1107950,GLI063019,GLI063019,58.67,Payroll Accrual
GLI,6/30/2019,124703,1107950,GLI063019,GLI063019,843.2,Payroll Accrual
GLI,6/30/2019,12904,1106421,GLI063019,GLI063019,26.66,Payroll Accrual
GLI,6/30/2019,12504,1106421,GLI063019,GLI063019,89.32,Payroll Accrual
GLI,6/30/2019,124704,1106421,GLI063019,GLI063019,1332.95,Payroll Accrual
GLI,6/30/2019,12404,1106421,GLI063019,GLI063019,129.56,Payroll Accrual
GLI,6/30/2019,12905,1106400,GLI063019,GLI063019,17.08,Payroll Accrual
GLI,6/30/2019,12505,1106400,GLI063019,GLI063019,85.8,Payroll Accrual
GLI,6/30/2019,124703,1106400,GLI063019,GLI063019,1138.75,Payroll Accrual
GLI,6/30/2019,12904,1106399,GLI063019,GLI063019,28.79,Payroll Accrual
GLI,6/30/2019,12504,1106399,GLI063019,GLI063019,110.1,Payroll Accrual
GLI,6/30/2019,124704,1106399,GLI063019,GLI063019,1439.25,Payroll Accrual
GLI,6/30/2019,12924,1103065,GLI063019,GLI063019,1.69,Payroll Accrual
GLI,6/30/2019,12905,1103065,GLI063019,GLI063019,1.69,Payroll Accrual
GLI,6/30/2019,12904,1103065,GLI063019,GLI063019,1.69,Payroll Accrual
GLI,6/30/2019,12902,1103065,GLI063019,GLI063019,1.69,Payroll Accrual
GLI,6/30/2019,12901,1103065,GLI063019,GLI063019,1.69,Payroll Accrual
GLI,6/30/2019,12524,1103065,GLI063019,GLI063019,2.27,Payroll Accrual
GLI,6/30/2019,12505,1103065,GLI063019,GLI063019,2.27,Payroll Accrual
GLI,6/30/2019,12504,1103065,GLI063019,GLI063019,2.27,Payroll Accrual
GLI,6/30/2019,12502,1103065,GLI063019,GLI063019,2.27,Payroll Accrual
GLI,6/30/2019,12501,1103065,GLI063019,GLI063019,2.27,Payroll Accrual
GLI,6/30/2019,12324F,1103065,GLI063019,GLI063019,84.61,Payroll Accrual
GLI,6/30/2019,12305F,1103065,GLI063019,GLI063019,84.61,Payroll Accrual
GLI,6/30/2019,12304F,1103065,GLI063019,GLI063019,84.61,Payroll Accrual
GLI,6/30/2019,12302F,1103065,GLI063019,GLI063019,84.61,Payroll Accrual
GLI,6/30/2019,12301F,1103065,GLI063019,GLI063019,84.61,Payroll Accrual
GLI,6/30/2019,12504,1102198,GLI063019,GLI063019,69.07,Payroll Accrual
GLI,6/30/2019,12503,1102198,GLI063019,GLI063019,69.07,Payroll Accrual
GLI,6/30/2019,12104,1102198,GLI063019,GLI063019,907.69,Payroll Accrual
GLI,6/30/2019,12103,1102198,GLI063019,GLI063019,907.69,Payroll Accrual
GLI,6/30/2019,12504,1102195,GLI063019,GLI063019,150.2,Payroll Accrual
GLI,6/30/2019,12104,1102195,GLI063019,GLI063019,1973.08,Payroll Accrual
GLI,6/30/2019,12527,1100820,GLI063019,GLI063019,55.13,Payroll Accrual
GLI,6/30/2019,12327,1100820,GLI063019,GLI063019,720.65,Payroll Accrual
GLI,6/30/2019,12905,1100625,GLI063019,GLI063019,17.95,Payroll Accrual
GLI,6/30/2019,12505,1100625,GLI063019,GLI063019,91.54,Payroll Accrual
GLI,6/30/2019,124703,1100625,GLI063019,GLI063019,1196.55,Payroll Accrual
GLI,6/30/2019,12504,10568,GLI063019,GLI063019,56.35,Payroll Accrual
GLI,6/30/2019,124704,10568,GLI063019,GLI063019,753.68,Payroll Accrual
