journal,date,account,control,document,reference,amount,description
GLI,9/30/2016,232103,GLI093016,GLI093016,GLI093016,-43343.65,Payroll Accrual
GLI,9/30/2016,132101,GLI093016,GLI093016,GLI093016,-408363.86,Payroll Accrual
GLI,9/30/2016,12006,1130426,GLI093016,GLI093016,1443.69,Payroll Accrual
GLI,9/30/2016,12005,1130426,GLI093016,GLI093016,1443.69,Payroll Accrual
GLI,9/30/2016,12004,1130426,GLI093016,GLI093016,1443.69,Payroll Accrual
GLI,9/30/2016,12002,1130426,GLI093016,GLI093016,1443.69,Payroll Accrual
GLI,9/30/2016,12001,1130426,GLI093016,GLI093016,1302.17,Payroll Accrual
GLI,9/30/2016,22910,291600,GLI093016,GLI093016,2.03,Payroll Accrual
GLI,9/30/2016,22906,291600,GLI093016,GLI093016,4.23,Payroll Accrual
GLI,9/30/2016,22904,291600,GLI093016,GLI093016,4.23,Payroll Accrual
GLI,9/30/2016,22902,291600,GLI093016,GLI093016,4.23,Payroll Accrual
GLI,9/30/2016,22901,291600,GLI093016,GLI093016,2.2,Payroll Accrual
GLI,9/30/2016,22510,291600,GLI093016,GLI093016,2.47,Payroll Accrual
GLI,9/30/2016,22506,291600,GLI093016,GLI093016,10.89,Payroll Accrual
GLI,9/30/2016,22504,291600,GLI093016,GLI093016,10.89,Payroll Accrual
GLI,9/30/2016,22502,291600,GLI093016,GLI093016,10.89,Payroll Accrual
GLI,9/30/2016,22501,291600,GLI093016,GLI093016,3.12,Payroll Accrual
GLI,9/30/2016,22210B,291600,GLI093016,GLI093016,101.59,Payroll Accrual
GLI,9/30/2016,22206B,291600,GLI093016,GLI093016,211.65,Payroll Accrual
GLI,9/30/2016,22204B,291600,GLI093016,GLI093016,211.65,Payroll Accrual
GLI,9/30/2016,22202B,291600,GLI093016,GLI093016,211.65,Payroll Accrual
GLI,9/30/2016,22201B,291600,GLI093016,GLI093016,110.06,Payroll Accrual
GLI,9/30/2016,22504,291582,GLI093016,GLI093016,30.07,Payroll Accrual
GLI,9/30/2016,22304C,291582,GLI093016,GLI093016,393,Payroll Accrual
GLI,9/30/2016,22506,288000,GLI093016,GLI093016,64.31,Payroll Accrual
GLI,9/30/2016,22306,288000,GLI093016,GLI093016,840.72,Payroll Accrual
GLI,9/30/2016,22503,286000,GLI093016,GLI093016,71.16,Payroll Accrual
GLI,9/30/2016,224723,286000,GLI093016,GLI093016,930.12,Payroll Accrual
GLI,9/30/2016,22904,285800,GLI093016,GLI093016,46.44,Payroll Accrual
GLI,9/30/2016,22504,285800,GLI093016,GLI093016,234.31,Payroll Accrual
GLI,9/30/2016,22304B,285800,GLI093016,GLI093016,3095.91,Payroll Accrual
GLI,9/30/2016,22503,284730,GLI093016,GLI093016,31.99,Payroll Accrual
GLI,9/30/2016,224723,284730,GLI093016,GLI093016,480,Payroll Accrual
GLI,9/30/2016,22504,282715,GLI093016,GLI093016,106.15,Payroll Accrual
GLI,9/30/2016,224704,282715,GLI093016,GLI093016,1449.4,Payroll Accrual
GLI,9/30/2016,22503,282713,GLI093016,GLI093016,80.38,Payroll Accrual
GLI,9/30/2016,224723,282713,GLI093016,GLI093016,1050.72,Payroll Accrual
GLI,9/30/2016,22504,279630,GLI093016,GLI093016,118.01,Payroll Accrual
GLI,9/30/2016,224704,279630,GLI093016,GLI093016,1542.49,Payroll Accrual
GLI,9/30/2016,22906,274225,GLI093016,GLI093016,23.74,Payroll Accrual
GLI,9/30/2016,22506,274225,GLI093016,GLI093016,109.67,Payroll Accrual
GLI,9/30/2016,22306,274225,GLI093016,GLI093016,1582.56,Payroll Accrual
GLI,9/30/2016,22904,273315,GLI093016,GLI093016,46.91,Payroll Accrual
GLI,9/30/2016,22504,273315,GLI093016,GLI093016,179.41,Payroll Accrual
GLI,9/30/2016,224704,273315,GLI093016,GLI093016,2345.19,Payroll Accrual
GLI,9/30/2016,22506,264220,GLI093016,GLI093016,85.49,Payroll Accrual
GLI,9/30/2016,22306,264220,GLI093016,GLI093016,1186.83,Payroll Accrual
GLI,9/30/2016,22510,264000,GLI093016,GLI093016,0.64,Payroll Accrual
GLI,9/30/2016,22506,264000,GLI093016,GLI093016,1.35,Payroll Accrual
GLI,9/30/2016,22504,264000,GLI093016,GLI093016,1.35,Payroll Accrual
GLI,9/30/2016,22502,264000,GLI093016,GLI093016,1.35,Payroll Accrual
GLI,9/30/2016,22501,264000,GLI093016,GLI093016,0.7,Payroll Accrual
GLI,9/30/2016,22210B,264000,GLI093016,GLI093016,8.45,Payroll Accrual
GLI,9/30/2016,22206B,264000,GLI093016,GLI093016,17.6,Payroll Accrual
GLI,9/30/2016,22204B,264000,GLI093016,GLI093016,17.6,Payroll Accrual
GLI,9/30/2016,22202B,264000,GLI093016,GLI093016,17.6,Payroll Accrual
GLI,9/30/2016,22201B,264000,GLI093016,GLI093016,9.15,Payroll Accrual
GLI,9/30/2016,22503,263840,GLI093016,GLI093016,73.91,Payroll Accrual
GLI,9/30/2016,224723,263840,GLI093016,GLI093016,966.06,Payroll Accrual
GLI,9/30/2016,22903,241310,GLI093016,GLI093016,6.33,Payroll Accrual
GLI,9/30/2016,22503,241310,GLI093016,GLI093016,32.28,Payroll Accrual
GLI,9/30/2016,224723,241310,GLI093016,GLI093016,421.96,Payroll Accrual
GLI,9/30/2016,22903,241120,GLI093016,GLI093016,18.58,Payroll Accrual
GLI,9/30/2016,22503,241120,GLI093016,GLI093016,89.17,Payroll Accrual
GLI,9/30/2016,22303,241120,GLI093016,GLI093016,1238.93,Payroll Accrual
GLI,9/30/2016,22903,241085,GLI093016,GLI093016,26.62,Payroll Accrual
GLI,9/30/2016,22503,241085,GLI093016,GLI093016,134.52,Payroll Accrual
GLI,9/30/2016,22303,241085,GLI093016,GLI093016,1774.25,Payroll Accrual
GLI,9/30/2016,22504,230810,GLI093016,GLI093016,20.79,Payroll Accrual
GLI,9/30/2016,22304C,230810,GLI093016,GLI093016,271.71,Payroll Accrual
GLI,9/30/2016,22504,230601,GLI093016,GLI093016,151.09,Payroll Accrual
GLI,9/30/2016,22104,230601,GLI093016,GLI093016,2123.08,Payroll Accrual
GLI,9/30/2016,22503,223050,GLI093016,GLI093016,54.47,Payroll Accrual
GLI,9/30/2016,224723,223050,GLI093016,GLI093016,712.04,Payroll Accrual
GLI,9/30/2016,22910,2141225,GLI093016,GLI093016,3.18,Payroll Accrual
GLI,9/30/2016,22902,2141225,GLI093016,GLI093016,3.18,Payroll Accrual
GLI,9/30/2016,22901,2141225,GLI093016,GLI093016,3.27,Payroll Accrual
GLI,9/30/2016,22510,2141225,GLI093016,GLI093016,9.18,Payroll Accrual
GLI,9/30/2016,22502,2141225,GLI093016,GLI093016,9.18,Payroll Accrual
GLI,9/30/2016,22501,2141225,GLI093016,GLI093016,9.66,Payroll Accrual
GLI,9/30/2016,22310,2141225,GLI093016,GLI093016,211.73,Payroll Accrual
GLI,9/30/2016,22302,2141225,GLI093016,GLI093016,211.73,Payroll Accrual
GLI,9/30/2016,22301,2141225,GLI093016,GLI093016,218.14,Payroll Accrual
GLI,9/30/2016,22503,213520,GLI093016,GLI093016,61.86,Payroll Accrual
GLI,9/30/2016,224723,213520,GLI093016,GLI093016,827.9,Payroll Accrual
GLI,9/30/2016,22910,213406,GLI093016,GLI093016,1.32,Payroll Accrual
GLI,9/30/2016,22906,213406,GLI093016,GLI093016,2.75,Payroll Accrual
GLI,9/30/2016,22904,213406,GLI093016,GLI093016,2.75,Payroll Accrual
GLI,9/30/2016,22902,213406,GLI093016,GLI093016,2.75,Payroll Accrual
GLI,9/30/2016,22901,213406,GLI093016,GLI093016,1.43,Payroll Accrual
GLI,9/30/2016,22510,213406,GLI093016,GLI093016,6.74,Payroll Accrual
GLI,9/30/2016,22506,213406,GLI093016,GLI093016,14.04,Payroll Accrual
GLI,9/30/2016,22504,213406,GLI093016,GLI093016,14.04,Payroll Accrual
GLI,9/30/2016,22502,213406,GLI093016,GLI093016,14.04,Payroll Accrual
GLI,9/30/2016,22501,213406,GLI093016,GLI093016,7.3,Payroll Accrual
GLI,9/30/2016,22210B,213406,GLI093016,GLI093016,88.13,Payroll Accrual
GLI,9/30/2016,22206B,213406,GLI093016,GLI093016,183.61,Payroll Accrual
GLI,9/30/2016,22204B,213406,GLI093016,GLI093016,183.61,Payroll Accrual
GLI,9/30/2016,22202B,213406,GLI093016,GLI093016,183.61,Payroll Accrual
GLI,9/30/2016,22201B,213406,GLI093016,GLI093016,95.48,Payroll Accrual
GLI,9/30/2016,22504,2132390,GLI093016,GLI093016,10.82,Payroll Accrual
GLI,9/30/2016,22304C,2132390,GLI093016,GLI093016,141.48,Payroll Accrual
GLI,9/30/2016,22904,2132360,GLI093016,GLI093016,41.53,Payroll Accrual
GLI,9/30/2016,22504,2132360,GLI093016,GLI093016,153.29,Payroll Accrual
GLI,9/30/2016,224704,2132360,GLI093016,GLI093016,2076.4,Payroll Accrual
GLI,9/30/2016,22904,2130150,GLI093016,GLI093016,36.54,Payroll Accrual
GLI,9/30/2016,22504,2130150,GLI093016,GLI093016,139.11,Payroll Accrual
GLI,9/30/2016,224704,2130150,GLI093016,GLI093016,1826.89,Payroll Accrual
GLI,9/30/2016,22504,2126053,GLI093016,GLI093016,28.13,Payroll Accrual
GLI,9/30/2016,22304C,2126053,GLI093016,GLI093016,367.7,Payroll Accrual
GLI,9/30/2016,22903,2124820,GLI093016,GLI093016,16.05,Payroll Accrual
GLI,9/30/2016,22503,2124820,GLI093016,GLI093016,81.87,Payroll Accrual
GLI,9/30/2016,224723,2124820,GLI093016,GLI093016,1070.22,Payroll Accrual
GLI,9/30/2016,22904,2119120,GLI093016,GLI093016,6.56,Payroll Accrual
GLI,9/30/2016,22504,2119120,GLI093016,GLI093016,94.73,Payroll Accrual
GLI,9/30/2016,224704,2119120,GLI093016,GLI093016,1310.89,Payroll Accrual
GLI,9/30/2016,22904,2118050,GLI093016,GLI093016,24.26,Payroll Accrual
GLI,9/30/2016,22504,2118050,GLI093016,GLI093016,123.73,Payroll Accrual
GLI,9/30/2016,224704,2118050,GLI093016,GLI093016,1617.44,Payroll Accrual
GLI,9/30/2016,22504,2106410,GLI093016,GLI093016,179.82,Payroll Accrual
GLI,9/30/2016,22304B,2106410,GLI093016,GLI093016,2350.39,Payroll Accrual
GLI,9/30/2016,22506,2106350,GLI093016,GLI093016,178,Payroll Accrual
GLI,9/30/2016,22106,2106350,GLI093016,GLI093016,2410.78,Payroll Accrual
GLI,9/30/2016,22504,210073,GLI093016,GLI093016,102.96,Payroll Accrual
GLI,9/30/2016,224704,210073,GLI093016,GLI093016,1365.1,Payroll Accrual
GLI,9/30/2016,12503,196345,GLI093016,GLI093016,90.07,Payroll Accrual
GLI,9/30/2016,12303,196345,GLI093016,GLI093016,1177.47,Payroll Accrual
GLI,9/30/2016,12906,196341,GLI093016,GLI093016,7.92,Payroll Accrual
GLI,9/30/2016,12905,196341,GLI093016,GLI093016,6.84,Payroll Accrual
GLI,9/30/2016,12514,196341,GLI093016,GLI093016,21.84,Payroll Accrual
GLI,9/30/2016,12506,196341,GLI093016,GLI093016,1.85,Payroll Accrual
GLI,9/30/2016,12505,196341,GLI093016,GLI093016,1.6,Payroll Accrual
GLI,9/30/2016,12504,196341,GLI093016,GLI093016,17.82,Payroll Accrual
GLI,9/30/2016,12502,196341,GLI093016,GLI093016,15.14,Payroll Accrual
GLI,9/30/2016,12501,196341,GLI093016,GLI093016,15.14,Payroll Accrual
GLI,9/30/2016,12214,196341,GLI093016,GLI093016,385.52,Payroll Accrual
GLI,9/30/2016,12206C,196341,GLI093016,GLI093016,227.81,Payroll Accrual
GLI,9/30/2016,12205C,196341,GLI093016,GLI093016,210.28,Payroll Accrual
GLI,9/30/2016,12204C,196341,GLI093016,GLI093016,332.95,Payroll Accrual
GLI,9/30/2016,12202C,196341,GLI093016,GLI093016,297.9,Payroll Accrual
GLI,9/30/2016,12201C,196341,GLI093016,GLI093016,297.9,Payroll Accrual
GLI,9/30/2016,12524,195413,GLI093016,GLI093016,48.32,Payroll Accrual
GLI,9/30/2016,124724,195413,GLI093016,GLI093016,631.55,Payroll Accrual
GLI,9/30/2016,12506,195401,GLI093016,GLI093016,89.7,Payroll Accrual
GLI,9/30/2016,12306D,195401,GLI093016,GLI093016,1241.89,Payroll Accrual
GLI,9/30/2016,12504,194675,GLI093016,GLI093016,137.22,Payroll Accrual
GLI,9/30/2016,124704,194675,GLI093016,GLI093016,1859.2,Payroll Accrual
GLI,9/30/2016,12527,193062,GLI093016,GLI093016,34.96,Payroll Accrual
GLI,9/30/2016,12327,193062,GLI093016,GLI093016,457,Payroll Accrual
GLI,9/30/2016,12505,191350,GLI093016,GLI093016,216.44,Payroll Accrual
GLI,9/30/2016,124703,191350,GLI093016,GLI093016,2829.3,Payroll Accrual
GLI,9/30/2016,12504,191060,GLI093016,GLI093016,54.45,Payroll Accrual
GLI,9/30/2016,12404,191060,GLI093016,GLI093016,64,Payroll Accrual
GLI,9/30/2016,12304B,191060,GLI093016,GLI093016,647.84,Payroll Accrual
GLI,9/30/2016,12524,190933,GLI093016,GLI093016,105.53,Payroll Accrual
GLI,9/30/2016,124724,190933,GLI093016,GLI093016,1436.8,Payroll Accrual
GLI,9/30/2016,12524,190910,GLI093016,GLI093016,140.3,Payroll Accrual
GLI,9/30/2016,124724,190910,GLI093016,GLI093016,1834,Payroll Accrual
GLI,9/30/2016,12906,190892,GLI093016,GLI093016,30.16,Payroll Accrual
GLI,9/30/2016,12506,190892,GLI093016,GLI093016,113.39,Payroll Accrual
GLI,9/30/2016,12306C,190892,GLI093016,GLI093016,1508.24,Payroll Accrual
GLI,9/30/2016,12905,190600,GLI093016,GLI093016,33.3,Payroll Accrual
GLI,9/30/2016,12505,190600,GLI093016,GLI093016,122.08,Payroll Accrual
GLI,9/30/2016,124703,190600,GLI093016,GLI093016,1513.16,Payroll Accrual
GLI,9/30/2016,12405,190600,GLI093016,GLI093016,152,Payroll Accrual
GLI,9/30/2016,12905,188338,GLI093016,GLI093016,103.95,Payroll Accrual
GLI,9/30/2016,12505,188338,GLI093016,GLI093016,388.65,Payroll Accrual
GLI,9/30/2016,12305B,188338,GLI093016,GLI093016,5197.57,Payroll Accrual
GLI,9/30/2016,12904,187675,GLI093016,GLI093016,84.77,Payroll Accrual
GLI,9/30/2016,12504,187675,GLI093016,GLI093016,320.54,Payroll Accrual
GLI,9/30/2016,124704,187675,GLI093016,GLI093016,4238.8,Payroll Accrual
GLI,9/30/2016,12905,186210,GLI093016,GLI093016,31.93,Payroll Accrual
GLI,9/30/2016,12505,186210,GLI093016,GLI093016,162.86,Payroll Accrual
GLI,9/30/2016,124703,186210,GLI093016,GLI093016,2128.9,Payroll Accrual
GLI,9/30/2016,12906,186100,GLI093016,GLI093016,10.62,Payroll Accrual
GLI,9/30/2016,12905,186100,GLI093016,GLI093016,10.62,Payroll Accrual
GLI,9/30/2016,12904,186100,GLI093016,GLI093016,10.62,Payroll Accrual
GLI,9/30/2016,12902,186100,GLI093016,GLI093016,10.62,Payroll Accrual
GLI,9/30/2016,12901,186100,GLI093016,GLI093016,10.62,Payroll Accrual
GLI,9/30/2016,12506,186100,GLI093016,GLI093016,40.38,Payroll Accrual
GLI,9/30/2016,12505,186100,GLI093016,GLI093016,40.38,Payroll Accrual
GLI,9/30/2016,12504,186100,GLI093016,GLI093016,40.38,Payroll Accrual
GLI,9/30/2016,12502,186100,GLI093016,GLI093016,40.38,Payroll Accrual
GLI,9/30/2016,12501,186100,GLI093016,GLI093016,40.38,Payroll Accrual
GLI,9/30/2016,12106,186100,GLI093016,GLI093016,530.77,Payroll Accrual
GLI,9/30/2016,12105,186100,GLI093016,GLI093016,530.77,Payroll Accrual
GLI,9/30/2016,12104,186100,GLI093016,GLI093016,530.77,Payroll Accrual
GLI,9/30/2016,12102,186100,GLI093016,GLI093016,530.77,Payroll Accrual
GLI,9/30/2016,12101,186100,GLI093016,GLI093016,530.77,Payroll Accrual
GLI,9/30/2016,12515,185600,GLI093016,GLI093016,40.42,Payroll Accrual
GLI,9/30/2016,12506,185600,GLI093016,GLI093016,27.55,Payroll Accrual
GLI,9/30/2016,12505,185600,GLI093016,GLI093016,27.55,Payroll Accrual
GLI,9/30/2016,12504,185600,GLI093016,GLI093016,29.39,Payroll Accrual
GLI,9/30/2016,12502,185600,GLI093016,GLI093016,29.39,Payroll Accrual
GLI,9/30/2016,12501,185600,GLI093016,GLI093016,29.39,Payroll Accrual
GLI,9/30/2016,12315,185600,GLI093016,GLI093016,544.92,Payroll Accrual
GLI,9/30/2016,12306,185600,GLI093016,GLI093016,371.54,Payroll Accrual
GLI,9/30/2016,12305,185600,GLI093016,GLI093016,371.54,Payroll Accrual
GLI,9/30/2016,12304,185600,GLI093016,GLI093016,396.31,Payroll Accrual
GLI,9/30/2016,12302,185600,GLI093016,GLI093016,396.31,Payroll Accrual
GLI,9/30/2016,12301,185600,GLI093016,GLI093016,396.31,Payroll Accrual
GLI,9/30/2016,12502,185101,GLI093016,GLI093016,31.55,Payroll Accrual
GLI,9/30/2016,12501,185101,GLI093016,GLI093016,31.55,Payroll Accrual
GLI,9/30/2016,12202A,185101,GLI093016,GLI093016,574.21,Payroll Accrual
GLI,9/30/2016,12201A,185101,GLI093016,GLI093016,574.21,Payroll Accrual
GLI,9/30/2016,12905,184920,GLI093016,GLI093016,49.58,Payroll Accrual
GLI,9/30/2016,12505,184920,GLI093016,GLI093016,246.65,Payroll Accrual
GLI,9/30/2016,124703,184920,GLI093016,GLI093016,3305.1,Payroll Accrual
GLI,9/30/2016,12924,184806,GLI093016,GLI093016,44.24,Payroll Accrual
GLI,9/30/2016,12524,184806,GLI093016,GLI093016,169.21,Payroll Accrual
GLI,9/30/2016,124724,184806,GLI093016,GLI093016,2212,Payroll Accrual
GLI,9/30/2016,12502,184625,GLI093016,GLI093016,133.91,Payroll Accrual
GLI,9/30/2016,12501,184625,GLI093016,GLI093016,89.27,Payroll Accrual
GLI,9/30/2016,12102A,184625,GLI093016,GLI093016,1783.39,Payroll Accrual
GLI,9/30/2016,12101A,184625,GLI093016,GLI093016,1188.92,Payroll Accrual
GLI,9/30/2016,12504,184620,GLI093016,GLI093016,39,Payroll Accrual
GLI,9/30/2016,12304C,184620,GLI093016,GLI093016,509.88,Payroll Accrual
GLI,9/30/2016,12906,184610,GLI093016,GLI093016,48.54,Payroll Accrual
GLI,9/30/2016,12506,184610,GLI093016,GLI093016,180.34,Payroll Accrual
GLI,9/30/2016,12306B,184610,GLI093016,GLI093016,2426.75,Payroll Accrual
GLI,9/30/2016,12914,181520,GLI093016,GLI093016,5.81,Payroll Accrual
GLI,9/30/2016,12906,181520,GLI093016,GLI093016,7.2,Payroll Accrual
GLI,9/30/2016,12905,181520,GLI093016,GLI093016,6.11,Payroll Accrual
GLI,9/30/2016,12904,181520,GLI093016,GLI093016,5.02,Payroll Accrual
GLI,9/30/2016,12902,181520,GLI093016,GLI093016,4.49,Payroll Accrual
GLI,9/30/2016,12901,181520,GLI093016,GLI093016,4.49,Payroll Accrual
GLI,9/30/2016,12514,181520,GLI093016,GLI093016,13.73,Payroll Accrual
GLI,9/30/2016,12506,181520,GLI093016,GLI093016,0.88,Payroll Accrual
GLI,9/30/2016,12505,181520,GLI093016,GLI093016,0.69,Payroll Accrual
GLI,9/30/2016,12504,181520,GLI093016,GLI093016,10.7,Payroll Accrual
GLI,9/30/2016,12502,181520,GLI093016,GLI093016,8.69,Payroll Accrual
GLI,9/30/2016,12501,181520,GLI093016,GLI093016,8.69,Payroll Accrual
GLI,9/30/2016,12214,181520,GLI093016,GLI093016,290.71,Payroll Accrual
GLI,9/30/2016,12206C,181520,GLI093016,GLI093016,171.78,Payroll Accrual
GLI,9/30/2016,12205C,181520,GLI093016,GLI093016,158.57,Payroll Accrual
GLI,9/30/2016,12204C,181520,GLI093016,GLI093016,251.06,Payroll Accrual
GLI,9/30/2016,12202C,181520,GLI093016,GLI093016,224.64,Payroll Accrual
GLI,9/30/2016,12201C,181520,GLI093016,GLI093016,224.64,Payroll Accrual
GLI,9/30/2016,12527,180626,GLI093016,GLI093016,31.93,Payroll Accrual
GLI,9/30/2016,12327,180626,GLI093016,GLI093016,417.4,Payroll Accrual
GLI,9/30/2016,12904,18005,GLI093016,GLI093016,39.05,Payroll Accrual
GLI,9/30/2016,12504,18005,GLI093016,GLI093016,145.56,Payroll Accrual
GLI,9/30/2016,124704,18005,GLI093016,GLI093016,1952.4,Payroll Accrual
GLI,9/30/2016,12904,179780,GLI093016,GLI093016,24.12,Payroll Accrual
GLI,9/30/2016,12504,179780,GLI093016,GLI093016,118.91,Payroll Accrual
GLI,9/30/2016,124704,179780,GLI093016,GLI093016,1607.8,Payroll Accrual
GLI,9/30/2016,12906,179775,GLI093016,GLI093016,27.23,Payroll Accrual
GLI,9/30/2016,12506,179775,GLI093016,GLI093016,92.96,Payroll Accrual
GLI,9/30/2016,12306B,179775,GLI093016,GLI093016,1361.58,Payroll Accrual
GLI,9/30/2016,12906,179693,GLI093016,GLI093016,11.16,Payroll Accrual
GLI,9/30/2016,12905,179693,GLI093016,GLI093016,11.16,Payroll Accrual
GLI,9/30/2016,12506,179693,GLI093016,GLI093016,2.61,Payroll Accrual
GLI,9/30/2016,12505,179693,GLI093016,GLI093016,2.61,Payroll Accrual
GLI,9/30/2016,12504,179693,GLI093016,GLI093016,13.77,Payroll Accrual
GLI,9/30/2016,12502,179693,GLI093016,GLI093016,13.77,Payroll Accrual
GLI,9/30/2016,12501,179693,GLI093016,GLI093016,13.77,Payroll Accrual
GLI,9/30/2016,12206B,179693,GLI093016,GLI093016,217.71,Payroll Accrual
GLI,9/30/2016,12205B,179693,GLI093016,GLI093016,217.71,Payroll Accrual
GLI,9/30/2016,12204B,179693,GLI093016,GLI093016,217.71,Payroll Accrual
GLI,9/30/2016,12202B,179693,GLI093016,GLI093016,217.71,Payroll Accrual
GLI,9/30/2016,12201B,179693,GLI093016,GLI093016,217.71,Payroll Accrual
GLI,9/30/2016,12904,178079,GLI093016,GLI093016,52.06,Payroll Accrual
GLI,9/30/2016,12504,178079,GLI093016,GLI093016,197.67,Payroll Accrual
GLI,9/30/2016,12304D,178079,GLI093016,GLI093016,2603.12,Payroll Accrual
GLI,9/30/2016,12527,178060,GLI093016,GLI093016,11.3,Payroll Accrual
GLI,9/30/2016,12327,178060,GLI093016,GLI093016,147.7,Payroll Accrual
GLI,9/30/2016,12904,178050,GLI093016,GLI093016,20.54,Payroll Accrual
GLI,9/30/2016,12504,178050,GLI093016,GLI093016,103.29,Payroll Accrual
GLI,9/30/2016,124704,178050,GLI093016,GLI093016,1369.4,Payroll Accrual
GLI,9/30/2016,12516,176505,GLI093016,GLI093016,11.23,Payroll Accrual
GLI,9/30/2016,12316,176505,GLI093016,GLI093016,146.8,Payroll Accrual
GLI,9/30/2016,12524,173800,GLI093016,GLI093016,52.4,Payroll Accrual
GLI,9/30/2016,124724,173800,GLI093016,GLI093016,685,Payroll Accrual
GLI,9/30/2016,12906,172077,GLI093016,GLI093016,34.03,Payroll Accrual
GLI,9/30/2016,12506,172077,GLI093016,GLI093016,118.08,Payroll Accrual
GLI,9/30/2016,12306B,172077,GLI093016,GLI093016,1701.66,Payroll Accrual
GLI,9/30/2016,12905,171055,GLI093016,GLI093016,83.19,Payroll Accrual
GLI,9/30/2016,12505,171055,GLI093016,GLI093016,305.62,Payroll Accrual
GLI,9/30/2016,124703,171055,GLI093016,GLI093016,4159.3,Payroll Accrual
GLI,9/30/2016,12905,170150,GLI093016,GLI093016,42.97,Payroll Accrual
GLI,9/30/2016,12505,170150,GLI093016,GLI093016,163.51,Payroll Accrual
GLI,9/30/2016,124703,170150,GLI093016,GLI093016,2148.6,Payroll Accrual
GLI,9/30/2016,12904,170101,GLI093016,GLI093016,19.59,Payroll Accrual
GLI,9/30/2016,12504,170101,GLI093016,GLI093016,99.88,Payroll Accrual
GLI,9/30/2016,124704,170101,GLI093016,GLI093016,1305.7,Payroll Accrual
GLI,9/30/2016,12504,169420,GLI093016,GLI093016,100.86,Payroll Accrual
GLI,9/30/2016,124704,169420,GLI093016,GLI093016,1318.35,Payroll Accrual
GLI,9/30/2016,12516,167906,GLI093016,GLI093016,120.13,Payroll Accrual
GLI,9/30/2016,12416,167906,GLI093016,GLI093016,448,Payroll Accrual
GLI,9/30/2016,12316,167906,GLI093016,GLI093016,1138.13,Payroll Accrual
GLI,9/30/2016,12904,167812,GLI093016,GLI093016,2.26,Payroll Accrual
GLI,9/30/2016,12504,167812,GLI093016,GLI093016,8.66,Payroll Accrual
GLI,9/30/2016,12204C,167812,GLI093016,GLI093016,113.19,Payroll Accrual
GLI,9/30/2016,12504,167580,GLI093016,GLI093016,131.22,Payroll Accrual
GLI,9/30/2016,124704,167580,GLI093016,GLI093016,1748.4,Payroll Accrual
GLI,9/30/2016,12527,165500,GLI093016,GLI093016,67.22,Payroll Accrual
GLI,9/30/2016,12327,165500,GLI093016,GLI093016,932.1,Payroll Accrual
GLI,9/30/2016,12904,165410,GLI093016,GLI093016,21.54,Payroll Accrual
GLI,9/30/2016,12504,165410,GLI093016,GLI093016,108.35,Payroll Accrual
GLI,9/30/2016,12304D,165410,GLI093016,GLI093016,1435.59,Payroll Accrual
GLI,9/30/2016,12524,165400,GLI093016,GLI093016,17.47,Payroll Accrual
GLI,9/30/2016,12505,165400,GLI093016,GLI093016,17.47,Payroll Accrual
GLI,9/30/2016,12504,165400,GLI093016,GLI093016,17.47,Payroll Accrual
GLI,9/30/2016,12501,165400,GLI093016,GLI093016,17.47,Payroll Accrual
GLI,9/30/2016,12324F,165400,GLI093016,GLI093016,320.5,Payroll Accrual
GLI,9/30/2016,12305F,165400,GLI093016,GLI093016,320.5,Payroll Accrual
GLI,9/30/2016,12304F,165400,GLI093016,GLI093016,320.5,Payroll Accrual
GLI,9/30/2016,12301F,165400,GLI093016,GLI093016,320.5,Payroll Accrual
GLI,9/30/2016,12503,165378,GLI093016,GLI093016,52.12,Payroll Accrual
GLI,9/30/2016,124723,165378,GLI093016,GLI093016,681.24,Payroll Accrual
GLI,9/30/2016,12905,165357,GLI093016,GLI093016,92.83,Payroll Accrual
GLI,9/30/2016,12505,165357,GLI093016,GLI093016,469.71,Payroll Accrual
GLI,9/30/2016,12305B,165357,GLI093016,GLI093016,6188.44,Payroll Accrual
GLI,9/30/2016,12505,165275,GLI093016,GLI093016,74.66,Payroll Accrual
GLI,9/30/2016,124703,165275,GLI093016,GLI093016,975.9,Payroll Accrual
GLI,9/30/2016,12924,164920,GLI093016,GLI093016,13.44,Payroll Accrual
GLI,9/30/2016,12524,164920,GLI093016,GLI093016,68.54,Payroll Accrual
GLI,9/30/2016,124724,164920,GLI093016,GLI093016,896,Payroll Accrual
GLI,9/30/2016,12904,164015,GLI093016,GLI093016,55.67,Payroll Accrual
GLI,9/30/2016,12504,164015,GLI093016,GLI093016,212.47,Payroll Accrual
GLI,9/30/2016,124704,164015,GLI093016,GLI093016,2783.3,Payroll Accrual
GLI,9/30/2016,12912,163096,GLI093016,GLI093016,7.96,Payroll Accrual
GLI,9/30/2016,12902,163096,GLI093016,GLI093016,14.1,Payroll Accrual
GLI,9/30/2016,12901,163096,GLI093016,GLI093016,14.1,Payroll Accrual
GLI,9/30/2016,12512,163096,GLI093016,GLI093016,29.22,Payroll Accrual
GLI,9/30/2016,12502,163096,GLI093016,GLI093016,52.74,Payroll Accrual
GLI,9/30/2016,12501,163096,GLI093016,GLI093016,52.74,Payroll Accrual
GLI,9/30/2016,12212,163096,GLI093016,GLI093016,397.8,Payroll Accrual
GLI,9/30/2016,12202C,163096,GLI093016,GLI093016,705.19,Payroll Accrual
GLI,9/30/2016,12201C,163096,GLI093016,GLI093016,705.19,Payroll Accrual
GLI,9/30/2016,12503,162795,GLI093016,GLI093016,59.29,Payroll Accrual
GLI,9/30/2016,12303,162795,GLI093016,GLI093016,775.04,Payroll Accrual
GLI,9/30/2016,12906,16250,GLI093016,GLI093016,9.83,Payroll Accrual
GLI,9/30/2016,12506,16250,GLI093016,GLI093016,33.45,Payroll Accrual
GLI,9/30/2016,12306B,16250,GLI093016,GLI093016,655.06,Payroll Accrual
GLI,9/30/2016,12906,162428,GLI093016,GLI093016,9.92,Payroll Accrual
GLI,9/30/2016,12506,162428,GLI093016,GLI093016,46.12,Payroll Accrual
GLI,9/30/2016,12306B,162428,GLI093016,GLI093016,661.44,Payroll Accrual
GLI,9/30/2016,12504,161350,GLI093016,GLI093016,209.53,Payroll Accrual
GLI,9/30/2016,12304B,161350,GLI093016,GLI093016,2922.78,Payroll Accrual
GLI,9/30/2016,12916,161095,GLI093016,GLI093016,23.59,Payroll Accrual
GLI,9/30/2016,12516,161095,GLI093016,GLI093016,120.29,Payroll Accrual
GLI,9/30/2016,12316,161095,GLI093016,GLI093016,1572.42,Payroll Accrual
GLI,9/30/2016,12515,161051,GLI093016,GLI093016,14.59,Payroll Accrual
GLI,9/30/2016,12506,161051,GLI093016,GLI093016,8.18,Payroll Accrual
GLI,9/30/2016,12505,161051,GLI093016,GLI093016,8.18,Payroll Accrual
GLI,9/30/2016,12504,161051,GLI093016,GLI093016,9.09,Payroll Accrual
GLI,9/30/2016,12502,161051,GLI093016,GLI093016,9.09,Payroll Accrual
GLI,9/30/2016,12501,161051,GLI093016,GLI093016,9.09,Payroll Accrual
GLI,9/30/2016,12315,161051,GLI093016,GLI093016,263.38,Payroll Accrual
GLI,9/30/2016,12306,161051,GLI093016,GLI093016,179.58,Payroll Accrual
GLI,9/30/2016,12305,161051,GLI093016,GLI093016,179.58,Payroll Accrual
GLI,9/30/2016,12304,161051,GLI093016,GLI093016,191.55,Payroll Accrual
GLI,9/30/2016,12302,161051,GLI093016,GLI093016,191.55,Payroll Accrual
GLI,9/30/2016,12301,161051,GLI093016,GLI093016,191.55,Payroll Accrual
GLI,9/30/2016,12503,161010,GLI093016,GLI093016,23.55,Payroll Accrual
GLI,9/30/2016,124723,161010,GLI093016,GLI093016,307.86,Payroll Accrual
GLI,9/30/2016,12905,160930,GLI093016,GLI093016,73.18,Payroll Accrual
GLI,9/30/2016,12505,160930,GLI093016,GLI093016,274.06,Payroll Accrual
GLI,9/30/2016,12305C,160930,GLI093016,GLI093016,3658.97,Payroll Accrual
GLI,9/30/2016,12503,159100,GLI093016,GLI093016,48.08,Payroll Accrual
GLI,9/30/2016,124723,159100,GLI093016,GLI093016,628.56,Payroll Accrual
GLI,9/30/2016,12906,157995,GLI093016,GLI093016,9.88,Payroll Accrual
GLI,9/30/2016,12905,157995,GLI093016,GLI093016,9.12,Payroll Accrual
GLI,9/30/2016,12514,157995,GLI093016,GLI093016,20.64,Payroll Accrual
GLI,9/30/2016,12506,157995,GLI093016,GLI093016,2.31,Payroll Accrual
GLI,9/30/2016,12505,157995,GLI093016,GLI093016,2.13,Payroll Accrual
GLI,9/30/2016,12504,157995,GLI093016,GLI093016,17.82,Payroll Accrual
GLI,9/30/2016,12502,157995,GLI093016,GLI093016,15.94,Payroll Accrual
GLI,9/30/2016,12501,157995,GLI093016,GLI093016,15.94,Payroll Accrual
GLI,9/30/2016,12214,157995,GLI093016,GLI093016,303.6,Payroll Accrual
GLI,9/30/2016,12206C,157995,GLI093016,GLI093016,179.4,Payroll Accrual
GLI,9/30/2016,12205C,157995,GLI093016,GLI093016,165.6,Payroll Accrual
GLI,9/30/2016,12204C,157995,GLI093016,GLI093016,262.2,Payroll Accrual
GLI,9/30/2016,12202C,157995,GLI093016,GLI093016,234.6,Payroll Accrual
GLI,9/30/2016,12201C,157995,GLI093016,GLI093016,234.6,Payroll Accrual
GLI,9/30/2016,12904,152525,GLI093016,GLI093016,22.26,Payroll Accrual
GLI,9/30/2016,12504,152525,GLI093016,GLI093016,112.33,Payroll Accrual
GLI,9/30/2016,124704,152525,GLI093016,GLI093016,1484.3,Payroll Accrual
GLI,9/30/2016,12904,152520,GLI093016,GLI093016,11.96,Payroll Accrual
GLI,9/30/2016,12504,152520,GLI093016,GLI093016,59.5,Payroll Accrual
GLI,9/30/2016,124704,152520,GLI093016,GLI093016,797,Payroll Accrual
GLI,9/30/2016,12512,152512,GLI093016,GLI093016,9.25,Payroll Accrual
GLI,9/30/2016,12502,152512,GLI093016,GLI093016,16.41,Payroll Accrual
GLI,9/30/2016,12501,152512,GLI093016,GLI093016,16.41,Payroll Accrual
GLI,9/30/2016,12212,152512,GLI093016,GLI093016,120.98,Payroll Accrual
GLI,9/30/2016,12202C,152512,GLI093016,GLI093016,214.46,Payroll Accrual
GLI,9/30/2016,12201C,152512,GLI093016,GLI093016,214.46,Payroll Accrual
GLI,9/30/2016,12927,152510,GLI093016,GLI093016,16.14,Payroll Accrual
GLI,9/30/2016,12527,152510,GLI093016,GLI093016,78.2,Payroll Accrual
GLI,9/30/2016,12327,152510,GLI093016,GLI093016,1076.32,Payroll Accrual
GLI,9/30/2016,12503,152499,GLI093016,GLI093016,84.79,Payroll Accrual
GLI,9/30/2016,124723,152499,GLI093016,GLI093016,1108.38,Payroll Accrual
GLI,9/30/2016,12924,152495,GLI093016,GLI093016,17.26,Payroll Accrual
GLI,9/30/2016,12524,152495,GLI093016,GLI093016,88.03,Payroll Accrual
GLI,9/30/2016,124724,152495,GLI093016,GLI093016,1150.72,Payroll Accrual
GLI,9/30/2016,12527,152490,GLI093016,GLI093016,40.92,Payroll Accrual
GLI,9/30/2016,12327,152490,GLI093016,GLI093016,534.9,Payroll Accrual
GLI,9/30/2016,12503,152485,GLI093016,GLI093016,62.02,Payroll Accrual
GLI,9/30/2016,124723,152485,GLI093016,GLI093016,810.72,Payroll Accrual
GLI,9/30/2016,12503,152432,GLI093016,GLI093016,90.94,Payroll Accrual
GLI,9/30/2016,124723,152432,GLI093016,GLI093016,1188.74,Payroll Accrual
GLI,9/30/2016,12904,152410,GLI093016,GLI093016,30.75,Payroll Accrual
GLI,9/30/2016,12504,152410,GLI093016,GLI093016,156.36,Payroll Accrual
GLI,9/30/2016,124704,152410,GLI093016,GLI093016,2049.8,Payroll Accrual
GLI,9/30/2016,12904,152235,GLI093016,GLI093016,68.27,Payroll Accrual
GLI,9/30/2016,12504,152235,GLI093016,GLI093016,258.83,Payroll Accrual
GLI,9/30/2016,124704,152235,GLI093016,GLI093016,3413.4,Payroll Accrual
GLI,9/30/2016,12904,151410,GLI093016,GLI093016,17.18,Payroll Accrual
GLI,9/30/2016,12504,151410,GLI093016,GLI093016,80.91,Payroll Accrual
GLI,9/30/2016,12204C,151410,GLI093016,GLI093016,1145.46,Payroll Accrual
GLI,9/30/2016,12503,151203,GLI093016,GLI093016,18.14,Payroll Accrual
GLI,9/30/2016,124723,151203,GLI093016,GLI093016,237.12,Payroll Accrual
GLI,9/30/2016,12904,150126,GLI093016,GLI093016,40.85,Payroll Accrual
GLI,9/30/2016,12504,150126,GLI093016,GLI093016,197.55,Payroll Accrual
GLI,9/30/2016,124704,150126,GLI093016,GLI093016,2723.5,Payroll Accrual
GLI,9/30/2016,12924,150120,GLI093016,GLI093016,26.75,Payroll Accrual
GLI,9/30/2016,12524,150120,GLI093016,GLI093016,136.43,Payroll Accrual
GLI,9/30/2016,124724,150120,GLI093016,GLI093016,1783.39,Payroll Accrual
GLI,9/30/2016,12905,150105,GLI093016,GLI093016,54.43,Payroll Accrual
GLI,9/30/2016,12505,150105,GLI093016,GLI093016,275.62,Payroll Accrual
GLI,9/30/2016,124703,150105,GLI093016,GLI093016,3628.8,Payroll Accrual
GLI,9/30/2016,12504,149878,GLI093016,GLI093016,101.07,Payroll Accrual
GLI,9/30/2016,12304D,149878,GLI093016,GLI093016,1504.84,Payroll Accrual
GLI,9/30/2016,12916,148275,GLI093016,GLI093016,52.04,Payroll Accrual
GLI,9/30/2016,12516,148275,GLI093016,GLI093016,199.07,Payroll Accrual
GLI,9/30/2016,12316,148275,GLI093016,GLI093016,2602.18,Payroll Accrual
GLI,9/30/2016,12916,147000,GLI093016,GLI093016,35.03,Payroll Accrual
GLI,9/30/2016,12516,147000,GLI093016,GLI093016,173.84,Payroll Accrual
GLI,9/30/2016,12316,147000,GLI093016,GLI093016,2335.39,Payroll Accrual
GLI,9/30/2016,12906,146480,GLI093016,GLI093016,14.02,Payroll Accrual
GLI,9/30/2016,12905,146480,GLI093016,GLI093016,14.02,Payroll Accrual
GLI,9/30/2016,12506,146480,GLI093016,GLI093016,3.28,Payroll Accrual
GLI,9/30/2016,12505,146480,GLI093016,GLI093016,3.28,Payroll Accrual
GLI,9/30/2016,12504,146480,GLI093016,GLI093016,17.3,Payroll Accrual
GLI,9/30/2016,12502,146480,GLI093016,GLI093016,17.3,Payroll Accrual
GLI,9/30/2016,12501,146480,GLI093016,GLI093016,17.3,Payroll Accrual
GLI,9/30/2016,12206B,146480,GLI093016,GLI093016,226.13,Payroll Accrual
GLI,9/30/2016,12205B,146480,GLI093016,GLI093016,226.13,Payroll Accrual
GLI,9/30/2016,12204B,146480,GLI093016,GLI093016,226.13,Payroll Accrual
GLI,9/30/2016,12202B,146480,GLI093016,GLI093016,226.13,Payroll Accrual
GLI,9/30/2016,12201B,146480,GLI093016,GLI093016,226.13,Payroll Accrual
GLI,9/30/2016,12901,146450,GLI093016,GLI093016,50.95,Payroll Accrual
GLI,9/30/2016,12501,146450,GLI093016,GLI093016,188.92,Payroll Accrual
GLI,9/30/2016,12301B,146450,GLI093016,GLI093016,2547.7,Payroll Accrual
GLI,9/30/2016,12504,145801,GLI093016,GLI093016,127.02,Payroll Accrual
GLI,9/30/2016,124704,145801,GLI093016,GLI093016,1660.4,Payroll Accrual
GLI,9/30/2016,12506,143180,GLI093016,GLI093016,84.57,Payroll Accrual
GLI,9/30/2016,12306B,143180,GLI093016,GLI093016,1263.6,Payroll Accrual
GLI,9/30/2016,12905,141069,GLI093016,GLI093016,102,Payroll Accrual
GLI,9/30/2016,12505,141069,GLI093016,GLI093016,376.66,Payroll Accrual
GLI,9/30/2016,12405,141069,GLI093016,GLI093016,66,Payroll Accrual
GLI,9/30/2016,12305B,141069,GLI093016,GLI093016,5034.11,Payroll Accrual
GLI,9/30/2016,12903,141060,GLI093016,GLI093016,38.92,Payroll Accrual
GLI,9/30/2016,12503,141060,GLI093016,GLI093016,147.53,Payroll Accrual
GLI,9/30/2016,12103,141060,GLI093016,GLI093016,1946.16,Payroll Accrual
GLI,9/30/2016,12904,140790,GLI093016,GLI093016,50.95,Payroll Accrual
GLI,9/30/2016,12504,140790,GLI093016,GLI093016,191.77,Payroll Accrual
GLI,9/30/2016,12104,140790,GLI093016,GLI093016,2547.7,Payroll Accrual
GLI,9/30/2016,12503,138385,GLI093016,GLI093016,34.12,Payroll Accrual
GLI,9/30/2016,124723,138385,GLI093016,GLI093016,446.04,Payroll Accrual
GLI,9/30/2016,12916,138380,GLI093016,GLI093016,18.15,Payroll Accrual
GLI,9/30/2016,12516,138380,GLI093016,GLI093016,56.57,Payroll Accrual
GLI,9/30/2016,12316,138380,GLI093016,GLI093016,907.27,Payroll Accrual
GLI,9/30/2016,12504,13725,GLI093016,GLI093016,296.76,Payroll Accrual
GLI,9/30/2016,124704,13725,GLI093016,GLI093016,4295.2,Payroll Accrual
GLI,9/30/2016,12505,137101,GLI093016,GLI093016,114.95,Payroll Accrual
GLI,9/30/2016,124703,137101,GLI093016,GLI093016,1502.64,Payroll Accrual
GLI,9/30/2016,12503,13690,GLI093016,GLI093016,28.64,Payroll Accrual
GLI,9/30/2016,124723,13690,GLI093016,GLI093016,374.4,Payroll Accrual
GLI,9/30/2016,12904,136170,GLI093016,GLI093016,18.09,Payroll Accrual
GLI,9/30/2016,12504,136170,GLI093016,GLI093016,134.95,Payroll Accrual
GLI,9/30/2016,124704,136170,GLI093016,GLI093016,1808.51,Payroll Accrual
GLI,9/30/2016,12505,135770,GLI093016,GLI093016,270.44,Payroll Accrual
GLI,9/30/2016,124703,135770,GLI093016,GLI093016,3535.1,Payroll Accrual
GLI,9/30/2016,12915,132500,GLI093016,GLI093016,10.28,Payroll Accrual
GLI,9/30/2016,12906,132500,GLI093016,GLI093016,7.01,Payroll Accrual
GLI,9/30/2016,12905,132500,GLI093016,GLI093016,7.01,Payroll Accrual
GLI,9/30/2016,12904,132500,GLI093016,GLI093016,7.47,Payroll Accrual
GLI,9/30/2016,12902,132500,GLI093016,GLI093016,7.47,Payroll Accrual
GLI,9/30/2016,12901,132500,GLI093016,GLI093016,7.47,Payroll Accrual
GLI,9/30/2016,12515,132500,GLI093016,GLI093016,38.82,Payroll Accrual
GLI,9/30/2016,12506,132500,GLI093016,GLI093016,26.47,Payroll Accrual
GLI,9/30/2016,12505,132500,GLI093016,GLI093016,26.47,Payroll Accrual
GLI,9/30/2016,12504,132500,GLI093016,GLI093016,28.23,Payroll Accrual
GLI,9/30/2016,12502,132500,GLI093016,GLI093016,28.23,Payroll Accrual
GLI,9/30/2016,12501,132500,GLI093016,GLI093016,28.23,Payroll Accrual
GLI,9/30/2016,12315,132500,GLI093016,GLI093016,513.79,Payroll Accrual
GLI,9/30/2016,12306,132500,GLI093016,GLI093016,350.31,Payroll Accrual
GLI,9/30/2016,12305,132500,GLI093016,GLI093016,350.31,Payroll Accrual
GLI,9/30/2016,12304,132500,GLI093016,GLI093016,373.66,Payroll Accrual
GLI,9/30/2016,12302,132500,GLI093016,GLI093016,373.66,Payroll Accrual
GLI,9/30/2016,12301,132500,GLI093016,GLI093016,373.66,Payroll Accrual
GLI,9/30/2016,12904,131370,GLI093016,GLI093016,36.96,Payroll Accrual
GLI,9/30/2016,12504,131370,GLI093016,GLI093016,141.35,Payroll Accrual
GLI,9/30/2016,124704,131370,GLI093016,GLI093016,1847.8,Payroll Accrual
GLI,9/30/2016,12924,131315,GLI093016,GLI093016,46.67,Payroll Accrual
GLI,9/30/2016,12524,131315,GLI093016,GLI093016,178.52,Payroll Accrual
GLI,9/30/2016,124724,131315,GLI093016,GLI093016,2333.6,Payroll Accrual
GLI,9/30/2016,12503,130510,GLI093016,GLI093016,68.01,Payroll Accrual
GLI,9/30/2016,124723,130510,GLI093016,GLI093016,888.96,Payroll Accrual
GLI,9/30/2016,12505,12956,GLI093016,GLI093016,12.98,Payroll Accrual
GLI,9/30/2016,12504,12956,GLI093016,GLI093016,12.98,Payroll Accrual
GLI,9/30/2016,12502,12956,GLI093016,GLI093016,12.98,Payroll Accrual
GLI,9/30/2016,12501,12956,GLI093016,GLI093016,12.98,Payroll Accrual
GLI,9/30/2016,12305F,12956,GLI093016,GLI093016,169.74,Payroll Accrual
GLI,9/30/2016,12304F,12956,GLI093016,GLI093016,169.74,Payroll Accrual
GLI,9/30/2016,12302F,12956,GLI093016,GLI093016,169.74,Payroll Accrual
GLI,9/30/2016,12301F,12956,GLI093016,GLI093016,169.74,Payroll Accrual
GLI,9/30/2016,12503,12725,GLI093016,GLI093016,36.2,Payroll Accrual
GLI,9/30/2016,124723,12725,GLI093016,GLI093016,473.16,Payroll Accrual
GLI,9/30/2016,12902,126200,GLI093016,GLI093016,12.74,Payroll Accrual
GLI,9/30/2016,12901,126200,GLI093016,GLI093016,12.74,Payroll Accrual
GLI,9/30/2016,12502,126200,GLI093016,GLI093016,64.96,Payroll Accrual
GLI,9/30/2016,12501,126200,GLI093016,GLI093016,64.96,Payroll Accrual
GLI,9/30/2016,12202A,126200,GLI093016,GLI093016,849.23,Payroll Accrual
GLI,9/30/2016,12201A,126200,GLI093016,GLI093016,849.23,Payroll Accrual
GLI,9/30/2016,12503,125028,GLI093016,GLI093016,32.14,Payroll Accrual
GLI,9/30/2016,124723,125028,GLI093016,GLI093016,420.12,Payroll Accrual
GLI,9/30/2016,12503,124360,GLI093016,GLI093016,78.84,Payroll Accrual
GLI,9/30/2016,124723,124360,GLI093016,GLI093016,1157.1,Payroll Accrual
GLI,9/30/2016,12924,124101,GLI093016,GLI093016,16.27,Payroll Accrual
GLI,9/30/2016,12524,124101,GLI093016,GLI093016,82.97,Payroll Accrual
GLI,9/30/2016,12224,124101,GLI093016,GLI093016,1084.56,Payroll Accrual
GLI,9/30/2016,12527,123530,GLI093016,GLI093016,4.66,Payroll Accrual
GLI,9/30/2016,12327,123530,GLI093016,GLI093016,61,Payroll Accrual
GLI,9/30/2016,12904,123525,GLI093016,GLI093016,1.51,Payroll Accrual
GLI,9/30/2016,12504,123525,GLI093016,GLI093016,5.77,Payroll Accrual
GLI,9/30/2016,12304B,123525,GLI093016,GLI093016,75.45,Payroll Accrual
GLI,9/30/2016,12906,123468,GLI093016,GLI093016,2.52,Payroll Accrual
GLI,9/30/2016,12905,123468,GLI093016,GLI093016,2.52,Payroll Accrual
GLI,9/30/2016,12506,123468,GLI093016,GLI093016,0.59,Payroll Accrual
GLI,9/30/2016,12505,123468,GLI093016,GLI093016,0.59,Payroll Accrual
GLI,9/30/2016,12504,123468,GLI093016,GLI093016,3.11,Payroll Accrual
GLI,9/30/2016,12502,123468,GLI093016,GLI093016,3.11,Payroll Accrual
GLI,9/30/2016,12501,123468,GLI093016,GLI093016,3.11,Payroll Accrual
GLI,9/30/2016,12406,123468,GLI093016,GLI093016,19.2,Payroll Accrual
GLI,9/30/2016,12405,123468,GLI093016,GLI093016,19.2,Payroll Accrual
GLI,9/30/2016,12404,123468,GLI093016,GLI093016,19.2,Payroll Accrual
GLI,9/30/2016,12402,123468,GLI093016,GLI093016,19.2,Payroll Accrual
GLI,9/30/2016,12401,123468,GLI093016,GLI093016,19.2,Payroll Accrual
GLI,9/30/2016,12206B,123468,GLI093016,GLI093016,154.39,Payroll Accrual
GLI,9/30/2016,12205B,123468,GLI093016,GLI093016,154.39,Payroll Accrual
GLI,9/30/2016,12204B,123468,GLI093016,GLI093016,154.39,Payroll Accrual
GLI,9/30/2016,12202B,123468,GLI093016,GLI093016,154.39,Payroll Accrual
GLI,9/30/2016,12201B,123468,GLI093016,GLI093016,154.39,Payroll Accrual
GLI,9/30/2016,12527,123324,GLI093016,GLI093016,25.17,Payroll Accrual
GLI,9/30/2016,12327,123324,GLI093016,GLI093016,329,Payroll Accrual
GLI,9/30/2016,12906,123100,GLI093016,GLI093016,18.47,Payroll Accrual
GLI,9/30/2016,12905,123100,GLI093016,GLI093016,18.47,Payroll Accrual
GLI,9/30/2016,12904,123100,GLI093016,GLI093016,18.47,Payroll Accrual
GLI,9/30/2016,12902,123100,GLI093016,GLI093016,18.47,Payroll Accrual
GLI,9/30/2016,12901,123100,GLI093016,GLI093016,18.47,Payroll Accrual
GLI,9/30/2016,12506,123100,GLI093016,GLI093016,91.9,Payroll Accrual
GLI,9/30/2016,12505,123100,GLI093016,GLI093016,91.9,Payroll Accrual
GLI,9/30/2016,12504,123100,GLI093016,GLI093016,91.9,Payroll Accrual
GLI,9/30/2016,12502,123100,GLI093016,GLI093016,91.9,Payroll Accrual
GLI,9/30/2016,12501,123100,GLI093016,GLI093016,91.9,Payroll Accrual
GLI,9/30/2016,12106,123100,GLI093016,GLI093016,1231.38,Payroll Accrual
GLI,9/30/2016,12105,123100,GLI093016,GLI093016,1231.38,Payroll Accrual
GLI,9/30/2016,12104,123100,GLI093016,GLI093016,1231.38,Payroll Accrual
GLI,9/30/2016,12102,123100,GLI093016,GLI093016,1231.38,Payroll Accrual
GLI,9/30/2016,12101,123100,GLI093016,GLI093016,1231.38,Payroll Accrual
GLI,9/30/2016,12904,121362,GLI093016,GLI093016,84.37,Payroll Accrual
GLI,9/30/2016,12504,121362,GLI093016,GLI093016,314.07,Payroll Accrual
GLI,9/30/2016,12304B,121362,GLI093016,GLI093016,4218.53,Payroll Accrual
GLI,9/30/2016,12503,121130,GLI093016,GLI093016,63.83,Payroll Accrual
GLI,9/30/2016,124723,121130,GLI093016,GLI093016,896.1,Payroll Accrual
GLI,9/30/2016,12511,121063,GLI093016,GLI093016,13.93,Payroll Accrual
GLI,9/30/2016,12506,121063,GLI093016,GLI093016,10.07,Payroll Accrual
GLI,9/30/2016,12505,121063,GLI093016,GLI093016,10.07,Payroll Accrual
GLI,9/30/2016,12504,121063,GLI093016,GLI093016,10.07,Payroll Accrual
GLI,9/30/2016,12502,121063,GLI093016,GLI093016,9.42,Payroll Accrual
GLI,9/30/2016,12501,121063,GLI093016,GLI093016,9.42,Payroll Accrual
GLI,9/30/2016,12311,121063,GLI093016,GLI093016,185.47,Payroll Accrual
GLI,9/30/2016,12306H,121063,GLI093016,GLI093016,134.88,Payroll Accrual
GLI,9/30/2016,12305H,121063,GLI093016,GLI093016,134.88,Payroll Accrual
GLI,9/30/2016,12304H,121063,GLI093016,GLI093016,134.88,Payroll Accrual
GLI,9/30/2016,12302H,121063,GLI093016,GLI093016,126.45,Payroll Accrual
GLI,9/30/2016,12301H,121063,GLI093016,GLI093016,126.45,Payroll Accrual
GLI,9/30/2016,12911,118030,GLI093016,GLI093016,7.47,Payroll Accrual
GLI,9/30/2016,12906,118030,GLI093016,GLI093016,5.44,Payroll Accrual
GLI,9/30/2016,12905,118030,GLI093016,GLI093016,5.44,Payroll Accrual
GLI,9/30/2016,12904,118030,GLI093016,GLI093016,5.44,Payroll Accrual
GLI,9/30/2016,12902,118030,GLI093016,GLI093016,5.1,Payroll Accrual
GLI,9/30/2016,12901,118030,GLI093016,GLI093016,5.1,Payroll Accrual
GLI,9/30/2016,12511,118030,GLI093016,GLI093016,28.59,Payroll Accrual
GLI,9/30/2016,12506,118030,GLI093016,GLI093016,20.79,Payroll Accrual
GLI,9/30/2016,12505,118030,GLI093016,GLI093016,20.79,Payroll Accrual
GLI,9/30/2016,12504,118030,GLI093016,GLI093016,20.79,Payroll Accrual
GLI,9/30/2016,12502,118030,GLI093016,GLI093016,19.49,Payroll Accrual
GLI,9/30/2016,12501,118030,GLI093016,GLI093016,19.49,Payroll Accrual
GLI,9/30/2016,12311,118030,GLI093016,GLI093016,373.66,Payroll Accrual
GLI,9/30/2016,12306H,118030,GLI093016,GLI093016,271.75,Payroll Accrual
GLI,9/30/2016,12305H,118030,GLI093016,GLI093016,271.75,Payroll Accrual
GLI,9/30/2016,12304H,118030,GLI093016,GLI093016,271.75,Payroll Accrual
GLI,9/30/2016,12302H,118030,GLI093016,GLI093016,254.77,Payroll Accrual
GLI,9/30/2016,12301H,118030,GLI093016,GLI093016,254.77,Payroll Accrual
GLI,9/30/2016,12505,11732,GLI093016,GLI093016,74.37,Payroll Accrual
GLI,9/30/2016,12405,11732,GLI093016,GLI093016,120,Payroll Accrual
GLI,9/30/2016,12205A,11732,GLI093016,GLI093016,871.35,Payroll Accrual
GLI,9/30/2016,12505,11660,GLI093016,GLI093016,161.24,Payroll Accrual
GLI,9/30/2016,124703,11660,GLI093016,GLI093016,2127,Payroll Accrual
GLI,9/30/2016,12506,116210,GLI093016,GLI093016,98.79,Payroll Accrual
GLI,9/30/2016,12306D,116210,GLI093016,GLI093016,1291.38,Payroll Accrual
GLI,9/30/2016,12906,116198,GLI093016,GLI093016,4.14,Payroll Accrual
GLI,9/30/2016,12905,116198,GLI093016,GLI093016,4.14,Payroll Accrual
GLI,9/30/2016,12506,116198,GLI093016,GLI093016,0.97,Payroll Accrual
GLI,9/30/2016,12505,116198,GLI093016,GLI093016,0.97,Payroll Accrual
GLI,9/30/2016,12504,116198,GLI093016,GLI093016,5.11,Payroll Accrual
GLI,9/30/2016,12502,116198,GLI093016,GLI093016,5.11,Payroll Accrual
GLI,9/30/2016,12501,116198,GLI093016,GLI093016,5.11,Payroll Accrual
GLI,9/30/2016,12206B,116198,GLI093016,GLI093016,66.7,Payroll Accrual
GLI,9/30/2016,12205B,116198,GLI093016,GLI093016,66.7,Payroll Accrual
GLI,9/30/2016,12204B,116198,GLI093016,GLI093016,66.7,Payroll Accrual
GLI,9/30/2016,12202B,116198,GLI093016,GLI093016,66.7,Payroll Accrual
GLI,9/30/2016,12201B,116198,GLI093016,GLI093016,66.7,Payroll Accrual
GLI,9/30/2016,12904,116185,GLI093016,GLI093016,35.84,Payroll Accrual
GLI,9/30/2016,12504,116185,GLI093016,GLI093016,108.77,Payroll Accrual
GLI,9/30/2016,124704,116185,GLI093016,GLI093016,1791.9,Payroll Accrual
GLI,9/30/2016,12527,11542,GLI093016,GLI093016,6.6,Payroll Accrual
GLI,9/30/2016,12327,11542,GLI093016,GLI093016,86.3,Payroll Accrual
GLI,9/30/2016,12906,115255,GLI093016,GLI093016,42.46,Payroll Accrual
GLI,9/30/2016,12506,115255,GLI093016,GLI093016,162.41,Payroll Accrual
GLI,9/30/2016,12306B,115255,GLI093016,GLI093016,2123.08,Payroll Accrual
GLI,9/30/2016,12904,1150920,GLI093016,GLI093016,28.4,Payroll Accrual
GLI,9/30/2016,12504,1150920,GLI093016,GLI093016,140.7,Payroll Accrual
GLI,9/30/2016,124704,1150920,GLI093016,GLI093016,1893.2,Payroll Accrual
GLI,9/30/2016,12905,1150510,GLI093016,GLI093016,84.57,Payroll Accrual
GLI,9/30/2016,12505,1150510,GLI093016,GLI093016,323.46,Payroll Accrual
GLI,9/30/2016,12305B,1150510,GLI093016,GLI093016,4228.25,Payroll Accrual
GLI,9/30/2016,12504,1149710,GLI093016,GLI093016,136.64,Payroll Accrual
GLI,9/30/2016,12304D,1149710,GLI093016,GLI093016,1875.21,Payroll Accrual
GLI,9/30/2016,12906,1149636,GLI093016,GLI093016,15.97,Payroll Accrual
GLI,9/30/2016,12506,1149636,GLI093016,GLI093016,75.08,Payroll Accrual
GLI,9/30/2016,12306C,1149636,GLI093016,GLI093016,1064.57,Payroll Accrual
GLI,9/30/2016,12504,1149300,GLI093016,GLI093016,125.45,Payroll Accrual
GLI,9/30/2016,124704,1149300,GLI093016,GLI093016,1639.8,Payroll Accrual
GLI,9/30/2016,12911,1148720,GLI093016,GLI093016,3.42,Payroll Accrual
GLI,9/30/2016,12906,1148720,GLI093016,GLI093016,2.49,Payroll Accrual
GLI,9/30/2016,12905,1148720,GLI093016,GLI093016,2.49,Payroll Accrual
GLI,9/30/2016,12904,1148720,GLI093016,GLI093016,2.49,Payroll Accrual
GLI,9/30/2016,12902,1148720,GLI093016,GLI093016,2.33,Payroll Accrual
GLI,9/30/2016,12901,1148720,GLI093016,GLI093016,2.33,Payroll Accrual
GLI,9/30/2016,12511,1148720,GLI093016,GLI093016,16.14,Payroll Accrual
GLI,9/30/2016,12506,1148720,GLI093016,GLI093016,11.38,Payroll Accrual
GLI,9/30/2016,12505,1148720,GLI093016,GLI093016,11.38,Payroll Accrual
GLI,9/30/2016,12504,1148720,GLI093016,GLI093016,11.38,Payroll Accrual
GLI,9/30/2016,12502,1148720,GLI093016,GLI093016,10.59,Payroll Accrual
GLI,9/30/2016,12501,1148720,GLI093016,GLI093016,10.59,Payroll Accrual
GLI,9/30/2016,12311,1148720,GLI093016,GLI093016,228.11,Payroll Accrual
GLI,9/30/2016,12306H,1148720,GLI093016,GLI093016,165.9,Payroll Accrual
GLI,9/30/2016,12305H,1148720,GLI093016,GLI093016,165.9,Payroll Accrual
GLI,9/30/2016,12304H,1148720,GLI093016,GLI093016,165.9,Payroll Accrual
GLI,9/30/2016,12302H,1148720,GLI093016,GLI093016,155.53,Payroll Accrual
GLI,9/30/2016,12301H,1148720,GLI093016,GLI093016,155.53,Payroll Accrual
GLI,9/30/2016,12904,1147062,GLI093016,GLI093016,33.26,Payroll Accrual
GLI,9/30/2016,12504,1147062,GLI093016,GLI093016,102.86,Payroll Accrual
GLI,9/30/2016,12204A,1147062,GLI093016,GLI093016,1663.08,Payroll Accrual
GLI,9/30/2016,12505,1147061,GLI093016,GLI093016,270.75,Payroll Accrual
GLI,9/30/2016,124703,1147061,GLI093016,GLI093016,3555.1,Payroll Accrual
GLI,9/30/2016,12905,1146991,GLI093016,GLI093016,56.09,Payroll Accrual
GLI,9/30/2016,12505,1146991,GLI093016,GLI093016,209,Payroll Accrual
GLI,9/30/2016,124703,1146991,GLI093016,GLI093016,2804.7,Payroll Accrual
GLI,9/30/2016,12504,1146989,GLI093016,GLI093016,113.03,Payroll Accrual
GLI,9/30/2016,124704,1146989,GLI093016,GLI093016,1510.5,Payroll Accrual
GLI,9/30/2016,12503,1145001,GLI093016,GLI093016,86.65,Payroll Accrual
GLI,9/30/2016,12303,1145001,GLI093016,GLI093016,1132.74,Payroll Accrual
GLI,9/30/2016,12503,1144901,GLI093016,GLI093016,76.99,Payroll Accrual
GLI,9/30/2016,124723,1144901,GLI093016,GLI093016,1006.44,Payroll Accrual
GLI,9/30/2016,12506,1144310,GLI093016,GLI093016,14.31,Payroll Accrual
GLI,9/30/2016,12306C,1144310,GLI093016,GLI093016,187.08,Payroll Accrual
GLI,9/30/2016,12506,1144265,GLI093016,GLI093016,92.97,Payroll Accrual
GLI,9/30/2016,12306B,1144265,GLI093016,GLI093016,1268.75,Payroll Accrual
GLI,9/30/2016,12527,114204,GLI093016,GLI093016,13.05,Payroll Accrual
GLI,9/30/2016,12327,114204,GLI093016,GLI093016,170.6,Payroll Accrual
GLI,9/30/2016,12914,1141210,GLI093016,GLI093016,3.62,Payroll Accrual
GLI,9/30/2016,12906,1141210,GLI093016,GLI093016,2.09,Payroll Accrual
GLI,9/30/2016,12905,1141210,GLI093016,GLI093016,1.25,Payroll Accrual
GLI,9/30/2016,12904,1141210,GLI093016,GLI093016,3.13,Payroll Accrual
GLI,9/30/2016,12902,1141210,GLI093016,GLI093016,2.8,Payroll Accrual
GLI,9/30/2016,12901,1141210,GLI093016,GLI093016,2.8,Payroll Accrual
GLI,9/30/2016,12514,1141210,GLI093016,GLI093016,7.49,Payroll Accrual
GLI,9/30/2016,12506,1141210,GLI093016,GLI093016,-0.01,Payroll Accrual
GLI,9/30/2016,12505,1141210,GLI093016,GLI093016,-0.17,Payroll Accrual
GLI,9/30/2016,12504,1141210,GLI093016,GLI093016,4.97,Payroll Accrual
GLI,9/30/2016,12502,1141210,GLI093016,GLI093016,3.29,Payroll Accrual
GLI,9/30/2016,12501,1141210,GLI093016,GLI093016,3.29,Payroll Accrual
GLI,9/30/2016,12214,1141210,GLI093016,GLI093016,241.4,Payroll Accrual
GLI,9/30/2016,12206C,1141210,GLI093016,GLI093016,142.64,Payroll Accrual
GLI,9/30/2016,12205C,1141210,GLI093016,GLI093016,131.67,Payroll Accrual
GLI,9/30/2016,12204C,1141210,GLI093016,GLI093016,208.48,Payroll Accrual
GLI,9/30/2016,12202C,1141210,GLI093016,GLI093016,186.53,Payroll Accrual
GLI,9/30/2016,12201C,1141210,GLI093016,GLI093016,186.53,Payroll Accrual
GLI,9/30/2016,12504,1140870,GLI093016,GLI093016,439.54,Payroll Accrual
GLI,9/30/2016,12304B,1140870,GLI093016,GLI093016,5745.57,Payroll Accrual
GLI,9/30/2016,12527,1137596,GLI093016,GLI093016,17.03,Payroll Accrual
GLI,9/30/2016,12327,1137596,GLI093016,GLI093016,222.5,Payroll Accrual
GLI,9/30/2016,12904,1137590,GLI093016,GLI093016,37.45,Payroll Accrual
GLI,9/30/2016,12504,1137590,GLI093016,GLI093016,139.66,Payroll Accrual
GLI,9/30/2016,124704,1137590,GLI093016,GLI093016,1872.6,Payroll Accrual
GLI,9/30/2016,12527,1135810,GLI093016,GLI093016,59.66,Payroll Accrual
GLI,9/30/2016,12327,1135810,GLI093016,GLI093016,779.76,Payroll Accrual
GLI,9/30/2016,12524,1135710,GLI093016,GLI093016,21.48,Payroll Accrual
GLI,9/30/2016,124724,1135710,GLI093016,GLI093016,280.8,Payroll Accrual
GLI,9/30/2016,12503,1135450,GLI093016,GLI093016,39.72,Payroll Accrual
GLI,9/30/2016,124723,1135450,GLI093016,GLI093016,519.12,Payroll Accrual
GLI,9/30/2016,12504,1135410,GLI093016,GLI093016,98.32,Payroll Accrual
GLI,9/30/2016,124704,1135410,GLI093016,GLI093016,1277.97,Payroll Accrual
GLI,9/30/2016,12404,1135410,GLI093016,GLI093016,31.82,Payroll Accrual
GLI,9/30/2016,12911,1135260,GLI093016,GLI093016,8.17,Payroll Accrual
GLI,9/30/2016,12906,1135260,GLI093016,GLI093016,5.94,Payroll Accrual
GLI,9/30/2016,12905,1135260,GLI093016,GLI093016,5.94,Payroll Accrual
GLI,9/30/2016,12904,1135260,GLI093016,GLI093016,5.94,Payroll Accrual
GLI,9/30/2016,12902,1135260,GLI093016,GLI093016,5.57,Payroll Accrual
GLI,9/30/2016,12901,1135260,GLI093016,GLI093016,5.57,Payroll Accrual
GLI,9/30/2016,12511,1135260,GLI093016,GLI093016,39.63,Payroll Accrual
GLI,9/30/2016,12506,1135260,GLI093016,GLI093016,28.82,Payroll Accrual
GLI,9/30/2016,12505,1135260,GLI093016,GLI093016,28.82,Payroll Accrual
GLI,9/30/2016,12504,1135260,GLI093016,GLI093016,28.82,Payroll Accrual
GLI,9/30/2016,12502,1135260,GLI093016,GLI093016,27.02,Payroll Accrual
GLI,9/30/2016,12501,1135260,GLI093016,GLI093016,27.02,Payroll Accrual
GLI,9/30/2016,12311,1135260,GLI093016,GLI093016,544.92,Payroll Accrual
GLI,9/30/2016,12306H,1135260,GLI093016,GLI093016,396.31,Payroll Accrual
GLI,9/30/2016,12305H,1135260,GLI093016,GLI093016,396.31,Payroll Accrual
GLI,9/30/2016,12304H,1135260,GLI093016,GLI093016,396.31,Payroll Accrual
GLI,9/30/2016,12302H,1135260,GLI093016,GLI093016,371.54,Payroll Accrual
GLI,9/30/2016,12301H,1135260,GLI093016,GLI093016,371.54,Payroll Accrual
GLI,9/30/2016,12905,1134524,GLI093016,GLI093016,20.97,Payroll Accrual
GLI,9/30/2016,12505,1134524,GLI093016,GLI093016,106.95,Payroll Accrual
GLI,9/30/2016,124703,1134524,GLI093016,GLI093016,1398.1,Payroll Accrual
GLI,9/30/2016,12504,1133800,GLI093016,GLI093016,50.18,Payroll Accrual
GLI,9/30/2016,12304C,1133800,GLI093016,GLI093016,656.04,Payroll Accrual
GLI,9/30/2016,12506,1133727,GLI093016,GLI093016,112.18,Payroll Accrual
GLI,9/30/2016,12306D,1133727,GLI093016,GLI093016,1469.78,Payroll Accrual
GLI,9/30/2016,12504,1133500,GLI093016,GLI093016,85.87,Payroll Accrual
GLI,9/30/2016,124704,1133500,GLI093016,GLI093016,882.45,Payroll Accrual
GLI,9/30/2016,12404,1133500,GLI093016,GLI093016,240,Payroll Accrual
GLI,9/30/2016,12906,1132600,GLI093016,GLI093016,2,Payroll Accrual
GLI,9/30/2016,12905,1132600,GLI093016,GLI093016,2,Payroll Accrual
GLI,9/30/2016,12506,1132600,GLI093016,GLI093016,0.47,Payroll Accrual
GLI,9/30/2016,12505,1132600,GLI093016,GLI093016,0.47,Payroll Accrual
GLI,9/30/2016,12504,1132600,GLI093016,GLI093016,2.47,Payroll Accrual
GLI,9/30/2016,12502,1132600,GLI093016,GLI093016,2.47,Payroll Accrual
GLI,9/30/2016,12501,1132600,GLI093016,GLI093016,2.47,Payroll Accrual
GLI,9/30/2016,12206B,1132600,GLI093016,GLI093016,32.18,Payroll Accrual
GLI,9/30/2016,12205B,1132600,GLI093016,GLI093016,32.18,Payroll Accrual
GLI,9/30/2016,12204B,1132600,GLI093016,GLI093016,32.18,Payroll Accrual
GLI,9/30/2016,12202B,1132600,GLI093016,GLI093016,32.18,Payroll Accrual
GLI,9/30/2016,12201B,1132600,GLI093016,GLI093016,32.18,Payroll Accrual
GLI,9/30/2016,12906,1132595,GLI093016,GLI093016,86,Payroll Accrual
GLI,9/30/2016,12506,1132595,GLI093016,GLI093016,324.92,Payroll Accrual
GLI,9/30/2016,12106,1132595,GLI093016,GLI093016,4300,Payroll Accrual
GLI,9/30/2016,12904,1132590,GLI093016,GLI093016,84.52,Payroll Accrual
GLI,9/30/2016,12504,1132590,GLI093016,GLI093016,321.82,Payroll Accrual
GLI,9/30/2016,12304B,1132590,GLI093016,GLI093016,4225.97,Payroll Accrual
GLI,9/30/2016,12905,1132218,GLI093016,GLI093016,38.22,Payroll Accrual
GLI,9/30/2016,12505,1132218,GLI093016,GLI093016,144.09,Payroll Accrual
GLI,9/30/2016,124703,1132218,GLI093016,GLI093016,1910.78,Payroll Accrual
GLI,9/30/2016,12506,1132205,GLI093016,GLI093016,85.98,Payroll Accrual
GLI,9/30/2016,12306B,1132205,GLI093016,GLI093016,1174.04,Payroll Accrual
GLI,9/30/2016,12503,1131105,GLI093016,GLI093016,13.98,Payroll Accrual
GLI,9/30/2016,124723,1131105,GLI093016,GLI093016,182.76,Payroll Accrual
GLI,9/30/2016,12927,113085,GLI093016,GLI093016,12.74,Payroll Accrual
GLI,9/30/2016,12924,113085,GLI093016,GLI093016,12.74,Payroll Accrual
GLI,9/30/2016,12527,113085,GLI093016,GLI093016,64.29,Payroll Accrual
GLI,9/30/2016,12524,113085,GLI093016,GLI093016,64.29,Payroll Accrual
GLI,9/30/2016,12127,113085,GLI093016,GLI093016,849.23,Payroll Accrual
GLI,9/30/2016,12124,113085,GLI093016,GLI093016,849.23,Payroll Accrual
GLI,9/30/2016,12504,1130700,GLI093016,GLI093016,79.97,Payroll Accrual
GLI,9/30/2016,12304C,1130700,GLI093016,GLI093016,1045.33,Payroll Accrual
GLI,9/30/2016,12906,1130510,GLI093016,GLI093016,24.68,Payroll Accrual
GLI,9/30/2016,12506,1130510,GLI093016,GLI093016,113.76,Payroll Accrual
GLI,9/30/2016,12306C,1130510,GLI093016,GLI093016,1645.28,Payroll Accrual
GLI,9/30/2016,12503,1130326,GLI093016,GLI093016,28.05,Payroll Accrual
GLI,9/30/2016,124723,1130326,GLI093016,GLI093016,366.6,Payroll Accrual
GLI,9/30/2016,12906,113020,GLI093016,GLI093016,46.71,Payroll Accrual
GLI,9/30/2016,12506,113020,GLI093016,GLI093016,174.85,Payroll Accrual
GLI,9/30/2016,12306B,113020,GLI093016,GLI093016,2335.38,Payroll Accrual
GLI,9/30/2016,12904,113011,GLI093016,GLI093016,10.72,Payroll Accrual
GLI,9/30/2016,12504,113011,GLI093016,GLI093016,41.01,Payroll Accrual
GLI,9/30/2016,12304C,113011,GLI093016,GLI093016,536.14,Payroll Accrual
GLI,9/30/2016,12503,1130101,GLI093016,GLI093016,63.34,Payroll Accrual
GLI,9/30/2016,124723,1130101,GLI093016,GLI093016,827.96,Payroll Accrual
GLI,9/30/2016,12904,1130098,GLI093016,GLI093016,17.66,Payroll Accrual
GLI,9/30/2016,12504,1130098,GLI093016,GLI093016,90.06,Payroll Accrual
GLI,9/30/2016,124704,1130098,GLI093016,GLI093016,1177.2,Payroll Accrual
GLI,9/30/2016,12506,1130090,GLI093016,GLI093016,76.67,Payroll Accrual
GLI,9/30/2016,12306C,1130090,GLI093016,GLI093016,1002.26,Payroll Accrual
GLI,9/30/2016,12916,113000,GLI093016,GLI093016,34.67,Payroll Accrual
GLI,9/30/2016,12516,113000,GLI093016,GLI093016,132.62,Payroll Accrual
GLI,9/30/2016,12316,113000,GLI093016,GLI093016,1733.58,Payroll Accrual
GLI,9/30/2016,12527,1129560,GLI093016,GLI093016,46.97,Payroll Accrual
GLI,9/30/2016,12327,1129560,GLI093016,GLI093016,614,Payroll Accrual
GLI,9/30/2016,12503,1129090,GLI093016,GLI093016,17.65,Payroll Accrual
GLI,9/30/2016,124723,1129090,GLI093016,GLI093016,230.79,Payroll Accrual
GLI,9/30/2016,12904,1126110,GLI093016,GLI093016,20.78,Payroll Accrual
GLI,9/30/2016,12504,1126110,GLI093016,GLI093016,95.8,Payroll Accrual
GLI,9/30/2016,12304B,1126110,GLI093016,GLI093016,1385.13,Payroll Accrual
GLI,9/30/2016,12916,1126060,GLI093016,GLI093016,22.19,Payroll Accrual
GLI,9/30/2016,12516,1126060,GLI093016,GLI093016,112.9,Payroll Accrual
GLI,9/30/2016,12416,1126060,GLI093016,GLI093016,256,Payroll Accrual
GLI,9/30/2016,12316,1126060,GLI093016,GLI093016,1223.2,Payroll Accrual
GLI,9/30/2016,12504,1126055,GLI093016,GLI093016,71.59,Payroll Accrual
GLI,9/30/2016,12304C,1126055,GLI093016,GLI093016,935.76,Payroll Accrual
GLI,9/30/2016,12505,1126040,GLI093016,GLI093016,-9.35,Payroll Accrual
GLI,9/30/2016,12905,1125565,GLI093016,GLI093016,64.65,Payroll Accrual
GLI,9/30/2016,12505,1125565,GLI093016,GLI093016,235.88,Payroll Accrual
GLI,9/30/2016,124703,1125565,GLI093016,GLI093016,3232.4,Payroll Accrual
GLI,9/30/2016,12503,1124895,GLI093016,GLI093016,13.02,Payroll Accrual
GLI,9/30/2016,12303,1124895,GLI093016,GLI093016,170.1,Payroll Accrual
GLI,9/30/2016,12906,1124875,GLI093016,GLI093016,40.96,Payroll Accrual
GLI,9/30/2016,12506,1124875,GLI093016,GLI093016,152.11,Payroll Accrual
GLI,9/30/2016,12306B,1124875,GLI093016,GLI093016,2048,Payroll Accrual
GLI,9/30/2016,12904,1124436,GLI093016,GLI093016,44.36,Payroll Accrual
GLI,9/30/2016,12504,1124436,GLI093016,GLI093016,225.59,Payroll Accrual
GLI,9/30/2016,124704,1124436,GLI093016,GLI093016,2957.6,Payroll Accrual
GLI,9/30/2016,12504,1124430,GLI093016,GLI093016,69.68,Payroll Accrual
GLI,9/30/2016,12304C,1124430,GLI093016,GLI093016,930,Payroll Accrual
GLI,9/30/2016,12904,1124400,GLI093016,GLI093016,16.82,Payroll Accrual
GLI,9/30/2016,12504,1124400,GLI093016,GLI093016,84.56,Payroll Accrual
GLI,9/30/2016,124704,1124400,GLI093016,GLI093016,561.26,Payroll Accrual
GLI,9/30/2016,12404,1124400,GLI093016,GLI093016,560,Payroll Accrual
GLI,9/30/2016,12527,1123355,GLI093016,GLI093016,26.22,Payroll Accrual
GLI,9/30/2016,12327,1123355,GLI093016,GLI093016,342.81,Payroll Accrual
GLI,9/30/2016,12914,1123351,GLI093016,GLI093016,4.33,Payroll Accrual
GLI,9/30/2016,12906,1123351,GLI093016,GLI093016,11.95,Payroll Accrual
GLI,9/30/2016,12905,1123351,GLI093016,GLI093016,10.93,Payroll Accrual
GLI,9/30/2016,12904,1123351,GLI093016,GLI093016,3.74,Payroll Accrual
GLI,9/30/2016,12902,1123351,GLI093016,GLI093016,3.35,Payroll Accrual
GLI,9/30/2016,12901,1123351,GLI093016,GLI093016,3.35,Payroll Accrual
GLI,9/30/2016,12514,1123351,GLI093016,GLI093016,20.62,Payroll Accrual
GLI,9/30/2016,12506,1123351,GLI093016,GLI093016,2.2,Payroll Accrual
GLI,9/30/2016,12505,1123351,GLI093016,GLI093016,2.01,Payroll Accrual
GLI,9/30/2016,12504,1123351,GLI093016,GLI093016,17.61,Payroll Accrual
GLI,9/30/2016,12502,1123351,GLI093016,GLI093016,15.6,Payroll Accrual
GLI,9/30/2016,12501,1123351,GLI093016,GLI093016,15.6,Payroll Accrual
GLI,9/30/2016,12214,1123351,GLI093016,GLI093016,288.75,Payroll Accrual
GLI,9/30/2016,12206C,1123351,GLI093016,GLI093016,170.63,Payroll Accrual
GLI,9/30/2016,12205C,1123351,GLI093016,GLI093016,157.5,Payroll Accrual
GLI,9/30/2016,12204C,1123351,GLI093016,GLI093016,249.38,Payroll Accrual
GLI,9/30/2016,12202C,1123351,GLI093016,GLI093016,223.13,Payroll Accrual
GLI,9/30/2016,12201C,1123351,GLI093016,GLI093016,223.13,Payroll Accrual
GLI,9/30/2016,12914,1123340,GLI093016,GLI093016,14.95,Payroll Accrual
GLI,9/30/2016,12906,1123340,GLI093016,GLI093016,35.53,Payroll Accrual
GLI,9/30/2016,12905,1123340,GLI093016,GLI093016,32.79,Payroll Accrual
GLI,9/30/2016,12904,1123340,GLI093016,GLI093016,12.91,Payroll Accrual
GLI,9/30/2016,12902,1123340,GLI093016,GLI093016,11.55,Payroll Accrual
GLI,9/30/2016,12901,1123340,GLI093016,GLI093016,11.55,Payroll Accrual
GLI,9/30/2016,12514,1123340,GLI093016,GLI093016,55.75,Payroll Accrual
GLI,9/30/2016,12506,1123340,GLI093016,GLI093016,6.24,Payroll Accrual
GLI,9/30/2016,12505,1123340,GLI093016,GLI093016,5.76,Payroll Accrual
GLI,9/30/2016,12504,1123340,GLI093016,GLI093016,48.15,Payroll Accrual
GLI,9/30/2016,12502,1123340,GLI093016,GLI093016,43.08,Payroll Accrual
GLI,9/30/2016,12501,1123340,GLI093016,GLI093016,43.08,Payroll Accrual
GLI,9/30/2016,12214,1123340,GLI093016,GLI093016,747.32,Payroll Accrual
GLI,9/30/2016,12206C,1123340,GLI093016,GLI093016,441.6,Payroll Accrual
GLI,9/30/2016,12205C,1123340,GLI093016,GLI093016,407.63,Payroll Accrual
GLI,9/30/2016,12204C,1123340,GLI093016,GLI093016,645.42,Payroll Accrual
GLI,9/30/2016,12202C,1123340,GLI093016,GLI093016,577.48,Payroll Accrual
GLI,9/30/2016,12201C,1123340,GLI093016,GLI093016,577.48,Payroll Accrual
GLI,9/30/2016,12503,1123002,GLI093016,GLI093016,17.63,Payroll Accrual
GLI,9/30/2016,124723,1123002,GLI093016,GLI093016,230.52,Payroll Accrual
GLI,9/30/2016,12505,112273,GLI093016,GLI093016,79.04,Payroll Accrual
GLI,9/30/2016,12205A,112273,GLI093016,GLI093016,1033.26,Payroll Accrual
GLI,9/30/2016,12924,1122352,GLI093016,GLI093016,33.22,Payroll Accrual
GLI,9/30/2016,12524,1122352,GLI093016,GLI093016,165.6,Payroll Accrual
GLI,9/30/2016,124724,1122352,GLI093016,GLI093016,2214.76,Payroll Accrual
GLI,9/30/2016,12503,1122246,GLI093016,GLI093016,104.11,Payroll Accrual
GLI,9/30/2016,12303,1122246,GLI093016,GLI093016,1380.19,Payroll Accrual
GLI,9/30/2016,12527,1122110,GLI093016,GLI093016,259.69,Payroll Accrual
GLI,9/30/2016,12327,1122110,GLI093016,GLI093016,3505.9,Payroll Accrual
GLI,9/30/2016,12927,1121250,GLI093016,GLI093016,16.08,Payroll Accrual
GLI,9/30/2016,12527,1121250,GLI093016,GLI093016,81.99,Payroll Accrual
GLI,9/30/2016,12327,1121250,GLI093016,GLI093016,1071.84,Payroll Accrual
GLI,9/30/2016,12924,1121246,GLI093016,GLI093016,13.04,Payroll Accrual
GLI,9/30/2016,12524,1121246,GLI093016,GLI093016,65.04,Payroll Accrual
GLI,9/30/2016,124724,1121246,GLI093016,GLI093016,869.31,Payroll Accrual
GLI,9/30/2016,12527,112098,GLI093016,GLI093016,17.15,Payroll Accrual
GLI,9/30/2016,12524,112098,GLI093016,GLI093016,40.03,Payroll Accrual
GLI,9/30/2016,124724,112098,GLI093016,GLI093016,523.22,Payroll Accrual
GLI,9/30/2016,12327,112098,GLI093016,GLI093016,224.24,Payroll Accrual
GLI,9/30/2016,12503,112057,GLI093016,GLI093016,80.17,Payroll Accrual
GLI,9/30/2016,12303,112057,GLI093016,GLI093016,1047.97,Payroll Accrual
GLI,9/30/2016,12506,1120225,GLI093016,GLI093016,61.45,Payroll Accrual
GLI,9/30/2016,12505,1120225,GLI093016,GLI093016,61.45,Payroll Accrual
GLI,9/30/2016,12504,1120225,GLI093016,GLI093016,61.45,Payroll Accrual
GLI,9/30/2016,12502,1120225,GLI093016,GLI093016,61.45,Payroll Accrual
GLI,9/30/2016,12501,1120225,GLI093016,GLI093016,61.45,Payroll Accrual
GLI,9/30/2016,12006,1120225,GLI093016,GLI093016,849.23,Payroll Accrual
GLI,9/30/2016,12005,1120225,GLI093016,GLI093016,849.23,Payroll Accrual
GLI,9/30/2016,12004,1120225,GLI093016,GLI093016,849.23,Payroll Accrual
GLI,9/30/2016,12002,1120225,GLI093016,GLI093016,849.23,Payroll Accrual
GLI,9/30/2016,12001,1120225,GLI093016,GLI093016,849.23,Payroll Accrual
GLI,9/30/2016,12906,1120120,GLI093016,GLI093016,17.82,Payroll Accrual
GLI,9/30/2016,12506,1120120,GLI093016,GLI093016,86.75,Payroll Accrual
GLI,9/30/2016,12306B,1120120,GLI093016,GLI093016,1188,Payroll Accrual
GLI,9/30/2016,12927,1120110,GLI093016,GLI093016,27.6,Payroll Accrual
GLI,9/30/2016,12527,1120110,GLI093016,GLI093016,123.17,Payroll Accrual
GLI,9/30/2016,12127,1120110,GLI093016,GLI093016,1840,Payroll Accrual
GLI,9/30/2016,12906,1118832,GLI093016,GLI093016,18.28,Payroll Accrual
GLI,9/30/2016,12506,1118832,GLI093016,GLI093016,93.22,Payroll Accrual
GLI,9/30/2016,12306C,1118832,GLI093016,GLI093016,1218.49,Payroll Accrual
GLI,9/30/2016,12906,1118800,GLI093016,GLI093016,19.87,Payroll Accrual
GLI,9/30/2016,12506,1118800,GLI093016,GLI093016,99.35,Payroll Accrual
GLI,9/30/2016,12306B,1118800,GLI093016,GLI093016,1324.62,Payroll Accrual
GLI,9/30/2016,12505,1118722,GLI093016,GLI093016,274.17,Payroll Accrual
GLI,9/30/2016,124703,1118722,GLI093016,GLI093016,3691,Payroll Accrual
GLI,9/30/2016,12904,1117960,GLI093016,GLI093016,35.38,Payroll Accrual
GLI,9/30/2016,12504,1117960,GLI093016,GLI093016,131.99,Payroll Accrual
GLI,9/30/2016,124704,1117960,GLI093016,GLI093016,1769.23,Payroll Accrual
GLI,9/30/2016,12524,1117950,GLI093016,GLI093016,26.07,Payroll Accrual
GLI,9/30/2016,124724,1117950,GLI093016,GLI093016,340.8,Payroll Accrual
GLI,9/30/2016,12504,1117901,GLI093016,GLI093016,95.33,Payroll Accrual
GLI,9/30/2016,124704,1117901,GLI093016,GLI093016,1081.08,Payroll Accrual
GLI,9/30/2016,12404,1117901,GLI093016,GLI093016,165,Payroll Accrual
GLI,9/30/2016,12503,1117850,GLI093016,GLI093016,63.81,Payroll Accrual
GLI,9/30/2016,124723,1117850,GLI093016,GLI093016,834.12,Payroll Accrual
GLI,9/30/2016,12503,1117842,GLI093016,GLI093016,69.5,Payroll Accrual
GLI,9/30/2016,12303,1117842,GLI093016,GLI093016,911.96,Payroll Accrual
GLI,9/30/2016,12503,1117600,GLI093016,GLI093016,113.36,Payroll Accrual
GLI,9/30/2016,12303,1117600,GLI093016,GLI093016,1723.37,Payroll Accrual
GLI,9/30/2016,12504,1116963,GLI093016,GLI093016,38.35,Payroll Accrual
GLI,9/30/2016,12304C,1116963,GLI093016,GLI093016,501.3,Payroll Accrual
GLI,9/30/2016,12924,1116800,GLI093016,GLI093016,12.71,Payroll Accrual
GLI,9/30/2016,12524,1116800,GLI093016,GLI093016,64.84,Payroll Accrual
GLI,9/30/2016,124724,1116800,GLI093016,GLI093016,847.5,Payroll Accrual
GLI,9/30/2016,12905,1114921,GLI093016,GLI093016,29.5,Payroll Accrual
GLI,9/30/2016,12505,1114921,GLI093016,GLI093016,144.89,Payroll Accrual
GLI,9/30/2016,124703,1114921,GLI093016,GLI093016,1966.73,Payroll Accrual
GLI,9/30/2016,12527,1114860,GLI093016,GLI093016,19.46,Payroll Accrual
GLI,9/30/2016,12327,1114860,GLI093016,GLI093016,254.3,Payroll Accrual
GLI,9/30/2016,12506,1114831,GLI093016,GLI093016,78.55,Payroll Accrual
GLI,9/30/2016,12306D,1114831,GLI093016,GLI093016,1026.81,Payroll Accrual
GLI,9/30/2016,12906,1114135,GLI093016,GLI093016,2.86,Payroll Accrual
GLI,9/30/2016,12905,1114135,GLI093016,GLI093016,2.86,Payroll Accrual
GLI,9/30/2016,12506,1114135,GLI093016,GLI093016,0.67,Payroll Accrual
GLI,9/30/2016,12505,1114135,GLI093016,GLI093016,0.67,Payroll Accrual
GLI,9/30/2016,12504,1114135,GLI093016,GLI093016,3.53,Payroll Accrual
GLI,9/30/2016,12502,1114135,GLI093016,GLI093016,3.53,Payroll Accrual
GLI,9/30/2016,12501,1114135,GLI093016,GLI093016,3.53,Payroll Accrual
GLI,9/30/2016,12206B,1114135,GLI093016,GLI093016,46.18,Payroll Accrual
GLI,9/30/2016,12205B,1114135,GLI093016,GLI093016,46.18,Payroll Accrual
GLI,9/30/2016,12204B,1114135,GLI093016,GLI093016,46.18,Payroll Accrual
GLI,9/30/2016,12202B,1114135,GLI093016,GLI093016,46.18,Payroll Accrual
GLI,9/30/2016,12201B,1114135,GLI093016,GLI093016,46.18,Payroll Accrual
GLI,9/30/2016,12904,1114105,GLI093016,GLI093016,81.64,Payroll Accrual
GLI,9/30/2016,12504,1114105,GLI093016,GLI093016,299.91,Payroll Accrual
GLI,9/30/2016,12304B,1114105,GLI093016,GLI093016,4081.64,Payroll Accrual
GLI,9/30/2016,12904,1113940,GLI093016,GLI093016,36.09,Payroll Accrual
GLI,9/30/2016,12504,1113940,GLI093016,GLI093016,134.89,Payroll Accrual
GLI,9/30/2016,124704,1113940,GLI093016,GLI093016,1632.6,Payroll Accrual
GLI,9/30/2016,12404,1113940,GLI093016,GLI093016,172,Payroll Accrual
GLI,9/30/2016,12524,1112411,GLI093016,GLI093016,122.24,Payroll Accrual
GLI,9/30/2016,124724,1112411,GLI093016,GLI093016,1709,Payroll Accrual
GLI,9/30/2016,12904,111210,GLI093016,GLI093016,27.19,Payroll Accrual
GLI,9/30/2016,12504,111210,GLI093016,GLI093016,137.18,Payroll Accrual
GLI,9/30/2016,124704,111210,GLI093016,GLI093016,1812.4,Payroll Accrual
GLI,9/30/2016,12905,1111325,GLI093016,GLI093016,37,Payroll Accrual
GLI,9/30/2016,12505,1111325,GLI093016,GLI093016,139.55,Payroll Accrual
GLI,9/30/2016,12205A,1111325,GLI093016,GLI093016,1850.13,Payroll Accrual
GLI,9/30/2016,12904,1110800,GLI093016,GLI093016,25.36,Payroll Accrual
GLI,9/30/2016,12504,1110800,GLI093016,GLI093016,118,Payroll Accrual
GLI,9/30/2016,12304B,1110800,GLI093016,GLI093016,1690.43,Payroll Accrual
GLI,9/30/2016,12511,1110660,GLI093016,GLI093016,13.66,Payroll Accrual
GLI,9/30/2016,12506,1110660,GLI093016,GLI093016,9.93,Payroll Accrual
GLI,9/30/2016,12505,1110660,GLI093016,GLI093016,9.93,Payroll Accrual
GLI,9/30/2016,12504,1110660,GLI093016,GLI093016,9.93,Payroll Accrual
GLI,9/30/2016,12502,1110660,GLI093016,GLI093016,9.31,Payroll Accrual
GLI,9/30/2016,12501,1110660,GLI093016,GLI093016,9.31,Payroll Accrual
GLI,9/30/2016,12311,1110660,GLI093016,GLI093016,178.53,Payroll Accrual
GLI,9/30/2016,12306H,1110660,GLI093016,GLI093016,129.84,Payroll Accrual
GLI,9/30/2016,12305H,1110660,GLI093016,GLI093016,129.84,Payroll Accrual
GLI,9/30/2016,12304H,1110660,GLI093016,GLI093016,129.84,Payroll Accrual
GLI,9/30/2016,12302H,1110660,GLI093016,GLI093016,121.72,Payroll Accrual
GLI,9/30/2016,12301H,1110660,GLI093016,GLI093016,121.72,Payroll Accrual
GLI,9/30/2016,12905,1110650,GLI093016,GLI093016,41.4,Payroll Accrual
GLI,9/30/2016,12505,1110650,GLI093016,GLI093016,211.13,Payroll Accrual
GLI,9/30/2016,124703,1110650,GLI093016,GLI093016,2759.9,Payroll Accrual
GLI,9/30/2016,12503,1109836,GLI093016,GLI093016,30.61,Payroll Accrual
GLI,9/30/2016,124723,1109836,GLI093016,GLI093016,400.2,Payroll Accrual
GLI,9/30/2016,12504,1109819,GLI093016,GLI093016,79.51,Payroll Accrual
GLI,9/30/2016,12204A,1109819,GLI093016,GLI093016,1096.08,Payroll Accrual
GLI,9/30/2016,12527,1109000,GLI093016,GLI093016,9.07,Payroll Accrual
GLI,9/30/2016,12327,1109000,GLI093016,GLI093016,118.5,Payroll Accrual
GLI,9/30/2016,12503,1108452,GLI093016,GLI093016,15.57,Payroll Accrual
GLI,9/30/2016,124723,1108452,GLI093016,GLI093016,203.52,Payroll Accrual
GLI,9/30/2016,12904,1108248,GLI093016,GLI093016,21.57,Payroll Accrual
GLI,9/30/2016,12504,1108248,GLI093016,GLI093016,82.52,Payroll Accrual
GLI,9/30/2016,124704,1108248,GLI093016,GLI093016,1078.71,Payroll Accrual
GLI,9/30/2016,12905,1108200,GLI093016,GLI093016,83.11,Payroll Accrual
GLI,9/30/2016,12505,1108200,GLI093016,GLI093016,422.19,Payroll Accrual
GLI,9/30/2016,12305B,1108200,GLI093016,GLI093016,5540.55,Payroll Accrual
GLI,9/30/2016,12906,1108150,GLI093016,GLI093016,3.36,Payroll Accrual
GLI,9/30/2016,12905,1108150,GLI093016,GLI093016,3.36,Payroll Accrual
GLI,9/30/2016,12506,1108150,GLI093016,GLI093016,0.79,Payroll Accrual
GLI,9/30/2016,12505,1108150,GLI093016,GLI093016,0.79,Payroll Accrual
GLI,9/30/2016,12504,1108150,GLI093016,GLI093016,4.15,Payroll Accrual
GLI,9/30/2016,12502,1108150,GLI093016,GLI093016,4.15,Payroll Accrual
GLI,9/30/2016,12501,1108150,GLI093016,GLI093016,4.15,Payroll Accrual
GLI,9/30/2016,12206B,1108150,GLI093016,GLI093016,54.18,Payroll Accrual
GLI,9/30/2016,12205B,1108150,GLI093016,GLI093016,54.18,Payroll Accrual
GLI,9/30/2016,12204B,1108150,GLI093016,GLI093016,54.18,Payroll Accrual
GLI,9/30/2016,12202B,1108150,GLI093016,GLI093016,54.18,Payroll Accrual
GLI,9/30/2016,12201B,1108150,GLI093016,GLI093016,54.18,Payroll Accrual
GLI,9/30/2016,12904,1107950,GLI093016,GLI093016,20.46,Payroll Accrual
GLI,9/30/2016,12504,1107950,GLI093016,GLI093016,101.83,Payroll Accrual
GLI,9/30/2016,124704,1107950,GLI093016,GLI093016,1364.1,Payroll Accrual
GLI,9/30/2016,12904,1106421,GLI093016,GLI093016,37.19,Payroll Accrual
GLI,9/30/2016,12504,1106421,GLI093016,GLI093016,177.63,Payroll Accrual
GLI,9/30/2016,124704,1106421,GLI093016,GLI093016,2479.6,Payroll Accrual
GLI,9/30/2016,12905,1106400,GLI093016,GLI093016,36.82,Payroll Accrual
GLI,9/30/2016,12505,1106400,GLI093016,GLI093016,187.77,Payroll Accrual
GLI,9/30/2016,124703,1106400,GLI093016,GLI093016,2454.5,Payroll Accrual
GLI,9/30/2016,12904,1106399,GLI093016,GLI093016,73.07,Payroll Accrual
GLI,9/30/2016,12504,1106399,GLI093016,GLI093016,279.51,Payroll Accrual
GLI,9/30/2016,124704,1106399,GLI093016,GLI093016,3653.7,Payroll Accrual
GLI,9/30/2016,12924,1106260,GLI093016,GLI093016,9.93,Payroll Accrual
GLI,9/30/2016,12524,1106260,GLI093016,GLI093016,50.39,Payroll Accrual
GLI,9/30/2016,124724,1106260,GLI093016,GLI093016,662.04,Payroll Accrual
GLI,9/30/2016,12924,1103065,GLI093016,GLI093016,7.28,Payroll Accrual
GLI,9/30/2016,12905,1103065,GLI093016,GLI093016,7.28,Payroll Accrual
GLI,9/30/2016,12904,1103065,GLI093016,GLI093016,7.28,Payroll Accrual
GLI,9/30/2016,12901,1103065,GLI093016,GLI093016,7.28,Payroll Accrual
GLI,9/30/2016,12524,1103065,GLI093016,GLI093016,20.74,Payroll Accrual
GLI,9/30/2016,12505,1103065,GLI093016,GLI093016,20.74,Payroll Accrual
GLI,9/30/2016,12504,1103065,GLI093016,GLI093016,20.74,Payroll Accrual
GLI,9/30/2016,12501,1103065,GLI093016,GLI093016,20.74,Payroll Accrual
GLI,9/30/2016,12324F,1103065,GLI093016,GLI093016,363.79,Payroll Accrual
GLI,9/30/2016,12305F,1103065,GLI093016,GLI093016,363.79,Payroll Accrual
GLI,9/30/2016,12304F,1103065,GLI093016,GLI093016,363.79,Payroll Accrual
GLI,9/30/2016,12301F,1103065,GLI093016,GLI093016,363.79,Payroll Accrual
GLI,9/30/2016,12503,1102198,GLI093016,GLI093016,120.7,Payroll Accrual
GLI,9/30/2016,12103,1102198,GLI093016,GLI093016,1592.31,Payroll Accrual
GLI,9/30/2016,12904,1102195,GLI093016,GLI093016,63.69,Payroll Accrual
GLI,9/30/2016,12504,1102195,GLI093016,GLI093016,239.23,Payroll Accrual
GLI,9/30/2016,12104,1102195,GLI093016,GLI093016,3184.62,Payroll Accrual
GLI,9/30/2016,12524,1100820,GLI093016,GLI093016,17.03,Payroll Accrual
GLI,9/30/2016,124724,1100820,GLI093016,GLI093016,222.6,Payroll Accrual
GLI,9/30/2016,12505,1100625,GLI093016,GLI093016,98.73,Payroll Accrual
GLI,9/30/2016,124703,1100625,GLI093016,GLI093016,1290.6,Payroll Accrual
GLI,9/30/2016,12503,110048,GLI093016,GLI093016,4.8,Payroll Accrual
GLI,9/30/2016,124723,110048,GLI093016,GLI093016,62.72,Payroll Accrual
