journal,date,account,control,document,reference,amount,description
GLI,2/28/2018,232103,GLI022818,GLI022818,GLI022818,-42638.44,Payroll Accrual
GLI,2/28/2018,132101,GLI022818,GLI022818,GLI022818,-334388.85,Payroll Accrual
GLI,2/28/2018,12006,1130426,GLI022818,GLI022818,1224,Payroll Accrual
GLI,2/28/2018,12005,1130426,GLI022818,GLI022818,1224,Payroll Accrual
GLI,2/28/2018,12004,1130426,GLI022818,GLI022818,1224,Payroll Accrual
GLI,2/28/2018,12002,1130426,GLI022818,GLI022818,1224,Payroll Accrual
GLI,2/28/2018,12001,1130426,GLI022818,GLI022818,1104.01,Payroll Accrual
GLI,2/28/2018,22504,295148,GLI022818,GLI022818,80.06,Payroll Accrual
GLI,2/28/2018,224704,295148,GLI022818,GLI022818,1130.88,Payroll Accrual
GLI,2/28/2018,22910,291600,GLI022818,GLI022818,1.91,Payroll Accrual
GLI,2/28/2018,22906,291600,GLI022818,GLI022818,3.98,Payroll Accrual
GLI,2/28/2018,22904,291600,GLI022818,GLI022818,3.98,Payroll Accrual
GLI,2/28/2018,22902,291600,GLI022818,GLI022818,3.98,Payroll Accrual
GLI,2/28/2018,22901,291600,GLI022818,GLI022818,2.07,Payroll Accrual
GLI,2/28/2018,22510,291600,GLI022818,GLI022818,2,Payroll Accrual
GLI,2/28/2018,22506,291600,GLI022818,GLI022818,9.92,Payroll Accrual
GLI,2/28/2018,22504,291600,GLI022818,GLI022818,9.92,Payroll Accrual
GLI,2/28/2018,22502,291600,GLI022818,GLI022818,9.92,Payroll Accrual
GLI,2/28/2018,22501,291600,GLI022818,GLI022818,2.61,Payroll Accrual
GLI,2/28/2018,22210B,291600,GLI022818,GLI022818,95.49,Payroll Accrual
GLI,2/28/2018,22206B,291600,GLI022818,GLI022818,198.93,Payroll Accrual
GLI,2/28/2018,22204B,291600,GLI022818,GLI022818,198.93,Payroll Accrual
GLI,2/28/2018,22202B,291600,GLI022818,GLI022818,198.93,Payroll Accrual
GLI,2/28/2018,22201B,291600,GLI022818,GLI022818,103.44,Payroll Accrual
GLI,2/28/2018,22504,291582,GLI022818,GLI022818,34.62,Payroll Accrual
GLI,2/28/2018,22304C,291582,GLI022818,GLI022818,452.54,Payroll Accrual
GLI,2/28/2018,285740,285820,GLI022818,GLI022818,672.76,Payroll Accrual
GLI,2/28/2018,285730,285820,GLI022818,GLI022818,672.76,Payroll Accrual
GLI,2/28/2018,285720,285820,GLI022818,GLI022818,693.15,Payroll Accrual
GLI,2/28/2018,22910,285820,GLI022818,GLI022818,13.46,Payroll Accrual
GLI,2/28/2018,22902,285820,GLI022818,GLI022818,13.46,Payroll Accrual
GLI,2/28/2018,22901,285820,GLI022818,GLI022818,13.86,Payroll Accrual
GLI,2/28/2018,22510,285820,GLI022818,GLI022818,51.47,Payroll Accrual
GLI,2/28/2018,22502,285820,GLI022818,GLI022818,51.47,Payroll Accrual
GLI,2/28/2018,22501,285820,GLI022818,GLI022818,53.03,Payroll Accrual
GLI,2/28/2018,22910,284625,GLI022818,GLI022818,10.8,Payroll Accrual
GLI,2/28/2018,22902,284625,GLI022818,GLI022818,21.6,Payroll Accrual
GLI,2/28/2018,22901,284625,GLI022818,GLI022818,10.8,Payroll Accrual
GLI,2/28/2018,22510,284625,GLI022818,GLI022818,54.12,Payroll Accrual
GLI,2/28/2018,22502,284625,GLI022818,GLI022818,108.23,Payroll Accrual
GLI,2/28/2018,22501,284625,GLI022818,GLI022818,54.12,Payroll Accrual
GLI,2/28/2018,22110,284625,GLI022818,GLI022818,720,Payroll Accrual
GLI,2/28/2018,22102,284625,GLI022818,GLI022818,1440,Payroll Accrual
GLI,2/28/2018,22101,284625,GLI022818,GLI022818,720,Payroll Accrual
GLI,2/28/2018,22904,282713,GLI022818,GLI022818,9.35,Payroll Accrual
GLI,2/28/2018,22903,282713,GLI022818,GLI022818,9.35,Payroll Accrual
GLI,2/28/2018,22504,282713,GLI022818,GLI022818,43.17,Payroll Accrual
GLI,2/28/2018,22503,282713,GLI022818,GLI022818,43.17,Payroll Accrual
GLI,2/28/2018,22304B,282713,GLI022818,GLI022818,623.04,Payroll Accrual
GLI,2/28/2018,22303,282713,GLI022818,GLI022818,623.04,Payroll Accrual
GLI,2/28/2018,22504,279630,GLI022818,GLI022818,130.33,Payroll Accrual
GLI,2/28/2018,224704,279630,GLI022818,GLI022818,1703.61,Payroll Accrual
GLI,2/28/2018,22506,274225,GLI022818,GLI022818,85.06,Payroll Accrual
GLI,2/28/2018,22306,274225,GLI022818,GLI022818,1270.1,Payroll Accrual
GLI,2/28/2018,22904,273315,GLI022818,GLI022818,22.3,Payroll Accrual
GLI,2/28/2018,22504,273315,GLI022818,GLI022818,85.29,Payroll Accrual
GLI,2/28/2018,224704,273315,GLI022818,GLI022818,1114.99,Payroll Accrual
GLI,2/28/2018,22503,265849,GLI022818,GLI022818,47.75,Payroll Accrual
GLI,2/28/2018,224723,265849,GLI022818,GLI022818,624.24,Payroll Accrual
GLI,2/28/2018,22504,265348,GLI022818,GLI022818,131.75,Payroll Accrual
GLI,2/28/2018,224704,265348,GLI022818,GLI022818,1722.3,Payroll Accrual
GLI,2/28/2018,22503,26442,GLI022818,GLI022818,61.21,Payroll Accrual
GLI,2/28/2018,224723,26442,GLI022818,GLI022818,800.22,Payroll Accrual
GLI,2/28/2018,22506,264220,GLI022818,GLI022818,64.88,Payroll Accrual
GLI,2/28/2018,22306,264220,GLI022818,GLI022818,917.42,Payroll Accrual
GLI,2/28/2018,22504,256879,GLI022818,GLI022818,12.64,Payroll Accrual
GLI,2/28/2018,22304C,256879,GLI022818,GLI022818,165.2,Payroll Accrual
GLI,2/28/2018,22510,256845,GLI022818,GLI022818,26.22,Payroll Accrual
GLI,2/28/2018,22502,256845,GLI022818,GLI022818,26.22,Payroll Accrual
GLI,2/28/2018,22501,256845,GLI022818,GLI022818,27.01,Payroll Accrual
GLI,2/28/2018,22310,256845,GLI022818,GLI022818,342.71,Payroll Accrual
GLI,2/28/2018,22302,256845,GLI022818,GLI022818,342.71,Payroll Accrual
GLI,2/28/2018,22301,256845,GLI022818,GLI022818,353.1,Payroll Accrual
GLI,2/28/2018,22503,256689,GLI022818,GLI022818,69.86,Payroll Accrual
GLI,2/28/2018,224723,256689,GLI022818,GLI022818,972.21,Payroll Accrual
GLI,2/28/2018,22503,247000,GLI022818,GLI022818,72.98,Payroll Accrual
GLI,2/28/2018,22303,247000,GLI022818,GLI022818,953.96,Payroll Accrual
GLI,2/28/2018,22503,24665,GLI022818,GLI022818,62.64,Payroll Accrual
GLI,2/28/2018,224723,24665,GLI022818,GLI022818,818.88,Payroll Accrual
GLI,2/28/2018,22503,24551,GLI022818,GLI022818,28.24,Payroll Accrual
GLI,2/28/2018,224723,24551,GLI022818,GLI022818,369.24,Payroll Accrual
GLI,2/28/2018,22506,243180,GLI022818,GLI022818,71.56,Payroll Accrual
GLI,2/28/2018,22406,243180,GLI022818,GLI022818,256,Payroll Accrual
GLI,2/28/2018,22306,243180,GLI022818,GLI022818,837.6,Payroll Accrual
GLI,2/28/2018,22903,241120,GLI022818,GLI022818,16.1,Payroll Accrual
GLI,2/28/2018,22503,241120,GLI022818,GLI022818,75.74,Payroll Accrual
GLI,2/28/2018,22403,241120,GLI022818,GLI022818,120,Payroll Accrual
GLI,2/28/2018,22303,241120,GLI022818,GLI022818,953.66,Payroll Accrual
GLI,2/28/2018,22904,241085,GLI022818,GLI022818,15.16,Payroll Accrual
GLI,2/28/2018,22504,241085,GLI022818,GLI022818,76.13,Payroll Accrual
GLI,2/28/2018,224704,241085,GLI022818,GLI022818,1011.13,Payroll Accrual
GLI,2/28/2018,22504,230810,GLI022818,GLI022818,13.12,Payroll Accrual
GLI,2/28/2018,22304C,230810,GLI022818,GLI022818,171.4,Payroll Accrual
GLI,2/28/2018,22504,230601,GLI022818,GLI022818,203.47,Payroll Accrual
GLI,2/28/2018,22104,230601,GLI022818,GLI022818,2780.01,Payroll Accrual
GLI,2/28/2018,22510,22358,GLI022818,GLI022818,1.42,Payroll Accrual
GLI,2/28/2018,22506,22358,GLI022818,GLI022818,2.96,Payroll Accrual
GLI,2/28/2018,22504,22358,GLI022818,GLI022818,2.96,Payroll Accrual
GLI,2/28/2018,22502,22358,GLI022818,GLI022818,2.96,Payroll Accrual
GLI,2/28/2018,22501,22358,GLI022818,GLI022818,1.54,Payroll Accrual
GLI,2/28/2018,22210B,22358,GLI022818,GLI022818,18.61,Payroll Accrual
GLI,2/28/2018,22206B,22358,GLI022818,GLI022818,38.78,Payroll Accrual
GLI,2/28/2018,22204B,22358,GLI022818,GLI022818,38.78,Payroll Accrual
GLI,2/28/2018,22202B,22358,GLI022818,GLI022818,38.78,Payroll Accrual
GLI,2/28/2018,22201B,22358,GLI022818,GLI022818,20.16,Payroll Accrual
GLI,2/28/2018,22503,223050,GLI022818,GLI022818,32.76,Payroll Accrual
GLI,2/28/2018,224723,223050,GLI022818,GLI022818,428.26,Payroll Accrual
GLI,2/28/2018,285740,222457,GLI022818,GLI022818,759.72,Payroll Accrual
GLI,2/28/2018,285730,222457,GLI022818,GLI022818,759.72,Payroll Accrual
GLI,2/28/2018,285720,222457,GLI022818,GLI022818,782.74,Payroll Accrual
GLI,2/28/2018,22910,222457,GLI022818,GLI022818,15.19,Payroll Accrual
GLI,2/28/2018,22902,222457,GLI022818,GLI022818,15.19,Payroll Accrual
GLI,2/28/2018,22901,222457,GLI022818,GLI022818,15.65,Payroll Accrual
GLI,2/28/2018,22510,222457,GLI022818,GLI022818,58.12,Payroll Accrual
GLI,2/28/2018,22502,222457,GLI022818,GLI022818,58.12,Payroll Accrual
GLI,2/28/2018,22501,222457,GLI022818,GLI022818,59.88,Payroll Accrual
GLI,2/28/2018,22910,2150210,GLI022818,GLI022818,6.23,Payroll Accrual
GLI,2/28/2018,22902,2150210,GLI022818,GLI022818,11.34,Payroll Accrual
GLI,2/28/2018,22901,2150210,GLI022818,GLI022818,10.77,Payroll Accrual
GLI,2/28/2018,22510,2150210,GLI022818,GLI022818,23.85,Payroll Accrual
GLI,2/28/2018,22502,2150210,GLI022818,GLI022818,43.36,Payroll Accrual
GLI,2/28/2018,22501,2150210,GLI022818,GLI022818,41.19,Payroll Accrual
GLI,2/28/2018,21110,2150210,GLI022818,GLI022818,311.74,Payroll Accrual
GLI,2/28/2018,21102,2150210,GLI022818,GLI022818,566.8,Payroll Accrual
GLI,2/28/2018,21101,2150210,GLI022818,GLI022818,538.46,Payroll Accrual
GLI,2/28/2018,22910,2141225,GLI022818,GLI022818,3.26,Payroll Accrual
GLI,2/28/2018,22902,2141225,GLI022818,GLI022818,3.26,Payroll Accrual
GLI,2/28/2018,22901,2141225,GLI022818,GLI022818,3.36,Payroll Accrual
GLI,2/28/2018,22510,2141225,GLI022818,GLI022818,9.61,Payroll Accrual
GLI,2/28/2018,22502,2141225,GLI022818,GLI022818,9.61,Payroll Accrual
GLI,2/28/2018,22501,2141225,GLI022818,GLI022818,10.12,Payroll Accrual
GLI,2/28/2018,22310,2141225,GLI022818,GLI022818,217.51,Payroll Accrual
GLI,2/28/2018,22302,2141225,GLI022818,GLI022818,217.51,Payroll Accrual
GLI,2/28/2018,22301,2141225,GLI022818,GLI022818,224.1,Payroll Accrual
GLI,2/28/2018,22503,213520,GLI022818,GLI022818,39.45,Payroll Accrual
GLI,2/28/2018,224723,213520,GLI022818,GLI022818,515.65,Payroll Accrual
GLI,2/28/2018,22910,2135031,GLI022818,GLI022818,1.65,Payroll Accrual
GLI,2/28/2018,22902,2135031,GLI022818,GLI022818,3,Payroll Accrual
GLI,2/28/2018,22901,2135031,GLI022818,GLI022818,2.85,Payroll Accrual
GLI,2/28/2018,22510,2135031,GLI022818,GLI022818,8.42,Payroll Accrual
GLI,2/28/2018,22502,2135031,GLI022818,GLI022818,15.3,Payroll Accrual
GLI,2/28/2018,22501,2135031,GLI022818,GLI022818,14.54,Payroll Accrual
GLI,2/28/2018,21110,2135031,GLI022818,GLI022818,110,Payroll Accrual
GLI,2/28/2018,21102,2135031,GLI022818,GLI022818,200,Payroll Accrual
GLI,2/28/2018,21101,2135031,GLI022818,GLI022818,190,Payroll Accrual
GLI,2/28/2018,22910,213406,GLI022818,GLI022818,0.68,Payroll Accrual
GLI,2/28/2018,22906,213406,GLI022818,GLI022818,1.42,Payroll Accrual
GLI,2/28/2018,22904,213406,GLI022818,GLI022818,1.42,Payroll Accrual
GLI,2/28/2018,22902,213406,GLI022818,GLI022818,1.42,Payroll Accrual
GLI,2/28/2018,22901,213406,GLI022818,GLI022818,0.74,Payroll Accrual
GLI,2/28/2018,22510,213406,GLI022818,GLI022818,3.47,Payroll Accrual
GLI,2/28/2018,22506,213406,GLI022818,GLI022818,7.22,Payroll Accrual
GLI,2/28/2018,22504,213406,GLI022818,GLI022818,7.22,Payroll Accrual
GLI,2/28/2018,22502,213406,GLI022818,GLI022818,7.22,Payroll Accrual
GLI,2/28/2018,22501,213406,GLI022818,GLI022818,3.75,Payroll Accrual
GLI,2/28/2018,22210B,213406,GLI022818,GLI022818,45.3,Payroll Accrual
GLI,2/28/2018,22206B,213406,GLI022818,GLI022818,94.38,Payroll Accrual
GLI,2/28/2018,22204B,213406,GLI022818,GLI022818,94.38,Payroll Accrual
GLI,2/28/2018,22202B,213406,GLI022818,GLI022818,94.38,Payroll Accrual
GLI,2/28/2018,22201B,213406,GLI022818,GLI022818,49.08,Payroll Accrual
GLI,2/28/2018,22510,2130678,GLI022818,GLI022818,6,Payroll Accrual
GLI,2/28/2018,22502,2130678,GLI022818,GLI022818,10.89,Payroll Accrual
GLI,2/28/2018,22501,2130678,GLI022818,GLI022818,10.35,Payroll Accrual
GLI,2/28/2018,21110,2130678,GLI022818,GLI022818,78.32,Payroll Accrual
GLI,2/28/2018,21102,2130678,GLI022818,GLI022818,142.4,Payroll Accrual
GLI,2/28/2018,21101,2130678,GLI022818,GLI022818,135.28,Payroll Accrual
GLI,2/28/2018,22904,2130510,GLI022818,GLI022818,32.1,Payroll Accrual
GLI,2/28/2018,22504,2130510,GLI022818,GLI022818,151.57,Payroll Accrual
GLI,2/28/2018,22304B,2130510,GLI022818,GLI022818,2139.49,Payroll Accrual
GLI,2/28/2018,22904,2130150,GLI022818,GLI022818,40.21,Payroll Accrual
GLI,2/28/2018,22504,2130150,GLI022818,GLI022818,153.8,Payroll Accrual
GLI,2/28/2018,224704,2130150,GLI022818,GLI022818,2010.44,Payroll Accrual
GLI,2/28/2018,22504,2126053,GLI022818,GLI022818,21.7,Payroll Accrual
GLI,2/28/2018,22304C,2126053,GLI022818,GLI022818,283.7,Payroll Accrual
GLI,2/28/2018,22910,212120,GLI022818,GLI022818,1.76,Payroll Accrual
GLI,2/28/2018,22902,212120,GLI022818,GLI022818,3.19,Payroll Accrual
GLI,2/28/2018,22901,212120,GLI022818,GLI022818,3.03,Payroll Accrual
GLI,2/28/2018,22510,212120,GLI022818,GLI022818,8.96,Payroll Accrual
GLI,2/28/2018,22502,212120,GLI022818,GLI022818,16.28,Payroll Accrual
GLI,2/28/2018,22501,212120,GLI022818,GLI022818,15.46,Payroll Accrual
GLI,2/28/2018,21110,212120,GLI022818,GLI022818,117.04,Payroll Accrual
GLI,2/28/2018,21102,212120,GLI022818,GLI022818,212.8,Payroll Accrual
GLI,2/28/2018,21101,212120,GLI022818,GLI022818,202.16,Payroll Accrual
GLI,2/28/2018,22503,211260,GLI022818,GLI022818,65.85,Payroll Accrual
GLI,2/28/2018,224723,211260,GLI022818,GLI022818,877.89,Payroll Accrual
GLI,2/28/2018,22504,211201,GLI022818,GLI022818,42.71,Payroll Accrual
GLI,2/28/2018,224704,211201,GLI022818,GLI022818,558.35,Payroll Accrual
GLI,2/28/2018,22504,2106410,GLI022818,GLI022818,204.13,Payroll Accrual
GLI,2/28/2018,22304B,2106410,GLI022818,GLI022818,2668.31,Payroll Accrual
GLI,2/28/2018,22506,2106350,GLI022818,GLI022818,139.49,Payroll Accrual
GLI,2/28/2018,22106,2106350,GLI022818,GLI022818,1860,Payroll Accrual
GLI,2/28/2018,22504,210073,GLI022818,GLI022818,119.6,Payroll Accrual
GLI,2/28/2018,224704,210073,GLI022818,GLI022818,1711.06,Payroll Accrual
GLI,2/28/2018,22503,20541,GLI022818,GLI022818,14.45,Payroll Accrual
GLI,2/28/2018,224723,20541,GLI022818,GLI022818,188.88,Payroll Accrual
GLI,2/28/2018,12503,19856,GLI022818,GLI022818,17.89,Payroll Accrual
GLI,2/28/2018,124723,19856,GLI022818,GLI022818,233.88,Payroll Accrual
GLI,2/28/2018,12506,198462,GLI022818,GLI022818,4.24,Payroll Accrual
GLI,2/28/2018,12306C,198462,GLI022818,GLI022818,55.44,Payroll Accrual
GLI,2/28/2018,12503,196345,GLI022818,GLI022818,68.36,Payroll Accrual
GLI,2/28/2018,12303,196345,GLI022818,GLI022818,893.58,Payroll Accrual
GLI,2/28/2018,12906,196341,GLI022818,GLI022818,5.28,Payroll Accrual
GLI,2/28/2018,12905,196341,GLI022818,GLI022818,4.47,Payroll Accrual
GLI,2/28/2018,12514,196341,GLI022818,GLI022818,15.52,Payroll Accrual
GLI,2/28/2018,12506,196341,GLI022818,GLI022818,1.23,Payroll Accrual
GLI,2/28/2018,12505,196341,GLI022818,GLI022818,1.04,Payroll Accrual
GLI,2/28/2018,12504,196341,GLI022818,GLI022818,12.52,Payroll Accrual
GLI,2/28/2018,12502,196341,GLI022818,GLI022818,10.51,Payroll Accrual
GLI,2/28/2018,12501,196341,GLI022818,GLI022818,10.51,Payroll Accrual
GLI,2/28/2018,12214,196341,GLI022818,GLI022818,287.9,Payroll Accrual
GLI,2/28/2018,12206C,196341,GLI022818,GLI022818,170.12,Payroll Accrual
GLI,2/28/2018,12205C,196341,GLI022818,GLI022818,157.04,Payroll Accrual
GLI,2/28/2018,12204C,196341,GLI022818,GLI022818,248.64,Payroll Accrual
GLI,2/28/2018,12202C,196341,GLI022818,GLI022818,222.47,Payroll Accrual
GLI,2/28/2018,12201C,196341,GLI022818,GLI022818,222.47,Payroll Accrual
GLI,2/28/2018,12503,196205,GLI022818,GLI022818,52.72,Payroll Accrual
GLI,2/28/2018,124723,196205,GLI022818,GLI022818,689.22,Payroll Accrual
GLI,2/28/2018,12527,195876,GLI022818,GLI022818,19.53,Payroll Accrual
GLI,2/28/2018,12327,195876,GLI022818,GLI022818,255.3,Payroll Accrual
GLI,2/28/2018,12506,195413,GLI022818,GLI022818,13.18,Payroll Accrual
GLI,2/28/2018,12306C,195413,GLI022818,GLI022818,172.26,Payroll Accrual
GLI,2/28/2018,12504,194675,GLI022818,GLI022818,194.2,Payroll Accrual
GLI,2/28/2018,124704,194675,GLI022818,GLI022818,2582.32,Payroll Accrual
GLI,2/28/2018,12527,193062,GLI022818,GLI022818,17.19,Payroll Accrual
GLI,2/28/2018,12327,193062,GLI022818,GLI022818,224.62,Payroll Accrual
GLI,2/28/2018,12505,191350,GLI022818,GLI022818,186.63,Payroll Accrual
GLI,2/28/2018,124703,191350,GLI022818,GLI022818,2439.6,Payroll Accrual
GLI,2/28/2018,12504,191060,GLI022818,GLI022818,268.4,Payroll Accrual
GLI,2/28/2018,12404,191060,GLI022818,GLI022818,128,Payroll Accrual
GLI,2/28/2018,12304B,191060,GLI022818,GLI022818,3380.6,Payroll Accrual
GLI,2/28/2018,12505,190910,GLI022818,GLI022818,79.33,Payroll Accrual
GLI,2/28/2018,12405,190910,GLI022818,GLI022818,160,Payroll Accrual
GLI,2/28/2018,12305B,190910,GLI022818,GLI022818,894.17,Payroll Accrual
GLI,2/28/2018,12906,190892,GLI022818,GLI022818,24.2,Payroll Accrual
GLI,2/28/2018,12506,190892,GLI022818,GLI022818,90.18,Payroll Accrual
GLI,2/28/2018,12306C,190892,GLI022818,GLI022818,1209.81,Payroll Accrual
GLI,2/28/2018,12905,190600,GLI022818,GLI022818,29.03,Payroll Accrual
GLI,2/28/2018,12505,190600,GLI022818,GLI022818,101.21,Payroll Accrual
GLI,2/28/2018,124703,190600,GLI022818,GLI022818,1451.3,Payroll Accrual
GLI,2/28/2018,12905,188338,GLI022818,GLI022818,40.37,Payroll Accrual
GLI,2/28/2018,12505,188338,GLI022818,GLI022818,147.71,Payroll Accrual
GLI,2/28/2018,12305B,188338,GLI022818,GLI022818,2018.55,Payroll Accrual
GLI,2/28/2018,12904,187675,GLI022818,GLI022818,43.2,Payroll Accrual
GLI,2/28/2018,12504,187675,GLI022818,GLI022818,161.03,Payroll Accrual
GLI,2/28/2018,124704,187675,GLI022818,GLI022818,2160.01,Payroll Accrual
GLI,2/28/2018,12524,187632,GLI022818,GLI022818,3.99,Payroll Accrual
GLI,2/28/2018,124724,187632,GLI022818,GLI022818,52.08,Payroll Accrual
GLI,2/28/2018,12905,186210,GLI022818,GLI022818,24.5,Payroll Accrual
GLI,2/28/2018,12505,186210,GLI022818,GLI022818,124.97,Payroll Accrual
GLI,2/28/2018,124703,186210,GLI022818,GLI022818,1633.6,Payroll Accrual
GLI,2/28/2018,12906,186100,GLI022818,GLI022818,9,Payroll Accrual
GLI,2/28/2018,12905,186100,GLI022818,GLI022818,9,Payroll Accrual
GLI,2/28/2018,12904,186100,GLI022818,GLI022818,9,Payroll Accrual
GLI,2/28/2018,12902,186100,GLI022818,GLI022818,9,Payroll Accrual
GLI,2/28/2018,12901,186100,GLI022818,GLI022818,9,Payroll Accrual
GLI,2/28/2018,12506,186100,GLI022818,GLI022818,34.22,Payroll Accrual
GLI,2/28/2018,12505,186100,GLI022818,GLI022818,34.22,Payroll Accrual
GLI,2/28/2018,12504,186100,GLI022818,GLI022818,34.22,Payroll Accrual
GLI,2/28/2018,12502,186100,GLI022818,GLI022818,34.22,Payroll Accrual
GLI,2/28/2018,12501,186100,GLI022818,GLI022818,34.22,Payroll Accrual
GLI,2/28/2018,12106,186100,GLI022818,GLI022818,450,Payroll Accrual
GLI,2/28/2018,12105,186100,GLI022818,GLI022818,450,Payroll Accrual
GLI,2/28/2018,12104,186100,GLI022818,GLI022818,450,Payroll Accrual
GLI,2/28/2018,12102,186100,GLI022818,GLI022818,450,Payroll Accrual
GLI,2/28/2018,12101,186100,GLI022818,GLI022818,450,Payroll Accrual
GLI,2/28/2018,12906,185801,GLI022818,GLI022818,0.42,Payroll Accrual
GLI,2/28/2018,12506,185801,GLI022818,GLI022818,2.17,Payroll Accrual
GLI,2/28/2018,12306C,185801,GLI022818,GLI022818,28.32,Payroll Accrual
GLI,2/28/2018,12503,185624,GLI022818,GLI022818,4.56,Payroll Accrual
GLI,2/28/2018,124723,185624,GLI022818,GLI022818,59.64,Payroll Accrual
GLI,2/28/2018,12915,185600,GLI022818,GLI022818,9.24,Payroll Accrual
GLI,2/28/2018,12906,185600,GLI022818,GLI022818,6.3,Payroll Accrual
GLI,2/28/2018,12905,185600,GLI022818,GLI022818,6.3,Payroll Accrual
GLI,2/28/2018,12904,185600,GLI022818,GLI022818,6.72,Payroll Accrual
GLI,2/28/2018,12902,185600,GLI022818,GLI022818,6.72,Payroll Accrual
GLI,2/28/2018,12901,185600,GLI022818,GLI022818,6.72,Payroll Accrual
GLI,2/28/2018,12515,185600,GLI022818,GLI022818,34.41,Payroll Accrual
GLI,2/28/2018,12506,185600,GLI022818,GLI022818,23.47,Payroll Accrual
GLI,2/28/2018,12505,185600,GLI022818,GLI022818,23.47,Payroll Accrual
GLI,2/28/2018,12504,185600,GLI022818,GLI022818,25.03,Payroll Accrual
GLI,2/28/2018,12502,185600,GLI022818,GLI022818,25.03,Payroll Accrual
GLI,2/28/2018,12501,185600,GLI022818,GLI022818,25.03,Payroll Accrual
GLI,2/28/2018,12315,185600,GLI022818,GLI022818,462,Payroll Accrual
GLI,2/28/2018,12306,185600,GLI022818,GLI022818,315,Payroll Accrual
GLI,2/28/2018,12305,185600,GLI022818,GLI022818,315,Payroll Accrual
GLI,2/28/2018,12304,185600,GLI022818,GLI022818,336,Payroll Accrual
GLI,2/28/2018,12302,185600,GLI022818,GLI022818,336,Payroll Accrual
GLI,2/28/2018,12301,185600,GLI022818,GLI022818,336,Payroll Accrual
GLI,2/28/2018,12905,184920,GLI022818,GLI022818,42.25,Payroll Accrual
GLI,2/28/2018,12505,184920,GLI022818,GLI022818,213.75,Payroll Accrual
GLI,2/28/2018,124703,184920,GLI022818,GLI022818,2816.8,Payroll Accrual
GLI,2/28/2018,12924,184806,GLI022818,GLI022818,49.62,Payroll Accrual
GLI,2/28/2018,12524,184806,GLI022818,GLI022818,189.79,Payroll Accrual
GLI,2/28/2018,124724,184806,GLI022818,GLI022818,2481,Payroll Accrual
GLI,2/28/2018,12524,184620,GLI022818,GLI022818,80.73,Payroll Accrual
GLI,2/28/2018,124724,184620,GLI022818,GLI022818,1055.36,Payroll Accrual
GLI,2/28/2018,12905,184614,GLI022818,GLI022818,24,Payroll Accrual
GLI,2/28/2018,12505,184614,GLI022818,GLI022818,122.4,Payroll Accrual
GLI,2/28/2018,124703,184614,GLI022818,GLI022818,1599.92,Payroll Accrual
GLI,2/28/2018,12906,184610,GLI022818,GLI022818,45.59,Payroll Accrual
GLI,2/28/2018,12506,184610,GLI022818,GLI022818,168.97,Payroll Accrual
GLI,2/28/2018,12306B,184610,GLI022818,GLI022818,2279.25,Payroll Accrual
GLI,2/28/2018,12914,181520,GLI022818,GLI022818,4.99,Payroll Accrual
GLI,2/28/2018,12906,181520,GLI022818,GLI022818,1.77,Payroll Accrual
GLI,2/28/2018,12905,181520,GLI022818,GLI022818,0.84,Payroll Accrual
GLI,2/28/2018,12904,181520,GLI022818,GLI022818,4.31,Payroll Accrual
GLI,2/28/2018,12902,181520,GLI022818,GLI022818,3.86,Payroll Accrual
GLI,2/28/2018,12901,181520,GLI022818,GLI022818,3.86,Payroll Accrual
GLI,2/28/2018,12514,181520,GLI022818,GLI022818,6.37,Payroll Accrual
GLI,2/28/2018,12506,181520,GLI022818,GLI022818,-0.27,Payroll Accrual
GLI,2/28/2018,12505,181520,GLI022818,GLI022818,-0.44,Payroll Accrual
GLI,2/28/2018,12504,181520,GLI022818,GLI022818,3.76,Payroll Accrual
GLI,2/28/2018,12502,181520,GLI022818,GLI022818,2.02,Payroll Accrual
GLI,2/28/2018,12501,181520,GLI022818,GLI022818,2.02,Payroll Accrual
GLI,2/28/2018,12214,181520,GLI022818,GLI022818,249.68,Payroll Accrual
GLI,2/28/2018,12206C,181520,GLI022818,GLI022818,147.54,Payroll Accrual
GLI,2/28/2018,12205C,181520,GLI022818,GLI022818,136.19,Payroll Accrual
GLI,2/28/2018,12204C,181520,GLI022818,GLI022818,215.63,Payroll Accrual
GLI,2/28/2018,12202C,181520,GLI022818,GLI022818,192.94,Payroll Accrual
GLI,2/28/2018,12201C,181520,GLI022818,GLI022818,192.94,Payroll Accrual
GLI,2/28/2018,12904,18005,GLI022818,GLI022818,34.09,Payroll Accrual
GLI,2/28/2018,12504,18005,GLI022818,GLI022818,129.09,Payroll Accrual
GLI,2/28/2018,124704,18005,GLI022818,GLI022818,1704.56,Payroll Accrual
GLI,2/28/2018,12504,179780,GLI022818,GLI022818,-4.08,Payroll Accrual
GLI,2/28/2018,12906,179775,GLI022818,GLI022818,2.77,Payroll Accrual
GLI,2/28/2018,12506,179775,GLI022818,GLI022818,8.01,Payroll Accrual
GLI,2/28/2018,12306B,179775,GLI022818,GLI022818,138.27,Payroll Accrual
GLI,2/28/2018,12506,179693,GLI022818,GLI022818,12.61,Payroll Accrual
GLI,2/28/2018,12505,179693,GLI022818,GLI022818,12.61,Payroll Accrual
GLI,2/28/2018,12504,179693,GLI022818,GLI022818,12.61,Payroll Accrual
GLI,2/28/2018,12502,179693,GLI022818,GLI022818,12.61,Payroll Accrual
GLI,2/28/2018,12501,179693,GLI022818,GLI022818,12.61,Payroll Accrual
GLI,2/28/2018,12206B,179693,GLI022818,GLI022818,164.8,Payroll Accrual
GLI,2/28/2018,12205B,179693,GLI022818,GLI022818,164.8,Payroll Accrual
GLI,2/28/2018,12204B,179693,GLI022818,GLI022818,164.8,Payroll Accrual
GLI,2/28/2018,12202B,179693,GLI022818,GLI022818,164.8,Payroll Accrual
GLI,2/28/2018,12201B,179693,GLI022818,GLI022818,164.8,Payroll Accrual
GLI,2/28/2018,12504,178079,GLI022818,GLI022818,147.8,Payroll Accrual
GLI,2/28/2018,12304D,178079,GLI022818,GLI022818,2150.53,Payroll Accrual
GLI,2/28/2018,12904,178050,GLI022818,GLI022818,16.88,Payroll Accrual
GLI,2/28/2018,12504,178050,GLI022818,GLI022818,84.36,Payroll Accrual
GLI,2/28/2018,124704,178050,GLI022818,GLI022818,1125.44,Payroll Accrual
GLI,2/28/2018,12404,178050,GLI022818,GLI022818,135.76,Payroll Accrual
GLI,2/28/2018,12903,177950,GLI022818,GLI022818,19.45,Payroll Accrual
GLI,2/28/2018,12503,177950,GLI022818,GLI022818,99.17,Payroll Accrual
GLI,2/28/2018,124723,177950,GLI022818,GLI022818,1296.3,Payroll Accrual
GLI,2/28/2018,12516,176505,GLI022818,GLI022818,11.81,Payroll Accrual
GLI,2/28/2018,12316,176505,GLI022818,GLI022818,154.4,Payroll Accrual
GLI,2/28/2018,12524,176324,GLI022818,GLI022818,7.83,Payroll Accrual
GLI,2/28/2018,124724,176324,GLI022818,GLI022818,102.36,Payroll Accrual
GLI,2/28/2018,12906,172077,GLI022818,GLI022818,37.46,Payroll Accrual
GLI,2/28/2018,12506,172077,GLI022818,GLI022818,131,Payroll Accrual
GLI,2/28/2018,12306B,172077,GLI022818,GLI022818,1873.24,Payroll Accrual
GLI,2/28/2018,185600,171150,GLI022818,GLI022818,46.86,Payroll Accrual
GLI,2/28/2018,185501,171150,GLI022818,GLI022818,41,Payroll Accrual
GLI,2/28/2018,12902,171150,GLI022818,GLI022818,6.8,Payroll Accrual
GLI,2/28/2018,12901,171150,GLI022818,GLI022818,4.92,Payroll Accrual
GLI,2/28/2018,12502,171150,GLI022818,GLI022818,26,Payroll Accrual
GLI,2/28/2018,12501,171150,GLI022818,GLI022818,18.81,Payroll Accrual
GLI,2/28/2018,11102,171150,GLI022818,GLI022818,292.86,Payroll Accrual
GLI,2/28/2018,11101,171150,GLI022818,GLI022818,205,Payroll Accrual
GLI,2/28/2018,12905,171055,GLI022818,GLI022818,58.44,Payroll Accrual
GLI,2/28/2018,12505,171055,GLI022818,GLI022818,210.72,Payroll Accrual
GLI,2/28/2018,124703,171055,GLI022818,GLI022818,2921.92,Payroll Accrual
GLI,2/28/2018,12527,168942,GLI022818,GLI022818,3.06,Payroll Accrual
GLI,2/28/2018,12327,168942,GLI022818,GLI022818,40,Payroll Accrual
GLI,2/28/2018,12516,167906,GLI022818,GLI022818,91.73,Payroll Accrual
GLI,2/28/2018,12316,167906,GLI022818,GLI022818,1216.18,Payroll Accrual
GLI,2/28/2018,12914,167812,GLI022818,GLI022818,0.53,Payroll Accrual
GLI,2/28/2018,12906,167812,GLI022818,GLI022818,1.3,Payroll Accrual
GLI,2/28/2018,12905,167812,GLI022818,GLI022818,1.19,Payroll Accrual
GLI,2/28/2018,12904,167812,GLI022818,GLI022818,0.46,Payroll Accrual
GLI,2/28/2018,12902,167812,GLI022818,GLI022818,0.41,Payroll Accrual
GLI,2/28/2018,12901,167812,GLI022818,GLI022818,0.41,Payroll Accrual
GLI,2/28/2018,12514,167812,GLI022818,GLI022818,2.05,Payroll Accrual
GLI,2/28/2018,12506,167812,GLI022818,GLI022818,0.23,Payroll Accrual
GLI,2/28/2018,12505,167812,GLI022818,GLI022818,0.21,Payroll Accrual
GLI,2/28/2018,12504,167812,GLI022818,GLI022818,1.76,Payroll Accrual
GLI,2/28/2018,12502,167812,GLI022818,GLI022818,1.58,Payroll Accrual
GLI,2/28/2018,12501,167812,GLI022818,GLI022818,1.58,Payroll Accrual
GLI,2/28/2018,12214,167812,GLI022818,GLI022818,26.73,Payroll Accrual
GLI,2/28/2018,12206C,167812,GLI022818,GLI022818,15.8,Payroll Accrual
GLI,2/28/2018,12205C,167812,GLI022818,GLI022818,14.58,Payroll Accrual
GLI,2/28/2018,12204C,167812,GLI022818,GLI022818,23.09,Payroll Accrual
GLI,2/28/2018,12202C,167812,GLI022818,GLI022818,20.66,Payroll Accrual
GLI,2/28/2018,12201C,167812,GLI022818,GLI022818,20.66,Payroll Accrual
GLI,2/28/2018,12504,167580,GLI022818,GLI022818,123.9,Payroll Accrual
GLI,2/28/2018,124704,167580,GLI022818,GLI022818,1642.32,Payroll Accrual
GLI,2/28/2018,12504,165987,GLI022818,GLI022818,39.59,Payroll Accrual
GLI,2/28/2018,12304C,165987,GLI022818,GLI022818,517.56,Payroll Accrual
GLI,2/28/2018,12502,165400,GLI022818,GLI022818,28.47,Payroll Accrual
GLI,2/28/2018,12501,165400,GLI022818,GLI022818,28.47,Payroll Accrual
GLI,2/28/2018,12302,165400,GLI022818,GLI022818,451.1,Payroll Accrual
GLI,2/28/2018,12301,165400,GLI022818,GLI022818,451.1,Payroll Accrual
GLI,2/28/2018,12503,165378,GLI022818,GLI022818,74.77,Payroll Accrual
GLI,2/28/2018,124723,165378,GLI022818,GLI022818,977.34,Payroll Accrual
GLI,2/28/2018,12905,165357,GLI022818,GLI022818,36.93,Payroll Accrual
GLI,2/28/2018,12505,165357,GLI022818,GLI022818,184.84,Payroll Accrual
GLI,2/28/2018,12305B,165357,GLI022818,GLI022818,2461.6,Payroll Accrual
GLI,2/28/2018,12905,165275,GLI022818,GLI022818,19.39,Payroll Accrual
GLI,2/28/2018,12505,165275,GLI022818,GLI022818,70.07,Payroll Accrual
GLI,2/28/2018,124703,165275,GLI022818,GLI022818,969.35,Payroll Accrual
GLI,2/28/2018,12524,164920,GLI022818,GLI022818,38.48,Payroll Accrual
GLI,2/28/2018,124724,164920,GLI022818,GLI022818,503.1,Payroll Accrual
GLI,2/28/2018,12904,164015,GLI022818,GLI022818,42.91,Payroll Accrual
GLI,2/28/2018,12504,164015,GLI022818,GLI022818,163.04,Payroll Accrual
GLI,2/28/2018,124704,164015,GLI022818,GLI022818,2145.68,Payroll Accrual
GLI,2/28/2018,185600,163700,GLI022818,GLI022818,108.56,Payroll Accrual
GLI,2/28/2018,185501,163700,GLI022818,GLI022818,94.99,Payroll Accrual
GLI,2/28/2018,12902,163700,GLI022818,GLI022818,11.81,Payroll Accrual
GLI,2/28/2018,12901,163700,GLI022818,GLI022818,8.54,Payroll Accrual
GLI,2/28/2018,12502,163700,GLI022818,GLI022818,60.21,Payroll Accrual
GLI,2/28/2018,12501,163700,GLI022818,GLI022818,43.61,Payroll Accrual
GLI,2/28/2018,11102,163700,GLI022818,GLI022818,678.53,Payroll Accrual
GLI,2/28/2018,11101,163700,GLI022818,GLI022818,474.97,Payroll Accrual
GLI,2/28/2018,12912,163096,GLI022818,GLI022818,5.67,Payroll Accrual
GLI,2/28/2018,12902,163096,GLI022818,GLI022818,10.05,Payroll Accrual
GLI,2/28/2018,12901,163096,GLI022818,GLI022818,10.05,Payroll Accrual
GLI,2/28/2018,12512,163096,GLI022818,GLI022818,20.37,Payroll Accrual
GLI,2/28/2018,12502,163096,GLI022818,GLI022818,37.13,Payroll Accrual
GLI,2/28/2018,12501,163096,GLI022818,GLI022818,37.13,Payroll Accrual
GLI,2/28/2018,12212,163096,GLI022818,GLI022818,283.48,Payroll Accrual
GLI,2/28/2018,12202C,163096,GLI022818,GLI022818,502.53,Payroll Accrual
GLI,2/28/2018,12201C,163096,GLI022818,GLI022818,502.53,Payroll Accrual
GLI,2/28/2018,12906,16250,GLI022818,GLI022818,12.99,Payroll Accrual
GLI,2/28/2018,12506,16250,GLI022818,GLI022818,51.9,Payroll Accrual
GLI,2/28/2018,12306B,16250,GLI022818,GLI022818,865.9,Payroll Accrual
GLI,2/28/2018,12906,162428,GLI022818,GLI022818,26.85,Payroll Accrual
GLI,2/28/2018,12506,162428,GLI022818,GLI022818,133.8,Payroll Accrual
GLI,2/28/2018,12306B,162428,GLI022818,GLI022818,1789.92,Payroll Accrual
GLI,2/28/2018,185600,161351,GLI022818,GLI022818,119.46,Payroll Accrual
GLI,2/28/2018,185501,161351,GLI022818,GLI022818,104.53,Payroll Accrual
GLI,2/28/2018,12902,161351,GLI022818,GLI022818,12.99,Payroll Accrual
GLI,2/28/2018,12901,161351,GLI022818,GLI022818,9.41,Payroll Accrual
GLI,2/28/2018,12502,161351,GLI022818,GLI022818,50.11,Payroll Accrual
GLI,2/28/2018,12501,161351,GLI022818,GLI022818,31.84,Payroll Accrual
GLI,2/28/2018,11102,161351,GLI022818,GLI022818,746.64,Payroll Accrual
GLI,2/28/2018,11101,161351,GLI022818,GLI022818,522.65,Payroll Accrual
GLI,2/28/2018,12506,161205,GLI022818,GLI022818,49.9,Payroll Accrual
GLI,2/28/2018,12306C,161205,GLI022818,GLI022818,652.19,Payroll Accrual
GLI,2/28/2018,12503,161010,GLI022818,GLI022818,14.56,Payroll Accrual
GLI,2/28/2018,124723,161010,GLI022818,GLI022818,190.4,Payroll Accrual
GLI,2/28/2018,12905,160930,GLI022818,GLI022818,43.83,Payroll Accrual
GLI,2/28/2018,12505,160930,GLI022818,GLI022818,164.16,Payroll Accrual
GLI,2/28/2018,12305C,160930,GLI022818,GLI022818,2191.21,Payroll Accrual
GLI,2/28/2018,12503,159100,GLI022818,GLI022818,52.6,Payroll Accrual
GLI,2/28/2018,124723,159100,GLI022818,GLI022818,687.54,Payroll Accrual
GLI,2/28/2018,12906,1588879,GLI022818,GLI022818,7.7,Payroll Accrual
GLI,2/28/2018,12905,1588879,GLI022818,GLI022818,7.11,Payroll Accrual
GLI,2/28/2018,12514,1588879,GLI022818,GLI022818,16.08,Payroll Accrual
GLI,2/28/2018,12506,1588879,GLI022818,GLI022818,1.8,Payroll Accrual
GLI,2/28/2018,12505,1588879,GLI022818,GLI022818,1.66,Payroll Accrual
GLI,2/28/2018,12504,1588879,GLI022818,GLI022818,13.88,Payroll Accrual
GLI,2/28/2018,12502,1588879,GLI022818,GLI022818,12.42,Payroll Accrual
GLI,2/28/2018,12501,1588879,GLI022818,GLI022818,12.42,Payroll Accrual
GLI,2/28/2018,12214,1588879,GLI022818,GLI022818,210.12,Payroll Accrual
GLI,2/28/2018,12206C,1588879,GLI022818,GLI022818,124.16,Payroll Accrual
GLI,2/28/2018,12205C,1588879,GLI022818,GLI022818,114.61,Payroll Accrual
GLI,2/28/2018,12204C,1588879,GLI022818,GLI022818,181.47,Payroll Accrual
GLI,2/28/2018,12202C,1588879,GLI022818,GLI022818,162.36,Payroll Accrual
GLI,2/28/2018,12201C,1588879,GLI022818,GLI022818,162.36,Payroll Accrual
GLI,2/28/2018,12506,158820,GLI022818,GLI022818,8.07,Payroll Accrual
GLI,2/28/2018,12505,158820,GLI022818,GLI022818,8.07,Payroll Accrual
GLI,2/28/2018,12504,158820,GLI022818,GLI022818,8.07,Payroll Accrual
GLI,2/28/2018,12502,158820,GLI022818,GLI022818,8.07,Payroll Accrual
GLI,2/28/2018,12501,158820,GLI022818,GLI022818,8.07,Payroll Accrual
GLI,2/28/2018,12206B,158820,GLI022818,GLI022818,105.47,Payroll Accrual
GLI,2/28/2018,12205B,158820,GLI022818,GLI022818,105.47,Payroll Accrual
GLI,2/28/2018,12204B,158820,GLI022818,GLI022818,105.47,Payroll Accrual
GLI,2/28/2018,12202B,158820,GLI022818,GLI022818,105.47,Payroll Accrual
GLI,2/28/2018,12201B,158820,GLI022818,GLI022818,105.47,Payroll Accrual
GLI,2/28/2018,12527,158668,GLI022818,GLI022818,19.18,Payroll Accrual
GLI,2/28/2018,12327,158668,GLI022818,GLI022818,250.69,Payroll Accrual
GLI,2/28/2018,12914,157995,GLI022818,GLI022818,5.54,Payroll Accrual
GLI,2/28/2018,12906,157995,GLI022818,GLI022818,11.28,Payroll Accrual
GLI,2/28/2018,12905,157995,GLI022818,GLI022818,10.41,Payroll Accrual
GLI,2/28/2018,12904,157995,GLI022818,GLI022818,4.79,Payroll Accrual
GLI,2/28/2018,12902,157995,GLI022818,GLI022818,4.28,Payroll Accrual
GLI,2/28/2018,12901,157995,GLI022818,GLI022818,4.28,Payroll Accrual
GLI,2/28/2018,12514,157995,GLI022818,GLI022818,16.71,Payroll Accrual
GLI,2/28/2018,12506,157995,GLI022818,GLI022818,1.87,Payroll Accrual
GLI,2/28/2018,12505,157995,GLI022818,GLI022818,1.73,Payroll Accrual
GLI,2/28/2018,12504,157995,GLI022818,GLI022818,14.42,Payroll Accrual
GLI,2/28/2018,12502,157995,GLI022818,GLI022818,12.91,Payroll Accrual
GLI,2/28/2018,12501,157995,GLI022818,GLI022818,12.91,Payroll Accrual
GLI,2/28/2018,12214,157995,GLI022818,GLI022818,277.2,Payroll Accrual
GLI,2/28/2018,12206C,157995,GLI022818,GLI022818,163.8,Payroll Accrual
GLI,2/28/2018,12205C,157995,GLI022818,GLI022818,151.2,Payroll Accrual
GLI,2/28/2018,12204C,157995,GLI022818,GLI022818,239.4,Payroll Accrual
GLI,2/28/2018,12202C,157995,GLI022818,GLI022818,214.2,Payroll Accrual
GLI,2/28/2018,12201C,157995,GLI022818,GLI022818,214.2,Payroll Accrual
GLI,2/28/2018,12527,1577890,GLI022818,GLI022818,10.8,Payroll Accrual
GLI,2/28/2018,12327,1577890,GLI022818,GLI022818,141.2,Payroll Accrual
GLI,2/28/2018,12527,156988,GLI022818,GLI022818,20.91,Payroll Accrual
GLI,2/28/2018,12327,156988,GLI022818,GLI022818,273.4,Payroll Accrual
GLI,2/28/2018,12503,156887,GLI022818,GLI022818,23.11,Payroll Accrual
GLI,2/28/2018,124723,156887,GLI022818,GLI022818,302.16,Payroll Accrual
GLI,2/28/2018,12516,156874,GLI022818,GLI022818,137.7,Payroll Accrual
GLI,2/28/2018,12316,156874,GLI022818,GLI022818,1800.01,Payroll Accrual
GLI,2/28/2018,12516,156844,GLI022818,GLI022818,93.48,Payroll Accrual
GLI,2/28/2018,12316,156844,GLI022818,GLI022818,1300.84,Payroll Accrual
GLI,2/28/2018,185600,1566882,GLI022818,GLI022818,69.83,Payroll Accrual
GLI,2/28/2018,185501,1566882,GLI022818,GLI022818,61.1,Payroll Accrual
GLI,2/28/2018,12502,1566882,GLI022818,GLI022818,38.73,Payroll Accrual
GLI,2/28/2018,12501,1566882,GLI022818,GLI022818,28.05,Payroll Accrual
GLI,2/28/2018,11102,1566882,GLI022818,GLI022818,436.45,Payroll Accrual
GLI,2/28/2018,11101,1566882,GLI022818,GLI022818,305.52,Payroll Accrual
GLI,2/28/2018,12504,15668,GLI022818,GLI022818,59.99,Payroll Accrual
GLI,2/28/2018,12204A,15668,GLI022818,GLI022818,801.39,Payroll Accrual
GLI,2/28/2018,12504,15654,GLI022818,GLI022818,30.45,Payroll Accrual
GLI,2/28/2018,12304C,15654,GLI022818,GLI022818,398.04,Payroll Accrual
GLI,2/28/2018,12506,15646,GLI022818,GLI022818,57.07,Payroll Accrual
GLI,2/28/2018,12306C,15646,GLI022818,GLI022818,768.72,Payroll Accrual
GLI,2/28/2018,12506,155872,GLI022818,GLI022818,0.83,Payroll Accrual
GLI,2/28/2018,12505,155872,GLI022818,GLI022818,0.83,Payroll Accrual
GLI,2/28/2018,12504,155872,GLI022818,GLI022818,0.83,Payroll Accrual
GLI,2/28/2018,12502,155872,GLI022818,GLI022818,0.83,Payroll Accrual
GLI,2/28/2018,12501,155872,GLI022818,GLI022818,0.83,Payroll Accrual
GLI,2/28/2018,12206B,155872,GLI022818,GLI022818,10.74,Payroll Accrual
GLI,2/28/2018,12205B,155872,GLI022818,GLI022818,10.74,Payroll Accrual
GLI,2/28/2018,12204B,155872,GLI022818,GLI022818,10.74,Payroll Accrual
GLI,2/28/2018,12202B,155872,GLI022818,GLI022818,10.74,Payroll Accrual
GLI,2/28/2018,12201B,155872,GLI022818,GLI022818,10.74,Payroll Accrual
GLI,2/28/2018,185600,15552,GLI022818,GLI022818,185.52,Payroll Accrual
GLI,2/28/2018,185501,15552,GLI022818,GLI022818,162.33,Payroll Accrual
GLI,2/28/2018,12502,15552,GLI022818,GLI022818,102.89,Payroll Accrual
GLI,2/28/2018,12501,15552,GLI022818,GLI022818,74.5,Payroll Accrual
GLI,2/28/2018,11102,15552,GLI022818,GLI022818,1159.5,Payroll Accrual
GLI,2/28/2018,11101,15552,GLI022818,GLI022818,811.65,Payroll Accrual
GLI,2/28/2018,12503,155477,GLI022818,GLI022818,41.48,Payroll Accrual
GLI,2/28/2018,124723,155477,GLI022818,GLI022818,646.8,Payroll Accrual
GLI,2/28/2018,12527,154474,GLI022818,GLI022818,8.39,Payroll Accrual
GLI,2/28/2018,12327,154474,GLI022818,GLI022818,109.6,Payroll Accrual
GLI,2/28/2018,12904,152525,GLI022818,GLI022818,20.34,Payroll Accrual
GLI,2/28/2018,12504,152525,GLI022818,GLI022818,89.13,Payroll Accrual
GLI,2/28/2018,124704,152525,GLI022818,GLI022818,1356.24,Payroll Accrual
GLI,2/28/2018,12512,152512,GLI022818,GLI022818,5.28,Payroll Accrual
GLI,2/28/2018,12502,152512,GLI022818,GLI022818,9.35,Payroll Accrual
GLI,2/28/2018,12501,152512,GLI022818,GLI022818,9.35,Payroll Accrual
GLI,2/28/2018,12212,152512,GLI022818,GLI022818,68.99,Payroll Accrual
GLI,2/28/2018,12202C,152512,GLI022818,GLI022818,122.3,Payroll Accrual
GLI,2/28/2018,12201C,152512,GLI022818,GLI022818,122.3,Payroll Accrual
GLI,2/28/2018,12927,152510,GLI022818,GLI022818,13.07,Payroll Accrual
GLI,2/28/2018,12527,152510,GLI022818,GLI022818,62.09,Payroll Accrual
GLI,2/28/2018,12327,152510,GLI022818,GLI022818,871.22,Payroll Accrual
GLI,2/28/2018,12503,152499,GLI022818,GLI022818,73.66,Payroll Accrual
GLI,2/28/2018,12303,152499,GLI022818,GLI022818,962.95,Payroll Accrual
GLI,2/28/2018,12924,152495,GLI022818,GLI022818,16.42,Payroll Accrual
GLI,2/28/2018,12524,152495,GLI022818,GLI022818,83.75,Payroll Accrual
GLI,2/28/2018,124724,152495,GLI022818,GLI022818,1094.8,Payroll Accrual
GLI,2/28/2018,12903,152432,GLI022818,GLI022818,16.67,Payroll Accrual
GLI,2/28/2018,12503,152432,GLI022818,GLI022818,85.04,Payroll Accrual
GLI,2/28/2018,12303,152432,GLI022818,GLI022818,1111.57,Payroll Accrual
GLI,2/28/2018,12904,152410,GLI022818,GLI022818,41.85,Payroll Accrual
GLI,2/28/2018,12504,152410,GLI022818,GLI022818,159.33,Payroll Accrual
GLI,2/28/2018,124704,152410,GLI022818,GLI022818,2092.32,Payroll Accrual
GLI,2/28/2018,12904,152235,GLI022818,GLI022818,88.29,Payroll Accrual
GLI,2/28/2018,12504,152235,GLI022818,GLI022818,337.72,Payroll Accrual
GLI,2/28/2018,124704,152235,GLI022818,GLI022818,4414.64,Payroll Accrual
GLI,2/28/2018,12404,152235,GLI022818,GLI022818,340,Payroll Accrual
GLI,2/28/2018,12904,151410,GLI022818,GLI022818,13.73,Payroll Accrual
GLI,2/28/2018,12504,151410,GLI022818,GLI022818,64.22,Payroll Accrual
GLI,2/28/2018,12204C,151410,GLI022818,GLI022818,915.62,Payroll Accrual
GLI,2/28/2018,12503,151203,GLI022818,GLI022818,22.21,Payroll Accrual
GLI,2/28/2018,124723,151203,GLI022818,GLI022818,290.4,Payroll Accrual
GLI,2/28/2018,12904,150126,GLI022818,GLI022818,40.57,Payroll Accrual
GLI,2/28/2018,12504,150126,GLI022818,GLI022818,206.93,Payroll Accrual
GLI,2/28/2018,124704,150126,GLI022818,GLI022818,2704.96,Payroll Accrual
GLI,2/28/2018,12905,150105,GLI022818,GLI022818,39.02,Payroll Accrual
GLI,2/28/2018,12505,150105,GLI022818,GLI022818,196.64,Payroll Accrual
GLI,2/28/2018,124703,150105,GLI022818,GLI022818,2601.36,Payroll Accrual
GLI,2/28/2018,12904,149878,GLI022818,GLI022818,12.43,Payroll Accrual
GLI,2/28/2018,12504,149878,GLI022818,GLI022818,82.41,Payroll Accrual
GLI,2/28/2018,12304D,149878,GLI022818,GLI022818,1243.81,Payroll Accrual
GLI,2/28/2018,12916,148275,GLI022818,GLI022818,28.49,Payroll Accrual
GLI,2/28/2018,12516,148275,GLI022818,GLI022818,108.99,Payroll Accrual
GLI,2/28/2018,12316,148275,GLI022818,GLI022818,1424.67,Payroll Accrual
GLI,2/28/2018,185600,148080,GLI022818,GLI022818,116.2,Payroll Accrual
GLI,2/28/2018,185501,148080,GLI022818,GLI022818,101.68,Payroll Accrual
GLI,2/28/2018,12902,148080,GLI022818,GLI022818,12.63,Payroll Accrual
GLI,2/28/2018,12901,148080,GLI022818,GLI022818,9.16,Payroll Accrual
GLI,2/28/2018,12502,148080,GLI022818,GLI022818,64.44,Payroll Accrual
GLI,2/28/2018,12501,148080,GLI022818,GLI022818,46.66,Payroll Accrual
GLI,2/28/2018,11102,148080,GLI022818,GLI022818,726.28,Payroll Accrual
GLI,2/28/2018,11101,148080,GLI022818,GLI022818,508.4,Payroll Accrual
GLI,2/28/2018,185600,147741,GLI022818,GLI022818,106.98,Payroll Accrual
GLI,2/28/2018,185501,147741,GLI022818,GLI022818,93.61,Payroll Accrual
GLI,2/28/2018,12502,147741,GLI022818,GLI022818,59.34,Payroll Accrual
GLI,2/28/2018,12501,147741,GLI022818,GLI022818,42.97,Payroll Accrual
GLI,2/28/2018,11102,147741,GLI022818,GLI022818,668.64,Payroll Accrual
GLI,2/28/2018,11101,147741,GLI022818,GLI022818,468.05,Payroll Accrual
GLI,2/28/2018,12902,146480,GLI022818,GLI022818,9.31,Payroll Accrual
GLI,2/28/2018,12901,146480,GLI022818,GLI022818,9.31,Payroll Accrual
GLI,2/28/2018,12502,146480,GLI022818,GLI022818,35.61,Payroll Accrual
GLI,2/28/2018,12501,146480,GLI022818,GLI022818,35.61,Payroll Accrual
GLI,2/28/2018,12302,146480,GLI022818,GLI022818,465.55,Payroll Accrual
GLI,2/28/2018,12301,146480,GLI022818,GLI022818,465.55,Payroll Accrual
GLI,2/28/2018,12901,146450,GLI022818,GLI022818,43.2,Payroll Accrual
GLI,2/28/2018,12501,146450,GLI022818,GLI022818,160.01,Payroll Accrual
GLI,2/28/2018,12301B,146450,GLI022818,GLI022818,2160.01,Payroll Accrual
GLI,2/28/2018,185600,145840,GLI022818,GLI022818,391.68,Payroll Accrual
GLI,2/28/2018,185501,145840,GLI022818,GLI022818,342.72,Payroll Accrual
GLI,2/28/2018,12902,145840,GLI022818,GLI022818,56.79,Payroll Accrual
GLI,2/28/2018,12901,145840,GLI022818,GLI022818,41.12,Payroll Accrual
GLI,2/28/2018,12502,145840,GLI022818,GLI022818,217.24,Payroll Accrual
GLI,2/28/2018,12501,145840,GLI022818,GLI022818,157.31,Payroll Accrual
GLI,2/28/2018,11102,145840,GLI022818,GLI022818,2448.03,Payroll Accrual
GLI,2/28/2018,11101,145840,GLI022818,GLI022818,1713.62,Payroll Accrual
GLI,2/28/2018,12904,145801,GLI022818,GLI022818,33.55,Payroll Accrual
GLI,2/28/2018,12504,145801,GLI022818,GLI022818,166.4,Payroll Accrual
GLI,2/28/2018,124704,145801,GLI022818,GLI022818,2236.96,Payroll Accrual
GLI,2/28/2018,12505,145789,GLI022818,GLI022818,196.94,Payroll Accrual
GLI,2/28/2018,124703,145789,GLI022818,GLI022818,2574.4,Payroll Accrual
GLI,2/28/2018,12503,144788,GLI022818,GLI022818,76.52,Payroll Accrual
GLI,2/28/2018,12303,144788,GLI022818,GLI022818,1000.3,Payroll Accrual
GLI,2/28/2018,12503,143895,GLI022818,GLI022818,63.11,Payroll Accrual
GLI,2/28/2018,124723,143895,GLI022818,GLI022818,825,Payroll Accrual
GLI,2/28/2018,12905,141069,GLI022818,GLI022818,36.06,Payroll Accrual
GLI,2/28/2018,12505,141069,GLI022818,GLI022818,136.64,Payroll Accrual
GLI,2/28/2018,12305B,141069,GLI022818,GLI022818,1803.2,Payroll Accrual
GLI,2/28/2018,12504,141060,GLI022818,GLI022818,128.54,Payroll Accrual
GLI,2/28/2018,12304B,141060,GLI022818,GLI022818,1702.96,Payroll Accrual
GLI,2/28/2018,12904,140790,GLI022818,GLI022818,21.6,Payroll Accrual
GLI,2/28/2018,12903,140790,GLI022818,GLI022818,21.6,Payroll Accrual
GLI,2/28/2018,12504,140790,GLI022818,GLI022818,81.6,Payroll Accrual
GLI,2/28/2018,12503,140790,GLI022818,GLI022818,81.6,Payroll Accrual
GLI,2/28/2018,12104,140790,GLI022818,GLI022818,1080,Payroll Accrual
GLI,2/28/2018,12103,140790,GLI022818,GLI022818,1080,Payroll Accrual
GLI,2/28/2018,12503,138385,GLI022818,GLI022818,5.29,Payroll Accrual
GLI,2/28/2018,124723,138385,GLI022818,GLI022818,69.16,Payroll Accrual
GLI,2/28/2018,12916,138380,GLI022818,GLI022818,15.08,Payroll Accrual
GLI,2/28/2018,12516,138380,GLI022818,GLI022818,44.65,Payroll Accrual
GLI,2/28/2018,12316,138380,GLI022818,GLI022818,754.04,Payroll Accrual
GLI,2/28/2018,12504,13725,GLI022818,GLI022818,264.53,Payroll Accrual
GLI,2/28/2018,124704,13725,GLI022818,GLI022818,3928.88,Payroll Accrual
GLI,2/28/2018,12905,137101,GLI022818,GLI022818,20.31,Payroll Accrual
GLI,2/28/2018,12505,137101,GLI022818,GLI022818,103.57,Payroll Accrual
GLI,2/28/2018,124703,137101,GLI022818,GLI022818,1353.94,Payroll Accrual
GLI,2/28/2018,12904,136170,GLI022818,GLI022818,16.28,Payroll Accrual
GLI,2/28/2018,12504,136170,GLI022818,GLI022818,120.77,Payroll Accrual
GLI,2/28/2018,124704,136170,GLI022818,GLI022818,1628.28,Payroll Accrual
GLI,2/28/2018,12503,135987,GLI022818,GLI022818,15.18,Payroll Accrual
GLI,2/28/2018,124723,135987,GLI022818,GLI022818,198.36,Payroll Accrual
GLI,2/28/2018,12505,135770,GLI022818,GLI022818,197.89,Payroll Accrual
GLI,2/28/2018,124703,135770,GLI022818,GLI022818,2586.72,Payroll Accrual
GLI,2/28/2018,12506,132987,GLI022818,GLI022818,11.51,Payroll Accrual
GLI,2/28/2018,12505,132987,GLI022818,GLI022818,11.51,Payroll Accrual
GLI,2/28/2018,12504,132987,GLI022818,GLI022818,11.51,Payroll Accrual
GLI,2/28/2018,12502,132987,GLI022818,GLI022818,11.51,Payroll Accrual
GLI,2/28/2018,12501,132987,GLI022818,GLI022818,11.51,Payroll Accrual
GLI,2/28/2018,12206B,132987,GLI022818,GLI022818,173.2,Payroll Accrual
GLI,2/28/2018,12205B,132987,GLI022818,GLI022818,173.2,Payroll Accrual
GLI,2/28/2018,12204B,132987,GLI022818,GLI022818,173.2,Payroll Accrual
GLI,2/28/2018,12202B,132987,GLI022818,GLI022818,173.2,Payroll Accrual
GLI,2/28/2018,12201B,132987,GLI022818,GLI022818,173.2,Payroll Accrual
GLI,2/28/2018,12915,132500,GLI022818,GLI022818,8.71,Payroll Accrual
GLI,2/28/2018,12906,132500,GLI022818,GLI022818,5.94,Payroll Accrual
GLI,2/28/2018,12905,132500,GLI022818,GLI022818,5.94,Payroll Accrual
GLI,2/28/2018,12904,132500,GLI022818,GLI022818,6.34,Payroll Accrual
GLI,2/28/2018,12902,132500,GLI022818,GLI022818,6.34,Payroll Accrual
GLI,2/28/2018,12901,132500,GLI022818,GLI022818,6.34,Payroll Accrual
GLI,2/28/2018,12515,132500,GLI022818,GLI022818,32.87,Payroll Accrual
GLI,2/28/2018,12506,132500,GLI022818,GLI022818,22.42,Payroll Accrual
GLI,2/28/2018,12505,132500,GLI022818,GLI022818,22.42,Payroll Accrual
GLI,2/28/2018,12504,132500,GLI022818,GLI022818,23.91,Payroll Accrual
GLI,2/28/2018,12502,132500,GLI022818,GLI022818,23.91,Payroll Accrual
GLI,2/28/2018,12501,132500,GLI022818,GLI022818,23.91,Payroll Accrual
GLI,2/28/2018,12315,132500,GLI022818,GLI022818,435.6,Payroll Accrual
GLI,2/28/2018,12306,132500,GLI022818,GLI022818,297,Payroll Accrual
GLI,2/28/2018,12305,132500,GLI022818,GLI022818,297,Payroll Accrual
GLI,2/28/2018,12304,132500,GLI022818,GLI022818,316.8,Payroll Accrual
GLI,2/28/2018,12302,132500,GLI022818,GLI022818,316.8,Payroll Accrual
GLI,2/28/2018,12301,132500,GLI022818,GLI022818,316.8,Payroll Accrual
GLI,2/28/2018,12904,131370,GLI022818,GLI022818,34.73,Payroll Accrual
GLI,2/28/2018,12504,131370,GLI022818,GLI022818,132.83,Payroll Accrual
GLI,2/28/2018,124704,131370,GLI022818,GLI022818,1736.32,Payroll Accrual
GLI,2/28/2018,12924,131315,GLI022818,GLI022818,37.04,Payroll Accrual
GLI,2/28/2018,12524,131315,GLI022818,GLI022818,141.27,Payroll Accrual
GLI,2/28/2018,124724,131315,GLI022818,GLI022818,1852.2,Payroll Accrual
GLI,2/28/2018,185600,128530,GLI022818,GLI022818,347.32,Payroll Accrual
GLI,2/28/2018,185501,128530,GLI022818,GLI022818,303.9,Payroll Accrual
GLI,2/28/2018,12902,128530,GLI022818,GLI022818,50.36,Payroll Accrual
GLI,2/28/2018,12901,128530,GLI022818,GLI022818,36.47,Payroll Accrual
GLI,2/28/2018,12502,128530,GLI022818,GLI022818,192.63,Payroll Accrual
GLI,2/28/2018,12501,128530,GLI022818,GLI022818,139.49,Payroll Accrual
GLI,2/28/2018,11102,128530,GLI022818,GLI022818,2170.73,Payroll Accrual
GLI,2/28/2018,11101,128530,GLI022818,GLI022818,1519.51,Payroll Accrual
GLI,2/28/2018,12904,12800,GLI022818,GLI022818,18.51,Payroll Accrual
GLI,2/28/2018,12504,12800,GLI022818,GLI022818,88.53,Payroll Accrual
GLI,2/28/2018,12304D,12800,GLI022818,GLI022818,1233.52,Payroll Accrual
GLI,2/28/2018,12903,12725,GLI022818,GLI022818,7.35,Payroll Accrual
GLI,2/28/2018,12503,12725,GLI022818,GLI022818,37.49,Payroll Accrual
GLI,2/28/2018,124723,12725,GLI022818,GLI022818,490,Payroll Accrual
GLI,2/28/2018,12504,126887,GLI022818,GLI022818,110.16,Payroll Accrual
GLI,2/28/2018,12304B,126887,GLI022818,GLI022818,1440,Payroll Accrual
GLI,2/28/2018,12527,1265688,GLI022818,GLI022818,11.59,Payroll Accrual
GLI,2/28/2018,12327,1265688,GLI022818,GLI022818,151.5,Payroll Accrual
GLI,2/28/2018,12902,126200,GLI022818,GLI022818,12.15,Payroll Accrual
GLI,2/28/2018,12901,126200,GLI022818,GLI022818,12.15,Payroll Accrual
GLI,2/28/2018,12502,126200,GLI022818,GLI022818,61.97,Payroll Accrual
GLI,2/28/2018,12501,126200,GLI022818,GLI022818,61.97,Payroll Accrual
GLI,2/28/2018,12202A,126200,GLI022818,GLI022818,810,Payroll Accrual
GLI,2/28/2018,12201A,126200,GLI022818,GLI022818,810,Payroll Accrual
GLI,2/28/2018,12505,125888,GLI022818,GLI022818,9.72,Payroll Accrual
GLI,2/28/2018,12504,125888,GLI022818,GLI022818,9.72,Payroll Accrual
GLI,2/28/2018,12502,125888,GLI022818,GLI022818,9.72,Payroll Accrual
GLI,2/28/2018,12501,125888,GLI022818,GLI022818,9.72,Payroll Accrual
GLI,2/28/2018,12305F,125888,GLI022818,GLI022818,127.17,Payroll Accrual
GLI,2/28/2018,12304F,125888,GLI022818,GLI022818,127.17,Payroll Accrual
GLI,2/28/2018,12302F,125888,GLI022818,GLI022818,127.17,Payroll Accrual
GLI,2/28/2018,12301F,125888,GLI022818,GLI022818,127.17,Payroll Accrual
GLI,2/28/2018,12906,125774,GLI022818,GLI022818,8.29,Payroll Accrual
GLI,2/28/2018,12905,125774,GLI022818,GLI022818,7.65,Payroll Accrual
GLI,2/28/2018,12514,125774,GLI022818,GLI022818,17.3,Payroll Accrual
GLI,2/28/2018,12506,125774,GLI022818,GLI022818,1.94,Payroll Accrual
GLI,2/28/2018,12505,125774,GLI022818,GLI022818,1.79,Payroll Accrual
GLI,2/28/2018,12504,125774,GLI022818,GLI022818,14.94,Payroll Accrual
GLI,2/28/2018,12502,125774,GLI022818,GLI022818,13.37,Payroll Accrual
GLI,2/28/2018,12501,125774,GLI022818,GLI022818,13.37,Payroll Accrual
GLI,2/28/2018,12214,125774,GLI022818,GLI022818,226.2,Payroll Accrual
GLI,2/28/2018,12206C,125774,GLI022818,GLI022818,133.66,Payroll Accrual
GLI,2/28/2018,12205C,125774,GLI022818,GLI022818,123.38,Payroll Accrual
GLI,2/28/2018,12204C,125774,GLI022818,GLI022818,195.35,Payroll Accrual
GLI,2/28/2018,12202C,125774,GLI022818,GLI022818,174.79,Payroll Accrual
GLI,2/28/2018,12201C,125774,GLI022818,GLI022818,174.79,Payroll Accrual
GLI,2/28/2018,12505,125689,GLI022818,GLI022818,15.44,Payroll Accrual
GLI,2/28/2018,12504,125689,GLI022818,GLI022818,15.44,Payroll Accrual
GLI,2/28/2018,12502,125689,GLI022818,GLI022818,15.44,Payroll Accrual
GLI,2/28/2018,12501,125689,GLI022818,GLI022818,15.44,Payroll Accrual
GLI,2/28/2018,12305F,125689,GLI022818,GLI022818,201.83,Payroll Accrual
GLI,2/28/2018,12304F,125689,GLI022818,GLI022818,201.83,Payroll Accrual
GLI,2/28/2018,12302F,125689,GLI022818,GLI022818,201.83,Payroll Accrual
GLI,2/28/2018,12301F,125689,GLI022818,GLI022818,201.83,Payroll Accrual
GLI,2/28/2018,12527,12555,GLI022818,GLI022818,11.47,Payroll Accrual
GLI,2/28/2018,12327,12555,GLI022818,GLI022818,150,Payroll Accrual
GLI,2/28/2018,12506,12544,GLI022818,GLI022818,9.37,Payroll Accrual
GLI,2/28/2018,12505,12544,GLI022818,GLI022818,9.37,Payroll Accrual
GLI,2/28/2018,12504,12544,GLI022818,GLI022818,9.37,Payroll Accrual
GLI,2/28/2018,12502,12544,GLI022818,GLI022818,9.37,Payroll Accrual
GLI,2/28/2018,12501,12544,GLI022818,GLI022818,9.37,Payroll Accrual
GLI,2/28/2018,12206B,12544,GLI022818,GLI022818,145.16,Payroll Accrual
GLI,2/28/2018,12205B,12544,GLI022818,GLI022818,145.16,Payroll Accrual
GLI,2/28/2018,12204B,12544,GLI022818,GLI022818,145.16,Payroll Accrual
GLI,2/28/2018,12202B,12544,GLI022818,GLI022818,145.16,Payroll Accrual
GLI,2/28/2018,12201B,12544,GLI022818,GLI022818,145.16,Payroll Accrual
GLI,2/28/2018,12503,125028,GLI022818,GLI022818,79.93,Payroll Accrual
GLI,2/28/2018,124723,125028,GLI022818,GLI022818,1044.82,Payroll Accrual
GLI,2/28/2018,12503,12447,GLI022818,GLI022818,69.44,Payroll Accrual
GLI,2/28/2018,124723,12447,GLI022818,GLI022818,907.74,Payroll Accrual
GLI,2/28/2018,12504,1244452,GLI022818,GLI022818,82.56,Payroll Accrual
GLI,2/28/2018,12304D,1244452,GLI022818,GLI022818,1079.31,Payroll Accrual
GLI,2/28/2018,12903,124360,GLI022818,GLI022818,14.35,Payroll Accrual
GLI,2/28/2018,12503,124360,GLI022818,GLI022818,57.43,Payroll Accrual
GLI,2/28/2018,12303,124360,GLI022818,GLI022818,956.16,Payroll Accrual
GLI,2/28/2018,12924,124101,GLI022818,GLI022818,13.73,Payroll Accrual
GLI,2/28/2018,12524,124101,GLI022818,GLI022818,70.01,Payroll Accrual
GLI,2/28/2018,12224,124101,GLI022818,GLI022818,915.24,Payroll Accrual
GLI,2/28/2018,12527,123564,GLI022818,GLI022818,11.69,Payroll Accrual
GLI,2/28/2018,12327,123564,GLI022818,GLI022818,152.8,Payroll Accrual
GLI,2/28/2018,12904,123525,GLI022818,GLI022818,2.74,Payroll Accrual
GLI,2/28/2018,12504,123525,GLI022818,GLI022818,10.48,Payroll Accrual
GLI,2/28/2018,12304B,123525,GLI022818,GLI022818,136.95,Payroll Accrual
GLI,2/28/2018,12906,123100,GLI022818,GLI022818,15.66,Payroll Accrual
GLI,2/28/2018,12905,123100,GLI022818,GLI022818,15.66,Payroll Accrual
GLI,2/28/2018,12904,123100,GLI022818,GLI022818,15.66,Payroll Accrual
GLI,2/28/2018,12902,123100,GLI022818,GLI022818,15.66,Payroll Accrual
GLI,2/28/2018,12901,123100,GLI022818,GLI022818,15.66,Payroll Accrual
GLI,2/28/2018,12506,123100,GLI022818,GLI022818,77.77,Payroll Accrual
GLI,2/28/2018,12505,123100,GLI022818,GLI022818,77.77,Payroll Accrual
GLI,2/28/2018,12504,123100,GLI022818,GLI022818,77.77,Payroll Accrual
GLI,2/28/2018,12502,123100,GLI022818,GLI022818,77.77,Payroll Accrual
GLI,2/28/2018,12501,123100,GLI022818,GLI022818,77.77,Payroll Accrual
GLI,2/28/2018,12106,123100,GLI022818,GLI022818,1044,Payroll Accrual
GLI,2/28/2018,12105,123100,GLI022818,GLI022818,1044,Payroll Accrual
GLI,2/28/2018,12104,123100,GLI022818,GLI022818,1044,Payroll Accrual
GLI,2/28/2018,12102,123100,GLI022818,GLI022818,1044,Payroll Accrual
GLI,2/28/2018,12101,123100,GLI022818,GLI022818,1044,Payroll Accrual
GLI,2/28/2018,12505,122558,GLI022818,GLI022818,9.43,Payroll Accrual
GLI,2/28/2018,124703,122558,GLI022818,GLI022818,123.3,Payroll Accrual
GLI,2/28/2018,12524,122369,GLI022818,GLI022818,60.87,Payroll Accrual
GLI,2/28/2018,124724,122369,GLI022818,GLI022818,795.6,Payroll Accrual
GLI,2/28/2018,12511,12236,GLI022818,GLI022818,26.63,Payroll Accrual
GLI,2/28/2018,12506,12236,GLI022818,GLI022818,19.37,Payroll Accrual
GLI,2/28/2018,12505,12236,GLI022818,GLI022818,19.37,Payroll Accrual
GLI,2/28/2018,12504,12236,GLI022818,GLI022818,19.37,Payroll Accrual
GLI,2/28/2018,12502,12236,GLI022818,GLI022818,18.16,Payroll Accrual
GLI,2/28/2018,12501,12236,GLI022818,GLI022818,18.16,Payroll Accrual
GLI,2/28/2018,12311,12236,GLI022818,GLI022818,396,Payroll Accrual
GLI,2/28/2018,12306H,12236,GLI022818,GLI022818,288,Payroll Accrual
GLI,2/28/2018,12305H,12236,GLI022818,GLI022818,288,Payroll Accrual
GLI,2/28/2018,12304H,12236,GLI022818,GLI022818,288,Payroll Accrual
GLI,2/28/2018,12302H,12236,GLI022818,GLI022818,270,Payroll Accrual
GLI,2/28/2018,12301H,12236,GLI022818,GLI022818,270,Payroll Accrual
GLI,2/28/2018,12506,122332,GLI022818,GLI022818,64.12,Payroll Accrual
GLI,2/28/2018,12306C,122332,GLI022818,GLI022818,860.86,Payroll Accrual
GLI,2/28/2018,12904,121362,GLI022818,GLI022818,45.78,Payroll Accrual
GLI,2/28/2018,12504,121362,GLI022818,GLI022818,170.17,Payroll Accrual
GLI,2/28/2018,12304B,121362,GLI022818,GLI022818,2289.07,Payroll Accrual
GLI,2/28/2018,185600,1212688,GLI022818,GLI022818,8.64,Payroll Accrual
GLI,2/28/2018,185501,1212688,GLI022818,GLI022818,7.56,Payroll Accrual
GLI,2/28/2018,12502,1212688,GLI022818,GLI022818,4.8,Payroll Accrual
GLI,2/28/2018,12501,1212688,GLI022818,GLI022818,3.47,Payroll Accrual
GLI,2/28/2018,11102,1212688,GLI022818,GLI022818,54.02,Payroll Accrual
GLI,2/28/2018,11101,1212688,GLI022818,GLI022818,37.81,Payroll Accrual
GLI,2/28/2018,12504,118746,GLI022818,GLI022818,72.42,Payroll Accrual
GLI,2/28/2018,12304C,118746,GLI022818,GLI022818,946.68,Payroll Accrual
GLI,2/28/2018,12503,118520,GLI022818,GLI022818,73.39,Payroll Accrual
GLI,2/28/2018,124723,118520,GLI022818,GLI022818,847.42,Payroll Accrual
GLI,2/28/2018,12403,118520,GLI022818,GLI022818,112,Payroll Accrual
GLI,2/28/2018,12901,118030,GLI022818,GLI022818,32.4,Payroll Accrual
GLI,2/28/2018,12501,118030,GLI022818,GLI022818,123.93,Payroll Accrual
GLI,2/28/2018,12301B,118030,GLI022818,GLI022818,1620.01,Payroll Accrual
GLI,2/28/2018,12906,118010,GLI022818,GLI022818,20.05,Payroll Accrual
GLI,2/28/2018,12506,118010,GLI022818,GLI022818,96.43,Payroll Accrual
GLI,2/28/2018,12306B,118010,GLI022818,GLI022818,1336.58,Payroll Accrual
GLI,2/28/2018,12905,11732,GLI022818,GLI022818,22.02,Payroll Accrual
GLI,2/28/2018,12505,11732,GLI022818,GLI022818,81.82,Payroll Accrual
GLI,2/28/2018,12405,11732,GLI022818,GLI022818,136,Payroll Accrual
GLI,2/28/2018,12205A,11732,GLI022818,GLI022818,965.09,Payroll Accrual
GLI,2/28/2018,12502,117205,GLI022818,GLI022818,33.64,Payroll Accrual
GLI,2/28/2018,12501,117205,GLI022818,GLI022818,33.64,Payroll Accrual
GLI,2/28/2018,12302,117205,GLI022818,GLI022818,439.74,Payroll Accrual
GLI,2/28/2018,12301,117205,GLI022818,GLI022818,439.74,Payroll Accrual
GLI,2/28/2018,12905,11660,GLI022818,GLI022818,43.79,Payroll Accrual
GLI,2/28/2018,12505,11660,GLI022818,GLI022818,165.76,Payroll Accrual
GLI,2/28/2018,124703,11660,GLI022818,GLI022818,2189.44,Payroll Accrual
GLI,2/28/2018,12904,116185,GLI022818,GLI022818,32.11,Payroll Accrual
GLI,2/28/2018,12504,116185,GLI022818,GLI022818,122.83,Payroll Accrual
GLI,2/28/2018,12304C,116185,GLI022818,GLI022818,1605.68,Payroll Accrual
GLI,2/28/2018,12504,115896,GLI022818,GLI022818,42.95,Payroll Accrual
GLI,2/28/2018,12304C,115896,GLI022818,GLI022818,640.4,Payroll Accrual
GLI,2/28/2018,12506,1158850,GLI022818,GLI022818,15.87,Payroll Accrual
GLI,2/28/2018,12306C,1158850,GLI022818,GLI022818,207.48,Payroll Accrual
GLI,2/28/2018,12527,115676,GLI022818,GLI022818,39.68,Payroll Accrual
GLI,2/28/2018,12327,115676,GLI022818,GLI022818,518.64,Payroll Accrual
GLI,2/28/2018,12527,115355,GLI022818,GLI022818,9.21,Payroll Accrual
GLI,2/28/2018,12327,115355,GLI022818,GLI022818,120.4,Payroll Accrual
GLI,2/28/2018,12906,115255,GLI022818,GLI022818,39,Payroll Accrual
GLI,2/28/2018,12506,115255,GLI022818,GLI022818,149.18,Payroll Accrual
GLI,2/28/2018,12306B,115255,GLI022818,GLI022818,1950,Payroll Accrual
GLI,2/28/2018,185600,1151450,GLI022818,GLI022818,85.38,Payroll Accrual
GLI,2/28/2018,185501,1151450,GLI022818,GLI022818,74.71,Payroll Accrual
GLI,2/28/2018,12902,1151450,GLI022818,GLI022818,9.28,Payroll Accrual
GLI,2/28/2018,12901,1151450,GLI022818,GLI022818,6.72,Payroll Accrual
GLI,2/28/2018,12502,1151450,GLI022818,GLI022818,39.17,Payroll Accrual
GLI,2/28/2018,12501,1151450,GLI022818,GLI022818,26.12,Payroll Accrual
GLI,2/28/2018,11102,1151450,GLI022818,GLI022818,533.61,Payroll Accrual
GLI,2/28/2018,11101,1151450,GLI022818,GLI022818,373.53,Payroll Accrual
GLI,2/28/2018,12904,1150920,GLI022818,GLI022818,20.34,Payroll Accrual
GLI,2/28/2018,12504,1150920,GLI022818,GLI022818,99.57,Payroll Accrual
GLI,2/28/2018,124704,1150920,GLI022818,GLI022818,1355.68,Payroll Accrual
GLI,2/28/2018,12404,1150920,GLI022818,GLI022818,297.12,Payroll Accrual
GLI,2/28/2018,12915,1150510,GLI022818,GLI022818,6.34,Payroll Accrual
GLI,2/28/2018,12906,1150510,GLI022818,GLI022818,4.32,Payroll Accrual
GLI,2/28/2018,12905,1150510,GLI022818,GLI022818,4.32,Payroll Accrual
GLI,2/28/2018,12904,1150510,GLI022818,GLI022818,4.61,Payroll Accrual
GLI,2/28/2018,12902,1150510,GLI022818,GLI022818,4.61,Payroll Accrual
GLI,2/28/2018,12901,1150510,GLI022818,GLI022818,4.61,Payroll Accrual
GLI,2/28/2018,12515,1150510,GLI022818,GLI022818,24.05,Payroll Accrual
GLI,2/28/2018,12506,1150510,GLI022818,GLI022818,16.4,Payroll Accrual
GLI,2/28/2018,12505,1150510,GLI022818,GLI022818,16.4,Payroll Accrual
GLI,2/28/2018,12504,1150510,GLI022818,GLI022818,17.48,Payroll Accrual
GLI,2/28/2018,12502,1150510,GLI022818,GLI022818,17.48,Payroll Accrual
GLI,2/28/2018,12501,1150510,GLI022818,GLI022818,17.48,Payroll Accrual
GLI,2/28/2018,12315,1150510,GLI022818,GLI022818,316.8,Payroll Accrual
GLI,2/28/2018,12306,1150510,GLI022818,GLI022818,216,Payroll Accrual
GLI,2/28/2018,12305,1150510,GLI022818,GLI022818,216,Payroll Accrual
GLI,2/28/2018,12304,1150510,GLI022818,GLI022818,230.4,Payroll Accrual
GLI,2/28/2018,12302,1150510,GLI022818,GLI022818,230.4,Payroll Accrual
GLI,2/28/2018,12301,1150510,GLI022818,GLI022818,230.4,Payroll Accrual
GLI,2/28/2018,12504,1149710,GLI022818,GLI022818,89.52,Payroll Accrual
GLI,2/28/2018,12404,1149710,GLI022818,GLI022818,120,Payroll Accrual
GLI,2/28/2018,12304D,1149710,GLI022818,GLI022818,1150.63,Payroll Accrual
GLI,2/28/2018,12906,1149636,GLI022818,GLI022818,14.76,Payroll Accrual
GLI,2/28/2018,12506,1149636,GLI022818,GLI022818,69.87,Payroll Accrual
GLI,2/28/2018,12306C,1149636,GLI022818,GLI022818,983.92,Payroll Accrual
GLI,2/28/2018,12504,1149300,GLI022818,GLI022818,137.28,Payroll Accrual
GLI,2/28/2018,124704,1149300,GLI022818,GLI022818,1848.48,Payroll Accrual
GLI,2/28/2018,185600,1147810,GLI022818,GLI022818,133.1,Payroll Accrual
GLI,2/28/2018,185501,1147810,GLI022818,GLI022818,116.47,Payroll Accrual
GLI,2/28/2018,12902,1147810,GLI022818,GLI022818,14.48,Payroll Accrual
GLI,2/28/2018,12901,1147810,GLI022818,GLI022818,10.48,Payroll Accrual
GLI,2/28/2018,12502,1147810,GLI022818,GLI022818,73.82,Payroll Accrual
GLI,2/28/2018,12501,1147810,GLI022818,GLI022818,53.45,Payroll Accrual
GLI,2/28/2018,11102,1147810,GLI022818,GLI022818,831.9,Payroll Accrual
GLI,2/28/2018,11101,1147810,GLI022818,GLI022818,582.33,Payroll Accrual
GLI,2/28/2018,185600,1147250,GLI022818,GLI022818,168.31,Payroll Accrual
GLI,2/28/2018,185501,1147250,GLI022818,GLI022818,147.27,Payroll Accrual
GLI,2/28/2018,12902,1147250,GLI022818,GLI022818,24.41,Payroll Accrual
GLI,2/28/2018,12901,1147250,GLI022818,GLI022818,17.68,Payroll Accrual
GLI,2/28/2018,12502,1147250,GLI022818,GLI022818,93.35,Payroll Accrual
GLI,2/28/2018,12501,1147250,GLI022818,GLI022818,67.6,Payroll Accrual
GLI,2/28/2018,11102,1147250,GLI022818,GLI022818,1051.93,Payroll Accrual
GLI,2/28/2018,11101,1147250,GLI022818,GLI022818,736.35,Payroll Accrual
GLI,2/28/2018,12904,1147062,GLI022818,GLI022818,28.2,Payroll Accrual
GLI,2/28/2018,12504,1147062,GLI022818,GLI022818,88.04,Payroll Accrual
GLI,2/28/2018,12204A,1147062,GLI022818,GLI022818,1410.01,Payroll Accrual
GLI,2/28/2018,12505,1147061,GLI022818,GLI022818,203.76,Payroll Accrual
GLI,2/28/2018,124703,1147061,GLI022818,GLI022818,2680.64,Payroll Accrual
GLI,2/28/2018,12905,1146991,GLI022818,GLI022818,54.68,Payroll Accrual
GLI,2/28/2018,12505,1146991,GLI022818,GLI022818,203.34,Payroll Accrual
GLI,2/28/2018,124703,1146991,GLI022818,GLI022818,2734.24,Payroll Accrual
GLI,2/28/2018,12504,1146989,GLI022818,GLI022818,91.01,Payroll Accrual
GLI,2/28/2018,124704,1146989,GLI022818,GLI022818,1212.32,Payroll Accrual
GLI,2/28/2018,12503,1144901,GLI022818,GLI022818,66.95,Payroll Accrual
GLI,2/28/2018,124723,1144901,GLI022818,GLI022818,875.14,Payroll Accrual
GLI,2/28/2018,12503,114444,GLI022818,GLI022818,44.58,Payroll Accrual
GLI,2/28/2018,124723,114444,GLI022818,GLI022818,582.82,Payroll Accrual
GLI,2/28/2018,12506,1144265,GLI022818,GLI022818,84.37,Payroll Accrual
GLI,2/28/2018,12306B,1144265,GLI022818,GLI022818,1156.31,Payroll Accrual
GLI,2/28/2018,12506,1143575,GLI022818,GLI022818,3.41,Payroll Accrual
GLI,2/28/2018,12505,1143575,GLI022818,GLI022818,3.41,Payroll Accrual
GLI,2/28/2018,12504,1143575,GLI022818,GLI022818,3.41,Payroll Accrual
GLI,2/28/2018,12502,1143575,GLI022818,GLI022818,3.41,Payroll Accrual
GLI,2/28/2018,12501,1143575,GLI022818,GLI022818,3.41,Payroll Accrual
GLI,2/28/2018,12206B,1143575,GLI022818,GLI022818,44.59,Payroll Accrual
GLI,2/28/2018,12205B,1143575,GLI022818,GLI022818,44.59,Payroll Accrual
GLI,2/28/2018,12204B,1143575,GLI022818,GLI022818,44.59,Payroll Accrual
GLI,2/28/2018,12202B,1143575,GLI022818,GLI022818,44.59,Payroll Accrual
GLI,2/28/2018,12201B,1143575,GLI022818,GLI022818,44.59,Payroll Accrual
GLI,2/28/2018,12903,11420,GLI022818,GLI022818,12.35,Payroll Accrual
GLI,2/28/2018,12503,11420,GLI022818,GLI022818,63,Payroll Accrual
GLI,2/28/2018,124723,11420,GLI022818,GLI022818,823.62,Payroll Accrual
GLI,2/28/2018,12914,1141210,GLI022818,GLI022818,4.43,Payroll Accrual
GLI,2/28/2018,12906,1141210,GLI022818,GLI022818,-2.52,Payroll Accrual
GLI,2/28/2018,12905,1141210,GLI022818,GLI022818,-3.36,Payroll Accrual
GLI,2/28/2018,12904,1141210,GLI022818,GLI022818,3.82,Payroll Accrual
GLI,2/28/2018,12902,1141210,GLI022818,GLI022818,3.42,Payroll Accrual
GLI,2/28/2018,12901,1141210,GLI022818,GLI022818,3.42,Payroll Accrual
GLI,2/28/2018,12514,1141210,GLI022818,GLI022818,0.58,Payroll Accrual
GLI,2/28/2018,12506,1141210,GLI022818,GLI022818,-1.2,Payroll Accrual
GLI,2/28/2018,12505,1141210,GLI022818,GLI022818,-1.35,Payroll Accrual
GLI,2/28/2018,12504,1141210,GLI022818,GLI022818,-1.73,Payroll Accrual
GLI,2/28/2018,12502,1141210,GLI022818,GLI022818,-3.27,Payroll Accrual
GLI,2/28/2018,12501,1141210,GLI022818,GLI022818,-3.27,Payroll Accrual
GLI,2/28/2018,12214,1141210,GLI022818,GLI022818,221.37,Payroll Accrual
GLI,2/28/2018,12206C,1141210,GLI022818,GLI022818,130.81,Payroll Accrual
GLI,2/28/2018,12205C,1141210,GLI022818,GLI022818,120.75,Payroll Accrual
GLI,2/28/2018,12204C,1141210,GLI022818,GLI022818,191.19,Payroll Accrual
GLI,2/28/2018,12202C,1141210,GLI022818,GLI022818,171.06,Payroll Accrual
GLI,2/28/2018,12201C,1141210,GLI022818,GLI022818,171.06,Payroll Accrual
GLI,2/28/2018,12504,1140870,GLI022818,GLI022818,359.85,Payroll Accrual
GLI,2/28/2018,12404,1140870,GLI022818,GLI022818,36,Payroll Accrual
GLI,2/28/2018,12304B,1140870,GLI022818,GLI022818,4667.89,Payroll Accrual
GLI,2/28/2018,12904,1137590,GLI022818,GLI022818,36.79,Payroll Accrual
GLI,2/28/2018,12504,1137590,GLI022818,GLI022818,138.98,Payroll Accrual
GLI,2/28/2018,124704,1137590,GLI022818,GLI022818,1839.44,Payroll Accrual
GLI,2/28/2018,12404,1137590,GLI022818,GLI022818,564.96,Payroll Accrual
GLI,2/28/2018,12524,1135710,GLI022818,GLI022818,54.73,Payroll Accrual
GLI,2/28/2018,124724,1135710,GLI022818,GLI022818,715.5,Payroll Accrual
GLI,2/28/2018,185600,1135518,GLI022818,GLI022818,86.12,Payroll Accrual
GLI,2/28/2018,185501,1135518,GLI022818,GLI022818,75.36,Payroll Accrual
GLI,2/28/2018,12902,1135518,GLI022818,GLI022818,12.49,Payroll Accrual
GLI,2/28/2018,12901,1135518,GLI022818,GLI022818,9.05,Payroll Accrual
GLI,2/28/2018,12502,1135518,GLI022818,GLI022818,47.76,Payroll Accrual
GLI,2/28/2018,12501,1135518,GLI022818,GLI022818,34.58,Payroll Accrual
GLI,2/28/2018,11102,1135518,GLI022818,GLI022818,538.25,Payroll Accrual
GLI,2/28/2018,11101,1135518,GLI022818,GLI022818,376.78,Payroll Accrual
GLI,2/28/2018,12503,1135450,GLI022818,GLI022818,30.14,Payroll Accrual
GLI,2/28/2018,124723,1135450,GLI022818,GLI022818,393.96,Payroll Accrual
GLI,2/28/2018,12504,1135410,GLI022818,GLI022818,113.69,Payroll Accrual
GLI,2/28/2018,124704,1135410,GLI022818,GLI022818,1627.12,Payroll Accrual
GLI,2/28/2018,12404,1135410,GLI022818,GLI022818,159.36,Payroll Accrual
GLI,2/28/2018,12911,1135260,GLI022818,GLI022818,6.93,Payroll Accrual
GLI,2/28/2018,12906,1135260,GLI022818,GLI022818,5.04,Payroll Accrual
GLI,2/28/2018,12905,1135260,GLI022818,GLI022818,5.04,Payroll Accrual
GLI,2/28/2018,12904,1135260,GLI022818,GLI022818,5.04,Payroll Accrual
GLI,2/28/2018,12902,1135260,GLI022818,GLI022818,4.73,Payroll Accrual
GLI,2/28/2018,12901,1135260,GLI022818,GLI022818,4.73,Payroll Accrual
GLI,2/28/2018,12511,1135260,GLI022818,GLI022818,32.76,Payroll Accrual
GLI,2/28/2018,12506,1135260,GLI022818,GLI022818,23.83,Payroll Accrual
GLI,2/28/2018,12505,1135260,GLI022818,GLI022818,23.83,Payroll Accrual
GLI,2/28/2018,12504,1135260,GLI022818,GLI022818,23.83,Payroll Accrual
GLI,2/28/2018,12502,1135260,GLI022818,GLI022818,22.33,Payroll Accrual
GLI,2/28/2018,12501,1135260,GLI022818,GLI022818,22.33,Payroll Accrual
GLI,2/28/2018,12311,1135260,GLI022818,GLI022818,462,Payroll Accrual
GLI,2/28/2018,12306H,1135260,GLI022818,GLI022818,336,Payroll Accrual
GLI,2/28/2018,12305H,1135260,GLI022818,GLI022818,336,Payroll Accrual
GLI,2/28/2018,12304H,1135260,GLI022818,GLI022818,336,Payroll Accrual
GLI,2/28/2018,12302H,1135260,GLI022818,GLI022818,315,Payroll Accrual
GLI,2/28/2018,12301H,1135260,GLI022818,GLI022818,315,Payroll Accrual
GLI,2/28/2018,12506,1133727,GLI022818,GLI022818,97.7,Payroll Accrual
GLI,2/28/2018,12306D,1133727,GLI022818,GLI022818,1277.12,Payroll Accrual
GLI,2/28/2018,12504,1133500,GLI022818,GLI022818,91.36,Payroll Accrual
GLI,2/28/2018,124704,1133500,GLI022818,GLI022818,1194.24,Payroll Accrual
GLI,2/28/2018,12404,1133500,GLI022818,GLI022818,284.16,Payroll Accrual
GLI,2/28/2018,12506,1132600,GLI022818,GLI022818,4.06,Payroll Accrual
GLI,2/28/2018,12505,1132600,GLI022818,GLI022818,4.06,Payroll Accrual
GLI,2/28/2018,12504,1132600,GLI022818,GLI022818,4.06,Payroll Accrual
GLI,2/28/2018,12502,1132600,GLI022818,GLI022818,4.06,Payroll Accrual
GLI,2/28/2018,12501,1132600,GLI022818,GLI022818,4.06,Payroll Accrual
GLI,2/28/2018,12206B,1132600,GLI022818,GLI022818,52.99,Payroll Accrual
GLI,2/28/2018,12205B,1132600,GLI022818,GLI022818,52.99,Payroll Accrual
GLI,2/28/2018,12204B,1132600,GLI022818,GLI022818,52.99,Payroll Accrual
GLI,2/28/2018,12202B,1132600,GLI022818,GLI022818,52.99,Payroll Accrual
GLI,2/28/2018,12201B,1132600,GLI022818,GLI022818,52.99,Payroll Accrual
GLI,2/28/2018,12906,1132595,GLI022818,GLI022818,53.4,Payroll Accrual
GLI,2/28/2018,12506,1132595,GLI022818,GLI022818,200.46,Payroll Accrual
GLI,2/28/2018,12106,1132595,GLI022818,GLI022818,2670,Payroll Accrual
GLI,2/28/2018,12904,1132590,GLI022818,GLI022818,48.54,Payroll Accrual
GLI,2/28/2018,12504,1132590,GLI022818,GLI022818,183.93,Payroll Accrual
GLI,2/28/2018,12304B,1132590,GLI022818,GLI022818,2426.97,Payroll Accrual
GLI,2/28/2018,12905,1132218,GLI022818,GLI022818,35.42,Payroll Accrual
GLI,2/28/2018,12505,1132218,GLI022818,GLI022818,134.19,Payroll Accrual
GLI,2/28/2018,12405,1132218,GLI022818,GLI022818,160,Payroll Accrual
GLI,2/28/2018,12305B,1132218,GLI022818,GLI022818,1611.26,Payroll Accrual
GLI,2/28/2018,12506,1132205,GLI022818,GLI022818,48.18,Payroll Accrual
GLI,2/28/2018,12306B,1132205,GLI022818,GLI022818,685.86,Payroll Accrual
GLI,2/28/2018,12927,113085,GLI022818,GLI022818,10.8,Payroll Accrual
GLI,2/28/2018,12924,113085,GLI022818,GLI022818,10.8,Payroll Accrual
GLI,2/28/2018,12527,113085,GLI022818,GLI022818,54.4,Payroll Accrual
GLI,2/28/2018,12524,113085,GLI022818,GLI022818,54.4,Payroll Accrual
GLI,2/28/2018,12127,113085,GLI022818,GLI022818,720,Payroll Accrual
GLI,2/28/2018,12124,113085,GLI022818,GLI022818,720,Payroll Accrual
GLI,2/28/2018,12504,1130700,GLI022818,GLI022818,57.55,Payroll Accrual
GLI,2/28/2018,12304C,1130700,GLI022818,GLI022818,752.28,Payroll Accrual
GLI,2/28/2018,12906,113020,GLI022818,GLI022818,39.6,Payroll Accrual
GLI,2/28/2018,12506,113020,GLI022818,GLI022818,148.25,Payroll Accrual
GLI,2/28/2018,12306B,113020,GLI022818,GLI022818,1980,Payroll Accrual
GLI,2/28/2018,12904,113011,GLI022818,GLI022818,6.91,Payroll Accrual
GLI,2/28/2018,12504,113011,GLI022818,GLI022818,26.43,Payroll Accrual
GLI,2/28/2018,12304C,113011,GLI022818,GLI022818,345.48,Payroll Accrual
GLI,2/28/2018,12506,1130090,GLI022818,GLI022818,30.07,Payroll Accrual
GLI,2/28/2018,12306B,1130090,GLI022818,GLI022818,398.56,Payroll Accrual
GLI,2/28/2018,12916,113000,GLI022818,GLI022818,10.6,Payroll Accrual
GLI,2/28/2018,12516,113000,GLI022818,GLI022818,40.56,Payroll Accrual
GLI,2/28/2018,12316,113000,GLI022818,GLI022818,530.23,Payroll Accrual
GLI,2/28/2018,12527,1129560,GLI022818,GLI022818,51.93,Payroll Accrual
GLI,2/28/2018,12327,1129560,GLI022818,GLI022818,678.84,Payroll Accrual
GLI,2/28/2018,12916,1126060,GLI022818,GLI022818,16.47,Payroll Accrual
GLI,2/28/2018,12516,1126060,GLI022818,GLI022818,83.58,Payroll Accrual
GLI,2/28/2018,12316,1126060,GLI022818,GLI022818,1098.16,Payroll Accrual
GLI,2/28/2018,12906,1126055,GLI022818,GLI022818,18.31,Payroll Accrual
GLI,2/28/2018,12506,1126055,GLI022818,GLI022818,70.03,Payroll Accrual
GLI,2/28/2018,12306C,1126055,GLI022818,GLI022818,915.46,Payroll Accrual
GLI,2/28/2018,12905,1126040,GLI022818,GLI022818,42.09,Payroll Accrual
GLI,2/28/2018,12505,1126040,GLI022818,GLI022818,156.47,Payroll Accrual
GLI,2/28/2018,124703,1126040,GLI022818,GLI022818,2104.74,Payroll Accrual
GLI,2/28/2018,185600,112589,GLI022818,GLI022818,124.35,Payroll Accrual
GLI,2/28/2018,185501,112589,GLI022818,GLI022818,108.81,Payroll Accrual
GLI,2/28/2018,12502,112589,GLI022818,GLI022818,68.97,Payroll Accrual
GLI,2/28/2018,12501,112589,GLI022818,GLI022818,49.95,Payroll Accrual
GLI,2/28/2018,11102,112589,GLI022818,GLI022818,777.22,Payroll Accrual
GLI,2/28/2018,11101,112589,GLI022818,GLI022818,544.05,Payroll Accrual
GLI,2/28/2018,12905,1125565,GLI022818,GLI022818,45.88,Payroll Accrual
GLI,2/28/2018,12505,1125565,GLI022818,GLI022818,166.57,Payroll Accrual
GLI,2/28/2018,124703,1125565,GLI022818,GLI022818,2293.84,Payroll Accrual
GLI,2/28/2018,12906,1124875,GLI022818,GLI022818,34.77,Payroll Accrual
GLI,2/28/2018,12506,1124875,GLI022818,GLI022818,130.63,Payroll Accrual
GLI,2/28/2018,12306B,1124875,GLI022818,GLI022818,1738.38,Payroll Accrual
GLI,2/28/2018,185600,1124625,GLI022818,GLI022818,218.97,Payroll Accrual
GLI,2/28/2018,185501,1124625,GLI022818,GLI022818,191.6,Payroll Accrual
GLI,2/28/2018,12902,1124625,GLI022818,GLI022818,31.75,Payroll Accrual
GLI,2/28/2018,12901,1124625,GLI022818,GLI022818,22.99,Payroll Accrual
GLI,2/28/2018,12502,1124625,GLI022818,GLI022818,121.45,Payroll Accrual
GLI,2/28/2018,12501,1124625,GLI022818,GLI022818,87.95,Payroll Accrual
GLI,2/28/2018,11102,1124625,GLI022818,GLI022818,1368.56,Payroll Accrual
GLI,2/28/2018,11101,1124625,GLI022818,GLI022818,957.99,Payroll Accrual
GLI,2/28/2018,12904,1124436,GLI022818,GLI022818,40.49,Payroll Accrual
GLI,2/28/2018,12504,1124436,GLI022818,GLI022818,190.77,Payroll Accrual
GLI,2/28/2018,124704,1124436,GLI022818,GLI022818,2699.28,Payroll Accrual
GLI,2/28/2018,12904,1124430,GLI022818,GLI022818,14.94,Payroll Accrual
GLI,2/28/2018,12504,1124430,GLI022818,GLI022818,74.48,Payroll Accrual
GLI,2/28/2018,124704,1124430,GLI022818,GLI022818,996.26,Payroll Accrual
GLI,2/28/2018,12904,1124400,GLI022818,GLI022818,16.19,Payroll Accrual
GLI,2/28/2018,12504,1124400,GLI022818,GLI022818,81.26,Payroll Accrual
GLI,2/28/2018,124704,1124400,GLI022818,GLI022818,1079.33,Payroll Accrual
GLI,2/28/2018,12527,1123355,GLI022818,GLI022818,58.97,Payroll Accrual
GLI,2/28/2018,12427,1123355,GLI022818,GLI022818,240,Payroll Accrual
GLI,2/28/2018,12327,1123355,GLI022818,GLI022818,530.85,Payroll Accrual
GLI,2/28/2018,12914,1123340,GLI022818,GLI022818,12.67,Payroll Accrual
GLI,2/28/2018,12906,1123340,GLI022818,GLI022818,30.11,Payroll Accrual
GLI,2/28/2018,12905,1123340,GLI022818,GLI022818,27.79,Payroll Accrual
GLI,2/28/2018,12904,1123340,GLI022818,GLI022818,10.94,Payroll Accrual
GLI,2/28/2018,12902,1123340,GLI022818,GLI022818,9.79,Payroll Accrual
GLI,2/28/2018,12901,1123340,GLI022818,GLI022818,9.79,Payroll Accrual
GLI,2/28/2018,12514,1123340,GLI022818,GLI022818,47.22,Payroll Accrual
GLI,2/28/2018,12506,1123340,GLI022818,GLI022818,5.29,Payroll Accrual
GLI,2/28/2018,12505,1123340,GLI022818,GLI022818,4.88,Payroll Accrual
GLI,2/28/2018,12504,1123340,GLI022818,GLI022818,40.78,Payroll Accrual
GLI,2/28/2018,12502,1123340,GLI022818,GLI022818,36.49,Payroll Accrual
GLI,2/28/2018,12501,1123340,GLI022818,GLI022818,36.49,Payroll Accrual
GLI,2/28/2018,12214,1123340,GLI022818,GLI022818,633.6,Payroll Accrual
GLI,2/28/2018,12206C,1123340,GLI022818,GLI022818,374.4,Payroll Accrual
GLI,2/28/2018,12205C,1123340,GLI022818,GLI022818,345.6,Payroll Accrual
GLI,2/28/2018,12204C,1123340,GLI022818,GLI022818,547.2,Payroll Accrual
GLI,2/28/2018,12202C,1123340,GLI022818,GLI022818,489.6,Payroll Accrual
GLI,2/28/2018,12201C,1123340,GLI022818,GLI022818,489.6,Payroll Accrual
GLI,2/28/2018,12905,112273,GLI022818,GLI022818,11.86,Payroll Accrual
GLI,2/28/2018,12505,112273,GLI022818,GLI022818,60.5,Payroll Accrual
GLI,2/28/2018,12205A,112273,GLI022818,GLI022818,790.74,Payroll Accrual
GLI,2/28/2018,12503,1122445,GLI022818,GLI022818,15.87,Payroll Accrual
GLI,2/28/2018,124723,1122445,GLI022818,GLI022818,207.36,Payroll Accrual
GLI,2/28/2018,12905,1122352,GLI022818,GLI022818,22.45,Payroll Accrual
GLI,2/28/2018,12505,1122352,GLI022818,GLI022818,113.16,Payroll Accrual
GLI,2/28/2018,124703,1122352,GLI022818,GLI022818,1496.4,Payroll Accrual
GLI,2/28/2018,12503,1122246,GLI022818,GLI022818,79.71,Payroll Accrual
GLI,2/28/2018,12303,1122246,GLI022818,GLI022818,1064.67,Payroll Accrual
GLI,2/28/2018,12927,1122110,GLI022818,GLI022818,46.64,Payroll Accrual
GLI,2/28/2018,12527,1122110,GLI022818,GLI022818,166.75,Payroll Accrual
GLI,2/28/2018,12327,1122110,GLI022818,GLI022818,2331.8,Payroll Accrual
GLI,2/28/2018,12927,1121250,GLI022818,GLI022818,11.33,Payroll Accrual
GLI,2/28/2018,12527,1121250,GLI022818,GLI022818,57.77,Payroll Accrual
GLI,2/28/2018,12327,1121250,GLI022818,GLI022818,755.16,Payroll Accrual
GLI,2/28/2018,12524,112098,GLI022818,GLI022818,14.03,Payroll Accrual
GLI,2/28/2018,12505,112098,GLI022818,GLI022818,14.03,Payroll Accrual
GLI,2/28/2018,12504,112098,GLI022818,GLI022818,14.03,Payroll Accrual
GLI,2/28/2018,12501,112098,GLI022818,GLI022818,14.03,Payroll Accrual
GLI,2/28/2018,12324F,112098,GLI022818,GLI022818,183.37,Payroll Accrual
GLI,2/28/2018,12305F,112098,GLI022818,GLI022818,183.37,Payroll Accrual
GLI,2/28/2018,12304F,112098,GLI022818,GLI022818,183.37,Payroll Accrual
GLI,2/28/2018,12301F,112098,GLI022818,GLI022818,183.37,Payroll Accrual
GLI,2/28/2018,12506,1120225,GLI022818,GLI022818,52.09,Payroll Accrual
GLI,2/28/2018,12505,1120225,GLI022818,GLI022818,52.09,Payroll Accrual
GLI,2/28/2018,12504,1120225,GLI022818,GLI022818,52.09,Payroll Accrual
GLI,2/28/2018,12502,1120225,GLI022818,GLI022818,52.09,Payroll Accrual
GLI,2/28/2018,12501,1120225,GLI022818,GLI022818,52.09,Payroll Accrual
GLI,2/28/2018,12006,1120225,GLI022818,GLI022818,720,Payroll Accrual
GLI,2/28/2018,12005,1120225,GLI022818,GLI022818,720,Payroll Accrual
GLI,2/28/2018,12004,1120225,GLI022818,GLI022818,720,Payroll Accrual
GLI,2/28/2018,12002,1120225,GLI022818,GLI022818,720,Payroll Accrual
GLI,2/28/2018,12001,1120225,GLI022818,GLI022818,720,Payroll Accrual
GLI,2/28/2018,12906,1120120,GLI022818,GLI022818,15.83,Payroll Accrual
GLI,2/28/2018,12506,1120120,GLI022818,GLI022818,76.6,Payroll Accrual
GLI,2/28/2018,12306B,1120120,GLI022818,GLI022818,1055.2,Payroll Accrual
GLI,2/28/2018,12927,1120110,GLI022818,GLI022818,23.4,Payroll Accrual
GLI,2/28/2018,12527,1120110,GLI022818,GLI022818,118.32,Payroll Accrual
GLI,2/28/2018,12127,1120110,GLI022818,GLI022818,1560,Payroll Accrual
GLI,2/28/2018,12506,1118800,GLI022818,GLI022818,82.52,Payroll Accrual
GLI,2/28/2018,12306B,1118800,GLI022818,GLI022818,1157.58,Payroll Accrual
GLI,2/28/2018,12505,1118722,GLI022818,GLI022818,185.06,Payroll Accrual
GLI,2/28/2018,124703,1118722,GLI022818,GLI022818,2453.28,Payroll Accrual
GLI,2/28/2018,12904,1117960,GLI022818,GLI022818,30,Payroll Accrual
GLI,2/28/2018,12504,1117960,GLI022818,GLI022818,112.31,Payroll Accrual
GLI,2/28/2018,124704,1117960,GLI022818,GLI022818,1500,Payroll Accrual
GLI,2/28/2018,12504,1117901,GLI022818,GLI022818,109.11,Payroll Accrual
GLI,2/28/2018,124704,1117901,GLI022818,GLI022818,1426.35,Payroll Accrual
GLI,2/28/2018,12503,1117850,GLI022818,GLI022818,66.35,Payroll Accrual
GLI,2/28/2018,124723,1117850,GLI022818,GLI022818,867.3,Payroll Accrual
GLI,2/28/2018,12903,1117842,GLI022818,GLI022818,14.68,Payroll Accrual
GLI,2/28/2018,12503,1117842,GLI022818,GLI022818,74.84,Payroll Accrual
GLI,2/28/2018,12403,1117842,GLI022818,GLI022818,56,Payroll Accrual
GLI,2/28/2018,12303,1117842,GLI022818,GLI022818,922.24,Payroll Accrual
GLI,2/28/2018,12903,1117600,GLI022818,GLI022818,30.64,Payroll Accrual
GLI,2/28/2018,12503,1117600,GLI022818,GLI022818,99.57,Payroll Accrual
GLI,2/28/2018,12303,1117600,GLI022818,GLI022818,1532.11,Payroll Accrual
GLI,2/28/2018,12924,1116800,GLI022818,GLI022818,2.92,Payroll Accrual
GLI,2/28/2018,12524,1116800,GLI022818,GLI022818,14.91,Payroll Accrual
GLI,2/28/2018,124724,1116800,GLI022818,GLI022818,194.85,Payroll Accrual
GLI,2/28/2018,12424,1116800,GLI022818,GLI022818,600,Payroll Accrual
GLI,2/28/2018,12506,111568,GLI022818,GLI022818,23.49,Payroll Accrual
GLI,2/28/2018,12306C,111568,GLI022818,GLI022818,307.08,Payroll Accrual
GLI,2/28/2018,12527,111566,GLI022818,GLI022818,5.53,Payroll Accrual
GLI,2/28/2018,12327,111566,GLI022818,GLI022818,72.2,Payroll Accrual
GLI,2/28/2018,12905,1114921,GLI022818,GLI022818,24.29,Payroll Accrual
GLI,2/28/2018,12505,1114921,GLI022818,GLI022818,100.05,Payroll Accrual
GLI,2/28/2018,124703,1114921,GLI022818,GLI022818,1259.1,Payroll Accrual
GLI,2/28/2018,12405,1114921,GLI022818,GLI022818,360,Payroll Accrual
GLI,2/28/2018,12906,1114831,GLI022818,GLI022818,7.3,Payroll Accrual
GLI,2/28/2018,12506,1114831,GLI022818,GLI022818,37.21,Payroll Accrual
GLI,2/28/2018,12306D,1114831,GLI022818,GLI022818,486.5,Payroll Accrual
GLI,2/28/2018,12904,1114105,GLI022818,GLI022818,41.21,Payroll Accrual
GLI,2/28/2018,12504,1114105,GLI022818,GLI022818,132.19,Payroll Accrual
GLI,2/28/2018,12404,1114105,GLI022818,GLI022818,64,Payroll Accrual
GLI,2/28/2018,12304B,1114105,GLI022818,GLI022818,1996.34,Payroll Accrual
GLI,2/28/2018,12527,1114010,GLI022818,GLI022818,16.02,Payroll Accrual
GLI,2/28/2018,12327,1114010,GLI022818,GLI022818,209.4,Payroll Accrual
GLI,2/28/2018,12904,1113940,GLI022818,GLI022818,31.41,Payroll Accrual
GLI,2/28/2018,12504,1113940,GLI022818,GLI022818,116.6,Payroll Accrual
GLI,2/28/2018,124704,1113940,GLI022818,GLI022818,1398.58,Payroll Accrual
GLI,2/28/2018,12404,1113940,GLI022818,GLI022818,172,Payroll Accrual
GLI,2/28/2018,12506,111254,GLI022818,GLI022818,12.4,Payroll Accrual
GLI,2/28/2018,12505,111254,GLI022818,GLI022818,12.4,Payroll Accrual
GLI,2/28/2018,12504,111254,GLI022818,GLI022818,12.4,Payroll Accrual
GLI,2/28/2018,12502,111254,GLI022818,GLI022818,12.4,Payroll Accrual
GLI,2/28/2018,12501,111254,GLI022818,GLI022818,12.4,Payroll Accrual
GLI,2/28/2018,12206B,111254,GLI022818,GLI022818,162.06,Payroll Accrual
GLI,2/28/2018,12205B,111254,GLI022818,GLI022818,162.06,Payroll Accrual
GLI,2/28/2018,12204B,111254,GLI022818,GLI022818,162.06,Payroll Accrual
GLI,2/28/2018,12202B,111254,GLI022818,GLI022818,162.06,Payroll Accrual
GLI,2/28/2018,12201B,111254,GLI022818,GLI022818,162.06,Payroll Accrual
GLI,2/28/2018,12516,111245,GLI022818,GLI022818,92.4,Payroll Accrual
GLI,2/28/2018,12316,111245,GLI022818,GLI022818,1230.51,Payroll Accrual
GLI,2/28/2018,12924,1112411,GLI022818,GLI022818,9.74,Payroll Accrual
GLI,2/28/2018,12524,1112411,GLI022818,GLI022818,49.68,Payroll Accrual
GLI,2/28/2018,124724,1112411,GLI022818,GLI022818,649.32,Payroll Accrual
GLI,2/28/2018,185600,111232,GLI022818,GLI022818,140,Payroll Accrual
GLI,2/28/2018,185501,111232,GLI022818,GLI022818,122.5,Payroll Accrual
GLI,2/28/2018,12502,111232,GLI022818,GLI022818,77.65,Payroll Accrual
GLI,2/28/2018,12501,111232,GLI022818,GLI022818,56.24,Payroll Accrual
GLI,2/28/2018,11102,111232,GLI022818,GLI022818,875.03,Payroll Accrual
GLI,2/28/2018,11101,111232,GLI022818,GLI022818,612.52,Payroll Accrual
GLI,2/28/2018,12904,111210,GLI022818,GLI022818,9.06,Payroll Accrual
GLI,2/28/2018,12504,111210,GLI022818,GLI022818,44.49,Payroll Accrual
GLI,2/28/2018,124704,111210,GLI022818,GLI022818,604.32,Payroll Accrual
GLI,2/28/2018,12905,1111325,GLI022818,GLI022818,26.95,Payroll Accrual
GLI,2/28/2018,12505,1111325,GLI022818,GLI022818,100.73,Payroll Accrual
GLI,2/28/2018,12205A,1111325,GLI022818,GLI022818,1347.58,Payroll Accrual
GLI,2/28/2018,12903,1110800,GLI022818,GLI022818,4.42,Payroll Accrual
GLI,2/28/2018,12503,1110800,GLI022818,GLI022818,22.54,Payroll Accrual
GLI,2/28/2018,12303,1110800,GLI022818,GLI022818,294.65,Payroll Accrual
GLI,2/28/2018,12911,1110660,GLI022818,GLI022818,4.09,Payroll Accrual
GLI,2/28/2018,12906,1110660,GLI022818,GLI022818,2.97,Payroll Accrual
GLI,2/28/2018,12905,1110660,GLI022818,GLI022818,2.97,Payroll Accrual
GLI,2/28/2018,12904,1110660,GLI022818,GLI022818,2.97,Payroll Accrual
GLI,2/28/2018,12902,1110660,GLI022818,GLI022818,2.79,Payroll Accrual
GLI,2/28/2018,12901,1110660,GLI022818,GLI022818,2.79,Payroll Accrual
GLI,2/28/2018,12511,1110660,GLI022818,GLI022818,19.11,Payroll Accrual
GLI,2/28/2018,12506,1110660,GLI022818,GLI022818,13.42,Payroll Accrual
GLI,2/28/2018,12505,1110660,GLI022818,GLI022818,13.42,Payroll Accrual
GLI,2/28/2018,12504,1110660,GLI022818,GLI022818,13.42,Payroll Accrual
GLI,2/28/2018,12502,1110660,GLI022818,GLI022818,12.47,Payroll Accrual
GLI,2/28/2018,12501,1110660,GLI022818,GLI022818,12.47,Payroll Accrual
GLI,2/28/2018,12311,1110660,GLI022818,GLI022818,272.47,Payroll Accrual
GLI,2/28/2018,12306H,1110660,GLI022818,GLI022818,198.16,Payroll Accrual
GLI,2/28/2018,12305H,1110660,GLI022818,GLI022818,198.16,Payroll Accrual
GLI,2/28/2018,12304H,1110660,GLI022818,GLI022818,198.16,Payroll Accrual
GLI,2/28/2018,12302H,1110660,GLI022818,GLI022818,185.77,Payroll Accrual
GLI,2/28/2018,12301H,1110660,GLI022818,GLI022818,185.77,Payroll Accrual
GLI,2/28/2018,12905,1110650,GLI022818,GLI022818,40.17,Payroll Accrual
GLI,2/28/2018,12505,1110650,GLI022818,GLI022818,204.86,Payroll Accrual
GLI,2/28/2018,124703,1110650,GLI022818,GLI022818,2677.92,Payroll Accrual
GLI,2/28/2018,12504,1109827,GLI022818,GLI022818,98.38,Payroll Accrual
GLI,2/28/2018,124704,1109827,GLI022818,GLI022818,1286.03,Payroll Accrual
GLI,2/28/2018,12904,1108248,GLI022818,GLI022818,18.42,Payroll Accrual
GLI,2/28/2018,12504,1108248,GLI022818,GLI022818,70.45,Payroll Accrual
GLI,2/28/2018,124704,1108248,GLI022818,GLI022818,921.01,Payroll Accrual
GLI,2/28/2018,12905,1108200,GLI022818,GLI022818,21.9,Payroll Accrual
GLI,2/28/2018,12505,1108200,GLI022818,GLI022818,111.69,Payroll Accrual
GLI,2/28/2018,12305B,1108200,GLI022818,GLI022818,1460.07,Payroll Accrual
GLI,2/28/2018,12505,1107950,GLI022818,GLI022818,101.1,Payroll Accrual
GLI,2/28/2018,124703,1107950,GLI022818,GLI022818,1344.23,Payroll Accrual
GLI,2/28/2018,12904,1106421,GLI022818,GLI022818,34.78,Payroll Accrual
GLI,2/28/2018,12504,1106421,GLI022818,GLI022818,151.07,Payroll Accrual
GLI,2/28/2018,124704,1106421,GLI022818,GLI022818,2318.72,Payroll Accrual
GLI,2/28/2018,12404,1106421,GLI022818,GLI022818,118.16,Payroll Accrual
GLI,2/28/2018,12905,1106400,GLI022818,GLI022818,25.6,Payroll Accrual
GLI,2/28/2018,12505,1106400,GLI022818,GLI022818,129.26,Payroll Accrual
GLI,2/28/2018,124703,1106400,GLI022818,GLI022818,1706.88,Payroll Accrual
GLI,2/28/2018,12904,1106399,GLI022818,GLI022818,53.29,Payroll Accrual
GLI,2/28/2018,12504,1106399,GLI022818,GLI022818,203.84,Payroll Accrual
GLI,2/28/2018,124704,1106399,GLI022818,GLI022818,2664.56,Payroll Accrual
GLI,2/28/2018,12924,1103065,GLI022818,GLI022818,5.57,Payroll Accrual
GLI,2/28/2018,12905,1103065,GLI022818,GLI022818,5.57,Payroll Accrual
GLI,2/28/2018,12904,1103065,GLI022818,GLI022818,5.57,Payroll Accrual
GLI,2/28/2018,12901,1103065,GLI022818,GLI022818,5.57,Payroll Accrual
GLI,2/28/2018,12524,1103065,GLI022818,GLI022818,16.88,Payroll Accrual
GLI,2/28/2018,12505,1103065,GLI022818,GLI022818,16.88,Payroll Accrual
GLI,2/28/2018,12504,1103065,GLI022818,GLI022818,16.88,Payroll Accrual
GLI,2/28/2018,12501,1103065,GLI022818,GLI022818,16.88,Payroll Accrual
GLI,2/28/2018,12324F,1103065,GLI022818,GLI022818,278.44,Payroll Accrual
GLI,2/28/2018,12305F,1103065,GLI022818,GLI022818,278.44,Payroll Accrual
GLI,2/28/2018,12304F,1103065,GLI022818,GLI022818,278.44,Payroll Accrual
GLI,2/28/2018,12301F,1103065,GLI022818,GLI022818,278.44,Payroll Accrual
GLI,2/28/2018,12903,1102198,GLI022818,GLI022818,30.53,Payroll Accrual
GLI,2/28/2018,12503,1102198,GLI022818,GLI022818,154.65,Payroll Accrual
GLI,2/28/2018,12103,1102198,GLI022818,GLI022818,2035,Payroll Accrual
GLI,2/28/2018,12904,1102195,GLI022818,GLI022818,54,Payroll Accrual
GLI,2/28/2018,12504,1102195,GLI022818,GLI022818,205.53,Payroll Accrual
GLI,2/28/2018,12104,1102195,GLI022818,GLI022818,2700,Payroll Accrual
GLI,2/28/2018,12504,110123,GLI022818,GLI022818,109.17,Payroll Accrual
GLI,2/28/2018,124704,110123,GLI022818,GLI022818,1609.2,Payroll Accrual
GLI,2/28/2018,12527,1100820,GLI022818,GLI022818,51.39,Payroll Accrual
GLI,2/28/2018,12327,1100820,GLI022818,GLI022818,671.72,Payroll Accrual
GLI,2/28/2018,12905,1100625,GLI022818,GLI022818,27.22,Payroll Accrual
GLI,2/28/2018,12505,1100625,GLI022818,GLI022818,138.82,Payroll Accrual
GLI,2/28/2018,124703,1100625,GLI022818,GLI022818,1814.72,Payroll Accrual
GLI,2/28/2018,185600,110052,GLI022818,GLI022818,121.07,Payroll Accrual
GLI,2/28/2018,185501,110052,GLI022818,GLI022818,105.94,Payroll Accrual
GLI,2/28/2018,12502,110052,GLI022818,GLI022818,67.16,Payroll Accrual
GLI,2/28/2018,12501,110052,GLI022818,GLI022818,48.63,Payroll Accrual
GLI,2/28/2018,11102,110052,GLI022818,GLI022818,756.71,Payroll Accrual
GLI,2/28/2018,11101,110052,GLI022818,GLI022818,529.7,Payroll Accrual
GLI,2/28/2018,12503,110048,GLI022818,GLI022818,4.59,Payroll Accrual
GLI,2/28/2018,124723,110048,GLI022818,GLI022818,60.06,Payroll Accrual
GLI,2/28/2018,12503,10568,GLI022818,GLI022818,55.75,Payroll Accrual
GLI,2/28/2018,124723,10568,GLI022818,GLI022818,728.76,Payroll Accrual
