﻿stock        X         
-----------------------
13108D       X         
14179A       X         
13875A       X         
14298A       X         
14250B       X         
14635P       insp only          
13729XXB     X         
14467B       X         
13877A       X         
13201A       X         
14184B       insp only           
14657AA      insp only             
14740XX      X         
14429XX      insp only          
13636A       insp only          
14310A       X         
14536PA      X         
13454XA      insp only          
13571P       X         
13572XX      X         
14068A       insp only          
14034XXA     insp only          
14514P       insp only              
13780A       insp only           
14465A       insp only           
14506A       insp only          
14135A       insp only          
