department,position,,,,,,,,,,,,,,,,,,,,,,,
Appearance,Director,113085,,,,,,,,,,,,,,,,,,,,,,
BDC,Operator,123925,124120,149878,161351,193210,1149710,,,,,,,,,,,,,,,,,
BDC,Team Leader,178079,,,,,,,,,,,,,,,,,,,,,,
Body Shop,Admin,118020,1111325,,,,,,,,,,,,,,,,,,,,,
Body Shop,Detailer,190600,,,,,,,,,,,,,,,,,,,,,,
Body Shop,Estimator (A),165357,141069,188338,1108200,1122320,1150510,,,,,,,,,,,,,,,,,
Body Shop,Estimator (B),,,,,,,,,,,,,,,,,,,,,,,
Body Shop,Estimator (C),,,,,,,,,,,,,,,,,,,,,,,
Body Shop,Manager,1122342,,,,,,,,,,,,,,,,,,,,,,
Body Shop,Metal Team Leader (A),,,,,,,,,,,,,,,,,,,,,,,
Body Shop,Metal Team Leader (B),,,,,,,,,,,,,,,,,,,,,,,
Body Shop,Metal Technician (A),170150,1126040,1147061,,,,,,,,,,,,,,,,,,,,
Body Shop,Metal Technician (B),135770,150105,1118722,1125565,,,,,,,,,,,,,,,,,,,
Body Shop,Metal Technician (C) (New Addition),1106400,1109852,,,,,,,,,,,,,,,,,,,,,
Body Shop,Paint Team Leader,,,,,,,,,,,,,,,,,,,,,,,
Body Shop,Paint Technician (A),171055,174130,1118780,1146991,,,,,,,,,,,,,,,,,,,
Body Shop,Paint Technician (B),191350,1110650,,,,,,,,,,,,,,,,,,,,,
Body Shop,Paint Technician (C),1114120,,,,,,,,,,,,,,,,,,,,,,
Body Shop,Parts,160930,,,,,,,,,,,,,,,,,,,,,,
Body Shop,PDR Technician,1110425,,,,,,,,,,,,,,,,,,,,,,
Body Shop,Porter,111321,171210,,,,,,,,,,,,,,,,,,,,,
Body Shop,Production Manager,1132218,,,,,,,,,,,,,,,,,,,,,,
Body Shop,Staging Technician,186210,,,,,,,,,,,,,,,,,,,,,,
Building Maintenance,Manager,148275,,,,,,,,,,,,,,,,,,,,,,
Building Maintenance,Support,1150100,1130428,,,,,,,,,,,,,,,,,,,,,
Car Wash,Cashier,135721,141070,1114350,136185,1123355,,,,,,,,,,,,,,,,,,
Car Wash,Maintenance Manager,131381,,,,,,,,,,,,,,,,,,,,,,
Car Wash,Manager,1120110,,,,,,,,,,,,,,,,,,,,,,
Car Wash,Team Member,112910,131315,152510,181411,184605,1100820,1100750,,,,,,,,,,,,,,,,
Detail,Assistant Manager,128120,,,,,,,,,,,,,,,,,,,,,,
Detail,Cashier,124101,179810,,,,,,,,,,,,,,,,,,,,,
Detail,Detail Technician,11687,113410,127350,152495,164920,190910,193180,1100800,1116800,1122352,1135710,1145560,,,,,,,,,,,
Detail,Support,112098,1148010,,,,,,,,,,,,,,,,,,,,,
Detail,Team Leader,150120,,,,,,,,,,,,,,,,,,,,,,
Guest Experience,Custodians/Maintenance,138380,1114122,1126060,,,,,,,,,,,,,,,,,,,,
Guest Experience,Manager,186100,,,,,,,,,,,,,,,,,,,,,,
Guest Experience,Reception,167812,179693,1111230,1114135,,,,,,,,,,,,,,,,,,,
HR,Director,148050,,,,,,,,,,,,,,,,,,,,,,
HR,HR Intern (New Addition),118030,,,,,,,,,,,,,,,,,,,,,,
IT,IT Specialist,1135260,,,,,,,,,,,,,,,,,,,,,,
IT,Manager,1135260,,,,,,,,,,,,,,,,,,,,,,
Market,Board of Directors,1120225,2120492,1130426,,,,,,,,,,,,,,,,,,,,
Market,Executive Manager,1130426,,,,,,,,,,,,,,,,,,,,,,
Market Fixed,Director,123100,,,,,,,,,,,,,,,,,,,,,,
Office,Accounting Admin,1141210,,,,,,,,,,,,,,,,,,,,,,
Office,Accounts Payable,181520,,,,,,,,,,,,,,,,,,,,,,
Office,Accounts Receivable/Payroll,196341,,,,,,,,,,,,,,,,,,,,,,
Office,Controller,1123340,,,,,,,,,,,,,,,,,,,,,,
Office,F&I Admin,110010,17410,149750,161065,,,,,,,,,,,,,,,,,,,
Office,File Clerk,1109821,163096,,,,,,,,,,,,,,,,,,,,,
Office,Office Manager,157995,,,,,,,,,,,,,,,,,,,,,,
Office,Project Coordinator,161051,,,,,,,,,,,,,,,,,,,,,,
Office,Title Clerk,163096,,,,,,,,,,,,,,,,,,,,,,
Office,Warranty Admin - RAC,151410,,,,,,,,,,,,,,,,,,,,,,
Office,Warranty Admin - HGF,126200,,,,,,,,,,,,,,,,,,,,,,
Parts,Aftermarket Sales Consultant,168815,179790,1109700,,,,,,,,,,,,,,,,,,,,
Parts,Driver,110020,145910,195401,1133727,,,,,,,,,,,,,,,,,,,
Parts,Inventory Manager,115255,2106350,,,,,,,,,,,,,,,,,,,,,
Parts,Manager,1132595,,,,,,,,,,,,,,,,,,,,,,
Parts,Outside Sales Consultant,113020,,,,,,,,,,,,,,,,,,,,,,
Parts,Sales Consultant,143180,162428,172077,179775,184610,1118800,1120120,1124875,1132205,16250,1144265,274225,,,,,,,,,,,
Parts,Shipping & Receiving,118010,1118832,1130090,1130510,1149636,264220,,,,,,,,,,,,,,,,,
Parts,Shipping Coordinator,190892,,,,,,,,,,,,,,,,,,,,,,
Rental,Agent,17380,184830,1126055,,,,,,,,,,,,,,,,,,,,
Rental,Team Leader,1147062,,,,,,,,,,,,,,,,,,,,,,
RY1,General Manager,1106360,,,,,,,,,,,,,,,,,,,,,,
RY1 Drive,Advisor,121362,123525,131100,161350,191060,1114105,1132590,1140870,1142827,,,,,,,,,,,,,,
RY1 Drive,Courtesy Driver,168890,113011,1102215,1130700,1133800,1133910,,,,,,,,,,,,,,,,,
RY1 Drive,Manager,140790,,,,,,,,,,,,,,,,,,,,,,
RY1 Main Shop,Accessory Technician,178050,1107950,1146989,,,,,,,,,,,,,,,,,,,,
RY1 Main Shop,Dispatcher,187675,,,,,,,,,,,,,,,,,,,,,,
RY1 Main Shop,Lead Technician (A),1117960,,,,,,,,,,,,,,,,,,,,,,
RY1 Main Shop,PT Technician (C),1108248,1142910,,,,,,,,,,,,,,,,,,,,,
RY1 Main Shop,Technician (A),18005,136170,152410,1106399,1106421,1124436,,,,,,,,,,,,,,,,,
RY1 Main Shop,Technician (B),152235,164015,194675,1113940,1137590,1149500,,,,,,,,,,,,,,,,,
RY1 Main Shop,Technician (C),116185,131370,138411,167580,1117901,1130098,1133500,1135410,1149300,,,,,,,,,,,,,,
RY1 Main Shop,Technician (D),152150,1132576,,,,,,,,,,,,,,,,,,,,,
RY1 PDQ,Advisor,113000,126700,145720,174870,184867,1109827,1117600,1123351,,,,,,,,,,,,,,,
RY1 PDQ,Lead Technician,190917,1126110,,,,,,,,,,,,,,,,,,,,,
RY1 PDQ,Lowerbay Technician,193795,196345,1111280,1113965,,,,,,,,,,,,,,,,,,,
RY1 PDQ,Manager,141060,,,,,,,,,,,,,,,,,,,,,,
RY1 PDQ,Upperbay Technician,11685,110060,138385,150060,150130,152525,160932,162795,177950,1109822,1120151,1135450,,,,,,,,,,,
RY1 Sales,Digital Coordinator,132500,,,,,,,,,,,,,,,,,,,,,,
RY1 Sales,Driver,13815,111250,134025,162800,164202,181310,185950,1100710,1138125,1148699,1149160,,,,,,,,,,,,
RY1 Sales,Finance Manager,1121240,,,,,,,,,,,,,,,,,,,,,,
RY1 Sales,General Sales Manager,189295,,,,,,,,,,,,,,,,,,,,,,
RY1 Sales,New Car Inventory Manager,146450,,,,,,,,,,,,,,,,,,,,,,
RY1 Sales,New Car Sales Manager,113550,,,,,,,,,,,,,,,,,,,,,,
RY1 Sales,New Car Technology Specialist,176150,,,,,,,,,,,,,,,,,,,,,,
RY1 Sales,Porter,165400,1106260,,,,,,,,,,,,,,,,,,,,,
RY1 Sales,Sales Consultant,11695,17172,110052,123425,128530,131440,145840,148110,150045,161325,167102,168800,174141,174150,181665,189100,1109851,1109815,1112410,1135518,1147065,1147250,1147810
RY1 Sales,Sales Consultant (PT),,,,,,,,,,,,,,,,,,,,,,,
RY1 Sales,Sales Support,184851,,,,,,,,,,,,,,,,,,,,,,
RY1 Sales,Team Leader,17534,150040,179380,195460,,,,,,,,,,,,,,,,,,,
RY1 Sales,Used Car Buyer,140500,,,,,,,,,,,,,,,,,,,,,,
RY1 Sales,Used Car Inventory Manager,1149180,,,,,,,,,,,,,,,,,,,,,,
RY1 Service,Director,1102195,,,,,,,,,,,,,,,,,,,,,,
RY2 Main Shop,Advisor,2106410,2146711,,,,,,,,,,,,,,,,,,,,,
RY2 Main Shop,Courtesy Driver,23900,230810,2132390,,,,,,,,,,,,,,,,,,,,
RY2 Main Shop,Detailer,294810,,,,,,,,,,,,,,,,,,,,,,
RY2 Main Shop,Manager,230601,,,,,,,,,,,,,,,,,,,,,,
RY2 Main Shop,Technician (A),24210,273315,279630,283125,2119120,2125100,2130150,2132360,,,,,,,,,,,,,,,
RY2 Main Shop,Technician (B),,,,,,,,,,,,,,,,,,,,,,,
RY2 Main Shop,Technician (C),,,,,,,,,,,,,,,,,,,,,,,
RY2 Main Shop,Technician (D),,,,,,,,,,,,,,,,,,,,,,,
RY2 PDQ,Advisor,141085,2148720,,,,,,,,,,,,,,,,,,,,,
RY2 PDQ,Assistant Manager,285800,,,,,,,,,,,,,,,,,,,,,,
RY2 PDQ,Lead Technician,,,,,,,,,,,,,,,,,,,,,,,
RY2 PDQ,Lowerbay Technician,214210,241310,2124895,,,,,,,,,,,,,,,,,,,,
RY2 PDQ,Upperbay Technician,113520,223010,223050,,,,,,,,,,,,,,,,,,,,
RY2 Sales,Driver,263095,263101,2100680,2140825,,,,,,,,,,,,,,,,,,,
RY2 Sales,General Manager,284715,,,,,,,,,,,,,,,,,,,,,,
RY2 Sales,Reception,291600,294700,,,,,,,,,,,,,,,,,,,,,
RY2 Sales,Sales Consultant,22910,212120,285820,2102196,2106480,2106490,2118100,2130678,2130690,2132420,2133490,2150210,,,,,,,,,,,
RY2 Sales,Sales Consultant (PT),222300,,,,,,,,,,,,,,,,,,,,,,
RY2 Sales,Sales Manager,2106225,,,,,,,,,,,,,,,,,,,,,,
RY2 Sales,Team Leader,2126300,242460,,,,,,,,,,,,,,,,,,,,,
