EmployeeNumber,anniversaryDate
118030,6/30/2014
127420,6/30/2014
162795,6/30/2014
1109822,6/30/2014
1109824,6/30/2014
1140892,6/30/2014
113085,6/30/2014
124120,6/30/2014
1114122,6/30/2014
1118832,6/16/2014
1123355,6/16/2014
179790,6/16/2014
1126082,6/16/2014
1130098,6/16/2014
1123351,6/9/2014
112098,6/2/2014
112910,6/2/2014
135721,6/2/2014
1100820,6/2/2014
184605,6/2/2014
1137210,6/2/2014
110060,6/2/2014
152150,6/2/2014
174110,6/2/2014
186210,6/2/2014
294700,6/2/2014
2146711,6/2/2014
11687,5/27/2014
150060,5/27/2014
113520,5/19/2014
124101,5/19/2014
166152,5/19/2014
1114135,5/19/2014
1149300,5/19/2014
118020,5/19/2014
138385,5/19/2014
152525,5/19/2014
161065,5/19/2014
178050,5/19/2014
1147065,5/6/2014
223010,5/5/2014
1109821,5/5/2014
160932,5/5/2014
1100800,5/5/2014
131381,4/28/2014
181411,4/23/2014
22910,4/21/2014
184867,4/21/2014
2106490,4/7/2014
283125,4/1/2014
152495,3/31/2014
152510,3/31/2014
2132420,3/28/2014
141070,3/24/2014
2118100,3/21/2014
1100750,3/17/2014
263095,3/11/2014
13815,3/10/2014
121390,3/3/2014
263101,2/18/2014
120110,2/17/2014
17172,2/10/2014
1112410,2/10/2014
174141,2/3/2014
190917,1/29/2014
138411,1/23/2014
191060,1/20/2014
1145560,1/20/2014
179810,1/13/2014
1146751,1/1/2014
1130510,12/23/2013
1132576,12/11/2013
2109826,12/10/2013
110020,12/9/2013
181520,11/20/2013
167102,11/11/2013
181325,11/1/2013
123925,10/31/2013
1113965,10/31/2013
223050,10/24/2013
184851,10/21/2013
2124895,10/21/2013
148050,10/21/2013
1141210,10/7/2013
2102196,9/19/2013
1130090,9/16/2013
162424,9/5/2013
149750,9/3/2013
177950,9/3/2013
113410,8/31/2013
1111230,8/19/2013
17410,8/19/2013
1109852,8/19/2013
110010,8/13/2013
168890,8/12/2013
1122352,8/12/2013
131152,7/29/2013
1149710,7/29/2013
0,7/15/2013
2133490,7/8/2013
1126060,7/1/2013
2132390,7/1/2013
161051,6/26/2013
1117810,6/24/2013
11685,6/20/2013
1140910,6/17/2013
1132590,6/17/2013
285800,6/10/2013
150120,6/4/2013
136185,6/3/2013
150130,6/3/2013
1126110,5/23/2013
11695,5/17/2013
1109851,5/17/2013
230810,4/29/2013
1150510,4/29/2013
1149190,4/22/2013
1126055,4/10/2013
126700,3/13/2013
193180,3/11/2013
242460,2/18/2013
1135450,2/18/2013
1118800,2/11/2013
1142910,2/4/2013
1114120,2/4/2013
1114350,2/4/2013
2125100,2/4/2013
2148720,2/4/2013
128120,1/14/2013
196345,1/2/2013
1135265,12/27/2012
111250,11/13/2012
1130428,11/13/2012
1106400,11/12/2012
1107950,11/12/2012
1120120,11/12/2012
264101,10/22/2012
152480,10/1/2012
212120,9/24/2012
113011,8/30/2012
174150,8/20/2012
1132205,8/13/2012
2150210,8/6/2012
174870,7/18/2012
145910,7/16/2012
1122320,7/16/2012
1111280,7/12/2012
148110,6/4/2012
193795,5/31/2012
1117901,5/29/2012
184830,4/9/2012
1120110,3/29/2012
123425,3/26/2012
1124436,2/27/2012
161350,2/13/2012
24210,1/2/2012
2106410,12/16/2011
214210,11/7/2011
1147810,10/10/2011
16250,9/12/2011
176150,9/12/2011
1111325,8/29/2011
152410,8/22/2011
241310,8/11/2011
118010,8/10/2011
284715,8/8/2011
123100,8/3/2011
171210,8/1/2011
131100,7/20/2011
1148010,7/20/2011
150045,7/18/2011
1135710,7/13/2011
190910,6/9/2011
167580,5/18/2011
190915,5/1/2011
167812,4/25/2011
1133500,4/12/2011
1116800,4/11/2011
165400,4/6/2011
190600,4/6/2011
1106260,4/6/2011
150105,4/4/2011
151410,1/27/2011
168815,1/25/2011
126200,1/24/2011
1108200,1/17/2011
1149160,1/1/2011
1109700,12/27/2010
171055,12/13/2010
164920,11/15/2010
1110650,11/15/2010
110052,11/1/2010
195460,10/25/2010
2126300,9/20/2010
294810,9/14/2010
127350,9/2/2010
1100710,7/21/2010
1150100,6/9/2010
195401,5/24/2010
1135260,5/10/2010
132500,5/3/2010
113020,4/19/2010
1149500,4/19/2010
145720,3/8/2010
189100,3/8/2010
281325,1/20/2010
1132595,12/15/2009
264220,11/24/2009
131440,10/13/2009
140500,10/12/2009
1130700,9/16/2009
179380,8/12/2009
2100680,7/29/2009
1123340,5/12/2009
285820,4/23/2009
185950,1/30/2009
181665,11/17/2008
149878,10/30/2008
279630,10/13/2008
1125565,9/29/2008
179693,8/4/2008
2119120,6/23/2008
157995,2/11/2008
191350,1/1/2008
222300,12/18/2007
274225,12/17/2007
23900,12/5/2007
189295,12/3/2007
194675,11/13/2007
123525,9/20/2007
1146989,8/29/2007
2130690,8/20/2007
1145660,7/27/2007
1143865,7/16/2007
174130,7/10/2007
1149636,6/25/2007
1144265,5/15/2007
241085,5/14/2007
1137590,5/14/2007
1133727,3/28/2007
17166,2/1/2007
178079,2/1/2007
128530,1/30/2007
141069,1/23/2007
1147061,12/27/2006
1138125,11/2/2006
168800,11/1/2006
1126040,10/30/2006
1118722,10/23/2006
165357,8/28/2006
1106360,8/17/2006
148075,6/5/2006
2120492,6/1/2006
16425,4/11/2006
113550,3/13/2006
1135410,10/27/2005
140790,9/19/2005
1118780,4/19/2005
1132218,2/28/2005
187675,2/21/2005
2106225,2/7/2005
145840,2/1/2005
2130678,2/1/2005
164202,1/13/2005
141060,11/2/2004
273315,7/20/2004
121362,7/16/2004
1160100,4/1/2004
2132360,7/21/2003
188338,6/16/2003
161325,4/14/2003
291600,4/1/2003
1102195,3/3/2003
135770,11/4/2002
1130430,11/4/2002
136170,9/30/2002
2106350,9/9/2002
1122342,8/26/2002
160930,8/19/2002
172077,6/10/2002
1109815,5/1/2002
1106399,2/11/2002
230601,11/29/2001
18005,5/1/2001
1117600,7/12/2000
1142827,7/10/2000
1148699,1/1/2000
1114105,11/2/1999
1120225,6/28/1999
1110425,3/15/1999
17534,11/9/1998
181310,1/1/1998
190892,7/3/1997
123538,4/1/1997
1147062,3/3/1997
164015,12/2/1996
150040,11/13/1996
1108248,1/23/1996
184610,1/21/1996
1130426,1/1/1996
1110542,12/4/1995
131370,6/7/1995
143180,1/23/1995
1146991,9/6/1994
181876,2/1/1994
1135518,11/1/1993
162428,4/21/1993
116185,3/1/1993
1140870,8/3/1992
2130150,3/23/1992
1112425,12/1/1990
115255,9/25/1989
179750,8/29/1988
1117960,6/13/1988
152235,5/5/1986
163096,1/6/1986
190918,7/28/1985
1147250,3/1/1985
146450,2/18/1985
196341,1/2/1985
186100,11/22/1983
170150,11/30/1981
179775,3/1/1980
1121240,11/22/1978
138380,8/30/1978
1149180,5/17/1978
1103050,5/5/1978
1124875,4/11/1977
113000,11/13/1972
1133800,4/1/1969
1113940,5/1/1966
148275,2/1/1966
1120800,6/1/1962
162800,9/1/1955
