"year_month","store_code","full_name","employee_number","hire_date","pay_plan_name","draw","draw_paid","full_months_employment","years_service","pto_rate","pto_hours","pto_pay","additional_comp","unpaid_time_off","guarantee","unit_count_sys","unit_count_ovr","unit_count","per_unit","metrics_qualified","csi_score","csi_qualified","email_score","email_qualified","logged_score","logged_qualified","auto_alert_score","auto_alert_qualified","unit_count_x_per_unit","total_pay","total_pay_paid","complete","store_name"
201612,"RY1","Curtis Olson","1106223","2016-02-01","Standard",500,0,10,0,0.00,0.00,0.00,0.00,0,2300,3.0,0.0,3.0,200,f,95.40,t,100.00,t,16.00,f,1.00,f,600.0,2300.00,0.00,t,"GM"
201612,"RY1","Scott Pearson","1109815","1994-03-17","Standard",500,0,175,22,44.05,0.00,0.00,0.00,0,2300,13.0,0.0,13.0,230,f,98.50,t,86.11,t,23.00,f,9.00,t,2990.0,2990.00,0.00,t,"GM"
201612,"RY1","Allen Preston","1112410","2014-02-10","Standard",500,0,33,2,22.57,0.00,0.00,0.00,0,2300,10.0,0.0,10.0,200,f,98.90,t,91.43,t,21.00,f,26.00,t,2000.0,2300.00,0.00,t,"GM"
201612,"RY1","Larry Stadstad","1130690","2007-08-20","Standard",500,0,23,9,32.76,0.00,0.00,0.00,0,5000,5.0,0.0,5.0,200,f,96.10,t,91.30,t,13.00,f,0.00,f,1000.0,5000.00,0.00,t,"GM"
201612,"RY1","Corey Eden","137220","2016-02-01","Standard",500,0,10,0,0.00,0.00,0.00,0.00,0,2600,13.0,0.0,13.0,260,t,96.00,t,85.42,t,53.00,t,10.00,t,3380.0,3380.00,0.00,t,"GM"
201612,"RY1","Christopher Carlson","123425","2012-03-26","Standard",500,0,56,4,36.20,24.00,868.80,0.00,0,2300,12.0,0.0,12.0,230,f,94.40,t,92.86,t,25.00,f,12.00,t,2760.0,3628.80,0.00,t,"GM"
201612,"RY1","Jesse Chavez","124120","2014-10-23","Standard",500,0,29,2,21.05,0.00,0.00,0.00,0,2300,15.0,0.0,15.0,280,f,100.00,t,87.23,t,32.00,t,3.00,f,4200.0,4200.00,0.00,t,"GM"
201612,"RY1","Craig Croaker","128530","2007-01-30","Standard",500,0,118,9,62.94,0.00,0.00,2125.00,0,2300,15.0,0.0,15.0,280,f,95.80,t,90.16,t,29.00,f,22.00,t,4200.0,6325.00,0.00,t,"GM"
201612,"RY1","Nate Dockendorf","133017","2015-05-18","Standard",500,0,18,1,24.78,0.00,0.00,0.00,0,2300,11.0,0.0,11.0,230,f,91.80,f,94.44,t,32.00,t,16.00,t,2530.0,2530.00,0.00,t,"GM"
201612,"RY1","Stephen Flaat","145840","2005-02-01","Standard",500,0,142,11,34.18,0.00,0.00,0.00,0,2300,11.0,0.0,11.0,230,f,0.00,f,92.31,t,0.00,f,0.00,f,2530.0,2530.00,0.00,t,"GM"
201612,"RY1","Samuel Foster","148080","2014-11-17","Standard",500,0,24,2,21.25,0.00,0.00,0.00,0,2300,7.0,0.0,7.0,200,f,93.90,t,87.88,t,51.00,t,2.00,f,1400.0,2300.00,0.00,t,"GM"
201612,"RY1","Dylanger Haley","163700","2016-09-27","Standard",500,0,2,0,0.00,0.00,0.00,400.00,0,2600,5.5,0.0,5.5,230,t,100.00,t,82.61,t,31.00,t,7.00,t,1265.0,3000.00,0.00,t,"GM"
201612,"RY1","Brett Hanson","161325","2003-04-14","Standard",500,0,163,13,44.10,0.00,0.00,0.00,0,4000,11.0,0.0,11.0,230,f,89.20,f,86.27,t,27.00,f,26.00,t,2530.0,4000.00,0.00,t,"GM"
201612,"RY1","Jared Homstad","167600","2015-03-30","Standard",500,0,20,1,24.91,0.00,0.00,0.00,0,2600,15.0,0.0,15.0,310,t,96.30,t,92.11,t,57.00,t,15.00,t,4650.0,4650.00,0.00,t,"GM"
201612,"RY1","Lakeith Strother","1132420","2014-03-28","Standard",500,0,7,2,15.48,0.00,0.00,0.00,0,2300,8.0,0.0,8.0,200,f,50.00,f,92.31,t,16.00,f,0.00,f,1600.0,2300.00,0.00,t,"GM"
201612,"RY1","Tanner Trosen","1141642","2015-08-17","Standard",500,0,15,1,19.54,0.00,0.00,0.00,0,2600,12.0,0.0,12.0,260,t,94.90,t,96.00,t,55.00,t,16.00,t,3120.0,3120.00,0.00,t,"GM"
201612,"RY1","James Warmack","1147250","1985-03-01","Standard",500,0,67,31,38.83,0.00,0.00,0.00,0,2300,12.0,0.0,12.0,230,f,97.30,t,78.85,t,26.00,f,8.00,t,2760.0,2760.00,0.00,t,"GM"
201612,"RY1","Logan Carter","123600","2015-03-30","Standard",500,0,20,1,15.46,0.00,0.00,0.00,0,2300,11.0,0.0,11.0,230,f,100.00,t,84.21,t,28.00,f,5.00,t,2530.0,2530.00,0.00,t,"GM"
201612,"RY1","Jeff Tarr","1135518","1993-11-01","Standard",500,0,277,23,13.72,0.00,0.00,0.00,0,2300,3.5,0.0,3.5,200,f,0.00,f,88.00,t,0.00,f,0.00,f,700.0,2300.00,0.00,t,"GM"
201612,"RY1","George Yunker","1151450","2016-09-26","Standard",500,0,2,0,0.00,0.00,0.00,0.00,0,2600,6.0,0.0,6.0,230,t,100.00,t,94.44,t,31.00,t,18.00,t,1380.0,2600.00,0.00,t,"GM"
201612,"RY1","Austin Janzen","171150","2016-05-23","Standard",500,0,6,0,0.00,0.00,0.00,0.00,0,2300,8.0,0.0,8.0,200,f,82.10,f,90.38,t,31.00,t,20.00,t,1600.0,2300.00,0.00,t,"GM"
201612,"RY1","Arden Loven","189100","2010-03-08","Standard",500,0,80,6,20.90,0.00,0.00,0.00,0,2300,6.0,0.0,6.0,200,f,88.90,f,89.47,t,19.00,f,0.00,f,1200.0,2300.00,0.00,t,"GM"
