3810	"AMUNDSON, GLENN"			"insert into tmp_dl values('3810','AMUNDSON, GLENN','');"
11677	"BELGARDE, NATHAN"	BEL901906		"insert into tmp_dl values('11677','BELGARDE, NATHAN','BEL901906');"
18050	"BROCKMAN, CALVIN H"	B625108319843		"insert into tmp_dl values('18050','BROCKMAN, CALVIN H','B625108319843');"
20541	"ELLIOT, JOHN"	H898060604625		"insert into tmp_dl values('20541','ELLIOT, JOHN','H898060604625');"
21010	"ADAMS, JEFF M"	P126129369809		"insert into tmp_dl values('21010','ADAMS, JEFF M','P126129369809');"
22315	"ADAMS, BRANDON"	ADA-90-4367		"insert into tmp_dl values('22315','ADAMS, BRANDON','ADA-90-4367');"
22358	"HUGHES, KAITLYN"	HUG-96-1038		"insert into tmp_dl values('22358','HUGHES, KAITLYN','HUG-96-1038');"
22910	"AMES, JOSHUA S"	W453220046312		"insert into tmp_dl values('22910','AMES, JOSHUA S','W453220046312');"
23620	"ALVARADO, RAMIRO"	ALV-79-7321		"insert into tmp_dl values('23620','ALVARADO, RAMIRO','ALV-79-7321');"
23815	"ANDERSON, STEVEN L"	AND-43-4718		"insert into tmp_dl values('23815','ANDERSON, STEVEN L','AND-43-4718');"
23900	"ANDREWS, DALE R"	AND444091		"insert into tmp_dl values('23900','ANDREWS, DALE R','AND444091');"
24100	"ANDERSON, JOSEPH K"	AND-40-9260		"insert into tmp_dl values('24100','ANDERSON, JOSEPH K','AND-40-9260');"
24210	"ANFILOFIEFF, IVAN M"	H568028138819		"insert into tmp_dl values('24210','ANFILOFIEFF, IVAN M','H568028138819');"
24410	"FETSCH, NICHOLAS"	FET924054		"insert into tmp_dl values('24410','FETSCH, NICHOLAS','FET924054');"
24551	"BUCKHOLZ, TYLER"	BUC-01-7600		"insert into tmp_dl values('24551','BUCKHOLZ, TYLER','BUC-01-7600');"
24575	"CHRISTIANSON, DALE"	CHR382326		"insert into tmp_dl values('24575','CHRISTIANSON, DALE','CHR382326');"
24665	"BATZER, CORY"	BAT-99-5304		"insert into tmp_dl values('24665','BATZER, CORY','BAT-99-5304');"
26442	"GJESTVANG, GRIFFIN"	GJE- 99-9008		"insert into tmp_dl values('26442','GJESTVANG, GRIFFIN','GJE- 99-9008');"
27410	"AUNE, LINDSEY"	AUN959858		"insert into tmp_dl values('27410','AUNE, LINDSEY','AUN959858');"
27534	"AUBOL, THOMAS B"	A140792098452		"insert into tmp_dl values('27534','AUBOL, THOMAS B','A140792098452');"
27580	"AVALOS, JUAN"	AVA753908		"insert into tmp_dl values('27580','AVALOS, JUAN','AVA753908');"
28580	"BACHMEIER, DUSTIN M"	D01307089		"insert into tmp_dl values('28580','BACHMEIER, DUSTIN M','D01307089');"
32905	"DESROSIER, SARA"			"insert into tmp_dl values('32905','DESROSIER, SARA','');"
33042	"DIEHL, BRANDON"	DIE886631		"insert into tmp_dl values('33042','DIEHL, BRANDON','DIE886631');"
40510	"ERICKSON, PAUL L"			"insert into tmp_dl values('40510','ERICKSON, PAUL L','');"
61495	"HARDIN, CHRISTOPHER W"	HAR878477		"insert into tmp_dl values('61495','HARDIN, CHRISTOPHER W','HAR878477');"
63330	"HEINLE, NICHOLAS"			"insert into tmp_dl values('63330','HEINLE, NICHOLAS','');"
67970	"HOULE SR, WAYLON L"			"insert into tmp_dl values('67970','HOULE SR, WAYLON L','');"
67992	"HUERKAMP, TRAVIS M"			"insert into tmp_dl values('67992','HUERKAMP, TRAVIS M','');"
72519	"JENKINS, ZACHERY L"			"insert into tmp_dl values('72519','JENKINS, ZACHERY L','');"
77207	"KELLAR, CALEB"			"insert into tmp_dl values('77207','KELLAR, CALEB','');"
80408	"KRATOCHVIL, KEITH"			"insert into tmp_dl values('80408','KRATOCHVIL, KEITH','');"
89350	"LYON, SHANE D"			"insert into tmp_dl values('89350','LYON, SHANE D','');"
90600	"MAIXNER, PATRICK"			"insert into tmp_dl values('90600','MAIXNER, PATRICK','');"
96580	"MILLER, AMANDA M"	H348099114615		"insert into tmp_dl values('96580','MILLER, AMANDA M','H348099114615');"
97174	"MOHAMED, TESFAYE"			"insert into tmp_dl values('97174','MOHAMED, TESFAYE','');"
97176	"MONETTE, MIKE S"	MON680737		"insert into tmp_dl values('97176','MONETTE, MIKE S','MON680737');"
97788	"MORIN, MARTY"			"insert into tmp_dl values('97788','MORIN, MARTY','');"
120495	"RYDELL, WESLEY"			"insert into tmp_dl values('120495','RYDELL, WESLEY','');"
122362	"SAVAGE, CHARLES R"			"insert into tmp_dl values('122362','SAVAGE, CHARLES R','');"
124910	"SCHLENKER, GENE"			"insert into tmp_dl values('124910','SCHLENKER, GENE','');"
127210	"SIREK, ANDREW"			"insert into tmp_dl values('127210','SIREK, ANDREW','');"
129200	"SNIDER, JAMES"	SNI908626		"insert into tmp_dl values('129200','SNIDER, JAMES','SNI908626');"
146470	"WAGES SR, DAUANE"			"insert into tmp_dl values('146470','WAGES SR, DAUANE','');"
146976	"WANGLER, CHASE LEE"			"insert into tmp_dl values('146976','WANGLER, CHASE LEE','');"
148896	"WICKEN, LYLE"	WIC-36-5802		"insert into tmp_dl values('148896','WICKEN, LYLE','WIC-36-5802');"
210015	"BADE, MACKENZIE A"	A941011406914		"insert into tmp_dl values('210015','BADE, MACKENZIE A','A941011406914');"
210073	"BARON, CORY"	BAR-85-8999		"insert into tmp_dl values('210073','BARON, CORY','BAR-85-8999');"
210123	"BARTA, PATRICK"	BAR-78-0329		"insert into tmp_dl values('210123','BARTA, PATRICK','BAR-78-0329');"
210800	"BAUER, PETER"	8654666		"insert into tmp_dl values('210800','BAUER, PETER','8654666');"
211050	"BARKER, DAVID L"	102767401		"insert into tmp_dl values('211050','BARKER, DAVID L','102767401');"
211108	"BARTA, JOEY KYLE"	BAR-93-0777		"insert into tmp_dl values('211108','BARTA, JOEY KYLE','BAR-93-0777');"
211125	"BAUERLE, MELISSA C"	BAU-71-6762		"insert into tmp_dl values('211125','BAUERLE, MELISSA C','BAU-71-6762');"
211201	"PROIS, JUSTIN"	PRO-91-9335		"insert into tmp_dl values('211201','PROIS, JUSTIN','PRO-91-9335');"
211232	"HOLLAND, NIKOLAI"	HOL-94-3819		"insert into tmp_dl values('211232','HOLLAND, NIKOLAI','HOL-94-3819');"
211260	"ENOCKSON, ZACHARY"	ENO-99-4779		"insert into tmp_dl values('211260','ENOCKSON, ZACHARY','ENO-99-4779');"
211568	"ZEMAN, HUNTER"	S439195641416		"insert into tmp_dl values('211568','ZEMAN, HUNTER','S439195641416');"
211610	"BEISWENGER, DAVID R"	G497045601420		"insert into tmp_dl values('211610','BEISWENGER, DAVID R','G497045601420');"
211675	"BELGARDE, KEN MIKE"	BEL96858		"insert into tmp_dl values('211675','BELGARDE, KEN MIKE','BEL96858');"
212120	"BJERK, CHRISTOPHER L"	A221069789205		"insert into tmp_dl values('212120','BJERK, CHRISTOPHER L','A221069789205');"
212589	"BEDNEY, TYLER"	BED-94-2199		"insert into tmp_dl values('212589','BEDNEY, TYLER','BED-94-2199');"
212800	"MOLSTAD, BRANDON L"			"insert into tmp_dl values('212800','MOLSTAD, BRANDON L','');"
213050	"POTRATZ, MICHAEL"	POT-89-4310		"insert into tmp_dl values('213050','POTRATZ, MICHAEL','POT-89-4310');"
213190	"BERGLUND, JOSHUA D"	A391023441013		"insert into tmp_dl values('213190','BERGLUND, JOSHUA D','A391023441013');"
213220	"BERGMAN, BRAD A"	BER-92-3826		"insert into tmp_dl values('213220','BERGMAN, BRAD A','BER-92-3826');"
213260	"BERGSTROM, MARCUS J"	BER90174		"insert into tmp_dl values('213260','BERGSTROM, MARCUS J','BER90174');"
213406	"BISENIUS, MICHELLE A"	BIS-94-3595		"insert into tmp_dl values('213406','BISENIUS, MICHELLE A','BIS-94-3595');"
213410	"BASNET, SURANDRA"			"insert into tmp_dl values('213410','BASNET, SURANDRA','');"
213515	"BESTUL, KIMBERLY A"	D08237225		"insert into tmp_dl values('213515','BESTUL, KIMBERLY A','D08237225');"
213520	"BINA, NOAH P"	BIN-97-6298		"insert into tmp_dl values('213520','BINA, NOAH P','BIN-97-6298');"
214210	"BHATTARAI, SUK BAHADUR"	BHA-89-3428		"insert into tmp_dl values('214210','BHATTARAI, SUK BAHADUR','BHA-89-3428');"
214700	"BLOM, JOANN"	F106082708707		"insert into tmp_dl values('214700','BLOM, JOANN','F106082708707');"
215883	"MONREAL, JESSIE"	MON-92-9878		"insert into tmp_dl values('215883','MONREAL, JESSIE','MON-92-9878');"
216500	"BONTRAGER, JORDAN L"	D06631151		"insert into tmp_dl values('216500','BONTRAGER, JORDAN L','D06631151');"
216510	"BONTRAGER, KYLE"	BON-94-6034		"insert into tmp_dl values('216510','BONTRAGER, KYLE','BON-94-6034');"
217100	"BREKKE, DEVON Y"	A841029487413		"insert into tmp_dl values('217100','BREKKE, DEVON Y','A841029487413');"
218010	"PANTALION, DANIEL"	G117099957909		"insert into tmp_dl values('218010','PANTALION, DANIEL','G117099957909');"
218024	"BRIDGEFORD, SHANNAN J"	X894224310221		"insert into tmp_dl values('218024','BRIDGEFORD, SHANNAN J','X894224310221');"
218032	"BRIER, ROMAN"	BRI-83-0539		"insert into tmp_dl values('218032','BRIER, ROMAN','BRI-83-0539');"
218310	"BRAGUNIER, KYLE D"	BRA-94-8127		"insert into tmp_dl values('218310','BRAGUNIER, KYLE D','BRA-94-8127');"
218350	"BROUILLET, CHRISTOPHER"	BRO823311		"insert into tmp_dl values('218350','BROUILLET, CHRISTOPHER','BRO823311');"
218351	"BREAUX, TONY M"	Q937167677619		"insert into tmp_dl values('218351','BREAUX, TONY M','Q937167677619');"
218360	"BRONCZYK, JACOB F"	Z796246779622		"insert into tmp_dl values('218360','BRONCZYK, JACOB F','Z796246779622');"
219530	"BROWN, TIMOTHY J"	BRO-88-3531		"insert into tmp_dl values('219530','BROWN, TIMOTHY J','BRO-88-3531');"
221080	"BURKE, KRISTIE"	BUR-74-1991		"insert into tmp_dl values('221080','BURKE, KRISTIE','BUR-74-1991');"
221101	"BURGER, JERAMY R"	Y965243230620		"insert into tmp_dl values('221101','BURGER, JERAMY R','Y965243230620');"
222300	"BUSHAW, WILLIAM L"	BUS461192		"insert into tmp_dl values('222300','BUSHAW, WILLIAM L','BUS461192');"
222457	"CALCATERRA, CHAD E"	T510210279106		"insert into tmp_dl values('222457','CALCATERRA, CHAD E','T510210279106');"
222690	"CARL, JUSTIN J"	CAR837539		"insert into tmp_dl values('222690','CARL, JUSTIN J','CAR837539');"
222700	"CHANTELOIS, LINDSEY"	C534522585537		"insert into tmp_dl values('222700','CHANTELOIS, LINDSEY','C534522585537');"
222710	"CASTORENO, AARON P"	CAS-85-3825		"insert into tmp_dl values('222710','CASTORENO, AARON P','CAS-85-3825');"
222810	"COVELL, BRIAN C"	COV-21-1969		"insert into tmp_dl values('222810','COVELL, BRIAN C','COV-21-1969');"
223010	"CARLSON, GABRIELLE J"	CAR-96-5263		"insert into tmp_dl values('223010','CARLSON, GABRIELLE J','CAR-96-5263');"
223050	"CARLSTROM, NATHAN T"	CAR-97-9309		"insert into tmp_dl values('223050','CARLSTROM, NATHAN T','CAR-97-9309');"
223065	"CASEY, TYLER M"	Z646251750716		"insert into tmp_dl values('223065','CASEY, TYLER M','Z646251750716');"
223100	"CHHETRI, PADAM B"	CHH-91-3187		"insert into tmp_dl values('223100','CHHETRI, PADAM B','CHH-91-3187');"
223200	"CHAPUT, ALEXANDER"	CHA-92-1324		"insert into tmp_dl values('223200','CHAPUT, ALEXANDER','CHA-92-1324');"
223410	"CHAFFEE, ZACHARY N"	Y035253551208		"insert into tmp_dl values('223410','CHAFFEE, ZACHARY N','Y035253551208');"
223654	"THIBERT, MASON"	THI-00-3579		"insert into tmp_dl values('223654','THIBERT, MASON','THI-00-3579');"
225450	"CLARK, CORY"	CLA814232		"insert into tmp_dl values('225450','CLARK, CORY','CLA814232');"
226700	"COLLINS, BRIAN J"	F286063641016		"insert into tmp_dl values('226700','COLLINS, BRIAN J','F286063641016');"
230601	"DANGERFIELD, JOEL"	DAN-66-9874		"insert into tmp_dl values('230601','DANGERFIELD, JOEL','DAN-66-9874');"
230752	"DODDS, JOSHUA A"	DOD-80-3848		"insert into tmp_dl values('230752','DODDS, JOSHUA A','DOD-80-3848');"
230810	"DOERR, ROY"	DOE-41-8506		"insert into tmp_dl values('230810','DOERR, ROY','DOE-41-8506');"
231121	"DVORAK, KASS"	DVO-96-3299		"insert into tmp_dl values('231121','DVORAK, KASS','DVO-96-3299');"
232874	"JOHNSON, ALLYN"	JOH-54-7563		"insert into tmp_dl values('232874','JOHNSON, ALLYN','JOH-54-7563');"
232985	"GILGALLON, KEVIN"	GIL-89-3713		"insert into tmp_dl values('232985','GILGALLON, KEVIN','GIL-89-3713');"
234950	"DRAPER, MEAGAN L"	D61655284818		"insert into tmp_dl values('234950','DRAPER, MEAGAN L','D61655284818');"
235489	"DANZEY, MARIAH"	DAN-98-5996		"insert into tmp_dl values('235489','DANZEY, MARIAH','DAN-98-5996');"
235791	"DALLOW, BENJAMIN"	DAL-98-9593		"insert into tmp_dl values('235791','DALLOW, BENJAMIN','DAL-98-9593');"
240120	"ENNO, JORDAN E"	ENN-94-1333		"insert into tmp_dl values('240120','ENNO, JORDAN E','ENN-94-1333');"
240410	"ERICKSON, ANDREW"	ERI-90-4813		"insert into tmp_dl values('240410','ERICKSON, ANDREW','ERI-90-4813');"
241010	"EGELAND, TALON M"	W173224712411		"insert into tmp_dl values('241010','EGELAND, TALON M','W173224712411');"
241080	"ENGLERT, JESSICA R"	ENG-90-0480		"insert into tmp_dl values('241080','ENGLERT, JESSICA R','ENG-90-0480');"
241085	"EVENSON, GARRETT"	EVE-86-7844		"insert into tmp_dl values('241085','EVENSON, GARRETT','EVE-86-7844');"
241120	"EDWARDS, MICAH"	EDW-90-8316		"insert into tmp_dl values('241120','EDWARDS, MICAH','EDW-90-8316');"
241204	"GARBER, CHASE A"	GAR-87-0605		"insert into tmp_dl values('241204','GARBER, CHASE A','GAR-87-0605');"
241310	"ESPELIEN, TYLER T"	ESP-92-1051		"insert into tmp_dl values('241310','ESPELIEN, TYLER T','ESP-92-1051');"
241632	"GAUNT, NATHAN"	GAU-90-6404		"insert into tmp_dl values('241632','GAUNT, NATHAN','GAU-90-6404');"
241826	"GOLKE, BRENT J"	GOL-81-2420		"insert into tmp_dl values('241826','GOLKE, BRENT J','GOL-81-2420');"
242025	"FOX, DONALD L"	FOX-82-1339		"insert into tmp_dl values('242025','FOX, DONALD L','FOX-82-1339');"
242056	"GONITZKE, GRANT P"	GON-92-5232		"insert into tmp_dl values('242056','GONITZKE, GRANT P','GON-92-5232');"
242460	"TWETEN, MICHAEL"	TWE-80-8737		"insert into tmp_dl values('242460','TWETEN, MICHAEL','TWE-80-8737');"
242539	"SALDANA, DEION"	SAL-96-3439		"insert into tmp_dl values('242539','SALDANA, DEION','SAL-96-3439');"
243180	"FEIST, LUDWIG"	501709498		"insert into tmp_dl values('243180','FEIST, LUDWIG','501709498');"
243876	"JOHNSON, CHRISTIE"	JOH-89-9822		"insert into tmp_dl values('243876','JOHNSON, CHRISTIE','JOH-89-9822');"
245010	"SANDBECK, MATT"	SAN-89-0587		"insert into tmp_dl values('245010','SANDBECK, MATT','SAN-89-0587');"
245879	"HOUSKA, ETHAN"	HOU-97-0593		"insert into tmp_dl values('245879','HOUSKA, ETHAN','HOU-97-0593');"
245987	"RAI, SAN"	RAI-94-0499		"insert into tmp_dl values('245987','RAI, SAN','RAI-94-0499');"
247000	"FRASER, BRADEN"	FRA-97-6422		"insert into tmp_dl values('247000','FRASER, BRADEN','FRA-97-6422');"
247310	"FORENG, LINDSEY M"			"insert into tmp_dl values('247310','FORENG, LINDSEY M','');"
248460	"FRENCH, DAVID L"	FRE549449		"insert into tmp_dl values('248460','FRENCH, DAVID L','FRE549449');"
248920	"FRUETEL, STEVEN R"	FRU560659		"insert into tmp_dl values('248920','FRUETEL, STEVEN R','FRU560659');"
249315	"LOUGEE, THOMAS"	LOU-00-8303		"insert into tmp_dl values('249315','LOUGEE, THOMAS','LOU-00-8303');"
249750	"GABRIELSON, JAMES"	W343264093610		"insert into tmp_dl values('249750','GABRIELSON, JAMES','W343264093610');"
250130	"GERSZEWSKI, NICK L"	GER-95-7838		"insert into tmp_dl values('250130','GERSZEWSKI, NICK L','GER-95-7838');"
250140	"GRIPPO, SERENA C"	J560196802611		"insert into tmp_dl values('250140','GRIPPO, SERENA C','J560196802611');"
251210	"GUILLEMETTE, RICHARD J"	Z586298199019		"insert into tmp_dl values('251210','GUILLEMETTE, RICHARD J','Z586298199019');"
252100	"GILBERG, CHAD J"	GIL-89-7286		"insert into tmp_dl values('252100','GILBERG, CHAD J','GIL-89-7286');"
252520	"GROCHOW, KYLE"	W523269191310		"insert into tmp_dl values('252520','GROCHOW, KYLE','W523269191310');"
252521	"GRANADOS, TIMOTHY"	28636921		"insert into tmp_dl values('252521','GRANADOS, TIMOTHY','28636921');"
254327	"GROLLIMUND, TYLER"	GRO-95-6893		"insert into tmp_dl values('254327','GROLLIMUND, TYLER','GRO-95-6893');"
254871	"ESPINOZA, JAKUB"	ESP-91-6773		"insert into tmp_dl values('254871','ESPINOZA, JAKUB','ESP-91-6773');"
254976	"BINA, BENJAMIN"	BIN-97-6300		"insert into tmp_dl values('254976','BINA, BENJAMIN','BIN-97-6300');"
255488	"SAUVE, CASEY"	J260146293008		"insert into tmp_dl values('255488','SAUVE, CASEY','J260146293008');"
255950	"SANGRAIT, DUSTIN JAMES"	GRO-88-7985		"insert into tmp_dl values('255950','SANGRAIT, DUSTIN JAMES','GRO-88-7985');"
256689	"HALGRIMSON, JARED"	E185019576814		"insert into tmp_dl values('256689','HALGRIMSON, JARED','E185019576814');"
256845	"SUTHERLAND, BROOKE"	SAB-91-5020		"insert into tmp_dl values('256845','SUTHERLAND, BROOKE','SAB-91-5020');"
256879	"JENSON, MARK A"	S089131739717		"insert into tmp_dl values('256879','JENSON, MARK A','S089131739717');"
256984	"ZAPZALKA, WYATT"	G357065824915		"insert into tmp_dl values('256984','ZAPZALKA, WYATT','G357065824915');"
257932	"SALLADE, CHRISTIAN"	104019984115		"insert into tmp_dl values('257932','SALLADE, CHRISTIAN','104019984115');"
258369	"MACK, JAMES"	W003289492903		"insert into tmp_dl values('258369','MACK, JAMES','W003289492903');"
260045	"HARRIS, JAMES C"	HAR-92-5223		"insert into tmp_dl values('260045','HARRIS, JAMES C','HAR-92-5223');"
263095	"HAGER, DELWYN D"	HAG-28-1949		"insert into tmp_dl values('263095','HAGER, DELWYN D','HAG-28-1949');"
263101	"HAGER, JONATHAN E"	H260425782160		"insert into tmp_dl values('263101','HAGER, JONATHAN E','H260425782160');"
263120	"HAGAN, ALEX R"	J520152791707		"insert into tmp_dl values('263120','HAGAN, ALEX R','J520152791707');"
263840	"HALE, ROBERT"	0602319904122		"insert into tmp_dl values('263840','HALE, ROBERT','0602319904122');"
264000	"HANSON, KIRSTY"	HAN-90-9338		"insert into tmp_dl values('264000','HANSON, KIRSTY','HAN-90-9338');"
264050	"HALL, JOSHUA S"	HAL-94-1152		"insert into tmp_dl values('264050','HALL, JOSHUA S','HAL-94-1152');"
264101	"HARMEL, CADE M"	Q267172546215		"insert into tmp_dl values('264101','HARMEL, CADE M','Q267172546215');"
264110	"HEAZLETT, CURTIS F"	HEA-50-8298		"insert into tmp_dl values('264110','HEAZLETT, CURTIS F','HEA-50-8298');"
264220	"HELGESON, JEFFREY S"	HEL-89-7548		"insert into tmp_dl values('264220','HELGESON, JEFFREY S','HEL-89-7548');"
264235	"HICKMAN, NEIL A"	HIC-92-4851		"insert into tmp_dl values('264235','HICKMAN, NEIL A','HIC-92-4851');"
264250	"HENRICKSON, LANCE G"	P686106422320		"insert into tmp_dl values('264250','HENRICKSON, LANCE G','P686106422320');"
264387	"OLVERA, CHRISTIAN"	OLV-95-6027		"insert into tmp_dl values('264387','OLVERA, CHRISTIAN','OLV-95-6027');"
264510	"HUGHES, KODY"	HUG-95-1104		"insert into tmp_dl values('264510','HUGHES, KODY','HUG-95-1104');"
264852	"SUMMERS, SAMANTHA"	SUM-98-7104		"insert into tmp_dl values('264852','SUMMERS, SAMANTHA','SUM-98-7104');"
264972	"DANGERFIELD, JAXSON"	DAN-97-8583		"insert into tmp_dl values('264972','DANGERFIELD, JAXSON','DAN-97-8583');"
265348	"PIERCE, BRETT"	PIE-91-1469		"insert into tmp_dl values('265348','PIERCE, BRETT','PIE-91-1469');"
265421	"DURAND, TIMOTHY"	DUR-83-0505		"insert into tmp_dl values('265421','DURAND, TIMOTHY','DUR-83-0505');"
265498	"BOHN, CHRISTOPHER"	BOH-94-4682		"insert into tmp_dl values('265498','BOHN, CHRISTOPHER','BOH-94-4682');"
265783	"GERLACH, LUKE"	GER-93-3075		"insert into tmp_dl values('265783','GERLACH, LUKE','GER-93-3075');"
265849	"MOORE, JOSHUA"	MOO-98-5000		"insert into tmp_dl values('265849','MOORE, JOSHUA','MOO-98-5000');"
265873	"BUDEAU, KAYLA"	BUD-98-9624		"insert into tmp_dl values('265873','BUDEAU, KAYLA','BUD-98-9624');"
265874	"KARR, RICHARD"	Y345284759112		"insert into tmp_dl values('265874','KARR, RICHARD','Y345284759112');"
265875	"WILSON, ORA"	T300289892103		"insert into tmp_dl values('265875','WILSON, ORA','T300289892103');"
266010	"HOBERG, JEFFREY J"	HOB-89-7567		"insert into tmp_dl values('266010','HOBERG, JEFFREY J','HOB-89-7567');"
266020	"HODEK, BRANDON"	HOP-90-5308		"insert into tmp_dl values('266020','HODEK, BRANDON','HOP-90-5308');"
266065	"HOFFMANN, CHRISTOPHER R"	HOF-93-337		"insert into tmp_dl values('266065','HOFFMANN, CHRISTOPHER R','HOF-93-337');"
267410	"HOLMEN, ARNE"	HOL-58-2822		"insert into tmp_dl values('267410','HOLMEN, ARNE','HOL-58-2822');"
267531	"RAMON JR, MICHAEL"	RAM-96-0926		"insert into tmp_dl values('267531','RAMON JR, MICHAEL','RAM-96-0926');"
267534	"GIGSTAD, ISAAC"	GIG-97-9626		"insert into tmp_dl values('267534','GIGSTAD, ISAAC','GIG-97-9626');"
267843	"ROMIG, THOMAS"	ROM-73-7727		"insert into tmp_dl values('267843','ROMIG, THOMAS','ROM-73-7727');"
267934	"PFAFF, JONATHAN T"	PFA-96-3105		"insert into tmp_dl values('267934','PFAFF, JONATHAN T','PFA-96-3105');"
268000	"JONES, JORDAN A"	JON-92-9848		"insert into tmp_dl values('268000','JONES, JORDAN A','JON-92-9848');"
268007	"HOVEY, JONATHAN M"	HOV-89-9948		"insert into tmp_dl values('268007','HOVEY, JONATHAN M','HOV-89-9948');"
268100	"HUSKINSON, BRANDIE L"	LA216214G		"insert into tmp_dl values('268100','HUSKINSON, BRANDIE L','LA216214G');"
268200	"HUTZOL, SEAN M"	HUT-91-1203		"insert into tmp_dl values('268200','HUTZOL, SEAN M','HUT-91-1203');"
268523	"JEROME, TRISTAN"	JER-95-7660		"insert into tmp_dl values('268523','JEROME, TRISTAN','JER-95-7660');"
268573	"AAMODT, MATTHEW"	L272139901811		"insert into tmp_dl values('268573','AAMODT, MATTHEW','L272139901811');"
268753	"HUEWE, LUCAS"	G077033853314		"insert into tmp_dl values('268753','HUEWE, LUCAS','G077033853314');"
269843	"BOOKER, JEREMIAH"	BOO-91-6625		"insert into tmp_dl values('269843','BOOKER, JEREMIAH','BOO-91-6625');"
269852	"MAGNUSON, TYLER"	MAG-92-7038		"insert into tmp_dl values('269852','MAGNUSON, TYLER','MAG-92-7038');"
270101	"INAD, IHSAN H"	INA-75-8862		"insert into tmp_dl values('270101','INAD, IHSAN H','INA-75-8862');"
272518	"JENKINS, ZACHERY L"	JEN899004		"insert into tmp_dl values('272518','JENKINS, ZACHERY L','JEN899004');"
273315	"JOHNSON, BRANDON J"	JOH-85-9957		"insert into tmp_dl values('273315','JOHNSON, BRANDON J','JOH-85-9957');"
273400	"JOHNSON, MARC S"	JOH-80-9495		"insert into tmp_dl values('273400','JOHNSON, MARC S','JOH-80-9495');"
273489	"JOHNSON, ALEXANDRIA N"	L100044630952		"insert into tmp_dl values('273489','JOHNSON, ALEXANDRIA N','L100044630952');"
274225	"JOHNSON, DUSTIN A"	JOH-82-0384		"insert into tmp_dl values('274225','JOHNSON, DUSTIN A','JOH-82-0384');"
274280	"JOHNSON, STACEY"	0402607428		"insert into tmp_dl values('274280','JOHNSON, STACEY','0402607428');"
275342	"LOUDEN, ZAKERY"	LOU-92-2106		"insert into tmp_dl values('275342','LOUDEN, ZAKERY','LOU-92-2106');"
276431	"ENGEBRETSON, ERIK"	D914065629214		"insert into tmp_dl values('276431','ENGEBRETSON, ERIK','D914065629214');"
277160	"KEHOE, MICHAEL D"	KEH-83-3069		"insert into tmp_dl values('277160','KEHOE, MICHAEL D','KEH-83-3069');"
279050	"KLINER, PATRICK H"	D054049915309		"insert into tmp_dl values('279050','KLINER, PATRICK H','D054049915309');"
279500	"KORDAHL, STEVEN C"	KOR-57-2888		"insert into tmp_dl values('279500','KORDAHL, STEVEN C','KOR-57-2888');"
279560	"KNUTSON, MARC"	KNU-87-9109		"insert into tmp_dl values('279560','KNUTSON, MARC','KNU-87-9109');"
279600	"JOPP, KALI M"	JOP-92-0273		"insert into tmp_dl values('279600','JOPP, KALI M','JOP-92-0273');"
279630	"KNUDSON, KENNETH"	KNU-57-9305		"insert into tmp_dl values('279630','KNUDSON, KENNETH','KNU-57-9305');"
279720	"KREUN, CURTISS E"	KRE-50-2462		"insert into tmp_dl values('279720','KREUN, CURTISS E','KRE-50-2462');"
280510	"KRASKA, CODY J"	Y635207056614		"insert into tmp_dl values('280510','KRASKA, CODY J','Y635207056614');"
281200	"KUCHAR, REID E"	KUC-90-7343		"insert into tmp_dl values('281200','KUCHAR, REID E','KUC-90-7343');"
281325	"KUEFLER, JAMES"	KUE-31-0376		"insert into tmp_dl values('281325','KUEFLER, JAMES','KUE-31-0376');"
282713	"LARSON, CODY J"	D275038031414		"insert into tmp_dl values('282713','LARSON, CODY J','D275038031414');"
282715	"LARUE, JOSHUA"	LAR-95-9291		"insert into tmp_dl values('282715','LARUE, JOSHUA','LAR-95-9291');"
283120	"LASHLEY, TRAVIS M"	H13163681		"insert into tmp_dl values('283120','LASHLEY, TRAVIS M','H13163681');"
283125	"LARSON, DUSTIN A"	LAR-91-8618		"insert into tmp_dl values('283125','LARSON, DUSTIN A','LAR-91-8618');"
283130	"LACEY, MEGAN MARIE"	L982114358919		"insert into tmp_dl values('283130','LACEY, MEGAN MARIE','L982114358919');"
283326	"LAUTENSCHLAGER, TYLER"	LAU-87-4108		"insert into tmp_dl values('283326','LAUTENSCHLAGER, TYLER','LAU-87-4108');"
283521	"LAWSON, MELISSA J"	LAW-92-6997		"insert into tmp_dl values('283521','LAWSON, MELISSA J','LAW-92-6997');"
284625	"LANGENSTEIN, JARED"	LAN-80-5087		"insert into tmp_dl values('284625','LANGENSTEIN, JARED','LAN-80-5087');"
284715	"LEAR, MICHAEL ALLEN"	X994269973722		"insert into tmp_dl values('284715','LEAR, MICHAEL ALLEN','X994269973722');"
284730	"LEE, KEVIN M"	LEE-93-2152		"insert into tmp_dl values('284730','LEE, KEVIN M','LEE-93-2152');"
284750	"LEE, RACHEL Y"	R748108339219		"insert into tmp_dl values('284750','LEE, RACHEL Y','R748108339219');"
284825	"LEEPER, CLINT M"			"insert into tmp_dl values('284825','LEEPER, CLINT M','');"
285100	"LIAN, JEREMY R"	LIA-82-0165		"insert into tmp_dl values('285100','LIAN, JEREMY R','LIA-82-0165');"
285800	"LINDQUIST, ADAM J"	LIN-84-7126		"insert into tmp_dl values('285800','LINDQUIST, ADAM J','LIN-84-7126');"
285820	"LIZAKOWSKI, DANIEL"	E919181088119		"insert into tmp_dl values('285820','LIZAKOWSKI, DANIEL','E919181088119');"
285915	"LUND, EARL"	LUN-73-6473		"insert into tmp_dl values('285915','LUND, EARL','LUN-73-6473');"
286000	"LOCKNER, DAVID"	L256135866643		"insert into tmp_dl values('286000','LOCKNER, DAVID','L256135866643');"
286593	"MARTINEZ, KENNETH"	MAR-91-7322		"insert into tmp_dl values('286593','MARTINEZ, KENNETH','MAR-91-7322');"
287693	"RICHTER, JOSEPH"	F326087462011		"insert into tmp_dl values('287693','RICHTER, JOSEPH','F326087462011');"
288000	"LOPEZ, LOGAN B"	LOP-94-8036		"insert into tmp_dl values('288000','LOPEZ, LOGAN B','LOP-94-8036');"
289563	"NEUMANN, NANCY"	NEU-64-4889		"insert into tmp_dl values('289563','NEUMANN, NANCY','NEU-64-4889');"
290690	"MALIM, NUR A"	Y945216012218		"insert into tmp_dl values('290690','MALIM, NUR A','Y945216012218');"
290906	"MANNILA, JOSEPH"	M540441738922		"insert into tmp_dl values('290906','MANNILA, JOSEPH','M540441738922');"
290980	"MANZ, MICHAEL"	MAN843498		"insert into tmp_dl values('290980','MANZ, MICHAEL','MAN843498');"
291580	"MAATZ, LANDON B"	MAA-93-9181		"insert into tmp_dl values('291580','MAATZ, LANDON B','MAA-93-9181');"
291582	"MATHISEN, GARY"	MAT-47-4508		"insert into tmp_dl values('291582','MATHISEN, GARY','MAT-47-4508');"
291600	"MATHISEN, LAURIE S"	MAT-53-9539		"insert into tmp_dl values('291600','MATHISEN, LAURIE S','MAT-53-9539');"
291620	"MATTSON, BRADLEY J"			"insert into tmp_dl values('291620','MATTSON, BRADLEY J','');"
291785	"MCGEE, JUSTIN D"	H468000485018		"insert into tmp_dl values('291785','MCGEE, JUSTIN D','H468000485018');"
291810	"MCKAY, DAVID B"	MCK-59-3000		"insert into tmp_dl values('291810','MCKAY, DAVID B','MCK-59-3000');"
291850	"MCMULLEN, JESSE"	MCM852439		"insert into tmp_dl values('291850','MCMULLEN, JESSE','MCM852439');"
292058	"MAIXNER, DAVID"	MAI-91-7870		"insert into tmp_dl values('292058','MAIXNER, DAVID','MAI-91-7870');"
293210	"MCMILLIN, KELSIE R"	T310287		"insert into tmp_dl values('293210','MCMILLIN, KELSIE R','T310287');"
294387	"DUNHAM, DEXTER"	DUN-00-9108		"insert into tmp_dl values('294387','DUNHAM, DEXTER','DUN-00-9108');"
294521	"MCGOVEN, JOSHUA C"	MCG-90-7313		"insert into tmp_dl values('294521','MCGOVEN, JOSHUA C','MCG-90-7313');"
294700	"MCCLOUD, ALSATIA"	Y055271359410		"insert into tmp_dl values('294700','MCCLOUD, ALSATIA','Y055271359410');"
294810	"MCNAMEE, MATTHEW L"	MCN-86-9573		"insert into tmp_dl values('294810','MCNAMEE, MATTHEW L','MCN-86-9573');"
295100	"MULOCK, JENNIFER A"	MUL-78-2190		"insert into tmp_dl values('295100','MULOCK, JENNIFER A','MUL-78-2190');"
295148	"KELLER, JOSIAH"	KEL-86-5814		"insert into tmp_dl values('295148','KELLER, JOSIAH','KEL-86-5814');"
295435	"ERICKSON, ANTHONY"	ERI-00-3807		"insert into tmp_dl values('295435','ERICKSON, ANTHONY','ERI-00-3807');"
296110	"MISIALEK, KYLE D"	MIS-87-5727		"insert into tmp_dl values('296110','MISIALEK, KYLE D','MIS-87-5727');"
296211	"MYHRO, JEFF L"	MYH-62-2884		"insert into tmp_dl values('296211','MYHRO, JEFF L','MYH-62-2884');"
296347	"OLSON, JAMIE"	OLS-98-3011		"insert into tmp_dl values('296347','OLSON, JAMIE','OLS-98-3011');"
296950	"MOHAMED, ABDIRIZAK"	C983055477020		"insert into tmp_dl values('296950','MOHAMED, ABDIRIZAK','C983055477020');"
298342	"JONES, KEVIN"	J520512720830		"insert into tmp_dl values('298342','JONES, KEVIN','J520512720830');"
298432	"MASON, MYRON"	00146211		"insert into tmp_dl values('298432','MASON, MYRON','00146211');"
298543	"SCHINDLER, TIM"	SCH-62-4469		"insert into tmp_dl values('298543','SCHINDLER, TIM','SCH-62-4469');"
298567	"TANDESKI, JEROME"	TAN-46-1055		"insert into tmp_dl values('298567','TANDESKI, JEROME','TAN-46-1055');"
298653	"SEGALL, MASON"	SEG-97-0671		"insert into tmp_dl values('298653','SEGALL, MASON','SEG-97-0671');"
2100590	"NASH, AARON M"	NAS-90-3199		"insert into tmp_dl values('2100590','NASH, AARON M','NAS-90-3199');"
2100611	"OHMAN, NICHOLAS"	OHM-91-0700		"insert into tmp_dl values('2100611','OHMAN, NICHOLAS','OHM-91-0700');"
2100680	"NELSON, ALLEN"	NEL440327		"insert into tmp_dl values('2100680','NELSON, ALLEN','NEL440327');"
2100751	"NELSON, NICHOLAS"	NEL-97-7927		"insert into tmp_dl values('2100751','NELSON, NICHOLAS','NEL-97-7927');"
2101250	"NICE, DANIEL C"	A461050634811		"insert into tmp_dl values('2101250','NICE, DANIEL C','A461050634811');"
2102195	"NEUMANN, ANDREW D"	NEU-76-2373		"insert into tmp_dl values('2102195','NEUMANN, ANDREW D','NEU-76-2373');"
2102196	"NIELSON, CHRIS J"	NIE-64-8944		"insert into tmp_dl values('2102196','NIELSON, CHRIS J','NIE-64-8944');"
2102400	"NIEMANN, TYLER W"	01278324		"insert into tmp_dl values('2102400','NIEMANN, TYLER W','01278324');"
2102500	"NICE, DANIEL C"	A461050634811		"insert into tmp_dl values('2102500','NICE, DANIEL C','A461050634811');"
2102510	"NICE, KELLIE E"	NIC-83-3494		"insert into tmp_dl values('2102510','NICE, KELLIE E','NIC-83-3494');"
2106100	"OLSEN, ADAM"	OLS-82-7171		"insert into tmp_dl values('2106100','OLSEN, ADAM','OLS-82-7171');"
2106225	"OLDERBAK, JOHN"	OLD-72-0553		"insert into tmp_dl values('2106225','OLDERBAK, JOHN','OLD-72-0553');"
2106350	"OLSON, CHAD"	H778015652022		"insert into tmp_dl values('2106350','OLSON, CHAD','H778015652022');"
2106360	"OLSON, TRENT"	OLS701101		"insert into tmp_dl values('2106360','OLSON, TRENT','OLS701101');"
2106380	"OLSON, JEREMY D"	M093175072812		"insert into tmp_dl values('2106380','OLSON, JEREMY D','M093175072812');"
2106386	"PALM, ZACHARY"	Y125290652408		"insert into tmp_dl values('2106386','PALM, ZACHARY','Y125290652408');"
2106390	"PATE, PAMELA J"	PAT-51-4355		"insert into tmp_dl values('2106390','PATE, PAMELA J','PAT-51-4355');"
2106410	"PEDERSON, DAVID A"	X934248050416		"insert into tmp_dl values('2106410','PEDERSON, DAVID A','X934248050416');"
2106480	"PIERCE, RYAN A"	PIE-91-9952		"insert into tmp_dl values('2106480','PIERCE, RYAN A','PIE-91-9952');"
2106490	"POFF, AARON W"	POF-91-1326		"insert into tmp_dl values('2106490','POFF, AARON W','POF-91-1326');"
2106510	"PIERZINA, RHONDA J"	Z526209835613		"insert into tmp_dl values('2106510','PIERZINA, RHONDA J','Z526209835613');"
2108023	"RAMIREZ, ROBERT"			"insert into tmp_dl values('2108023','RAMIREZ, ROBERT','');"
2109826	"PEREZ, COTY R"	PER-93-9088		"insert into tmp_dl values('2109826','PEREZ, COTY R','PER-93-9088');"
2110150	"PEREZ, NICHOLAS T"	PER-85-9706		"insert into tmp_dl values('2110150','PEREZ, NICHOLAS T','PER-85-9706');"
2110570	"PETERSON, JUSTIN M"	PET-85-8043		"insert into tmp_dl values('2110570','PETERSON, JUSTIN M','PET-85-8043');"
2112451	"PRICE, SAMUEL O"	PRI-83-0144		"insert into tmp_dl values('2112451','PRICE, SAMUEL O','PRI-83-0144');"
2114160	"RAMBERG, GARY"	RAM632835		"insert into tmp_dl values('2114160','RAMBERG, GARY','RAM632835');"
2116110	"REYNOLDS, JOE E"	R543-4858-1070		"insert into tmp_dl values('2116110','REYNOLDS, JOE E','R543-4858-1070');"
2116115	"RICE, ERIC J"	RIC-76-4616		"insert into tmp_dl values('2116115','RICE, ERIC J','RIC-76-4616');"
2116120	"RICE, JOHN S"	RIC-72-9669		"insert into tmp_dl values('2116120','RICE, JOHN S','RIC-72-9669');"
2117150	"ROSTBERG, DUANE A"	ROS-46-3760		"insert into tmp_dl values('2117150','ROSTBERG, DUANE A','ROS-46-3760');"
2118050	"RAMOS, JEREMIAH"	D07816494		"insert into tmp_dl values('2118050','RAMOS, JEREMIAH','D07816494');"
2118062	"ROBERSON, CHRISTOPHER"	ROB-95-5308		"insert into tmp_dl values('2118062','ROBERSON, CHRISTOPHER','ROB-95-5308');"
2118100	"REASY, DEVLIN M"	J810107643009		"insert into tmp_dl values('2118100','REASY, DEVLIN M','J810107643009');"
2118521	"REA, RYAN"	REA-79-7860		"insert into tmp_dl values('2118521','REA, RYAN','REA-79-7860');"
2119120	"RUD, JOSEPH A"	RUD800261		"insert into tmp_dl values('2119120','RUD, JOSEPH A','RUD800261');"
2119125	"RUDE, ALEX J"	C383088095314		"insert into tmp_dl values('2119125','RUDE, ALEX J','C383088095314');"
2120110	"RYAN, ANTONIO R"	RYA-78-5373		"insert into tmp_dl values('2120110','RYAN, ANTONIO R','RYA-78-5373');"
2120492	"RYDELL, ROBERT R"	RYD657103		"insert into tmp_dl values('2120492','RYDELL, ROBERT R','RYD657103');"
2124820	"YAKHA, SANJAY"	YAK-93-1440		"insert into tmp_dl values('2124820','YAKHA, SANJAY','YAK-93-1440');"
2124895	"SENG, JOHN M"	SEN-97-8501		"insert into tmp_dl values('2124895','SENG, JOHN M','SEN-97-8501');"
2124995	"YOUNG, CHRISTOPHER"	S4021370		"insert into tmp_dl values('2124995','YOUNG, CHRISTOPHER','S4021370');"
2125100	"SCHAFER, MYLES E"	C383077203714		"insert into tmp_dl values('2125100','SCHAFER, MYLES E','C383077203714');"
2126053	"ZIDON, STEPHEN"	ZID-53-1339		"insert into tmp_dl values('2126053','ZIDON, STEPHEN','ZID-53-1339');"
2126055	"SHROYER, RYAN"	08/02/1995		"insert into tmp_dl values('2126055','SHROYER, RYAN','08/02/1995');"
2126110	"SIERACKI, ZACHARY F"	N704103176711		"insert into tmp_dl values('2126110','SIERACKI, ZACHARY F','N704103176711');"
2126120	"SAMPSON, WYATT D"	SAM-94-7977		"insert into tmp_dl values('2126120','SAMPSON, WYATT D','SAM-94-7977');"
2126200	"SEMRAU, TAYLOR"	SEM-91-1197		"insert into tmp_dl values('2126200','SEMRAU, TAYLOR','SEM-91-1197');"
2126210	SHEPPARD-HRICHENA	SHE-82-4476		"insert into tmp_dl values('2126210','SHEPPARD-HRICHENA','SHE-82-4476');"
2126242	"SHARP, DAVID"	SHA-83-4014		"insert into tmp_dl values('2126242','SHARP, DAVID','SHA-83-4014');"
2126300	"SHIREK, NICHOLAS"	SHI-89-1786		"insert into tmp_dl values('2126300','SHIREK, NICHOLAS','SHI-89-1786');"
2126500	"SISTAD, TREVOR C"	N784176204419		"insert into tmp_dl values('2126500','SISTAD, TREVOR C','N784176204419');"
2129010	"SMITH, AARON"	SMI-80-3458		"insert into tmp_dl values('2129010','SMITH, AARON','SMI-80-3458');"
2130110	"VIAU, HUNTER C"	VIA-91-0216		"insert into tmp_dl values('2130110','VIAU, HUNTER C','VIA-91-0216');"
2130150	"SOBOLIK, PAUL A"	SOB727463		"insert into tmp_dl values('2130150','SOBOLIK, PAUL A','SOB727463');"
2130234	"SORENSEN, MARGO"	E845072647717		"insert into tmp_dl values('2130234','SORENSEN, MARGO','E845072647717');"
2130450	"SORUM, JAMES T"	SOR-92-7770		"insert into tmp_dl values('2130450','SORUM, JAMES T','SOR-92-7770');"
2130510	"STAFFORD, MITCH"	STA-89-1944		"insert into tmp_dl values('2130510','STAFFORD, MITCH','STA-89-1944');"
2130565	"SORLIEN, WENDELL"	SOR494633		"insert into tmp_dl values('2130565','SORLIEN, WENDELL','SOR494633');"
2130678	"SPENCER, FRED C"	S152261108544		"insert into tmp_dl values('2130678','SPENCER, FRED C','S152261108544');"
2130690	"STADSTAD, LARRY O"	STA534126		"insert into tmp_dl values('2130690','STADSTAD, LARRY O','STA534126');"
2130797	"STANAWAY, JESSE I"	Q877152844422		"insert into tmp_dl values('2130797','STANAWAY, JESSE I','Q877152844422');"
2132210	"STEFFEN, JAMES A"	STE-67-1110		"insert into tmp_dl values('2132210','STEFFEN, JAMES A','STE-67-1110');"
2132360	"STEFFENS, DARRIN J"	STE838082		"insert into tmp_dl values('2132360','STEFFENS, DARRIN J','STE838082');"
2132390	"SUNDBY, ROBERT A"	SUN-53-6869		"insert into tmp_dl values('2132390','SUNDBY, ROBERT A','SUN-53-6869');"
2132410	"STORMO, JORDAN M"			"insert into tmp_dl values('2132410','STORMO, JORDAN M','');"
2132420	"STROTHER, LAKEITH A"	STR-86-3719		"insert into tmp_dl values('2132420','STROTHER, LAKEITH A','STR-86-3719');"
2132600	"STREMICK, DAVID L"	STR644794		"insert into tmp_dl values('2132600','STREMICK, DAVID L','STR644794');"
2132810	"TESHITE, EBSA D"	TES-82-8657		"insert into tmp_dl values('2132810','TESHITE, EBSA D','TES-82-8657');"
2133490	"SULLIVAN, CASEY J"	C86717601221		"insert into tmp_dl values('2133490','SULLIVAN, CASEY J','C86717601221');"
2135031	"SYVERSON, AMANDA"	K821167443211		"insert into tmp_dl values('2135031','SYVERSON, AMANDA','K821167443211');"
2135260	"SYMONS, STEVEN"	SYM-83-3962		"insert into tmp_dl values('2135260','SYMONS, STEVEN','SYM-83-3962');"
2135910	"TELKEN, TONY"	TEL653718		"insert into tmp_dl values('2135910','TELKEN, TONY','TEL653718');"
2138900	"TOLLEFSON, TODD"	W073280841010		"insert into tmp_dl values('2138900','TOLLEFSON, TODD','W073280841010');"
2138930	"TUPA, BRANDON S"	TUP-85-3929		"insert into tmp_dl values('2138930','TUPA, BRANDON S','TUP-85-3929');"
2140600	"VOTAVA, KYLE M"	VOT-88-9798		"insert into tmp_dl values('2140600','VOTAVA, KYLE M','VOT-88-9798');"
2140825	"WIRKUS, ARLEN T"	G437080558714		"insert into tmp_dl values('2140825','WIRKUS, ARLEN T','G437080558714');"
2140900	"WALTZ, BRIANNA K"	WAL-92-6786		"insert into tmp_dl values('2140900','WALTZ, BRIANNA K','WAL-92-6786');"
2140910	"YOUNG, JACOB A"	YOU-95-4384		"insert into tmp_dl values('2140910','YOUNG, JACOB A','YOU-95-4384');"
2141210	"TANDESKI, HEATHER M"	TAN-87-3801		"insert into tmp_dl values('2141210','TANDESKI, HEATHER M','TAN-87-3801');"
2141225	"TANDESKI, JADE L"	TAN-80-6176		"insert into tmp_dl values('2141225','TANDESKI, JADE L','TAN-80-6176');"
2141642	"TROSEN, TANNER J"	TRO-90-0190		"insert into tmp_dl values('2141642','TROSEN, TANNER J','TRO-90-0190');"
2143156	"TOROK, LORI"	TOR-65-5426		"insert into tmp_dl values('2143156','TOROK, LORI','TOR-65-5426');"
2144500	"VATNSDAL, NATHAN J"	VAT746664		"insert into tmp_dl values('2144500','VATNSDAL, NATHAN J','VAT746664');"
2145421	"VESLEDAHL, TRENT"	P506113353211		"insert into tmp_dl values('2145421','VESLEDAHL, TRENT','P506113353211');"
2146711	"VICK, TIM"	VIC-70-8942		"insert into tmp_dl values('2146711','VICK, TIM','VIC-70-8942');"
2146890	"WAGNER, JOSHUA"	WAG-87-5224		"insert into tmp_dl values('2146890','WAGNER, JOSHUA','WAG-87-5224');"
2147259	"WEBSTER, LUCAS"	WEB-90-6840		"insert into tmp_dl values('2147259','WEBSTER, LUCAS','WEB-90-6840');"
2148100	"VOLK, TAYLOR A"	VOL-91-2867		"insert into tmp_dl values('2148100','VOLK, TAYLOR A','VOL-91-2867');"
2148720	"WIEBUSCH, DANIEL R"	WIE-89-8851		"insert into tmp_dl values('2148720','WIEBUSCH, DANIEL R','WIE-89-8851');"
2148950	"WILKENING, RONALD"	WIL427478		"insert into tmp_dl values('2148950','WILKENING, RONALD','WIL427478');"
2150100	"WARMACK, KATHLEEN A"	Y595275862819		"insert into tmp_dl values('2150100','WARMACK, KATHLEEN A','Y595275862819');"
2150110	"ZEMAN, CODY L"	T580258734313		"insert into tmp_dl values('2150110','ZEMAN, CODY L','T580258734313');"
2150111	"VACURA, CYNTHIA L"	N074778757205		"insert into tmp_dl values('2150111','VACURA, CYNTHIA L','N074778757205');"
2150210	"WILDE, COREY R"	WIL-70-1537		"insert into tmp_dl values('2150210','WILDE, COREY R','WIL-70-1537');"
				
				
				
				
				
				
				
				
				
				
				
				
				
				
				
				
				
				
				
				
				
				
				
========	=============================================================	===============		
========	=============================================================	===============		
========	=============================================================	===============		
========	=============================================================	===============		
========	=============================================================	===============		
========	=============================================================	===============		
========	=============================================================	===============		
========	=============================================================	===============		
========	=============================================================	===============		
========	=============================================================	===============		
========	=============================================================	===============		
========	=============================================================	===============		
========	=============================================================	===============		
========	=============================================================	===============		
========	=============================================================	===============		
========	=============================================================	===============		
========	=============================================================	===============		
========	=============================================================	===============		
========	=============================================================	===============		
========	=============================================================	===============		
========	=============================================================	===============		
========	=============================================================	===============		
========	=============================================================	===============		
========	=============================================================	===============		
========	=============================================================	===============		
========	=============================================================	===============		
========	=============================================================	===============		
========	=============================================================	===============		
========	=============================================================	===============		
========	=============================================================	===============		
========	=============================================================	===============		
========	=============================================================	===============		
========	=============================================================	===============		
========	=============================================================	===============		
========	=============================================================	===============		
========	=============================================================	===============		
========	=============================================================	===============		
========	=============================================================	===============		
========	=============================================================	===============		
========	=============================================================	===============		
========	=============================================================	===============		
========	=============================================================	===============		
========	=============================================================	===============		
========	=============================================================	===============		
Emp #	Name	Driver's Lic #		
Emp #	Name	Driver's Lic #		
Emp #	Name	Driver's Lic #		
Emp #	Name	Driver's Lic #		
Emp #	Name	Driver's Lic #		
Emp #	Name	Driver's Lic #		
Emp #	Name	Driver's Lic #		
Emp #	Name	Driver's Lic #		
Emp #	Name	Driver's Lic #		
Emp #	Name	Driver's Lic #		
Emp #	Name	Driver's Lic #		
Emp #	Name	Driver's Lic #		
Emp #	Name	Driver's Lic #		
Emp #	Name	Driver's Lic #		
Emp #	Name	Driver's Lic #		
Emp #	Name	Driver's Lic #		
Emp #	Name	Driver's Lic #		
Emp #	Name	Driver's Lic #		
Emp #	Name	Driver's Lic #		
Emp #	Name	Driver's Lic #		
Emp #	Name	Driver's Lic #		
Emp #	Name	Driver's Lic #		
JANDR561	Active & Terminated                        Emplo	Page   2		
JANDR561	Active & Terminated                        Emplo	Page   3		
JANDR561	Active & Terminated                        Emplo	Page   4		
JANDR561	Active & Terminated                        Emplo	Page   5		
JANDR561	Active & Terminated                        Emplo	Page   6		
JANDR561	Active & Terminated                        Emplo	Page   7		
JANDR561	Active & Terminated                        Emplo	Page   8		
JANDR561	Active & Terminated                        Emplo	Page   9		
JANDR561	Active & Terminated                        Emplo	Page  10		
JANDR561	Active & Terminated                        Emplo	Page  11		
JANDR561	Active & Terminated                        Emplo	Page  12		
JANDR561	Active & Terminated                        Emplo	Page  13		
JANDR561	Active & Terminated                        Emplo	Page  14		
JANDR561	Active & Terminated                        Emplo	Page  15		
JANDR561	Active & Terminated                        Emplo	Page  16		
JANDR561	Active & Terminated                        Emplo	Page  17		
JANDR561	Active & Terminated                        Emplo	Page  18		
JANDR561	Active & Terminated                        Emplo	Page  19		
JANDR561	Active & Terminated                        Emplo	Page  20		
JANDR561	Active & Terminated                        Emplo	Page  21		
JANDR561	Active & Terminated                        Emplo	Page  22		
JANDR561	Active & Terminated                        Emplo	Page  23		
PY201	Honda Niss	/30/19  9:27:00		
PY201	Honda Niss	/30/19  9:27:00		
PY201	Honda Niss	/30/19  9:27:00		
PY201	Honda Niss	/30/19  9:27:00		
PY201	Honda Niss	/30/19  9:27:00		
PY201	Honda Niss	/30/19  9:27:00		
PY201	Honda Niss	/30/19  9:27:00		
PY201	Honda Niss	/30/19  9:27:00		
PY201	Honda Niss	/30/19  9:27:00		
PY201	Honda Niss	/30/19  9:27:00		
PY201	Honda Niss	/30/19  9:27:00		
PY201	Honda Niss	/30/19  9:27:00		
PY201	Honda Niss	/30/19  9:27:00		
PY201	Honda Niss	/30/19  9:27:00		
PY201	Honda Niss	/30/19  9:27:00		
PY201	Honda Niss	/30/19  9:27:00		
PY201	Honda Niss	/30/19  9:27:00		
PY201	Honda Niss	/30/19  9:27:00		
PY201	Honda Niss	/30/19  9:27:00		
PY201	Honda Niss	/30/19  9:27:00		
PY201	Honda Niss	/30/19  9:27:00		
PY201	Honda Niss	/30/19  9:27:00		
				
		227      7.88		
				
				
				
		96      20.00		
				
				
		121     13.73		
		295     11.07		
				
				
				
				
				
				
				
		302		
				
				
		78     500.00		
		287     66.25		
		297     40.20		
		91       8.00		
				
				
		296     20.74		
		91       3.00		
				
				
		287      5.50		
				
				
				
				
				
				
				
				
				
		227      7.88		
				
				
		227      7.88		
				
		121     13.13		
		125      3.60		
		91       3.00		
				
				
				
				
				
				
				
		297     16.75		
				
				
		78    1000.00		
		111     34.28		
				
				
				
				
		287		
				
				
				
				
				
				
				
				
				
				
				
				
		302		
				
		227      7.88		
				
				
		121      1.46		
				
				
				
				
				
				
				
		123     14.93		
				
				
				
				
				
				
				
				
		96      35.00		
				
				
				
				
				
		287     11.50		
		99       4.00		
				
		96      10.00		
				
				
				
				
				
				
		287      5.19		
		91       4.00		
				
				
				
				
				
				
				
		227      7.88		
		91       3.00		
				
				
				
				
				
		125      7.80		
				
				
				
		126     30.16		
				
				
		275     75.00		
		87       7.80		
				
				
				
				
				
				
				
				
				
				
				
				
				
				
				
				
		287      4.85		
				
				
				
				
				
		296     13.78		
				
				
				
				
				
				
				
				
				
		120     29.25		
		125     15.00		
				
				
				
				
				
				
				
				
				
				
				
				
				
				
				
				
				
				
				
				
				
				
		126      8.72		
				
				
				
				
				
				
				
		120     12.93		
		295      5.13		
				
				
				
				
				
				
		120      9.89		
		123      7.47		
				
				
				
				
		96      10.00		
				
				
				
				
				
				
				
		91       3.00		
				
				
		120     14.28		
		123      7.47		
				
				
				
				
				
				
				
				
		87      62.36		
				
		227      7.88		
				
				
				
		123     14.93		
				
				
				
				
				
				
				
				
				
				
				
				
				
		126      8.08		
				
				
				
				
				
				
				
				
				
				
				
				
				
				
		295      5.27		
				
				
				
		125      4.40		
		96      50.00		
				
				
				
				
				
				
				
		227      7.88		
				
				
		120      9.38		
		125     11.55		
		91       3.00		
				
				
				
				
				
				
		296		
				
				
				
				
				
				
				
				
				
		120     10.05		
		126     10.06		
				
				
				
				
		87		
				
		287		
				
				
		287		
				
				
				
		111     34.28		
				
				
				
		287     51.15		
				
				
				
				
				
				
				
				
				
		295      5.13		
				
				
				
				
				
				
				
				
				
				
				
		91       3.00		
				
				
				
		227      7.78		
				
				
				
				
				
				
				
		295      6.69		
				
				
				
		122      2.45		
		91       4.00		
				
				
				
		295     16.52		
				
				
		275    101.08		
				
				
				
				
				
				
				
		227      7.88		
				
				
				
		301      6.49		
				
				
				
				
		91       3.00		
				
				
				
		123      7.47		
		91       3.00		
				
		87		
				
				
		500    200.00		
				
		123      7.47		
				
				
				
				
				
				
				
				
				
				
				
				
				
				
				
				
				
		121     16.10		
		126     44.94		
				
				
		123      7.47		
				
				
				
				
		91       3.00		
				
				
				
				
		295      6.14		
				
				
				
				
				
		295      3.35		
				
				
		275    253.80		
				
				
				
				
				
				
				
				
				
				
				
		295      3.35		
		91       3.00		
				
				
		121     27.50		
		125     19.40		
				
				
				
		123      7.47		
		227      7.88		
		91       3.00		
				
				
				
				
				
				
				
		227      7.88		
				
				
				
				
				
				
				
		120      3.98		
		126     11.25		
		96      50.00		
				
				
				
				
		227      7.88		
		87      12.13		
				
				
				
				
				
		287     28.10		
				
				
		287      5.50		
				
				
				
		227      3.94		
				
				
				
				
				
				
				
				
				
				
				
				
		297     33.80		
				
				
				
				
		87		
				
		227      7.88		
		296     13.78		
		91       3.00		
				
				
		87       3.88		
				
				
				
				
				
				
				
		287      3.85		
				
				
				
				
		123     14.93		
		91       3.00		
				
				
				
				
				
				
				
				
				
				
				
				
				
		287      4.85		
		96      41.67		
				
				
		96      10.00		
				
		91       3.00		
				
				
				
				
				
				
				
		87      56.92		
				
				
		227      7.88		
		296     13.78		
				
				
		227      3.94		
				
				
		293     20.36		
				
				
				
				
				
		120     18.26		
		295      8.26		
				
				
		295      5.13		
				
		302		
				
				
				
				
				
				
				
				
				
				
				
				
		120     25.78		
		96      50.00		
				
				
				
				
				
				
				
				
				
				
		295      5.54		
				
				
				
				
				
				
				
				
				
				
				
		91       3.00		
				
				
		125      2.20		
				
				
		500    100.00		
		111     34.21		
		122     24.95		
		125     30.00		
		91       4.00		
				
				
				
				
				
				
				
				
				
				
				
				
				
		91       3.00		
				
		295		
				
				
				
				
				
				
				
				
		111     34.28		
		275    700.00		
				
				
				
				
		227      7.88		
				
				
		296      5.29		
		91       3.00		
				
				
				
		124		
				
				
				
				
				
				
				
				
				
				
				
				
				
		287		
		91       5.00		
				
				
				
				
		296		
		91       3.00		
				
				
				
				
				
				
				
				
				
				
		227      7.88		
		87      12.46		
				
				
				
		295		
				
				
		78    2000.00		
		122     14.70		
		91       5.00		
				
				
				
				
				
				
		287		
		302      7.23		
				
				
				
				
				
				
		123     26.94		
				
				
				
				
				
		122     21.37		
		91       6.00		
				
				
				
				
				
				
		125     23.10		
				
				
		91       8.00		
				
		123     12.31		
		126      8.71		
				
				
				
				
				
				
		120     17.92		
				
				
		295      5.27		
				
				
				
				
				
		111     26.92		
		87      64.98		
				
				
				
		275    698.40		
				
				
				
		295      5.13		
				
				
				
				
		124      8.30		
		96      15.00		
				
				
				
				
				
		287      3.39		
				
				
		111     40.94		
				
				
				
		96     100.00		
				
				
				
				
				
				
				
		122       .98		
				
				
				
		96      60.00		
				
				
				
				
		91       3.00		
				
				
				
		295     26.62		
				
				
				
				
				
		111     47.73		
		87      13.15		
				
				
				
				
				
				
		295      7.99		
				
				
				
				
				
				
				
				
				
				
				
				
				
				
				
				
				
		298		
				
				
				
		121     66.54		
		96     300.00		
				
				
		96     100.00		
				
				
				
				
				
				
				
				
				
				
		126      6.83		
