"store_location","last_name","first_name","ssn","relationship","birth_date","hire_date","gender","address1","address2","city","state","zip","telephone","job","payroll_class","monthly_salary","avg_monthly_hours"
"GM","SHERECK","LOREN","502-82-3037","","1965-09-26","2016-11-07","M","1805 N 4TH ST","","GRAND FORKS","ND","582031614","218-7790553","Metal Technician (A)","salary",6074,0.00
"GM","BARTA","PATRICK","501-94-2470","","1978-10-20","2017-01-04","M","1502 S 15TH ST","","GRAND FORKS","ND","58201","701-3602832","Main Shop Technician (A)","hourly",4384,77.83
"GM","METZGER","JUSTIN","502-98-9746","","1983-09-17","2010-05-24","M","1314 12TH ST W","","WEST FARGO","ND","580784806","701-3301396","Parts Driver","hourly",3393,74.25
"GM","BROOKS JR","DREW","477-31-5399","","1996-11-12","2017-04-02","M","1601 9TH AVE N","","GRAND FORKS","ND","582030711","701-2152518","PDQ Advisor","hourly",2358,64.92
"GM","SEEBA","BRADLEY","502-86-4037","","1958-10-02","1977-04-11","M","526 TERRACE DR.","","GRAND FORKS","ND","582017661","701-7402680","Parts Sales Consultant","hourly",4876,69.83
"Honda Nissan","KNUDSON","KENNETH","502-82-5414","","1957-03-13","2013-01-02","M","2405 SO 18TH ST","","GRAND FORKS","ND","582015624","701-7728205","Main Shop Technician (B)","commission",5320,0.00
"GM","CHAMPAGNE","LESLIE","501-06-8738","","1985-09-24","2014-08-25","F","5025 COPPER GATE DR","","GRAND FORKS","ND","582031875","701-7393335","Detail Cashier","hourly",3230,96.58
"Honda Nissan","BJERK","CHRISTOPHER","475-21-2682","","1986-11-25","2012-09-24","M","137 COLUMBIA CT","","GRAND FORKS","ND","582032946","701-2137428","Team 2 Sales Consultant","commission",4099,0.00
"GM","RAUNER","VALERIE","506-19-7837","","1971-09-26","2017-06-19","F","2950 36TH AVE SO APT 8","","GRAND FORKS","ND","58201","218-2890602","Sales Admin","hourly",2507,75.83
"GM","DUCKSTAD","JARED","472-94-2500","","1974-01-15","2002-09-30","M","1461 10TH AVE NE","","THOMPSON","ND","582789221","0-5999014","Main Shop Technician (A)","hourly",4510,74.17
"GM","STALLMO","RICHARD","471-46-7776","","1941-02-27","2009-09-16","M","528 11TH ST SE","","EAST GRAND FORKS","MN","567213402","218-7730597","Courtesy Driver","hourly",2185,70.25
"Honda Nissan","PEDERSON","DAVID","475-80-9816","","1960-01-09","2011-12-16","M","1528 12TH AVE SE","","EAST GRAND FORKS","MN","567213227","218-7731246","Service Advisor","hourly",5349,92.50
"GM","DRISCOLL","TERRANCE","501-76-0445","","1955-12-12","2002-11-04","M","1763 18TH ST NE","","GRAND FORKS","ND","582039603","0-7738707","Metal Technician (B)","commission",5312,0.00
"Honda Nissan","PROIS","JUSTIN","475-23-3186","","1991-08-15","2017-11-20","M","3451 24TH AVE S APT 114","","GRAND FORKS","ND","58201","763-3001781","SERVICE TECH","commission",4140,0.00
"GM","LUEKER","DAVID","502-70-9783","","1960-05-01","2003-06-16","M","529 4TH STREET","","THOMPSON","ND","582784226","701-5992805","Estimator","hourly",5230,80.67
"Honda Nissan","EVENSON","GARRETT","502-06-7037","","1986-11-04","2018-08-01","M","507 27TH AVE SO","","GRAND FORKS","ND","58201","701-2483270","SERVICE TECH","commission",6469,0.00
"GM","BUCKHOLZ","ZACHARY","501-25-8087","","1998-10-12","2017-04-10","M","2817 S 17TH ST","","GRAND FORKS","ND","58201","701-7411981","PDQ TECH","hourly",2188,63.67
"GM","MCLAUGHLIN","JOHN","504-06-9306","","1972-09-27","2017-12-11","M","2700 S. WASHINGTON","","GRAND FORKS","ND","58201","605-2378673","Hobby Shop Technician","salary",8514,0.00
"GM","YUNKER","GEORGE","502-17-3487","","1991-06-17","2016-09-26","M","111 N. 3RD ST","UNIT 2007","GRAND FORKS","ND","58203","701-7409663","New Car Sales Consultant","commission",3666,0.00
"GM","MARO","NICHOLAS","469-13-6669","","1984-08-23","2014-01-20","M","1820 8TH AVE NE","","THOMPSON","ND","58278","701-6809237","Main Shop Advisor","hourly",6678,84.75
"GM","SHROYER","RYAN","502-21-6185","","1995-08-02","2013-04-10","M","222 NORTHRIDGE HILLS COURT","","GRAND FORKS","ND","582017936","218-7916434","Parts Driver","hourly",2717,72.33
"Honda Nissan","SCHINDLER","TIM","473-76-3598","","1962-05-08","2018-03-12","M","804 LANGDON AVE","","MANVEL","ND","58256","701-3600025","Main Shop Technician (B)","hourly",1288,42.40
"GM","BURSINGER","TRAVIS","501-96-4110","","1971-09-29","2004-07-16","M","227 CIRCLE HILLS DRIVE","","GRAND FORKS","ND","582017956","701-7723331","Main Shop Advisor","hourly",4177,78.08
"GM","RICHARDSON","DARRICK","468-23-6925","","1990-11-30","2015-09-29","M","4236 TAMARACK DRIVE #212","","GRAND FORKS","ND","58201","612-6199087","Detail Technician","salary",4153,0.00
"GM","MORLOCK","BRUCE","502-72-8647","","1955-08-22","2012-08-30","M","2704 CLOVER DR","","GRAND FORKS","ND","582017468","701-7467851","Courtesy Driver","hourly",1800,59.33
"GM","HASTINGS","DAWN","502-66-0361","","1958-12-07","1986-01-06","F","1960 23RD AVE SO","","GRAND FORKS","ND","582016212","218-7919008","Title Clerk","hourly",3755,76.75
"Honda Nissan","BARON","CORY","469-06-7067","","1985-04-18","2016-06-26","M","1611 SOUTH 17TH ST","","GRAND FORKS","ND","58201","701-7411665","SERVICE TECH","commission",2982,0.00
"GM","NYGAARD","KENT","502-88-5597","","1961-07-31","2015-01-26","M","4718 SILVERGATE DR","","GRAND FORKS","ND","582031847","218-7796344","Detail Porter","hourly",3075,82.67
"Honda Nissan","ENOCKSON","ZACHARY","502-25-1142","","1999-03-19","2017-06-01","M","1899 28TH AVE S APT 104","","GRAND FORKS","ND","58201","701-6106254","PDQ TECH","hourly",2418,74.75
"GM","REUTER","TIMOTHY","471-86-9619","","1967-11-28","2015-01-26","M","2442 GLEN CIRCLE","","GRAND FORKS","ND","58201","218-6862827","Metal Technician (A)","hourly",4443,74.50
"GM","VIEN","NORMAN","502-64-1190","","1954-02-08","2007-07-27","M","3982 DACOTAH VIEW CT","","GRAND FORKS","ND","582018742","701-7404574","Hobby Shop Technician","hourly",2206,40.42
"GM","ROGNE","CRAIG","502-88-5154","","1966-02-09","1988-06-13","M","5000 CURRAN COURT #115","","GRAND FORKS","ND","582013425","0-7753608","Lead Main Shop Technician","salary",4167,0.00
"GM","KNOWLES","MAYHAYLA","424-23-7552","","1984-06-16","2017-12-18","F","13430 110TH ST SW","","RED LAKE FALLS","MN","56750","678-3781585","General Operator","hourly",2382,72.42
"GM","MENARD","MICHAEL","502-02-8533","","1982-04-19","2018-02-12","M","2251 36TH AVE S # 306","","GRAND FORKS","ND","58201","701-7397279","New Car Sales Consultant","salary",4046,0.00
"GM","OSTLUND","ANNE","501-86-0381","","1969-02-22","2011-01-17","F","2204 45TH AVE S","","GRAND FORKS","ND","582013439","701-7417223","Estimator","hourly",5030,81.92
"GM","STREETER","TIMOTHY","503-84-2062","","1967-02-21","2007-03-28","M","1623 1ST AVE N","","GRAND FORKS","ND","582033408","701-7729133","Parts Driver","hourly",4097,95.58
"GM","FLAAT","GAVIN","471-15-3893","","1986-03-09","2016-04-11","M","1621 N 4TH ST","","GRAND FORKS","ND","58203","941-2841873","Main Shop Technician (B)","commission",5614,0.00
"GM","RUMEN","ROBERT","625-70-0057","","1993-06-04","2018-05-07","M","1519 OAK ST","","GRAND FORKS","ND","58201","701-3302286","New Car Sales Consultant","commission",4423,0.00
"GM","ROBLES","RUDOLPH","468-80-0455","","1959-05-05","2000-07-12","M","1210 39TH ST APT 3","","GRAND FORKS","ND","582032083","0-7755966","PDQ Advisor","hourly",4510,95.08
"GM","ZUNIGA","FELIX","576-85-4061","","1999-09-26","2018-01-23","M","302 DAKOTA AVE N","","SAINT HILAIRE","MN","56754","218-6844105","PDQ TECH","hourly",1557,24.18
"GM","GIRODAT","JEFF","501-80-1561","","1963-08-23","1986-05-05","M","2317 SO 22ND ST","","GRAND FORKS","ND","582016115","0-0","Main Shop Technician (A)","commission",8977,0.00
"GM","SAPP","CORDEAU","617-08-0465","","1998-10-08","2015-08-17","M","1639 28TH AVE SO #102","","GRAND FORKS","ND","58201","714-7282881","PDQ Advisor","hourly",2970,80.92
"GM","ROSENBAUM","ANDREW","150-94-7585","","1993-05-05","2018-04-11","M","1707 B 11TH AVE N","","GRAND FORKS","ND","58203","732-9910066","PDQ TECH","hourly",1864,32.26
"GM","MULHERN","ALAN","502-08-5815","","1977-11-04","2017-01-05","M","1115 19TH AVE SE","","EAST GRAND FORKS","MN","56721","218-7796070","Detail Technician","commission",3007,0.00
"GM","GEHRTZ","CLAYTON","501-15-3892","","1989-07-15","2014-12-29","M","403 3RD AVE PO BOX 73","","REYNOLDS","ND","582750073","701-7364845","Main Shop Technician (B)","commission",8158,0.00
"GM","BENTH","MORGAN","501-21-7123","","1994-06-16","2015-08-03","F","2220 12TH AVE NORTH #110","","GRAND FORKS","ND","58203","701-7706753","Body Shop Admin","hourly",2242,72.33
"GM","NEUMANN","NICKOLAS","475-96-8559","","1979-05-28","2015-08-03","M","3014 TIMES SQUARE COURT","","GRAND FORKS","ND","582013521","701-2130635","Service Drive Manager","salary",4904,0.00
"Honda Nissan","JOHNSON","BRANDON","502-04-8472","","1985-06-04","2011-03-07","M","1121 19TH ST NE","","GRAND FORKS","ND","582019510","701-2472859","Main Shop Technician (A)","commission",7235,0.00
"GM","SAULS","THOMAS","241-71-5750","","1991-07-16","2013-08-12","M","2102 12TH AVE NORTH","","GRAND FORKS","ND","582032249","701-2136524","Body Shop Detailer","hourly",3774,82.17
"GM","SHUMAKER","MARTIN","502-78-6832","","1963-11-21","2013-07-01","M","1823 N WASHINGTON ST LOT 10","","GRAND FORKS","ND","582031483","701-3304023","Custodian","hourly",3192,84.50
"GM","LENE","RYAN","501-11-0621","","1974-01-11","2015-01-05","M","1829 QUAIL RUN RD #307","","GRAND FORKS","ND","582038943","701-7724402","Metal Technician (A)","commission",7571,0.00
"GM","ROBINSON","AARON","473-27-4661","","1993-11-19","2017-09-25","M","2566 HUNTINGTON PARK DRIVE","","GRAND FORKS","ND","58201","701-2151756","Parts Sales Consultant","hourly",2877,76.25
"GM","RAI","SANTI","518-85-0992","","1997-01-19","2018-04-23","M","816 29TH AVE S","","GRAND FORKS","ND","58201","412-4520163","PDQ TECH","hourly",2606,38.72
"GM","DAVIS","ERIC","501-13-8080","","1988-09-19","2014-08-11","M","1222 LINDEN CT","","GRAND FORKS","ND","582017128","701-3308403","Detail Technician","commission",5289,0.00
"GM","WINKLER","ZACHARY","501-21-2582","","1994-03-21","2014-05-19","M","318 MAIN ST W","","MAYVILLE","ND","58257","701-7758799","Main Shop Technician (B)","commission",4212,0.00
"GM","ROGERS","MITCH","502-21-4212","","1995-05-08","2014-10-13","M","620 28TH AVE SO","","GRAND FORKS","ND","582017446","701-7467025","Main Shop Technician (C)","commission",4696,0.00
"GM","ROSE","CORY","501-08-0203","","1983-01-03","2006-10-23","M","3174 36TH AVE S APT 16","","GRAND FORKS","ND","582013538","218-2304790","Metal Technician (B)","commission",7481,0.00
"GM","NELSON","ALLISON","502-23-3998","","1997-05-05","2014-06-16","F","3540 S 18TH ST #104","","GRAND FORKS","ND","58201","701-8472909","Car Wash Cashier","hourly",2355,71.17
"GM","SCHUPPERT","KODEY","501-19-1736","","1992-05-26","2015-04-27","M","1216 LINDEN COURT","","GRAND FORKS","ND","582015528","701-2135429","Main Shop Technician (C)","hourly",2999,73.33
"GM","SYVERSON","JOSHUA","475-08-5016","","1986-09-19","2012-06-11","M","4808 GOLDEN GATE DR","","GRAND FORKS","ND","582031803","701-3171712","Main Shop Technician (C)","commission",5089,0.00
"GM","HILL","BRIAN","501-96-3634","","1966-03-03","2006-08-28","M","3024 CHESTNUT ST","","GRAND FORKS","ND","582017530","701-7721299","Estimator","hourly",6153,85.08
"GM","EBERLE","MARCUS","501-23-5489","","1996-06-28","2016-08-15","M","5000 CURRAN CT APT 112","","GRAND FORKS","ND","58201","701-5091353","Metal Technician (C)","commission",3809,0.00
"GM","JACOBSON","PETER","501-11-5630","","1971-01-11","2010-12-13","M","2763 36TH ST NE","","GILBY","ND","58235","303-7094998","Paint Technician (A)","commission",8219,0.00
"GM","POWELL","GAYLA","501-92-8640","","1964-11-03","2011-08-29","F","607 COTTONWOOD ST","","GRAND FORKS","ND","582014821","701-7723792","Body Shop Admin","hourly",4028,77.67
"Honda Nissan","JOHNSON","DUSTIN","502-04-1550","","1982-12-02","2014-02-10","M","3655 RUEMMELE RD APT 215","","GRAND FORKS","ND","582016199","701-3311710","Parts Counter Consultant","hourly",4320,75.17
"Honda Nissan","SOBOLIK","PAUL","502-82-5209","","1972-03-04","1992-03-23","M","1118 ALMONTE AVE","","GRAND FORKS","ND","582015642","0-7720071","Main Shop Technician (A)","commission",5723,0.00
"GM","LAMONT","BRANDON","502-08-7440","","1984-05-30","2015-10-12","M","533 6TH AVE SE","","EAST GRAND FORKS","MN","567212140","218-7794289","Metal Technician (B)","commission",5090,0.00
"GM","WALIOR","SUSAN","502-80-1098","","1964-04-03","1997-03-03","F","115 VICTORIA COURT","","GRAND FORKS","ND","582016144","701-7955862","Rental Team Leader","salary",4017,0.00
"GM","ANDERSON","SHAWN","502-06-5431","","1980-12-30","2015-02-02","M","350 RICE ST PO BOX 45","","MEKINOCK","ND","582580045","218-7799735","Main Shop Technician (A)","commission",10918,0.00
"GM","KOLSTAD","KIRK","502-86-0659","","1958-08-07","1980-03-01","M","1259 156TH AVE NE","","BUXTON","ND","582189626","0-0","Parts Sales Consultant","hourly",3222,65.83
"GM","STRANDELL","TRAVIS","477-27-1882","","1994-04-20","2011-04-12","M","601 12TH ST NW","","EAST GRAND FORKS","MN","567211435","218-7916861","Main Shop Technician (C)","commission",3275,0.00
"GM","GOULET","SHANE","471-06-5265","","1985-07-24","2014-03-31","M","518 EICKHOF BLVD","","CROOKSTON","MN","567161350","218-2806051","Car Wash Team Member","hourly",2305,66.50
"GM","RODRIGUEZ","JUSTIN","476-31-9301","","1996-09-25","2015-11-23","M","4353 PIONEER DR APT 305","","GRAND FORKS","ND","58201","218-4523622","SERVICE WRITER","hourly",2988,71.17
"GM","SANCHEZ","ROGELIO","463-37-0753","","1970-11-27","2015-07-06","M","1802 30TH AVE SO APT 108","","GRAND FORKS","ND","58201","210-3473042","Maintenance Technician","salary",8091,0.00
"GM","RADKE","DUANE","502-46-6433","","1942-01-29","1966-05-01","M","1602 SO 15TH ST","","GRAND FORKS","ND","582015326","701-7727430","Main Shop Technician (B)","hourly",4239,75.83
"GM","SCHWAN","MICHAEL","473-11-4858","","1981-09-16","2012-02-27","M","7650 MULLIGAN ST","","GRAND FORKS","ND","582039435","701-3436236","Main Shop Technician (A)","commission",8618,0.00
"GM","SEVIGNY","SCOTT","501-06-0113","","1984-03-06","2008-09-29","M","721 S 18TH ST","","GRAND FORKS","ND","582014248","701-7414469","Metal Technician (B)","commission",5943,0.00
"Honda Nissan","FEIST","LUDWIG","501-70-9498","","1965-12-21","2017-10-09","M","1423 9TH AVE N","","GRAND FORKS","ND","582010707","701-7461386","PARTS SALES","hourly",2987,65.58
"GM","SCHWAN","JASON","473-11-4880","","1979-02-23","2015-10-26","M","2520 9TH AVE S APT 22","","GRAND FORKS","ND","582018604","701-3359490","Dispatcher","hourly",2860,86.08
"GM","VANHORNE","JAY","470-27-4415","","1993-07-16","2017-04-10","M","1120 1ST AVE N","","GRAND FORKS","ND","58203","952-6070932","Detail Technician","commission",2280,0.00
"GM","BOHM","DOUGLAS","501-70-3994","","1953-11-03","1993-03-01","M","8502 N WASHINGTON","","GRAND FORKS","ND","582038813","701-2139674","SERVICE TECH","hourly",4054,77.08
"GM","THOMPSON","WYATT","501-08-6569","","1987-02-26","2007-05-14","M","1902 WILLOW DR","","GRAND FORKS","ND","582018111","701-7466108","Main Shop Technician (A)","commission",5208,0.00
"GM","BEAR","JEFFERY","502-98-4113","","1968-12-03","2014-10-14","M","2505 1/2 SOUTH 18TH ST","","GRAND FORKS","ND","582016626","701-7412035","Main Shop Technician (B)","commission",3511,0.00
"Honda Nissan","SPENCER","FRED","468-98-7979","","1967-07-09","2005-02-01","M","501 21ST ST NW","","EAST GRAND FORKS","MN","567211244","218-7732109","Team 2 Sales Consultant","commission",4541,0.00
"GM","WINZER","CHRISTOPHER","502-13-0531","","1988-11-09","2007-06-25","M","719 SO 9TH","","GRAND FORKS","ND","582014421","701-7728679","Detail Technician","hourly",2790,81.50
"GM","MOULDS","CRYSTAL","475-04-8960","","1984-09-25","2011-01-27","F","24545 STATE HWY 220 SW","","FISHER","MN","567239324","701-7405021","Warranty Admin","hourly",2977,68.25
"GM","AGUILAR","ANNA","460-57-3319","","1982-06-26","2015-09-08","F","1802 30TH AVE S # 108","","GRAND FORKS","ND","582018919","210-3475308","Body Shop Admin","hourly",3071,75.08
"GM","MILLER","KIM","468-84-8541","","1962-03-22","2008-08-18","F","1216 22ND ST NW","","EAST GRAND FORKS","MN","567211061","218-7733359","AR/Payroll Clerk","hourly",3898,77.83
"GM","MOHAMOUD","MOHAMED","472-57-1617","","1997-06-23","2017-01-23","M","715 NORTH 42ND ST APT 301C","","GRAND FORKS","ND","58201","612-6663723","Body Shop Porter","hourly",3216,88.58
"GM","FRAZIER","TRAYLIN","378-04-4667","","1986-07-05","2017-03-27","M","419 CHERRY ST APT 1","","GRAND FORKS","ND","58201","313-9188442","Service Operator","hourly",2728,71.67
"GM","STREITZ","DANIELLE","468-17-2795","","1985-05-12","2011-09-12","F","1028 6TH AVE SE","","EAST GRAND FORKS","MN","567212315","218-7919981","Parts Counter Consultant","hourly",2553,69.67
"GM","MAREK","DAYTON","501-21-0278","","1993-12-06","2017-05-05","M","2257 KNIGHTSBRIDGE CT","","GRAND FORKS","ND","582016409","701-7725240","Detail Technician","hourly",5192,84.67
"GM","HILLEBRAND","BROCK","501-17-8615","","1991-01-26","2011-04-06","M","3941 GARDEN VEIW DR APT 113","","GRAND FORKS","ND","58201","701-7416720","Digital Sales Consultent","hourly",2447,64.00
"GM","DIBI","ANDREW","157-98-1713","","1996-03-19","2017-10-23","M","5000 CURRAN CT #303","","GRAND FORKS","ND","58201","701-2690676","Paint Technician (C)","commission",2353,0.00
"GM","AXTMAN","DALE","502-76-8828","","1966-01-12","2001-05-01","M","2235 OAK AVE NE","","EMERADO","ND","582289780","701-5943406","Main Shop Technician (A)","hourly",4606,73.08
"Honda Nissan","HALGRIMSON","JARED","468-31-5128","","1995-08-18","2017-04-10","M","1306 S. 11TH ST","APT. 3","GRAND FORKS","ND","58201","218-2895397","PDQ TECH","hourly",2783,73.33
"GM","LAUGHLIN","LARRY","501-68-8329","","1955-10-07","1998-10-16","M","4753 CURT CIRCLE","","GRAND FORKS","ND","582018030","0-7757408","Parts Sales Consultant","hourly",6319,88.00
"GM","ROBINSON","CARSON","502-08-9413","","1982-12-21","2018-05-07","M","1302 KUSTER CIRCLE","","GRAND FORKS","ND","58201","701-7401254","New Car Sales Consultant","commission",3540,0.00
"GM","EVAVOLD","DANIEL","476-08-4224","","1983-03-15","2007-01-23","M","3174 36TH AVE S #7","","GRAND FORKS","ND","58201","218-2051211","Estimator","hourly",6339,83.00
"GM","OLSON","JAY","501-08-1705","","1976-07-02","2002-02-11","M","2434 GLEN CIR","","GRAND FORKS","ND","582015187","0-0","Main Shop Technician (A)","commission",7789,0.00
"GM","SVENSON","JAMES","501-21-6338","","1993-12-28","2018-04-11","M","3913 S. 35TH ST","","GRAND FORKS","ND","58201","701-5208141","Detail Porter","hourly",829,29.15
"GM","AKER","CADEN","502-25-4735","","1999-07-19","2017-11-06","M","1023 19TH AVE S","","GRAND FORKS","ND","58201","218-7796009","PDQ TECH","hourly",1868,63.00
"GM","MILLER","DILLAN","501-25-1352","","1998-02-28","2016-11-21","M","5198 W MAPLE AVE","","GRAND FORKS","ND","58203","701-3353468","Upperbay Technician","hourly",2138,66.58
"GM","SOENKSEN","LINDSEY","504-23-6945","","1994-04-07","2017-01-12","F","1850 30TH AVE S #303","","GRAND FORKS","ND","58201","605-5453927","Car Wash Cashier","hourly",1673,55.17
"GM","ZACHA","CHARLES","253-17-6299","","1957-04-04","2014-12-29","M","1510 6TH AVE N","","GRAND FORKS","ND","582033109","701-3309784","Main Shop Technician (B)","commission",4240,0.00
"GM","JOHNSON","DAVID","501-84-6220","","1959-03-21","2017-11-06","M","2116 8TH AVE N","","GRAND FORKS","ND","58203","701-3304154","Maintenance Technician","hourly",2969,73.17
"GM","BEHM","PAUL","502-21-7297","","1995-07-25","2018-04-23","M","710 SOUTH 9TH ST","","GRAND FORKS","ND","58201","701-3600540","New Car Sales Consultant","commission",3439,0.00
"GM","HARMON","TERRENCE","530-60-7568","","1963-01-30","2001-10-01","M","2213 10TH AVE NO","","GRAND FORKS","ND","582032215","218-7790080","Parts Sales Consultant","hourly",5077,77.17
"GM","SOLEM","BEN","471-31-1062","","1996-01-18","2013-09-16","M","909 1ST AVE NE","","EAST GRAND FORKS","MN","56721","701-2150004","Parts Counter Consultant","hourly",3215,74.92
"GM","WALTON","JOSHUA","473-11-9804","","1985-04-21","2006-12-27","M","1642 28TH AVE S #9","","GRAND FORKS","ND","582016759","218-5568957","Metal Technician (A)","commission",5950,0.00
"GM","GRANT","DESIREE","501-13-7493","","1983-07-21","2014-05-19","F","2493 27TH AVE S APT 718","","GRAND FORKS","ND","582016460","701-6109905","Main Shop Technician (C)","commission",3049,0.00
"GM","SHOULTS","DANIEL","501-80-3862","","1963-10-28","2017-05-08","M","1708 1ST AVE N","","GRAND FORKS","ND","58203","701-2483440","Courtesy Driver","hourly",2092,76.58
"GM","MAHUTGA","COLTON","394-15-1952","","1996-06-04","2018-05-21","M","600 1ST AVE N # 107","","GRAND FORKS","ND","58203","507-7225995","Body Shop Prep Technician","hourly",3105,16.15
"GM","BRAATEN","DEAN","501-04-7277","","1970-07-21","2017-04-24","M","1810 10TH AVE N","","GRAND FORKS","ND","582030728","701-7469239","PARTS SHIPPING AND REC.","hourly",3744,94.17
"GM","FERRY","CARTER","502-23-5913","","1997-07-23","2018-02-12","M","514 CONKLIN AVE","","GRAND FORKS","ND","58203","307-6700828","Main Shop Technician (C)","commission",4508,0.00
"GM","HICKS","EMILY","501-23-3766","","1996-04-08","2016-09-12","F","98 1ST AVE","","MEKINOCK","ND","582585811","701-2136252","Body Shop Detailer","hourly",2371,79.42
"Honda Nissan","ZAPZALKA","WYATT","468-35-1682","","1998-04-20","2018-05-21","M","244 HORIZON AVE","","SARTELL","MN","56377","320-2231054","Main Shop Technician (C)","commission",3623,0.00
"Honda Nissan","SYVERSON","AMANDA","473-98-2517","","1982-03-29","2018-09-04","F","3093 STATE HWY 32","","GARY","MN","565459228","218-2801310","Team 2 Sales Consultant","commission",7040,0.00
"GM","MARCOTTE","THOMAS","502-70-7276","","1966-03-10","1985-07-28","M","1402 7TH AVE N","","GRAND FORKS","ND","582033115","218-7791502","Hobby Shop Technician","hourly",6368,83.92
"GM","OLSON","JUSTIN","468-23-9342","","1990-11-02","2012-11-12","M","4922 CURT CIR","","GRAND FORKS","ND","582018032","218-4160016","Metal Technician (B)","commission",4497,0.00
"GM","WOINAROWICZ","EMILEE","468-29-6666","","1994-05-09","2013-07-29","F","1118 27TH AVE S #2","","GRAND FORKS","ND","582017081","701-7410351","Service Operator","hourly",3294,72.92
"GM","BLUMHAGEN","KATHERINE","471-98-4971","","1972-01-15","2002-08-19","F","1812 25TH ST NE","","EMERADO","ND","582289779","701-7952506","Body Shop Parts Specialist","hourly",5811,85.50
"GM","KOENEN","DEBRA","477-82-0733","","1960-09-22","2008-08-04","F","1724 9TH AVE SO","","GRAND FORKS","ND","582014223","701-7570412","Receptionist","hourly",2583,76.33
"GM","OLSON","CODEY","474-27-8567","","1994-01-21","2016-08-01","M","21855 LILAC RIDGE RD #20","","VIKING","MN","567609590","701-7390786","BS TECH","commission",4116,0.00
"GM","ORTIZ","GUADALUPE","630-10-6010","","1989-06-18","2012-11-12","M","404 MEMORIAL DRIVE","","FISHER","MN","56723","701-3353111","Metal Technician (C)","hourly",3629,77.42
"GM","VELA","JUAN CARLOS","473-33-0922","","1997-07-22","2017-10-23","M","605 N MONTANA ST","","WARREN","MN","56762","218-2012078","Parts Shipping Specialist","hourly",2475,72.67
"GM","VANHESTE II","FRED","548-97-6808","","1987-06-30","2007-05-15","M","618 OAK ST","","GRAND FORKS","ND","582014458","701-5942701","Parts Sales Consultant","hourly",3692,73.00
"GM","EULISS","NED","621-16-3076","","1986-08-04","2004-11-02","M","102 BRIDGE ST","","OSLO","MN","56744","701-7771899","SERVICE WRITER","hourly",4850,77.83
"GM","OLSON","WYATT","475-31-7428","","1996-08-26","2017-04-10","M","915 17TH AVE S APT 1","","GRAND FORKS","ND","582016816","320-3042846","PDQ Assistant Manager","salary",3900,0.00
"GM","GREEN","HARRISON","610-84-1939","","1995-08-14","2016-02-15","M","2204 11TH AVE N","","GRAND FORKS","ND","58203","909-3549702","Lowerbay Technician","hourly",2384,63.00
"GM","GAGNON","TRACI","502-06-6923","","1981-03-17","2008-10-30","F","1104 1ST AVE N","","GRAND FORKS","ND","582033608","701-7418399","Service Operator","hourly",3192,78.33
"GM","JOHNSON","BENJAMIN","477-33-9214","","1998-03-26","2017-01-20","M","1515 SOUTH 17TH","","GRAND FORKS","ND","582015352","701-3173068","Detail Tech","commission",3181,0.00
"Honda Nissan","WILDE","COREY","469-92-9351","","1970-08-30","2012-08-06","M","2350 30TH AVE S APT 609","","GRAND FORKS","ND","582016592","701-7404665","Team 1 Sales Consultant","commission",7311,0.00
"GM","GRYSKIEWICZ","JONATHAN","472-33-4908","","1997-06-20","2017-05-22","M","31382 360TH ST NW","","ARGYLE","MN","56713","218-9910205","Metal Technician (C)","commission",2674,0.00
"GM","ADAM","PATRICK","502-80-2241","","1968-11-15","2016-04-25","M","1646 28TH AVE S APT 8","","GRAND FORKS","ND","582016760","218-7915637","Paint Technician (B)","commission",5574,0.00
"GM","STEIN","DONALD","501-02-6405","","1976-11-19","2012-08-13","M","1998 30TH AVE S #301","","GRAND FORKS","ND","582018916","701-3309245","Parts Driver","hourly",2808,75.67
"GM","TANDESKI","HEATHER","501-08-8607","","1987-03-13","2014-06-02","F","1898 30TH AVE S APT 208","","GRAND FORKS","ND","582017182","701-7391964","Sales Admin","hourly",2551,54.67
"GM","DAVID","GORDON","502-80-9583","","1974-10-09","1995-06-07","M","1005 OAK ST","","GRAND FORKS","ND","582014465","0-7958704","Main Shop Technician (B)","commission",4114,0.00
"GM","GRAY","NATHAN","502-13-6035","","1988-11-19","2011-08-22","M","2618 6TH AVE N","","GRAND FORKS","ND","582032964","0-0","Main Shop Technician (A)","commission",5746,0.00
"GM","HOLWERDA","KIRBY","004-94-1185","","1992-09-16","2011-05-18","M","3900 11TH ST #315","","GRAND FORKS","ND","582017379","701-3308479","Main Shop Technician (C)","commission",4261,0.00
"Honda Nissan","KELLER","JOSIAH","498-92-3564","","1986-11-29","2017-09-11","M","2493 27TH AVE S APT 720","","GRAND FORKS","ND","58201","701-2151986","Main Shop Technician (C)","commission",2750,0.00
"GM","BRUNK","JUSTIN","471-21-8013","","1990-03-05","2018-02-26","M","3750 GARDENVIEW DRIVE #102","","GRAND FORKS","ND","58201","218-4691746","New Car Sales Consultant","commission",3096,0.00
"GM","PICHE","STACEY","470-11-6089","","1987-04-12","2015-05-11","F","2295 13TH AVE NE","","EMERADO","ND","58228","218-5210960","PDQ Advisor","hourly",2169,42.92
"GM","BUCHANAN","KYLE","469-29-4861","","1994-07-04","2017-05-08","M","3655 RUEMMELE RD APT 115","","GRAND FORKS","ND","58201","320-4009075","Metal Technician (C)","commission",5722,0.00
"GM","O'REILLY","EDWARD","256-91-0253","","1994-10-12","2018-01-03","M","2502 S 10TH ST","","GRAND FORKS","ND","58201","701-2158085","PDQ TECH","hourly",1915,64.65
"GM","KHATIWODA","TEK","134-11-9633","","1988-01-11","2017-01-25","M","2049 30TH AVE S APT 306","","GRAND FORKS","ND","582013601","716-9037843","SERVICE TECH","hourly",2782,63.92
"GM","LEAVY","PAUL","501-11-3149","","1978-03-25","2014-08-25","M","1423 4TH AVE NW","","EAST GRAND FORKS","MN","567211521","218-7910473","Detail Technician","commission",7227,0.00
"GM","O'NEIL","TIMOTHY","573-79-8317","","1978-02-21","2014-08-11","M","518 32ND AVE SO","","GRAND FORKS","ND","582017620","218-7916889","Main Shop Technician (B)","commission",6262,0.00
"GM","SORUM","MICHAEL","501-15-5544","","1985-01-02","2002-11-04","M","708 N 4TH ST","","GRAND FORKS","ND","582033282","0-0","Developer","hourly",3832,43.50
"GM","PETERSON","BRIAN","501-13-5561","","1979-04-12","1999-03-15","M","510 13TH ST NW","","EAST GRAND FORKS","MN","567211469","218-7918076","PDR Technician","commission",7978,0.00
"GM","MONTGOMERY","CODY","470-35-8693","","1998-07-30","2017-09-03","M","23544 240TH AVE","","FERGUS FALLS","MN","56537","218-7314096","Parts Sales Consultant","hourly",2833,91.00
"GM","STINAR","CORY","468-21-2950","","1990-03-02","2013-06-13","M","3069 CENTRAL COURT","","GRAND FORKS","ND","582013506","701-7410195","SERVICE WRITER","hourly",4894,85.08
"GM","VANCAMP","KEVIN","501-06-5527","","1984-08-14","2018-01-29","M","2625 S 17TH ST APT 2","","GRAND FORKS","ND","58201","701-7411754","New Car Sales Consultant","commission",3198,0.00
"GM","WALDEN","CHRIS","550-67-5038","","1969-10-30","1994-09-06","M","314 COTTONWOOD","","GRAND FORKS","ND","582014548","0-7959917","Paint Technician (A)","commission",6565,0.00
"GM","KILMER","JUSTIN","501-96-3982","","1980-08-23","2007-02-01","M","831 S 24TH ST","","GRAND FORKS","ND","58201","218-2078558","Call Center Team Leader","hourly",4395,72.50
"GM","GOTHBERG","CONNER","501-25-5348","","1998-08-09","2015-09-01","M","411 7TH AVE NORTH","","GRAND FORKS","ND","582033248","701-3305456","Lowerbay Technician","hourly",2601,67.67
"Honda Nissan","BATZER","CORY","502-25-4077","","1999-06-28","2017-11-20","M","1017 CHERRY ST","","GRAND FORKS","ND","58201","701-6106635","PDQ TECH","hourly",2107,74.67
"GM","RYGG","KEN","501-88-1363","","1963-08-11","2012-11-21","M","1819 SOUTH 17TH ST","","GRAND FORKS","ND","582018102","0-0","Parts Sales Consultant","hourly",2918,71.42
"GM","PETERSON","TYLER","471-23-2788","","1991-03-03","2015-11-23","M","1721 10TH ST SE","","EAST GRAND FORKS","MN","567212280","218-6882325","Systems Engineer","hourly",3286,75.50
"GM","SMITH","TANER","429-83-0735","","1992-04-27","2018-05-07","M","1816 2ND AVE N","","GRAND FORKS","ND","58201","701-6201382","Detail Support Specialist","hourly",1685,12.90
"GM","BRORBY","BO","501-17-1880","","1990-08-29","2015-11-23","M","806 LOWELL ST","","CROOKSTON","MN","567162727","218-2890666","Video Editor","hourly",4047,76.92
"GM","VELA","GEORGE","472-33-4925","","1997-07-02","2016-04-11","M","107 DAKOTA STREET","","OSLO","MN","56744","218-4521463","Upperbay Technician","hourly",2227,59.25
"GM","MANGAN","RICHARD","502-82-3370","","1966-08-27","2002-09-23","M","721 13TH AVE. SO.","","GRAND FORKS","ND","582015534","0-7468073","Parts Shipping Coordinator","hourly",4123,76.75
"Honda Nissan","HELGESON","JEFFREY","502-15-5658","","1989-09-10","2009-11-24","M","1625 20TH AVE S APT 104","","GRAND FORKS","ND","582016374","701-6109278","Parts Shipping Specialist","hourly",3190,82.00
"GM","MCVEIGH","DENNIS","619-26-1906","","1989-03-08","2007-11-13","M","1107 LETNES DRIVE","","GRAND FOKRS","ND","582016847","701-3300835","Main Shop Technician (B)","commission",5386,0.00
"GM","GARDNER","CHAD","501-06-3614","","1978-03-04","2011-04-04","M","609 13TH ST NW","","EAST GRAND FORKS","MN","567211470","701-7411765","Metal Technician (B)","commission",6604,0.00
"GM","LONGORIA","BEVERLEY","502-92-3212","","1960-10-31","2005-02-21","F","207 FILMORE AVE","","GRAND FORKS","ND","582017116","701-7755133","Aftrmrkt/Used Veh. Coordinator","salary",6172,0.00
"GM","DAHLEN","DANA","502-13-2459","","1977-06-19","2017-09-29","F","2594 7TH AVE NE","","NORTHWOOD","ND","58267","701-2152767","","hourly",2777,72.75
"Honda Nissan","TANDESKI","JADE","501-98-6558","","1980-06-02","2014-10-08","F","1502 S 15TH ST","","GRAND FORKS","ND","58201","701-2158257","Sales Admin","hourly",2396,68.17
"GM","EICHHORST","NOEL","502-82-0849","","1959-02-28","1978-08-30","M","2501 S 40th ST","","GRAND FORKS","ND","582015920","0-7750091","Custodian","hourly",2443,60.92
"GM","SINJEM","KATELYNN","473-35-1237","","1998-11-16","2017-09-04","F","1312 4TH AVE NW","","EAST GRAND FORKS","MN","56721","0-0","Car Wash Team Member","hourly",1497,56.33
"GM","SALVIONE","SHAYLA","601-35-4995","","1993-10-13","2014-08-25","F","2214 6TH AVE N","","GRAND FORKS","ND","58203","602-7176554","Car Wash Cashier","hourly",2059,61.83
"GM","METZGER","KAYLE","474-23-7542","","1991-11-12","2013-11-20","F","29068 380TH AVE SW","","FISHER","MN","567239339","218-8414587","Accounts Payable Clerk","hourly",3054,71.00
"GM","PETERSON","MAVRIK","472-19-8994","","1989-06-19","2010-11-15","M","1077 16TH ST NE","","GRAND FORKS","ND","582019506","701-7404365","Paint Technician (A)","commission",6359,0.00
"GM","FONTAINE","ASHLEY","502-21-7797","","1995-10-24","2016-04-25","F","880 58TH AVE S","","GRAND FORKS","ND","58201","701-3314389","Sales Admin","hourly",2412,67.08
"GM","GAGNON","ANASTASIA","502-25-9989","","2000-02-15","2018-05-27","F","3387 PRIMROSE CT #304","","GRAND FORKS","ND","58201","701-6103105","General Operator","hourly",1029,4.18
"GM","ANDERSON","HAILEE","474-23-4602","","1991-07-08","2016-10-24","F","3616 LANDECO LN APT 27","","GRAND FORKS","ND","58201","218-3308115","Service Operator","hourly",2817,71.67
"GM","TROFTGRUBEN","RODNEY","501-78-2982","","1968-07-23","1992-08-03","M","2224 SO 20TH ST","","GRAND FORKS","ND","582016106","0-0","Main Shop Advisor","hourly",7766,88.83
"GM","JERSTAD","KENNETH","501-68-9259","","1954-09-24","2002-06-10","M","408 CRESTWOOD COURT SE","","EAST GRAND FORKS","MN","567212112","701-7922751","Parts Sales Consultant","hourly",4622,70.75
"GM","KIEFER","LUCAS","501-15-3826","","1989-07-12","2014-05-19","M","1402 SO 19TH ST","","GRAND FORKS","ND","582015207","701-2153093","Accessory Technician(C)","commission",3207,0.00
"GM","MAGNUSON","TYLER","501-19-8112","","1992-11-27","2011-04-06","M","1311 SO 18TH ST","","GRAND FORKS","ND","582016693","701-7414508","Body Shop Detailer","hourly",3958,78.75
"GM","HULL","DAVID","501-21-9728","","1994-11-08","2015-04-27","M","1823 2ND AVE N","","GRAND FORKS","ND","58203","218-2158640","Parts Shipping Specialist","hourly",3117,91.08
"GM","LINDEMANN","TASHA","502-21-4104","","1995-04-27","2017-09-11","M","1848 30TH AVE NE","","MANVEL","ND","58256","701-7418292","Rental Agent","hourly",2224,72.25
"Honda Nissan","SUTHERLAND","BROOKE","469-23-0486","","1991-02-15","2017-07-23","F","1309 SOUTH 16TH STREET","","GRAND FORKS","ND","58201","218-7913839","Sales Admin","hourly",3067,78.42
"GM","WALDBAUER","ALEX","502-13-6973","","1989-02-01","2007-08-29","M","513 SICKLES ST","","LARIMORE","ND","582515031","701-2293398","Accessory Technician(C)","commission",3659,0.00
"Honda Nissan","GABRIELSON","JAMES","470-25-6665","","1992-03-01","2017-09-18","M","3553 13TH AVE N, APT. 203","","GRAND FORKS","ND","58201","320-4913152","Team 1 Sales Consultant","commission",3225,0.00
"GM","HEFFERNAN","JOSH","502-78-8613","","1977-06-04","1995-07-15","M","1807 DREES DR","","GRAND FORKS","ND","582018134","218-7790585","Main Shop Technician (A)","commission",6513,0.00
"GM","BOLL","RYAN","501-23-0313","","1995-12-11","2018-11-12","M","4250 6TH AVE N APT 5","","GRAND FORKS","ND","58203","701-8309739","PDQ Advisor","hourly",4703,122.98
"GM","KOWALSKI","JASON","502-94-9410","","1971-11-13","2014-06-16","M","15815 CO RD 11","","GRAFTON","ND","582378812","701-7412676","Aftermarket Sales Consultant","hourly",3645,85.08
"GM","WILEBSKI","LOGAN","469-35-1838","","1998-05-12","2018-10-15","M","3577 13TH AVE N APT 202","","GRAND FORKS","ND","58203","701-7396923","PDQ TECH","hourly",1244,17.39
"GM","MAVITY","ROBERT","502-11-6370","","1973-12-09","2008-01-01","M","899 2ND AVE N APT A4","","GRAND FORKS","ND","582033609","0-0","Paint Technician (B)","commission",5564,0.00
"GM","RAI","BIR","664-02-7837","","1980-01-01","2017-07-31","M","2049 30TH AVE S APT 304","","GRAND FORKS","ND","58201","701-8851485","PDQ TECH","hourly",2464,79.92
"GM","PFAFF","JONATHAN","501-23-3903","","1996-04-05","2019-01-01","M","5044 W. ELM COURT","","GRAND FORKS","ND","58201","701-7418037","Digital Sales Consultant","hourly",,0.00
"GM","LOVEN","ARDEN","501-76-4373","","1960-03-01","2010-03-08","M","628 10TH AVE S","","GRAND FORKS","ND","582014320","701-3147076","Used Car Sales Consultant","commission",4749,0.00
"GM","CROAKER","CRAIG","501-72-7632","","1956-09-03","2007-01-30","M","40972 130TH ST SW","","EAST GRAND FORKS","MN","567219117","218-7794103","Used Car Sales Consultant","commission",10254,0.00
"GM","HALEY","DYLANGER","502-19-1450","","1993-02-09","2016-09-26","M","104 RIVERS EDGE DR","","GRAND FORKS","ND","58201","218-7799677","New Car Sales Consultant","commission",5157,0.00
"GM","FLAAT","STEPHEN","474-78-3324","","1957-03-19","2005-02-01","M","23821 STATE HWY 220 SW","","FISHER","MN","567239319","218-8932275","Fleet Sales Consultant","commission",6015,0.00
"GM","FOSTER","BENJAMIN","377-11-6100","","1984-07-20","2013-10-21","M","2221 FALL CREEK COURT","","GRAND FORKS","ND","58201","231-6315007","NEW CAR MANAGER","salary",8808,0.00
"Honda Nissan","LANGENSTEIN","JARED","504-11-4409","","1980-09-01","2018-02-19","M","618 SKYVIEW CIRCLE","","GRAND FORKS","ND","582017682","701-3301062","","salary",8876,0.00
"GM","BROWN","SETH","410-83-1676","","1997-08-10","2018-07-26","M","2201 4TH AVE N","","GRAND FORKS","ND","58203","701-5804045","Car Wash","hourly",1624,0.00
"GM","SQUIRES","SHAWN","547-47-1360","","1976-07-28","2017-11-06","M","5332 S 14TH ST","","GRAND FORKS","ND","58201","719-5103688","Maintenance Manager","salary",5250,0.00
"GM","GAGNON","JUNE","501-98-8675","","1982-06-07","2008-02-11","F","3387 PRIMROSE CT #304","","GRAND FORKS","ND","582018505","701-7397410","Office Manager","salary",3718,0.00
"Honda Nissan","MONREAL","JESSIE","501-19-4778","","1992-08-15","2017-09-25","M","3450 RUEMMELE RD APT 214","","GRAND FORKS","ND","58201","701-3176116","Team 2 Sales Consultant","commission",3822,0.00
"GM","TOMLIN","LUNDEAN","501-21-3756","","1994-05-28","2018-12-17","M","1702 32ND ST W","","WILLISTON","ND","58801","972-8002124","Parts Driver","hourly",1108,0.00
"GM","JOHNKE","ALLISON","502-21-5065","","1995-06-14","2018-09-04","F","2410 11TH AVE S","","GRAND FORKS","ND","58201","701-2131281","PDQ CASHIER","hourly",2148,0.00
"Honda Nissan","TWETEN","MICHAEL","502-94-4188","","1980-07-07","2018-07-31","M","5720 ORCHID CIRCLE","","GRAND FORKS","ND","58201","701-2382073","SALES TEAM LEADER","commission",8141,0.00
"GM","WARMACK","JAMES","476-82-4704","","1961-10-03","2011-04-02","M","813 23RD AVE SE","","EAST GRAND FORKS","MN","567213011","218-7738045","New Car Sales Consultant","commission",7939,0.00
"GM","SORUM","GREG","502-64-1940","","1963-01-26","1996-01-01","M","659 VINEYARD DRIVE","","GRAND FORKS","ND","582018061","0-0","Executive Manager","salary",86406,0.00
"GM","SHIREK","NICHOLAS","501-17-3260","","1989-10-21","2018-02-01","M","605 7TH ST NORTH","","THOMPSON","ND","58278","701-7390794","New Car Sales Manager","commission",13918,0.00
"GM","STADSTAD","LARRY","502-64-0339","","1953-12-07","2015-01-01","M","1304 WESTERN AVE","","MANVEL","ND","582564308","701-6962233","Fleet Sales Consultant","commission",5420,0.00
"Honda Nissan","RAMBERG","GARY","502-78-3275","","1963-09-22","2018-11-12","M","106 BREEZY HILLS COVE","","GRAND FORKS","ND","58201","701-7727651","","hourly",4269,0.00
"GM","SOBERG","NICHOLAS","477-31-1490","","1996-10-30","2018-08-27","M","5589 QUALE AVE NE","","SAINT MICHAEL","MN","55376","763-3312880","Lowerbay Technician","hourly",1590,0.00
"GM","STINAR","DANIEL","470-19-5107","","1984-01-15","2009-12-15","M","1415 8TH AVE S #2","","GRAND FORKS","ND","582014303","701-7411047","Parts Manager","salary",8330,0.00
"GM","ANDREWS","JON","344-44-2157","","1951-06-05","2006-04-11","M","2625 S 17TH ST #11","","GRAND FORKS","ND","582016678","218-7793664","Developer","salary",7217,0.00
"GM","WAGENER","SAMUEL","392-96-6320","","1984-07-12","2014-01-01","M","1409 RIDER ROAD","","GRAND FORKS","ND","582015289","218-7792976","Rydell Company","salary",8450,0.00
"Honda Nissan","OLSON","CHAD","469-08-4543","","1971-02-15","2010-01-01","M","15590 470TH AVE NW","","OSLO","MN","567449435","0-7870936","Parts Manager","salary",5575,0.00
"GM","KOBAYASHI-DYER","NARUMI","475-31-0501","","1996-07-29","2018-10-01","M","100 N 3RD ST","APT. 503","GRAND FORKS","ND","58203","612-4181036","New Car Sales Consultant","commission",3261,0.00
"Honda Nissan","ENGEBRETSON","ERIK","474-27-8811","","1992-08-09","2018-07-02","M","4240 5TH AVE N APT 111","","GRAND FORKS","ND","58201","612-7105089","Main Shop Technician (C)","commission",3838,0.00
"GM","BERGE","THOMAS","469-37-8198","","1999-08-16","2018-07-16","M","6200 LAKE DRIVE","","GRAND FORKS","ND","58201","701-7407955","Lowerbay Technician","hourly",1769,0.00
"GM","ZOELLICK","STEVE","330-46-4189","","1951-07-18","2013-01-01","M","36944 229TH AVE","","MENAHGA","MN","564642612","218-5645273","Rydell Company","salary",3250,0.00
"GM","SWANSON","ZACHARY","470-33-1796","","1997-04-04","2018-09-11","M","2101 4TH AVE N","","GRAND FORKS","ND","58201","763-2342172","Lowerbay Technician","hourly",1224,0.00
"GM","RAI","SAN","172-97-1928","","1994-10-15","2018-11-25","M","3838 S 17TH ST","","GRAND FORKS","ND","58201","701-8649006","PDQ TECH","hourly",2006,0.00
"GM","BERGH","STEVEN","468-96-2635","","1973-06-28","2014-06-30","M","1120 3RD AVE NW #5","","EAST GRAND FORKS","MN","567211549","218-2894204","Appearance Director","salary",4100,0.00
"Honda Nissan","RYDELL","ROBERT","502-94-9687","","1965-10-31","2006-06-01","M","5690 W PRAIRIEWOOD DR","","GRAND FORKS","ND","58201","701-7721422","Dealer Principal","commission",18725,0.00
"GM","BJARNASON","JUSTIN","501-06-7799","","1985-04-13","2017-06-05","M","918 PARK DR","","GRAND FORKS","ND","58201","701-3173193","New Car Sales Consultant","commission",3871,0.00
"GM","SATTLER","RANDY","502-86-4527","","1958-09-24","2002-08-26","M","815 SO. 22ND ST.","","GRAND FORKS","ND","582014139","0-7727529","Body Shop Manager","commission",9191,0.00
"GM","BRUGGEMAN","AFTON","245-77-8564","","1994-03-21","2016-08-01","F","19303 445TH AVE SW","","EAST GRAND FORKS","MN","56721","0-0","Developer","salary",5023,0.00
"GM","CLASEMAN","JAMIE","502-80-4766","","1979-01-06","2018-12-03","F","528 4TH ST, APT. 12","","THOMPSON","ND","58278","701-2154637","Receptionist","hourly",1154,0.00
"GM","BINA","BENJAMIN","ssn","","1997-02-24","2019-01-06","M","3971 DAKOTA DRIVE","","GRAND FORKS","ND","58201","701-2138395","Detail Prep Technician","hourly",,0.00
"GM","HENRY","JUDY","502-82-7349","","1955-12-31","1994-02-01","F","3640 10TH AVE NE","","NORTHWOOD","ND","582679756","0-5875086","Rydell Company","salary",4863,0.00
"GM","MARESCA","ROMAO","590-50-8628","","1975-10-31","2018-08-27","M","13430 110TH ST SW","","RED LAKE FALLS","MN","56750","321-2086549","PARTS ASSISTANT MANAGER","salary",3948,0.00
"GM","OLDERBAK","JOHN","502-84-5420","","1972-10-22","2016-02-16","M","525 15TH AVE S","","GRAND FORKS","ND","582015604","701-7415606","Used Car Sales Consultant","commission",6591,0.00
"GM","WILKIE","DAVID","501-68-9008","","1954-09-28","1978-05-17","M","3917 SIMONVIEW CRT","","GRAND FORKS","ND","582017672","0-0","Used Car Inventory Manager","commission",7726,0.00
"GM","ANDERSON","NICHOLAS","501-25-5638","","1998-07-26","2018-06-18","M","122 CHESTNUT ST","","GRAND FORKS","ND","58201","701-7403955","PDQ TECH","hourly",2113,0.00
"GM","CARLSON","ROBERT","468-92-4980","","1965-03-18","1997-04-01","M","3913 21ST ST S","","FARGO","ND","581046804","320-2517528","Rydell Company","commission",11517,0.00
"GM","AUBOL","THOMAS","502-70-6010","","1964-06-17","1998-11-09","M","2402 SO 23RD ST","","GRAND FORKS","ND","582016433","218-7791518","New Car Team Leader","commission",10614,0.00
"Honda Nissan","NEUMANN","NANCY","502-82-9175","","1964-11-05","2018-06-11","F","3383 PRIMROSE COURT","APT. C3","GRAND FORKS","ND","58201","561-5160984","Receptionist","hourly",2344,0.00
"GM","ESPELUND","KENNETH","503-92-9470","","1976-06-09","2005-09-19","M","722 CENTRAL AVE NE","","EAST GRAND FORKS","MN","567211957","218-7733388","Service Drive Manager","salary",6167,0.00
"Honda Nissan","DANGERFIELD","JOEL","502-94-3827","","1966-02-26","2001-11-29","M","3025 QUEENS COURT","","GRAND FORKS","ND","582013520","701-7726475","Main Shop Manager","salary",6282,0.00
"GM","SCHNEIDER","BRIAN","539-17-2276","","1987-07-10","2017-06-05","M","301 WINDWARD HILLS AVE","","GRAND FORKS","ND","58201","701-2153320","New Car Sales Consultant","commission",3260,0.00
"GM","MITCHELL","KEEVON","313-19-6532","","1998-02-06","2018-07-30","M","1710 5TH AVE NE APT B9","","EAST GRAND FORKS","MN","56721","701-3175542","Car Wash","hourly",804,0.00
"GM","BJORNBERG","ADAM","471-27-9953","","1993-04-01","2018-11-05","M","3750 RUEMMELE ROAD","","GRAND FORKS","ND","58201","651-8080015","Detail Porter","hourly",2184,0.00
"GM","RAMSEY","COLTON","502-23-8302","","1997-10-02","2018-10-08","M","1119 19TH AVE S","","GRAND FORKS","ND","58201","218-7917400","New Car Sales Consultant","commission",3028,0.00
"GM","COCHRAN","MICHELLE","502-08-7694","","1987-09-11","2011-01-24","F","17474 BLUE WATER COURT","","RIVERSIDE","CA","92503","218-7796301","Lead F&I Admin","salary",4606,0.00
"Honda Nissan","NELSON","NICHOLAS","502-23-5711","","1997-07-08","2018-09-10","M","3700 30TH AVE S","APT. 311","GRAND FORKS","ND","58201","218-7798515","Team 1 Sales Consultant","commission",3898,0.00
"GM","SYMONS","ELIZABETH","471-02-9018","","1983-09-26","2012-12-27","F","1304 6TH AVE NW","","EAST GRAND FORKS","MN","567211451","701-4127226","Developer","salary",6000,0.00
"Honda Nissan","OLVERA","CHRISTIAN","476-29-9245","","1995-07-13","2018-11-19","M","316 4TH ST NW, #207","","EAST GRAND FORKS","MN","56721","701-7398593","PDQ TECH","hourly",1879,0.00
"GM","NOREIKIS","TIFFANY","469-25-1301","","1992-02-03","2018-09-10","F","217 E FLETCHER AVE","","WARREN","MN","56762","701-2153108","New Car Sales Consultant","commission",3743,0.00
"GM","RYDELL","WESLEY","502-40-7066","","1941-05-22","1962-06-01","M","PO BOX 13398","","GRAND FORKS","ND","582083398","701-7756615","Rydell Company","commission",53667,0.00
"Honda Nissan","GROLLIMUND","TYLER","100-84-6966","","1995-05-01","2018-08-01","M","1119 CHESTNUT ST","","GRAND FORKS","ND","58201","701-2130966","Team 1 Sales Consultant","commission",3763,0.00
"GM","TARR","JEFF","516-80-4778","","1962-09-14","1993-11-01","M","1706 8TH AVE SO","","GRAND FORKS","ND","582014216","0-0","New Car Sales Consultant","commission",4034,0.00
"GM","KNUDSON","BENJAMIN","501-15-4984","","1989-08-10","2009-08-12","M","5370 MAC DRIVE","","GRAND FORKS","ND","582013005","701-7862634","Used Car Sales Manager","commission",10225,0.00
"GM","FOSTER","KEVIN","368-56-4789","","1952-03-04","2006-06-05","M","170 CRESTWOOD LANE","","SUTTONS BAY","MI","496829214","701-3308965","Rydell Company","salary",20100,0.00
"GM","MONSON","TAYLOR","501-19-1455","","1992-03-26","2014-06-30","F","518 N WOODLAND DRIVE","","THOMPSON","ND","58278","701-7397778","NEW VEH. INVENTORY","salary",4610,0.00
"GM","MCMILLIAN","TARA","502-06-4478","","1986-10-20","2018-09-10","F","305 5TH ST NW","","EAST GRAND FORKS","MN","56721","619-3133219","Body Shop Admin","hourly",2761,0.00
"GM","MORRIS","GREG","502-76-3950","","1961-06-20","2010-04-19","M","307 CLEARVIEW CT","","MOORHEAD","MN","565606806","218-2361417","Outside Sales Consultant","salary",5625,0.00
"GM","LYNCH","JAMES","372-74-9138","","1958-02-06","2007-12-03","M","138 E 15TH ST","","TRAVERSE CITY","MI","49684","0-0","Sales Trainer","salary",10000,0.00
"GM","FOSTER","SAMUEL","376-11-1011","","1990-07-17","2014-11-17","M","1260 55TH AVE SOUTH APT 102","","GRAND FORKS","ND","582019273","231-5345454","Digital Sales Consultant","commission",5403,0.00
"GM","GOLDADE","BRANDON","502-19-9118","","1993-08-30","2018-12-31","M","2700 34TH ST S, APT. 304","","GRAND FORKS","ND","58201","701-3198462","Parts Counter Consultant","hourly",,0.00
"GM","LONGORIA","MICHAEL","501-15-8157","","1987-11-23","2018-07-30","M","1114 COTTONWOOD ST","","GRAND FORKS","ND","58201","701-3308055","New Car Sales Consultant","commission",3650,0.00
"GM","BARKER","JOSHUA","247-85-7134","","1984-10-05","2010-11-01","M","425 GOODWIN AVE","","THOMPSON","ND","582784104","701-3404554","New Car Team Leader","commission",7965,0.00
"GM","RYAN","ANTONIO","424-04-6284","","1978-07-02","2012-03-29","M","805 N. 43RD ST, APT. D35","","GRAND FORKS","ND","58203","205-5359403","Car Wash Manager","salary",4333,0.00
"GM","HIBMA","MORGAN","503-13-0775","","1986-09-17","2016-08-01","F","610 FIR LANE","","CROOKSTON","MN","56716","763-9131036","Digital Marketing Manager","salary",6058,0.00
"GM","YEM","RITHY","501-08-9027","","1987-04-24","2013-04-29","M","1206 BELMONT RD","","GRAND FORKS","ND","582015625","701-3600934","Estimator","salary",4057,0.00
"GM","DECOUTEAU","FRANK","502-15-7461","","1990-03-04","2017-09-25","M","1518 S 19TH ST","","GRAND FORKS","ND","58201","701-6209745","Sales & Leasing Professional","commission",6828,0.00
"GM","SHOWER","DUSTIN","502-98-8293","","1978-11-29","2018-08-20","M","4809 4TH AVE N","","GRAND FORKS","ND","58203","701-7416962","General Operator","hourly",2166,0.00
"GM","WEBER","JAMES","502-98-2402","","1982-02-19","2011-10-10","M","610 7TH ST N.","","THOMPSON","ND","58278","701-2151464","SALES CONSULTANT","commission",8483,0.00
"GM","PRESTON","ALLEN","474-17-3594","","1988-06-22","2014-02-10","M","1103 CAMPBELL DR UNIT 4","","GRAND FORKS","ND","582016907","701-8859189","Aftermarket Sales Consultant","commission",4476,0.00
"Honda Nissan","BOHN","CHRISTOPHER","477-27-2304","","1994-03-26","2018-12-03","M","2053 HWY 281","","NEW ROCKFORD","ND","58356","701-3070396","DRIVER","hourly",2060,0.00
"GM","DELAURIER","JAMES","543-45-0757","","1994-11-24","2018-12-17","M","1701 36TH AVE S, APT. 210","","GRAND FORKS","ND","58201","661-8031474","New Car Sales Consultant","commission",3130,0.00
"GM","BEDNEY","TYLER","589-43-0723","","1994-05-23","2017-06-05","M","880 58TH AVE S","","GRAND FORKS","ND","58201","701-3309418","New Car Sales Consultant","commission",5096,0.00
"GM","RYDELL","BRIAN","502-08-0925","","1972-05-15","1999-06-28","M","5555 ADAMS DR","","GRAND FORKS","ND","582013206","0-0","Dealer Principal","salary",48907,0.00
"GM","MICHAEL","ANTHONY","468-02-5696","","1980-04-09","2010-10-25","M","2128 41ST AVE S","","GRAND FORKS","ND","582013469","701-2056866","Finance Manager","commission",10200,0.00
"Honda Nissan","ROMIG","THOMAS","181-56-1625","","1973-08-14","2018-10-08","M","524 3RD AVE S","","GRAND FORKS","ND","58201","701-6109515","Team 1 Sales Consultant","commission",3045,0.00
"GM","LIND","KATHERINE","501-66-0913","","1958-09-03","1983-11-22","F","1840 15TH AVE NE","","GRAND FORKS","ND","582019615","0-0","Guest Experience Manager","salary",6701,0.00
"GM","CAHALAN","BENJAMIN","480-96-9030","","1979-07-09","2011-08-03","M","5760 E PRAIRIEWOOD DR","","GRAND FORKS","ND","58201","319-8303467","General Manager","salary",32131,0.00
"GM","CHAVEZ","JESSE","633-38-7087","","1993-09-12","2014-06-30","M","5218 CIRCLE DR N","","GRAND FORKS","ND","582032651","701-6209894","Digital Sales Consultant","commission",3728,0.00
"GM","ROTH","LAURA","504-98-3199","","1982-08-26","2017-11-20","F","1449 16TH ST NE","","GRAND FORKS","ND","58201","612-3969348","Human Resources Manager","salary",5009,0.00
"GM","VANYO","DAVID","501-15-1751","","1989-06-02","2017-12-18","M","4 VAIL CIRCLE","","GRAND FORKS","ND","58201","218-2078133","New Car Sales Consultant","commission",5141,0.00
"GM","SEAY","BRYN","502-15-5362","","1990-02-08","2014-08-25","M","2814 S 10TH ST","","GRAND FORKS","ND","58201","701-7402680","Digital Team Leader","commission",7887,0.00
"GM","SCHMIESS PENAS","JERI","501-98-9316","","1983-01-24","2009-05-12","F","705 N WOODLAND DR","","THOMPSON","ND","582784144","701-2564319","Controller","salary",11374,0.00
"GM","THIBERT","MASON","501-27-6111","","2000-10-25","2018-08-13","M","1707 21ST AVE S","#320","GRAND FORKS","ND","58201","701-6109409","Parts Driver","hourly",1843,0.00
"GM","STOUT","RICK","482-96-6319","","1974-05-25","2016-08-29","M","2950 36TH AVE S APT B13","","GRAND FORKS","ND","582013546","319-3891539","Finance Manager","commission",13767,0.00
"GM","LARSON","CODY","471-29-7546","","1994-10-31","2018-09-24","M","1405 15TH AVE S","","GRAND FORKS","ND","58201","218-2306467","Maintenance Technician","hourly",2751,0.00
"GM","DOCKENDORF","NATE","475-02-9722","","1976-08-17","2015-05-18","M","2144 5TH AVE NW","","EAST GRAND FORKS","MN","567211219","320-4926765","Used Car Sales Manager","commission",7196,0.00
"GM","POKHREL","CHANDRA","501-35-0204","","1960-11-01","2018-12-17","M","5201 9TH AVE N","","GRAND FORKS","ND","58203","701-3170316","Custodian","hourly",78,0.00
"GM","FOERSTER","KELLY","501-70-8560","","1958-02-24","1985-02-18","M","2815 SHADOW RD","","GRAND FORKS","ND","582018227","0-0","New Car Inventory Manager","salary",6000,0.00
"GM","NOKELBY","RONALD","468-78-3316","","1958-07-01","1978-05-05","M","618 20TH ST NW","","EAST GRAND FORKS","MN","567211228","0-0","Developer","salary",6482,0.00
"GM","HOLLAND","NIKOLAI","472-35-8048","","1994-06-09","2017-03-27","M","4000 GARDENVIEW DR #404","","GRAND FORKS","ND","58201","612-7303458","New Car Sales Consultant","commission",5279,0.00
"Honda Nissan","SALDANA","DEION","501-23-1851","","1996-03-25","2018-09-24","M","3450 RUEMMELE RD","APT. 214","GRAND FORKS","ND","58201","701-3312970","Team 1 Sales Consultant","commission",2831,0.00
"GM","GARDNER","JOHN","473-23-7504","","1991-05-06","2014-06-01","M","1751 36TH AVE S APT 307","","GRAND FORKS","ND","58201","612-7208029","Body Shop Manager","salary",4812,0.00
"Honda Nissan","GILGALLON","KEVIN","093-76-0461","","1989-08-07","2018-11-19","M","114 1/2 NORTH 3RD ST, APT. 12","","GRAND FORKS","ND","58203","701-4414454","PDQ TECH","hourly",1835,0.00
"Honda Nissan","DURAND","TIMOTHY","469-02-8810","","1983-05-01","2018-09-17","M","703 S 16TH ST","","GRAND FORKS","ND","58201","701-7406558","PDQ WRITER","hourly",2797,0.00
"GM","DAKU","ALTIN","501-27-2257","","2000-03-31","2018-07-26","M","802 S. 12TH ST","","GRAND FORKS","ND","58201","701-3309550","Car Wash","hourly",965,0.00
"GM","BJORNSETH","MARK","502-76-9196","","1958-10-30","1989-09-25","M","472 BURDICK COURT","","GRAND FORKS","ND","582032652","0-7464772","Parts Inventory Manager","salary",5724,0.00
"GM","TURNER","RICHARD","501-15-9981","","1985-01-22","2018-12-31","M","320 MAIN ST","","NORTHWOOD","ND","58267","218-7915353","New Car Sales Consultant","commission",,0.00
"GM","DELOHERY","MICHAEL","521-86-9135","","1957-04-02","2010-05-03","M","2302 BELMONT RD","","GRAND FORKS","ND","582017573","701-7750063","Digital Marketing Manager","salary",5729,0.00
"GM","RIVERA","ROLANDO","455-55-6820","","1979-01-08","2018-12-17","M","1624 S 14TH ST, APT. 11","","GRAND FORKS","ND","58201","701-2158295","Courtesy Driver","hourly",741,0.00
"GM","PETERSON","DOUG","542-68-9850","","1953-08-02","1995-12-04","M","38273 200TH ST. SW","","EAST GRAND FORKS","MN","567219220","218-7799591","Hobby Shop Technician","salary",6382,0.00
"Honda Nissan","CALCATERRA","CHAD","470-25-2522","","1992-01-25","2015-07-20","M","2150 47TH AVE S #203","","GRAND FORKS","ND","582013615","218-3909263","Sales Team Leader","commission",9961,0.00
"GM","LADWIG","NICHOLAS","501-21-8703","","1994-09-26","2018-09-04","M","4340 PIONEER DRIVE APT 214","","GRAND FORKS","ND","58201","701-6101633","Digital Sales Consultent","hourly",1912,0.00
"GM","SYMONS","STEVEN","501-02-0557","","1983-07-09","2010-11-22","M","1304 6TH AVE NW","","EAST GRAND FORKS","MN","567211451","701-8662478","IT Manager","salary",5833,0.00
"GM","ERICKSON","RONALD","502-04-6384","","1975-02-12","2009-10-12","M","4602 HOMESTEAD CIR","","GRAND FORKS","ND","582017265","218-2304111","Used Car Team Leader","commission",5739,0.00
"GM","NEUMANN","ANDREW","475-96-8765","","1976-02-10","2014-05-18","M","717 NORTH 6TH ST","","GRAND FORKS","ND","582033234","218-7798851","Service Director","salary",7500,0.00
"GM","LABELLE","KODI","502-23-6904","","1997-09-16","2018-12-17","M","2350 SOUTH 34TH ST","","GRAND FORKS","ND","58203","701-3175718","Detail Support Specialist","hourly",1462,0.00
