
PY201                                               Honda Nissan of Grand Forks                                     2/21/13 13:59:05
RYDEJON              Active & Terminated                Employee Master List                                                Page   1
====================================================================================================================================
                                                                       Base        Dist  ---------- Date ----------
 Emp #  Name                                    SSN#        D  T P     Rate   M FE Code    Hire     Raise    Term    Driver's Lic #
====================================================================================================================================
  21010 ADAMS,JEFF M                            501-80-5498 03 H B       9.50 M  5 TPDQ   5/02/11  5/07/12  8/23/12    P126129369809
                                                                          Deduction   227      7.88   91       3.00

  23620 ALVARADO, RAMIRO                        501-94-2455 04 H B       9.00 S  3 TECH   1/08/10  0/00/00  3/12/10      ALV-79-7321
                                                                          Deduction   107     18.54   227      7.88   96      20.00

   3810 AMUNDSON,GLENN                          501-78-2168    S B    1384.62 M  0 ADM    2/18/08  0/00/00  2/20/09
                                                                          Deduction   275    161.51

  23815 ANDERSON, STEVEN L                      501-46-8085 01 H B      11.00 M  0 DRI   10/25/12  0/00/00  0/00/00      AND-43-4718

  24100 ANDERSON,JOSEPH K                       529-52-3612 01 H B       9.00 S  1 DRI   12/27/10  0/00/00  5/05/12      AND-40-9260

  23900 ANDREWS,DALE R                          501-48-3293 18 H B       9.00 M  0 SVR   12/05/07  0/00/00  0/00/00        AND444091

  24210 ANFILOFIEFF, IVAN M                     540-06-6794 04 H B      14.00 M  5 TECH   1/02/12  5/07/12  0/00/00    H568028138819
                                                                          Deduction   111             295             296

  27410 AUNE,LINDSEY                            502-02-7269 10 H B      12.00 S  1 STA   10/27/08  0/00/00  5/10/12        AUN959858
                                                                          Deduction   107     35.87   111     13.87   296     20.74
                                                                                      301      3.95   87      10.76   91       3.00

  27580 AVALOS,JUAN                             456-39-2808 01 C S            S  0 SALE   6/10/09  0/00/00  6/30/10        AVA753908
                                                                          Other Pay   78     500.00
                                                                          Deduction   107     37.08   111     25.63   287      5.50
                                                                                      87       9.93

  28580 BACHMEIER, DUSTIN M                     502-96-6023 04 H B      14.00 S  1 TECH   3/22/10  0/00/00  9/10/10        D01307089
                                                                          Deduction   107     18.54   96       5.00

 211050 BARKER, DAVID L                         249-55-8485 03 S B    1200.00 M  5 PDQW   8/27/12 11/05/12  0/00/00        102767401
                                                                          Deduction   275     93.05   296

 211108 BARTA,JOEY KYLE                         472-27-7438 03 H B       9.00 S  0 TPDQ   9/12/11 11/07/11  9/10/12      BAR-93-0777
                                                                          Deduction   227      7.88

 210800 BAUER,PETER                             544-23-1835 04 H B       8.00 S  0 TECH   5/11/10  0/00/00  6/10/10          8654666
                                                                          Deduction   107     36.77   227      7.88

 211125 BAUERLE,MELISSA C                       501-08-6225 04 H B      14.00 S  0 TECH   8/22/11  0/00/00  5/03/12      BAU-71-6762
                                                                          Deduction   107     35.87   287      3.50   297     16.75
                                                                                      87      13.83

 211610 BEISWENGER,DAVID R                      476-76-3017 04 S B     692.31 M  1 SVR   11/29/10  0/00/00 10/14/11    G497045601420
                                                                          Deduction   111

 211675 BELGARDE,KEN MIKE                       502-06-8948 04 H B       9.50 S  0 TECH   4/16/08  0/00/00  4/28/10         BEL96858
                                                                          Deduction   111             227      7.88   287
                                                                                      87

  11677 BELGARDE,NATHAN                         501-19-4992 04 H B       8.00 S  0 TECH   6/24/09  0/00/00  9/24/09        BEL901906
                                                                          Deduction   227      7.88

 213190 BERGLUND,JOSHUA D                       477-21-1166 04 H B       8.50 S  0 TECH   6/28/10  0/00/00  5/14/11    A391023441013
                                                                          Deduction   227      7.88

 213220 BERGMAN, BRAD A                         501-19-0310 03 H B       9.00 S  1 TPDQ  10/12/09  0/00/00  9/03/11      BER-92-3826
                                                                          Deduction   227      7.88

 213260 BERGSTROM,MARCUS J                                  04 H B      10.00 S  1 TECH   2/23/09  0/00/00 12/21/10         BER90174
                                                                          Deduction   227      7.88

 213515 BESTUL, KIMBERLY A                      481-15-1110 03 H B      14.00 S  0 PDQW  11/04/12  0/00/00  0/00/00        D08237225
                                                                          Deduction   111             296             302

 212120 BJERK, CHRISTOPHER L                    475-21-2682 01 C S            S  3 SALE   9/24/12  0/00/00  0/00/00    A221069789205
                                                                          Other Pay   78     500.00


PY201                                               Honda Nissan of Grand Forks                                     2/21/13 13:59:05
RYDEJON              Active & Terminated                Employee Master List                                                Page   2
====================================================================================================================================
                                                                       Base        Dist  ---------- Date ----------
 Emp #  Name                                    SSN#        D  T P     Rate   M FE Code    Hire     Raise    Term    Driver's Lic #
====================================================================================================================================
                                                                          Deduction   107     77.79

 214700 BLOM, JOANN                             476-23-9289 10 H B       9.00 S  0 OFFI  11/17/09  0/00/00  9/25/10    F106082708707

 216500 BONTRAGER, JORDAN L                     574-02-5767 04 H B      10.00 S  0 TECH   3/29/10  0/00/00  8/28/10        D06631151
                                                                          Deduction   227      7.88

 216510 BONTRAGER, KYLE                         574-06-0915 03 H B       9.00 S  0 TPDQ   3/02/10  0/00/00 10/10/11      BON-94-6034
                                                                          Deduction   227      7.88

 218310 BRAGUNIER, KYLE D                       216-43-1913 03 H B       9.00 S  1 TPDQ   2/04/13  0/00/00  2/11/13    B625455135462
                                                                          Deduction   227      7.88

 218024 BRIDGEFORD,SHANNAN J                    468-98-3891 04 H B      19.00 M  0 TECH   6/03/08  0/00/00  3/02/11    X894224310221
                                                                          Deduction   107     25.52   227      7.88   287     11.50
                                                                                      87      24.31   96      25.00   99       4.00

 218032 BRIER, ROMAN                            502-98-0025 04 H B      11.00 S  0 TECH  11/30/09  0/00/00 11/06/10      BRI-83-0539
                                                                          Deduction   107     18.54   111     12.82   96      10.00

  18050 BROCKMAN,CALVIN H                       728-07-5295 04 H B       9.35 M  0 SVR    8/01/05  0/00/00  1/18/10    B625108319843

 218350 BROUILLET,CHRISTOPHER                   502-08-5505 06 H B      16.00 S  0 PART   7/07/05 12/31/12  0/00/00        BRO823311
                                                                          Deduction   107     38.90   111     14.14   87       4.80
                                                                                      91       4.00   96      20.00

 219530 BROWN,TIMOTHY J                         502-19-8492 04 H B       9.00 S  0 SVR   11/12/10  0/00/00  6/13/11      BRO-88-3531
                                                                          Deduction   111

 221101 BURGER, JERAMY R                        501-17-1299 03 H B      10.50 S  0 TPDQ   5/07/12  0/00/00  6/06/12    Y965243230620
                                                                          Deduction   107     35.87   111     13.87   227      7.88
                                                                                      287      5.50   87       7.86   91       3.00
                                                                                      96      10.00

 221080 BURKE,KRISTIE                           501-11-4734 10 H B       9.00 M  5 OFFI   7/21/10  0/00/00 12/03/10      BUR-74-1991
                                                                          Deduction   275     75.00

 222300 BUSHAW,WILLIAM L                        501-52-6250 02 C S            M  1 SALE  12/18/07  0/00/00  0/00/00        BUS461192
                                                                          Other Pay   78     500.00
                                                                          Deduction   119    208.34   297     55.90   299      5.00
                                                                                      87      11.45   91       6.00

 222690 CARL,JUSTIN J                           501-13-1300 06 H B      14.00 S  1 CARL   8/01/05 12/31/12  0/00/00        CAR837539
                                                                          Deduction   107     87.82   111     14.14   275     75.00
                                                                                      287      3.85   295      2.98   87       7.80

 222710 CASTORENO,AARON P                       502-04-3274 04 H B       9.00 M  3 TECH   7/11/11  0/00/00  8/10/11      CAS-85-3825
                                                                          Deduction   227      7.88   275     75.00

 223410 CHAFFEE, ZACHARY N                      502-19-8148 03 H B       9.00 S  0 TPDQ   9/24/12  0/00/00 11/19/12    Y035253551208
                                                                          Deduction   275     92.47   296     13.78

 222700 CHANTELOIS,LINDSEY                      237-73-4420 04 H B       9.00 S  1 SVR    8/27/11  0/00/00  1/11/12    C534522585537
                                                                          Deduction   107     35.87   111     13.87

  24575 CHRISTIANSON,DALE                       502-40-5522 01 H B       9.00 M  0 DRI    1/02/01  0/00/00  7/31/09        CHR382326

 225450 CLARK,CORY                              501-11-1566 01 C S            S  0 SALE   4/07/10  0/00/00  2/01/11        CLA814232
                                                                          Other Pay   78     500.00
                                                                          Deduction   107    107.88

 222810 COVELL,BRIAN C                          502-02-6863 04 H B       8.00 S  1 TECH   7/14/11  0/00/00  5/17/12      COV-21-1969
                                                                          Deduction   227      7.88

 230601 DANGERFIELD,JOEL                        502-94-3827 18 S B    2307.70 S  3 STEA  11/29/01 12/17/12  0/00/00        999898313
                                                                          Deduction   107     38.90   111     33.37   287     16.50
                                                                                      293      8.69   295      2.98   87      34.79


PY201                                               Honda Nissan of Grand Forks                                     2/21/13 13:59:05
RYDEJON              Active & Terminated                Employee Master List                                                Page   3
====================================================================================================================================
                                                                       Base        Dist  ---------- Date ----------
 Emp #  Name                                    SSN#        D  T P     Rate   M FE Code    Hire     Raise    Term    Driver's Lic #
====================================================================================================================================
                                                                                      96     105.00

  32905 DESROSIER,SARA                          504-15-2966    H B       9.00 S  0 ADM   12/08/08  0/00/00  5/28/09

  33042 DIEHL,BRANDON                           501-13-4567 04 H B       8.50 S  0 TECH   9/04/08  0/00/00  7/31/09        DIE886631
                                                                          Deduction   227      7.88

 230752 DODDS, JOSHUA A                         501-08-9496 02 C S            S  0 SALE   3/26/12  0/00/00 12/31/12      DOD-80-3848
                                                                          Other Pay   78     500.00

 234950 DRAPER, MEAGAN L                        131-74-3834 03 H B      10.50 S  0 TPDQ   8/20/12  0/00/00  9/17/12     D61655284818
                                                                          Deduction   227      7.88

 241010 EGELAND,TALON M                         473-27-4159 03 H B       8.50 S  0 TPDQ   3/22/11  0/00/00 10/25/11    W173224712411
                                                                          Deduction   227      7.88

 241080 ENGLERT,JESSICA R                       517-21-7327 04 H B       8.00 S  0 TECH   4/09/11  0/00/00  7/16/11      ENG-90-0480
                                                                          Deduction   227      7.88

 240410 ERICKSON, ANDREW                        634-22-7642 04 H B       8.00 S  0 TECH   9/01/10  0/00/00  1/14/11      ERI-90-4813
                                                                          Deduction   111     13.46   227      7.88

  40510 ERICKSON,PAUL L                                        C B            M  0 ADM    8/01/05  0/00/00  3/23/09
                                                                          Deduction   83      25.04

 241310 ESPELIEN,TYLER T                        501-19-9878 03 H B       9.75 S  0 TPDQ   8/11/11  1/07/12  0/00/00      ESP-92-1051
                                                                          Deduction   227      7.88

 243180 FEIST, LUDWIG                           501-70-9498 06 H B      13.25 S  1 PART   1/23/95  0/00/00  2/28/11        501709498
                                                                          Deduction   107     25.52   111     26.55   287     10.50
                                                                                      87      20.89   91       6.00

  24410 FETSCH,NICHOLAS                         502-19-0982 04 H B       8.00 S  0 TECH  11/08/10  0/00/00 12/10/10        FET924054
                                                                          Deduction   227      7.88

 247310 FORENG,LINDSEY M                        502-19-0969 10 H B       9.00 S  0 OFFI  12/22/10  0/00/00  8/26/11

 248460 FRENCH, DAVID L                         502-72-6991 01 C S            M  0 SALE   2/01/10  0/00/00  9/30/11        FRE549449
                                                                          Other Pay   78    1500.00
                                                                          Deduction   107    107.88   287     92.00   87      62.36

 248920 FRUETEL,STEVEN R                        501-76-1726 04 H B      13.50 S  0 TECH   8/01/05  0/00/00  7/11/11        FRU560659
                                                                          Deduction   107     25.52   111     13.46   227      7.88
                                                                                      87      17.21   96      25.00

 252100 GILBERG,CHAD J                          502-13-6949 02 C S            S  0 SALE   2/18/11  0/00/00  1/31/12      GIL-89-7286
                                                                          Other Pay   78     500.00
                                                                          Deduction   107     71.73   287     11.00

 251210 GUILLEMETTE, RICHARD J                  476-19-4301 04 H B       8.50 S  0 TECH   4/19/10  0/00/00  9/01/11    Z586298199019
                                                                          Deduction   227      7.88

 263120 HAGAN,ALEX R                            501-11-8779 03 H B      12.00 M  0 PDQW  12/21/11  0/00/00  5/04/12    J520152791707
                                                                          Deduction   297             298     34.70

  61495 HARDIN,CHRISTOPHER W                    417-27-8531 04 H B       8.00 S  1 TECH   4/23/09  0/00/00 10/08/09        HAR878477
                                                                          Deduction   107             227      7.88

 264101 HARMEL, CADE M                          502-13-3129 03 H B      11.00 S  3 TPDQ  10/22/12  1/28/13  0/00/00    Q267172546215
                                                                          Deduction   227      7.88   296

  63330 HEINLE,NICHOLAS                         502-13-7472    H B       8.00 S  1 ADM    9/12/08  0/00/00  1/09/09
                                                                          Deduction   227      7.88

 264220 HELGESON, JEFFREY S.                    502-15-5658 03 H B      10.50 S  0 TPDQ  11/24/09  0/00/00  0/00/00      HEL-89-7548
                                                                          Deduction   107     38.90   111     14.14   227      7.88
                                                                                      87       1.63


PY201                                               Honda Nissan of Grand Forks                                     2/21/13 13:59:05
RYDEJON              Active & Terminated                Employee Master List                                                Page   4
====================================================================================================================================
                                                                       Base        Dist  ---------- Date ----------
 Emp #  Name                                    SSN#        D  T P     Rate   M FE Code    Hire     Raise    Term    Driver's Lic #
====================================================================================================================================

 266010 HOBERG,JEFFREY J                        502-13-5533 02 C S            S  1 SALE   2/14/11  0/00/00  1/31/12      HOB-89-7567
                                                                          Deduction   111             287             87

 266020 HODEK,BRANDON                           501-17-7365 03 H B      10.50 S  0 TPDQ  11/23/10  1/07/12  1/18/13      HOP-90-5308
                                                                          Deduction   111             227      7.88   287
                                                                                      295             87

 266065 HOFFMANN,CHRISTOPHER R                  470-27-5978 03 H B       9.00 S  0 TPDQ  10/24/11  0/00/00  3/22/12       HOF-93-337
                                                                          Deduction   111             227      7.88   287
                                                                                      295             87

  67970 HOULE SR,WAYLON L                       501-08-9126    H B       8.00 M  3 ADM    1/08/09  0/00/00  2/16/09
                                                                          Deduction   227      7.88   275     36.19

 268007 HOVEY, JONATHAN M                       601-98-7376 06 H B      10.50 S  0 PART   2/21/12  0/00/00  4/17/12      HOV-89-9948
                                                                          Deduction   227      7.88   91       5.00

  67992 HUERKAMP,TRAVIS M                       472-11-8347 04 H B       9.50 S  1 TECH  10/29/07  0/00/00  2/19/09
                                                                          Deduction   103     10.00   227      7.88

 268100 HUSKINSON,BRANDIE L                     518-15-7559 10 H B       9.00 M  1 OFFI   9/24/10  0/00/00  3/13/12        LA216214G

 268200 HUTZOL,SEAN M                           007-92-8542 03 H B       9.00 S  0 TPDQ  11/08/11  0/00/00  2/03/12      HUT-91-1203
                                                                          Deduction   107     35.87

  72519 JENKINS,ZACHERY L                       520-25-3042    H B      10.00 M  0 ADM    5/28/09  0/00/00  5/28/09
                                                                          Deduction   227      7.88

 272518 JENKINS,ZACHERY L                       520-25-3042 04 H B      10.00 M  0 TECH   5/28/09  0/00/00  2/02/10        JEN899004
                                                                          Deduction   107     18.54   111     25.28   227      7.78

 273315 JOHNSON,BRANDON J                       502-04-8472 04 H B      17.00 S  1 TECH   3/07/11  0/00/00  0/00/00      JOH-85-9957
                                                                          Deduction   107     38.90   227      7.88   87       3.35
                                                                                      91       4.00   96      15.00

 273400 JOHNSON,MARC S                          502-08-6811 03 H B       9.00 S  1 TPDQ   7/11/11  0/00/00  9/17/12      JOH-80-9495
                                                                          Deduction   107     35.87   111     13.87

 277160 KEHOE,MICHAEL D                         137-78-3788 02 C S            S  1 SALE  12/18/10  0/00/00  7/31/12      KEH-83-3069
                                                                          Other Pay   78     500.00
                                                                          Deduction   107     71.73   111     27.73   91       3.00

  77207 KELLAR,CALEB                            056-92-4155    H B       9.00 S  0 ADM    5/24/08  0/00/00  6/04/09
                                                                          Deduction   227      7.88

 279050 KLINER,PATRICK H                        475-17-8112 04 H B      11.00 S  0 TECH  12/30/10 11/07/11  0/00/00    D054049915309
                                                                          Deduction   227      7.88   295             87
                                                                                      91       3.00

 279630 KNUDSON, KENNETH                        502-82-5414 04 H B      20.00 M  0 TECH   1/02/13  0/00/00  0/00/00      KNU-57-9305
                                                                          Deduction   227      7.88   287     28.60

 279560 KNUTSON,MARC                            501-13-0225 03 H B      11.00 S  0 PDQW   7/09/10  0/00/00 12/15/11      KNU-87-9109
                                                                          Deduction   227      7.88

 279500 KORDAHL,STEVEN C                        501-74-3075 01 C S            S  2 SALE   5/03/10  0/00/00 12/24/10      KOR-57-2888
                                                                          Other Pay   78     500.00
                                                                          Deduction   107     51.03   96      20.00

 280510 KRASKA,CODY J                           469-23-8561 04 H B       8.00 S  0 TECH  10/11/10  0/00/00  5/11/11    Y635207056614
                                                                          Deduction   227      7.88

  80408 KRATOCHVIL,KEITH                        502-56-8262    C S            M  0 ADM    7/24/08  0/00/00 12/31/08

 281200 KUCHAR,REID E                           501-17-8274 04 H B       8.00 S  1 TECH   5/03/10  0/00/00  6/18/10      KUC-90-7343


PY201                                               Honda Nissan of Grand Forks                                     2/21/13 13:59:05
RYDEJON              Active & Terminated                Employee Master List                                                Page   5
====================================================================================================================================
                                                                       Base        Dist  ---------- Date ----------
 Emp #  Name                                    SSN#        D  T P     Rate   M FE Code    Hire     Raise    Term    Driver's Lic #
====================================================================================================================================
 281325 KUEFLER, JAMES                          475-32-1688 18 H B       8.35 M  0 SVR    1/20/10  0/00/00  0/00/00      KUE-31-0376

 283130 LACEY, MEGAN MARIE                      502-15-6975 10 H B       9.50 S  0 OFFI   8/20/12 10/21/12  0/00/00    L982114358919
                                                                          Deduction   296

 283120 LASHLEY, TRAVIS M                       508-06-2985 04 S B    2353.85 M  1 SMGR   4/19/12  8/12/12 11/15/12        H13163681
                                                                          Deduction   275    122.31

 284715 LEAR,MICHAEL ALLEN                      477-94-9124 01 S B    4615.39 S  9 MGR    8/08/11  0/00/00  0/00/00    X994269973722
                                                                          Deduction   111             299      5.00   91       3.00

 284750 LEE, RACHEL Y                           475-68-6186 01 C S            S  5 SALE   3/26/12  0/00/00  7/24/12    R748108339219
                                                                          Other Pay   78     500.00
                                                                          Deduction   296

 284730 LEE,KEVIN M                             508-31-5324 03 H B       9.00 S  0 TPDQ   9/01/11 11/07/11  4/21/12      LEE-93-2152

 284825 LEEPER, CLINT M                         352-88-7070 03 H B       9.00 S  3 TPDQ   8/20/12  0/00/00  0/00/00
                                                                          Deduction   227      7.88

 285100 LIAN, JEREMY R                          475-06-1415 01 C S            M  0 SALE   8/06/12  0/00/00  0/00/00      LIA-82-0165
                                                                          Other Pay   78     500.00
                                                                          Deduction   296             302

 285820 LIZAKOWSKI,DANIEL                       502-15-4219 02 C S            S  0 SALE   4/23/09  0/00/00  0/00/00        LIZ847340
                                                                          Other Pay   78     500.00
                                                                          Deduction   111     13.39   287             298    102.44
                                                                                      87              91       4.00

  89350 LYON, SHANE D                           501-17-4926 04 H B       8.00 S  0 TECH  12/10/09  0/00/00 12/19/09
                                                                          Deduction   227      7.88

  90600 MAIXNER,PATRICK                         501-78-6333    H B      18.00 S  0 ADM    9/16/02  0/00/00  5/27/09
                                                                          Deduction   111     12.82   115     25.00   227      7.88
                                                                                      287      9.40   293     12.59   87      12.13

 290690 MALIM, NUR A                            471-57-7363 03 H B       9.00 S  0 TPDQ  12/17/12  0/00/00  0/00/00    Y945216012218

 290906 MANNILA,JOSEPH                          475-74-2715 02 C S            M  4 TEAM   8/14/06  0/00/00  2/28/11    M540441738922
                                                                          Other Pay   78     500.00
                                                                          Deduction   107    107.88   111    100.26   287     28.10
                                                                                      91       4.00

 290980 MANZ,MICHAEL                            502-08-6766 04 H B       8.50 S  1 TECH   3/16/09  0/00/00  2/22/10        MAN843498
                                                                          Deduction   107     18.54   227      7.88   287      5.50
                                                                                      87       1.24

 291600 MATHISEN,LAURIE S.                      502-64-0406 10 H B      10.50 M  0 OFFI   4/01/03  6/18/12  0/00/00        999880653

 291620 MATTSON, BRADLEY J                      502-11-9734 02 C S            S  0 SALE   2/08/10  0/00/00  3/31/10
                                                                          Other Pay   78     500.00

 291785 MCGEE,JUSTIN D                          471-08-7409 04 H B      10.50 M  0 TECH   5/10/11 12/19/11  6/06/12    H468000485018
                                                                          Deduction   227      7.88

 291810 MCKAY, DAVID B                          435-19-8382 02 C S            S  1 SALE   5/11/11  5/07/12  0/00/00      MCK-59-3000
                                                                          Other Pay   78     500.00
                                                                          Deduction   107     77.79   111     28.28   287     52.00
                                                                                      295      5.96   91       3.00

 291850 MCMULLEN,JESSE                          502-04-8417 04 H B      16.00 S  0 TECH   6/23/08  0/00/00  8/23/11        MCM852439
                                                                          Deduction   227      7.88   287             87

 294810 MCNAMEE, MATTHEW L                      507-15-6313 18 H B      10.00 S  0 DETA  10/23/11  0/00/00  0/00/00      MCN-86-9573
                                                                          Deduction   111             227      7.88   287
                                                                                      295             296             87
                                                                                      91       3.00


PY201                                               Honda Nissan of Grand Forks                                     2/21/13 13:59:05
RYDEJON              Active & Terminated                Employee Master List                                                Page   6
====================================================================================================================================
                                                                       Base        Dist  ---------- Date ----------
 Emp #  Name                                    SSN#        D  T P     Rate   M FE Code    Hire     Raise    Term    Driver's Lic #
====================================================================================================================================

  96580 MILLER,AMANDA M                         468-11-6805 10 H B       9.00 S  1 OFFI  11/05/07  0/00/00 12/08/09    H348099114615

 296110 MISIALEK,KYLE D                         472-19-2984 01 C S            S  1 SALE   2/07/11  0/00/00  0/00/00      MIS-87-5727
                                                                          Other Pay   78     500.00
                                                                          Deduction   107     77.79   287      5.50   87       3.88
                                                                                      91       3.00   96      10.00

 296950 MOHAMED, ABDIRIZAK                      601-95-7170 03 H B       9.00 S  0 TPDQ   7/23/12  0/00/00  7/30/12    C983055477020

  97174 MOHAMED,TESFAYE                         502-29-9676    H B       8.00 S  1 ADM    5/21/08  0/00/00  1/05/09
                                                                          Deduction   227      7.88

 212800 MOLSTAD, BRANDON L                      475-15-9188 03 H B      13.50 S  0 PDQW   9/24/12  0/00/00  9/23/12
                                                                          Deduction   107     35.87   227      7.88   287      3.85

  97176 MONETTE,MIKE S                          476-76-0607 04 H B      11.00 M  1 TECH   3/16/09  0/00/00 12/04/09        MON680737
                                                                          Deduction   227      7.88

  97788 MORIN,MARTY                             468-96-1490    H B       9.00 M  3 ADM    3/19/09  0/00/00  4/14/09
                                                                          Deduction   227      7.88

 295100 MULOCK, JENNIFER A                      502-02-8029 10 H B       9.75 S  0 OFFI   3/12/12  0/00/00  6/29/12      MUL-78-2190

 296211 MYHRO,JEFF L                            501-86-6612 03 H B       8.00 S  1 TPDQ   8/31/11  0/00/00 10/21/11      MYH-62-2884
                                                                          Deduction   227      7.88

2100590 NASH, AARON M                           521-79-1635 04 H B       8.00 S  0 TECH  12/07/09  0/00/00  6/18/10      NAS-90-3199
                                                                          Deduction   227      7.88

2100680 NELSON, ALLEN                           502-44-1190 01 H B      11.00 S  0 DRI    7/29/09  0/00/00  0/00/00        NEL440327

2102195 NEUMANN, ANDREW D                       475-96-8765 04 S B    1707.70 S  0 SMGR  12/10/12  0/00/00  0/00/00      NEU-76-2373
                                                                          Deduction   107     38.90   111     14.14   287      7.00
                                                                                      296     13.78   298     13.98   96      41.67

2102500 NICE,DANIEL                             501-17-1027 02 C S            S  0 SALE  12/17/10  0/00/00  4/16/12    A461050634811
                                                                          Other Pay   78     500.00
                                                                          Deduction   107     71.73   111     27.73   287     11.00
                                                                                      91       3.00

2102510 NICE,KELLIE E                           502-02-3360 10 H B       9.00 S  0 OFFI  12/19/11  0/00/00  1/14/12      NIC-83-3494

2102400 NIEMANN,TYLER W                         625-48-8390 03 H B       9.75 S  2 TPDQ   6/22/11 11/07/11  5/26/12         01278324
                                                                          Deduction   107     35.87   111     13.87   227      7.88
                                                                                      275     20.00   287      3.85   296     13.78
                                                                                      87       5.76   96      20.00

2106225 OLDERBAK,JOHN                           502-84-5420 01 S S            S  1 TEAM   1/10/11  0/00/00  0/00/00      OLD-72-0553
                                                                          Other Pay   78     500.00
                                                                          Deduction   107    242.46   275    362.00   293     20.36
                                                                                      87      35.84   91       4.00

2106100 OLSEN, ADAM                             501-98-4665 03 H B      10.00 S  0 TPDQ   3/01/10  0/00/00  8/17/11      OLS-82-7171
                                                                          Deduction   227      7.88

2106380 OLSON, JEREMY D                         468-27-5790 04 H B      14.00 S  2 TECH   8/28/12  0/00/00  2/08/13    M093175072812
                                                                          Deduction   227      7.88   296             302

2106350 OLSON,CHAD                              469-08-4543 06 S B    1846.16 S  0 PART   1/01/10 12/31/12  0/00/00    H778015652022
                                                                          Deduction   107     38.90   111     33.37   287     11.50
                                                                                      87       8.85   91       4.00

2106360 OLSON,TRENT                             502-94-5139 01 C S            M  0 MGR    8/17/06  0/00/00  8/15/11        OLS701101
                                                                          Other Pay   78    3000.00
                                                                          Deduction   287     37.50   91      10.00


PY201                                               Honda Nissan of Grand Forks                                     2/21/13 13:59:05
RYDEJON              Active & Terminated                Employee Master List                                                Page   7
====================================================================================================================================
                                                                       Base        Dist  ---------- Date ----------
 Emp #  Name                                    SSN#        D  T P     Rate   M FE Code    Hire     Raise    Term    Driver's Lic #
====================================================================================================================================
 218010 PANTALION, DANIEL                       474-23-0293 04 H B      10.00 S  0 TECH   2/15/11  0/00/00  7/27/11    G117099957909
                                                                          Deduction   227      7.88

2106410 PEDERSON,DAVID A                        475-80-9816 18 S B    1384.62 M  2 STEA  12/16/11  2/11/13  0/00/00    X934248050416
                                                                          Deduction   302             91       3.00

2110570 PETERSON,JUSTIN M                       502-11-0367 03 H B      10.00 S  0 TPDQ   7/20/11  0/00/00  8/20/11      PET-85-8043
                                                                          Deduction   227      7.88

2106510 PIERZINA,RHONDA J                       470-21-4837 10 H B       9.00 S  0 OFFI   1/16/12  0/00/00  4/25/12    Z526209835613

 213050 POTRATZ,MICHAEL                         501-15-4870 04 H B       8.00 S  0 TECH   6/23/10  0/00/00 11/03/10      POT-89-4310
                                                                          Deduction   227      7.88

2116110 REYNOLDS,JOE E                          319-74-7670 04 H B      13.00 M  0 JOE    9/22/10 11/07/11  0/00/00   R543-4858-1070
                                                                          Deduction   111             227      7.88   295
                                                                                      91       4.00

2116115 RICE, ERIC J                            501-06-6248 02 C S            S  0 SALE   3/26/12  0/00/00  4/30/12      RIC-76-4616
                                                                          Other Pay   78     500.00

2116120 RICE, JOHN S                            590-34-4968 01 H B      11.00 M  0 DRI    2/13/12  0/00/00  4/21/12      RIC-72-9669

2117150 ROSTBERG,DUANE A                        502-56-6238 01 H B      11.00 M  0 DRI   11/21/11  0/00/00 12/31/11      ROS-46-3760

2119120 RUD,JOSEPH                              502-94-1665 04 H B      15.00 S  1 TECH   2/18/13  0/00/00  0/00/00        RUD800261
                                                                          Deduction   227      7.88

2119125 RUDE,ALEX J                             470-23-0819 03 H B      10.50 S  0 PDQW  11/08/11  9/23/12  0/00/00    C383088095314
                                                                          Deduction   107     38.90   111     14.14   287      2.75
                                                                                      302      2.28   91       3.00

2120110 RYAN, ANTONIO R                         424-04-6284 03 H B      10.00 S  3 PDQW   8/21/12  0/00/00  9/29/12      RYA-78-5373

 120495 RYDELL, WESLEY                          502-40-7066    C S            M  0 ADM    3/12/90  0/00/00  1/31/09

2120492 RYDELL,ROBERT R                         502-94-9687 01 C S            M  3 OWN    6/01/06  0/00/00  0/00/00        RYD657103
                                                                          Other Pay   78    3400.00
                                                                          Deduction   107             111             297
                                                                                      298             97     166.67

2126120 SAMPSON,WYATT D                         501-21-0852 03 H B       9.00 S  0 TPDQ   9/07/11  0/00/00  4/24/12      SAM-94-7977

 245010 SANDBECK, MATT                          502-15-2426 04 H B      13.00 S  0 TECH   2/22/10  0/00/00  5/20/10      SAN-89-0587
                                                                          Deduction   107     18.54   227      7.88

 255950 SANGRAIT, DUSTIN JAMES                  501-13-2478 04 H B      14.00 S  0 DUST   6/29/10  0/00/00  8/25/12      GRO-88-7985
                                                                          Deduction   111             227      7.88   287
                                                                                      295             87              91       5.00

 122362 SAVAGE,CHARLES R                        501-98-1099    C S            M  1 ADM    2/06/07  0/00/00 12/31/08

2125100 SCHAFER, MYLES E                        468-19-7404 03 H B       9.50 S  3 TPDQ   2/04/13  0/00/00  0/00/00    C383077203714
                                                                          Deduction   227      7.88

 124910 SCHLENKER,GENE                          501-26-3527    H B       9.00 M  2 ADM   10/02/06  0/00/00  1/31/09

2126200 SEMRAU,TAYLOR                           390-08-9689 03 H B      10.50 S  0 TPDQ   6/16/11  1/07/12  0/00/00      SEM-91-1197
                                                                          Deduction   227      7.88

2126300 SHIREK,NICHOLAS                         501-17-3260 01 C S            S  1 TEAM   9/20/10  0/00/00  0/00/00      SHI-89-1786
                                                                          Other Pay   78     500.00
                                                                          Deduction   287             295             296
                                                                                      302             87

 127210 SIREK, ANDREW                           476-06-0505 04 H B       9.00 S  2 TECH  12/21/09  0/00/00 12/21/09


PY201                                               Honda Nissan of Grand Forks                                     2/21/13 13:59:05
RYDEJON              Active & Terminated                Employee Master List                                                Page   8
====================================================================================================================================
                                                                       Base        Dist  ---------- Date ----------
 Emp #  Name                                    SSN#        D  T P     Rate   M FE Code    Hire     Raise    Term    Driver's Lic #
====================================================================================================================================
2126500 SISTAD,TREVOR C                         475-25-8082 03 H B       9.75 S  0 TPDQ   9/13/11 11/07/11  5/15/12    N784176204419
                                                                          Deduction   227      7.88

 129200 SNIDER,JAMES                                        04 H B       8.50 S  0 TECH   8/23/08  0/00/00  8/21/09        SNI908626
                                                                          Deduction   227      7.88

2130150 SOBOLIK,PAUL A.                         502-82-5209 04 H B      23.50 S  1 TECH   3/23/92 11/18/12  0/00/00        SOB727463
                                                                          Deduction   227      7.88   287             293      8.55
                                                                                      87       8.82   91       6.00

2130565 SORLIEN,WENDELL                         501-60-3606 04 H B       9.00 S  0 SVR   11/19/07  0/00/00  0/00/00        SOR494633

2130450 SORUM,JAMES T                           501-19-7854 04 H B       8.50 S  0 TECH   8/31/10  0/00/00  5/14/11      SOR-92-7770
                                                                          Deduction   227      7.88

2130678 SPENCER,FRED C                          468-98-7979 01 C S            M  4 SALE   2/01/05  0/00/00  0/00/00    S152261108544
                                                                          Other Pay   78     500.00
                                                                          Deduction   287             301     97.50   87        .02

2130690 STADSTAD,LARRY O                        502-64-0339 02 C S            M  0 SALE   8/20/07  0/00/00  0/00/00        STA534126
                                                                          Other Pay   78     500.00
                                                                          Deduction   111     19.98   119    100.00   299      5.00
                                                                                      87              91       8.00

2130797 STANAWAY,JESSE I                                    04 H B      12.00 S  0 TECH   7/07/09  0/00/00  7/28/10    Q877152844422
                                                                          Deduction   107     18.54   227      7.88

2132210 STEFFEN,JAMES A                         541-80-7010 03 H B       9.00 M  7 TPDQ   9/21/11  0/00/00  9/30/11      STE-67-1110
                                                                          Deduction   227      7.88   275    268.61

2132360 STEFFENS,DARRIN J                       502-02-1835 04 H B      23.50 S  0 TECH   9/06/04  3/19/12  0/00/00        STE838082
                                                                          Deduction   107     38.90   111     14.14   227      7.88
                                                                                      287      2.20   295      2.98   87      11.45
                                                                                      91       4.00

2132410 STORMO,JORDAN M                         502-19-2360 03 H B       8.00 S  0 TPDQ   6/23/11  0/00/00  6/30/11
                                                                          Deduction   227      7.88

2132600 STREMICK,DAVID L                        502-86-0845 01 C S            S  1 SALE   2/13/06  0/00/00 12/31/10        STR644794
                                                                          Other Pay   78     500.00
                                                                          Deduction   103     10.00   107     51.03   111     26.92
                                                                                      287     31.00   293     34.74   87      64.98
                                                                                      96      25.00

2135260 SYMONS,STEVEN                           501-02-0557 04 H B      15.00 M  0 STEA   5/10/10  0/00/00 11/22/10      SYM-83-3962

2135910 TELKEN,TONY                             502-74-9901 04 S B    1384.62 M  2 SMGR  10/01/01  0/00/00  3/14/12        TEL653718
                                                                          Deduction   107     35.87   87      18.75   96     100.00
                                                                                      99       4.00

2132810 TESHITE, EBSA D                         476-35-6858 03 H B       9.00 M  2 TPDQ  11/05/12  0/00/00  0/00/00      TES-82-8657
                                                                          Deduction   227      7.88

2138900 TOLLEFSON,TODD                          472-92-5358 02 C B            S  0 SALE   8/11/12  0/00/00  8/11/12    W073280841010
                                                                          Other Pay   78     500.00
                                                                          Deduction   107     71.73   295      5.96   96      60.00

2138930 TUPA,BRANDON S                          501-04-9111 04 H B      16.00 S  2 TECH  12/01/11  0/00/00  3/23/12      TUP-85-3929
                                                                          Deduction   107     35.87   111     13.87   295      2.98

 242460 TWETEN, MICHAEL                         502-94-4188 01 H B            M  1 STA    2/18/13  0/00/00  0/00/00      TWE-80-8737
                                                                          Other Pay   78     500.00

2144500 VATNSDAL,NATHAN J                       472-06-1999 04 H B      17.50 M  1 TECH   9/25/06  0/00/00  5/14/10        VAT746664
                                                                          Deduction   103      5.42   107    322.71   111     47.73
                                                                                      287      5.50   293     17.11   87      13.15
                                                                                      91       6.00


PY201                                               Honda Nissan of Grand Forks                                     2/21/13 13:59:05
RYDEJON              Active & Terminated                Employee Master List                                                Page   9
====================================================================================================================================
                                                                       Base        Dist  ---------- Date ----------
 Emp #  Name                                    SSN#        D  T P     Rate   M FE Code    Hire     Raise    Term    Driver's Lic #
====================================================================================================================================

2130110 VIAU,HUNTER C                           502-17-7183 04 H B       9.00 S  0 TECH   3/28/11  0/00/00  6/18/11      VIA-91-0216
                                                                          Deduction   227      7.88

2148100 VOLK,TAYLOR A                           502-17-2003 03 H B       9.00 S  0 TPDQ  10/05/11  0/00/00 11/22/11      VOL-91-2867
                                                                          Deduction   227      7.88

2140600 VOTAVA,KYLE M                           501-15-2011 04 H B      13.25 S  1 TECH   9/03/10  0/00/00  9/30/11      VOT-88-9798
                                                                          Deduction   227      7.88

 146470 WAGES SR,DAUANE                         502-62-2249    C S            M  0 ADM    7/24/08  0/00/00 12/31/08

2146890 WAGNER,JOSHUA                           217-27-1811 04 H B       8.00 S  2 TECH   7/09/10  0/00/00  9/18/10      WAG-87-5224
                                                                          Deduction   107     36.77   227      7.88

2140900 WALTZ, BRIANNA K                        475-25-2928 10 H B      10.00 S  0 OFFI   8/06/12  0/00/00  8/10/12      WAL-92-6786

 146976 WANGLER,CHASE LEE                       502-15-6706    H B       8.00 S  1 ADM    9/11/08  0/00/00  1/01/09
                                                                          Deduction   227      7.88

2150100 WARMACK,KATHLEEN A                      477-23-3159 10 H B       9.00 S  1 OFFI   7/09/12  0/00/00  8/10/12    Y595275862819

2147259 WEBSTER,LUCAS                           501-17-1754 04 H B       8.00 S  0 TECH   7/06/10  0/00/00  8/20/10      WEB-90-6840
                                                                          Deduction   227      7.88

 148896 WICKEN,LYLE                             501-32-5105 01 H B       9.00 M  0 DRI    1/02/01  0/00/00  1/02/09      WIC-36-5802

2150210 WILDE, COREY R                          469-92-9351 02 C S            M  5 SALE   8/06/12  0/00/00  0/00/00      WIL-70-1537
                                                                          Other Pay   78     500.00
                                                                          Deduction   111             275   1126.80   298

2148950 WILKENING,RONALD                        480-48-7883 02 C S            S  0 USM    8/01/08  0/00/00 12/31/10        WIL427478
                                                                          Other Pay   78     500.00
                                                                          Deduction   107     51.03   91       4.00   96     100.00

2140825 WIRKUS,ARLEN T                          501-62-6251 01 H B      11.00 M  0 DRI   11/28/11  0/00/00  0/00/00    G437080558714

2150110 ZEMAN,CODY L                            501-17-5305 04 H B       8.00 S  0 TECH   2/07/11  0/00/00  6/03/11    T580258734313
                                                                          Deduction   227      7.88

