fullname	sale_date	homephone	businessphone	cellphone	city	state	stocknumber	vin	modelyear	make	model
"GRYSKIEWICZ, DANIEL JOHN"	1/3/2018	3073712270	0	0	GREENBUSH	MN	31968A	2G1WB5E35D1175450	2013	CHEVROLET	IMPALA
"IHRY, CALVIN REED"	1/4/2018	2187915990	0	0	THOMPSON	ND	32191XXA	JN8AY2NE9H9700205	2017	NISSAN	ARMADA
"FLECK, DAVID LAWRENCE"	1/5/2018	2185561959	0	0	BEMIDJI	MN	30610B	3D7TT2CT9BG571576	2011	RAM	2500
"HENDRICKSON, KARI ANN"	1/5/2018	7017411361	0	0	MEKINOCK	ND	32003A	1GCRKSE76CZ283457	2012	CHEVROLET	SILVERADO 1500
"KLAYPENH, CHRISTIAN"	1/9/2018	2142449221	0	0	GRAND FORKS	ND	32462XXA	5Y2SR67099Z445403	2009	PONTIAC	VIBE
"ESCOBAR, ARNULFO"	1/10/2018	7012151661	7012151661	7012151661	GRAND FORKS	ND	32325XXA	2G1WG5E35C1314119	2012	CHEVROLET	IMPALA
"ESCOBAR, ARNULFO"	1/11/2018	7012151661	7012151661	7012151661	GRAND FORKS	ND	29564B	2G1WG5E34D1250267	2013	CHEVROLET	IMPALA
"PAULSEN, MAURICE R"	1/12/2018	7013432613	7013300258	7013300258	LARIMORE	ND	32517AA	1G1AK55F767640272	2006	CHEVROLET	COBALT
"BERBERICH, BENJAMIN JOHN"	1/13/2018	2186866112	0	2186866112	SAINT HILAIRE	MN	32513A	3GCUKSEC2EG537885	2014	CHEVROLET	SILVERADO 1500
"ROUTIER, WILLIAM DEAN"	1/15/2018	2186841984	0	0	THIEF RIVER FALLS	MN	30663XXB	2G1WC5E30C1327517	2012	CHEVROLET	IMPALA
"SLAMA, JEREMY EDWARD"	1/15/2018	0	0	7013708896	MEKINOCK	ND	30724A	5GAKVCED0BJ342604	2011	BUICK	ENCLAVE
"LOMEN, LUVERNE ERLING"	1/17/2018	2186682875	0	0	LENGBY	MN	32429XXA	1G4HC5EM1BU139466	2011	BUICK	LUCERNE
"DOSCH, ROGER PIUS"	1/19/2018	7015373879	0	7015373879	TOWNER	ND	31087RA	1GTEK14T82Z138944	2002	GMC	SIERRA 1500
"POOLE, DAVID WILLSON"	1/19/2018	2184341549	0	0	BAUDETTE	MN	31264RA	2G1WG5E32C1297697	2012	CHEVROLET	IMPALA
"MILLER, BRIAN"	1/19/2018	4125190218	0	0	GLENSHAW	PA	32208ABB	1ZVHT82H595111295	2009	FORD	MUSTANG
"LUTZ, JEFFREY KARL"	1/19/2018	7013307300	0	0	GRAND FORKS	ND	32765XXA	1GNKVGED0BJ124871	2011	CHEVROLET	TRAVERSE
"NELSON, PETER ALTON"	1/22/2018	2186841287	0	2186841287	GOODRIDGE	MN	31933RA	2G1WC5E33D1155033	2013	CHEVROLET	IMPALA
"LADOUCEUR, TRACI KAY"	1/23/2018	7017469159	7017956609	7017390631	GRAND FORKS	ND	31919XXA	1FMCU9GX5DUC35612	2013	FORD	ESCAPE
"ROGERS, CHERI ANN"	1/24/2018	2184447449	2184447449	2184447449	BEMIDJI	MN	32336PA	KL8CD6S9XFC742356	2015	CHEVROLET	SPARK
"SHARP, DARREL AUGUST"	1/25/2018	7016261377	0	7016261377	GRANVILLE	ND	31705A	1GCEK39069Z238562	2009	CHEVROLET	SILVERADO 1500
"GAGNER, RITCHIE LOUIE"	1/25/2018	2186984236	0	0	BROOKS	MN	31836A	3GCPKTE79CG137762	2012	CHEVROLET	SILVERADO 1500
"SANDE, HANS OLE"	1/25/2018	7017722836	0	0	GRAND FORKS	ND	32813B	4T4BF3EK0BR202322	2011	TOYOTA	CAMRY
"GRINDAHL, DEAN ALAN"	1/27/2018	5072596981	0	0	GRAND FORKS	ND	30450RB	1FTPX14508KE26292	2008	FORD	F-150
"WARREN, JAMES ROBERT"	1/27/2018	2184813330	0	0	DULUTH	MN	31741RA	1GTV2UEH4EZ100207	2014	GMC	SIERRA 1500
"FISCHER, TATE QUENTIN"	1/27/2018	6052001984	0	6052001984	GRAND FORKS	ND	32806A	1GKFK13047R425513	2007	GMC	YUKON
"STORRS, ZACKERY JAMES"	1/29/2018	7016101114	0	7016101114	GRAND FORKS	ND	29707B	1GCCT19X438171933	2003	CHEVROLET	S-10 PICKUP
"KALVICK, ETHAN MICHEAL"	1/31/2018	7018331991	0	0	SURREY	ND	33126X	1N4AL2AP0CN476362	2012	NISSAN	ALTIMA
