UserID,FirstName,LastName,Email,SupervisorID,SupervisorName,LocationID,LocationName,DateofHire,Title,Status,PolicyAssigned,PolicySigned,TrainingAssigned,TrainingCompleted,FormsAssigned,FormsCompleted,FormsInNotification,Exclusionary,DriversLicenseState,DriversLicenseID
"11650","Dharma","Acharya","dacharya@rydellcars.com","141060","Ned Euliss","RY1","RY1","02/18/2010","PDQ Upper bay Technician","2","0","0","0","0","0","0","0","No","",""
"11652","Krishna","Acharya","kacharya@rydellcars.com","1120110","Antonio Ryan","RY1","RY1","01/31/2013","Car Wash Team Member","2","0","0","0","0","0","0","0","No","",""
"11655","Sabitra","Acharya","sacharya@rydellcars.com","128120","Aubrey Crane","RY1","RY1","12/19/2011","Detail Support","2","0","0","0","0","0","0","0","No","",""
"11685","Choma","Adhikari","cadhikari@rydellcars.com","141060","Ned Euliss","RY1","RY1","06/20/2013","Upperbay Technician","2","0","0","0","0","0","0","0","No","",""
"11687","Ronald","Adler","radler@rydellcars.com","128120","Aubrey Crane","RY1","RY1","05/19/2014","Detail Technician","1","3","3","3","2","1","1","0","No","",""
"11695","Joel","Adrian","jadrian@rydellcars.com","113550","Alan Berry","RY1","RY1","05/17/2013","Sales Consultant","1","3","3","3","3","1","1","0","No","",""
"11720","Ahmed","Ahmed","aahmed@rydellcars.com","1120110","Antonio Ryan","RY1","RY1","01/26/2013","Car Wash Team Member","2","0","0","0","0","0","0","0","No","",""
"11726","Christian","Alaniz","calaniz@rydellcars.com","141060","Ned Euliss","RY2","RY2","12/09/2013","PDQ Upper bay Technician","2","0","0","0","0","0","0","0","No","",""
"22910","Joshua","Ames","james@gfhonda.com","2126300","Nicholas Shirek","RY2","RY2","04/21/2014","Sales Consultant","1","3","3","3","2","1","0","0","No","",""
"13815","Steven","Anderson","sanderson@gfhonda.com","146450","Kelly Foerster","RY1","RY1","10/25/2012","Sales Driver","1","3","0","3","0","1","0","0","No","",""
"23900","Dale","Andrews","dandrews@gfhonda.com","230601","Joel Dangerfield","RY2","RY2","12/05/2007","Courtesy Driver","1","3","3","3","3","1","1","0","No","",""
"16425","Jon","Andrews","jandrews@cartiva.com","1130426","Greg Sorum","RY1","RY1","04/11/2006","Developer","1","3","3","3","2","1","1","0","No","",""
"24210","Ivan","Anfilofieff","ianfilofieff@gfhonda.com","230601","Joel Dangerfield","RY2","RY2","01/02/2012","Main Shop Technician","2","0","0","0","0","0","0","0","No","",""
"17166","Tony","Arrington","tarrington@rydellcars.com","1106360","Trent Olson","RY1","RY1","02/01/2007","Web Site Administrator","1","3","3","3","3","1","1","0","No","",""
"17172","Bradley","Aschnewitz","BAschnewitz@rydellcars.com","113550","Alan Berry","RY1","RY1","02/10/2014","Sales Consultant","1","3","3","3","3","1","1","0","No","",""
"17534","Thomas","Aubol","taubol@rydellcars.com","113550","Alan Berry","RY1","RY1","11/09/1998","Sales Team Leader","1","3","3","3","3","1","1","0","No","",""
"18005","Dale","Axtman","daxtman@rydellcars.com","187675","Beverley Longoria","RY1","RY1","05/01/2001","Main Shop Technician (A)","1","3","3","3","3","1","1","0","No","",""
"110010","Tori","Babinski","tbabinski@rydellcars.com","157995","June Gustafson","RY1","RY1","08/13/2013","F&I Admin","1","3","3","4","4","1","1","0","No","",""
"110020","William","Bail","wbail@rydellcars.com","1135260","Steven Symons","RY1","RY1","12/09/2013","Parts Driver","1","3","3","3","3","1","1","0","No","",""
"110025","Zackary","Baldwin","zbaldwin@rydellcars.com","141060","Ned Euliss","RY1","RY1","05/19/2014","PDQ Upper bay Technician","2","0","0","0","0","0","0","0","No","",""
"110052","Joshua","Barker","jbarker@rydellcars.com","113550","Alan Berry","RY1","RY1","11/01/2010","Sales Consultant","1","3","3","3","3","1","1","0","No","",""
"110062","Abdullahi","Bashir","abashir@rydellcars.com","1120110","Antonio Ryan","RY1","RY1","09/01/2013","Car Wash Team Member","2","0","0","0","0","0","0","0","No","",""
"110060","Edgar","Bautista","ebautista@rydellcars.com","185801","Adam Lindquist","RY1","RY1","06/02/2014","Upperbay Technician","2","0","0","0","0","0","0","0","No","",""
"111210","Jeffery","Bear","jbear@rydellcars.com","187675","Beverley Longoria","RY1","RY1","10/13/2010","Main Shop Technician (A)","1","3","3","3","3","1","1","0","No","",""
"111250","Lyle","Beiswenger","lbeiswenger@rydellcars.com","146450","Kelly Foerster","RY1","RY1","11/13/2012","Sales Driver","1","3","0","3","0","1","0","0","No","",""
"111321","Travis","Beniot","tbeniot@rydellcars.com","1122342","Randy Sattler","RY1","RY1","07/14/2014","Body Shop Porter","1","3","0","3","0","1","0","0","No","",""
"112910","Dustin","Berg","dburg@rydellcars.com","1120110","Antonio Ryan","RY1","RY1","06/02/2014","Car Wash Team Member","2","0","0","0","0","0","0","0","No","",""
"113000","Stephen","Berg","sberg@rydellcars.com","141060","Ned Euliss","RY1","RY1","11/13/1972","PDQ Advisor","1","3","3","3","3","1","1","0","No","",""
"113085","Steven","Bergh","sbergh@rydellcars.com","123100","Benjamin Cahalan","RY1","RY1","06/30/2014","Appearance Director","1","3","3","3","3","6","3","0","No","",""
"113092","Victor","Berglund","vberglund@rydellcars.com","187675","Beverley Longoria","RY1","RY1","08/25/2014","Main Shop Technician (C)","1","3","3","3","3","1","1","0","No","",""
"113550","Alan","Berry","aberry@rydellcars.com","189295","James Lynch","RY1","RY1","01/01/2013","New Car Sales Manager","1","3","3","3","3","2","2","0","No","",""
"113560","Jacob","Berry","jberry@rydellcars.com","128120","Aubrey Crane","RY1","RY1","09/08/2014","Detail Technician","1","3","3","3","3","1","1","0","No","",""
"113410","Jared","Bertsch","jbertsch@rydellcars.com","128120","Aubrey Crane","RY1","RY1","08/31/2013","Detail Technician","1","3","3","3","3","1","1","0","No","",""
"213515","Kimberly","Bestul","kbestul@gfhonda.com","141060","Ned Euliss","RY2","RY2","11/04/2012","PDQ Advisor","2","0","0","0","0","0","0","0","No","",""
"114200","Gopal","Bhattarai","gbhattarai@rydellcars.com","186100","Katherine Lind","RY1","RY1","07/20/2011","Custodian","2","0","0","0","0","0","0","0","No","",""
"214210","Suk","Bhattarai","sbhattarai@gfhonda.com","141060","Ned Euliss","RY2","RY2","10/06/2013","Lowerbay Technician","1","3","3","3","3","1","1","0","No","",""
"113500","Jeremy","Billing","jbilling@rydellcars.com","141060","Ned Euliss","RY1","RY1","06/30/2014","PDQ Lead Technician","2","0","0","0","0","0","0","0","No","",""
"213520","Noah","Bina","nbina@rydellcars.com","141060","Ned Euliss","RY2","RY2","05/19/2014","Upperbay Technician","1","3","3","3","3","1","1","0","No","",""
"212120","Christopher","Bjerk","cbjerk@gfhonda.com","2126300","Nicholas Shirek","RY2","RY2","09/24/2012","Sales Consultant","1","3","3","3","3","1","1","0","No","",""
"115255","Mark","Bjornseth","mbjornseth@rydellcars.com","1132595","Daniel Stinar","RY1","RY1","09/25/1989","Parts Inventory Manager","1","3","3","3","3","1","1","0","No","",""
"160930","Katherine","Blumhagen","kblumhagen@rydellcars.com","1132218","Mark Steinke","RY1","RY1","08/19/2002","Body Shop Parts","1","3","3","3","3","1","1","0","No","",""
"17380","Kourtney","Bohl","kbohl@rydellcars.com","1147062","Susan Walior","RY1","RY1","07/28/2014","Rental Agent","2","0","0","0","0","0","0","0","No","",""
"17410","Lindsey","Bohlman","lbohlman@rydellcars.com","157995","June Gustafson","RY1","RY1","08/19/2013","F&I Admin","1","3","3","4","4","1","1","0","No","",""
"116185","Douglas","Bohm","dbohm@rydellcars.com","187675","Beverley Longoria","RY1","RY1","03/01/1993","Main Shop Technician (C)","1","3","3","3","3","1","1","0","No","",""
"116196","Antonio","Boutros","aboutros@rydellcars.com","1132595","Daniel Stinar","RY1","RY1","10/20/2014","Parts Driver","1","3","0","3","0","1","0","0","No","",""
"116215","Grant","Boyum","gboyum@rydellcars.com","141060","Ned Euliss","RY1","RY1","03/31/2014","PDQ Upper bay Technician","2","0","0","0","0","0","0","0","No","",""
"118010","Dean","Braaten","dbraaten@rydellcars.com","1132595","Daniel Stinar","RY1","RY1","08/10/2011","Parts Shipping & Receiving","2","0","0","0","0","0","0","0","No","",""
"118310","Kyle","Bragunier","kbragunier@rydellcars.com","141060","Ned Euliss","RY1","RY1","02/04/2013","PDQ Advisor","1","3","3","3","3","1","1","0","No","",""
"218351","Tony","Breaux","tbreaux@gfhonda.com","141060","Ned Euliss","RY2","RY2","09/22/2014","Lowerbay Technician","1","3","3","3","3","1","1","0","No","",""
"118020","Steffanie","Brewer","sbrewer@rydellcars.com","1122342","Randy Sattler","RY1","RY1","05/19/2014","Body Shop Admin","1","3","3","3","3","1","1","0","No","",""
"118030","Taylor","Broyles","tbroyles@rydellcars.com","148050","Benjamin Foster","RY1","RY1","06/30/2014","Human Resources Assistant","1","3","3","3","3","1","1","0","No","",""
"120110","Timothy","Buchin","TBuchin@rydellcars.com","1135260","Steven Symons","RY1","RY1","02/17/2014","IT Team Member","2","0","0","0","0","0","0","0","No","",""
"121362","Travis","Bursinger","tbursinger@rydellcars.com","140790","Kenneth Espelund","RY1","RY1","07/16/2004","Main Shop Advisor","1","3","3","3","3","1","1","0","No","",""
"222300","William","Bushaw","wbushaw@gfhonda.com","2126300","Nicholas Shirek","RY2","RY2","12/18/2007","Sales Consultant (PT)","1","3","0","3","0","1","0","0","No","",""
"121390","Antonio","Bustos","abustos@rydellcars.com","178079","Justin Kilmer","RY1","RY1","03/03/2014","Service Operator","2","0","0","0","0","0","0","0","No","",""
"123100","Benjamin","Cahalan","bcahalan@rydellchev.com","123100","Benjamin Cahalan","RY1","RY1","08/03/2011","Fixed Operations Director","1","3","3","3","1","2","1","0","No","",""
"123150","Forrest","Campbell","fcampbell@rydellcars.com","141060","Ned Euliss","RY1","RY1","08/14/2013","PDQ Upper bay Technician","2","0","0","0","0","0","0","0","No","",""
"123425","Christopher","Carlson","ccarlson@rydellcars.com","113550","Alan Berry","RY1","RY1","03/26/2012","Sales Consultant","1","3","3","3","3","1","1","0","No","",""
"223010","Gabrielle","Carlson","gcarlson@rydellcars.com","141060","Ned Euliss","RY2","RY2","05/05/2014","Upperbay Technician","1","3","3","3","3","1","1","0","No","",""
"123525","Kenneth","Carlson","kcarlson@rydellcars.com","140790","Kenneth Espelund","RY1","RY1","01/01/2010","Main Shop Advisor","1","3","3","3","3","1","1","0","No","",""
"123538","Robert","Carlson","RCarlson@rydellcars.com","1130426","Greg Sorum","RY1","RY1","04/01/1997","Rydell Company","1","3","0","3","0","1","0","0","No","",""
"223050","Nathan","Carlstrom","ncarlstrom@gfhonda.com","141060","Ned Euliss","RY2","RY2","10/24/2013","Upperbay Technician","1","3","3","3","3","1","1","0","No","",""
"123925","Trevor","Cespedes","TCespedes@rydellcars.com","128120","Aubrey Crane","RY1","RY1","10/31/2013","Detail Cashier","1","3","3","3","3","1","1","0","No","",""
"124101","Leslie","Champagne","lchampagne@rydellcars.com","128120","Aubrey Crane","RY1","RY1","05/19/2014","Detail Cashier","1","3","3","3","3","1","1","0","No","",""
"124110","Bobby","Chance","bchance@rydellcars.com","1122342","Randy Sattler","RY1","RY1","10/20/2014","Body Shop Technician (C)","1","3","0","3","0","1","0","0","No","",""
"124120","Jesse","Chavez","jchavez@rydellcars.com","113550","Alan Berry","RY1","RY1","06/30/2014","Sales Consultant","1","3","3","3","3","1","1","0","No","",""
"223100","Padam","Chhetri","pchhetri@gfhonda.com","141060","Ned Euliss","RY2","RY2","10/09/2013","PDQ Upper bay Technician","2","0","0","0","0","0","0","0","No","",""
"126200","Michelle","Cochran","mcochran@rydellcars.com","157995","June Gustafson","RY1","RY1","01/24/2011","F&I Admin (HGF)","1","3","3","4","4","1","1","0","No","",""
"126700","Brian","Collins","bcollins@rydellcars.com","141060","Ned Euliss","RY1","RY1","07/08/2013","PDQ Advisor","2","0","0","0","0","0","0","0","No","",""
"127350","Edward","Converse","econverse@rydellcars.com","128120","Aubrey Crane","RY1","RY1","09/02/2010","Detail Technician","1","3","3","3","0","1","0","0","No","",""
"127420","Caitlyn","Cournia","ccournia@rydellcars.com","1147062","Susan Walior","RY1","RY1","06/30/2014","Rental Agent","2","0","0","0","0","0","0","0","No","",""
"128120","Aubrey","Crane","acrane@rydellcars.com","113085","Steven Bergh","RY1","RY1","01/14/2013","Assistant Detail Manager","1","3","3","3","3","2","1","0","No","",""
"128530","Craig","Croaker","ccroaker@rydellcars.com","113550","Alan Berry","RY1","RY1","01/30/2007","Sales Consultant","1","3","3","3","3","1","1","0","No","",""
"131100","Benjamin","Dalen","bdalen@rydellcars.com","113550","Alan Berry","RY1","RY1","07/20/2011","Sales Consultant","1","3","3","3","3","1","1","0","No","",""
"131152","Arvel","Damper","adamper@rydellcars.com","1120110","Antonio Ryan","RY1","RY1","07/29/2013","Car Wash Team Member","2","0","0","0","0","0","0","0","No","",""
"230601","Joel","Dangerfield","jdangerfield@gfhonda.com","284715","Michael Lear","RY2","RY2","11/29/2001","Main Shop Manager","1","3","3","3","3","2","2","0","No","",""
"131370","Gordon","David","gdavid@rydellcars.com","187675","Beverley Longoria","RY1","RY1","06/07/1995","Main Shop Technician (C)","1","3","3","3","3","1","1","0","No","",""
"131440","Dale","Davidson","ddavidson@rydellcars.com","113550","Alan Berry","RY1","RY1","10/13/2009","Sales Consultant","1","3","3","3","3","1","1","0","No","",""
"131315","Eric","Davis","edavis@rydellcars.com","113085","Steven Bergh","RY1","RY1","08/11/2014","Car Wash Team Member","1","3","3","3","3","1","1","0","No","",""
"131381","Tyler","Davis","tdavis@rydellcars.com","113085","Steven Bergh","RY1","RY1","04/28/2014","Car Wash Maintenance","1","3","3","3","3","1","1","0","No","",""
"132500","Michael","Delohery","mdelohery@rydellcars.com","113550","Alan Berry","RY1","RY1","05/03/2010","Digital Sales Coordinator","1","3","3","3","3","1","1","0","No","",""
"230810","Roy","Doerr","rdoerr@gfhonda.com","230601","Joel Dangerfield","RY2","RY2","04/29/2013","Courtesy Driver","1","3","3","3","3","1","1","0","No","",""
"134025","James","Donahue","jdonahue@rydellcars.com","146450","Kelly Foerster","RY1","RY1","02/18/2013","Sales Driver","2","0","0","0","0","0","0","0","No","",""
"135721","Bethany","Driscoll","bdriscoll@rydellcars.com","113085","Steven Bergh","RY1","RY1","06/02/2014","Car Wash Cashier","1","3","3","3","3","1","1","0","No","",""
"135770","Terrance","Driscoll","tdriscoll@rydellcars.com","1132218","Mark Steinke","RY1","RY1","11/04/2002","Metal Technician (B)","1","3","0","3","0","1","0","0","No","",""
"136170","Jared","Duckstad","jduckstad@rydellcars.com","187675","Beverley Longoria","RY1","RY1","09/30/2002","Main Shop Technician (A)","1","3","3","3","3","1","1","0","No","",""
"136175","Derrick","Dulaney","ddulaney@rydellcars.com","113550","Alan Berry","RY1","RY1","05/15/2013","Sales Consultant","2","0","0","0","0","0","0","0","No","",""
"136201","Lucas","Duncan","lduncan@rydellcars.com","113550","Alan Berry","RY1","RY1","08/25/2014","Sales Consultant","1","3","3","3","3","1","1","0","No","",""
"138380","Noel","Eichhorst","neichhorst@rydellcars.com","186100","Katherine Lind","RY1","RY1","08/30/1978","Custodian","1","3","3","3","3","1","1","0","No","",""
"138385","Brett","Eken","beken@rydellcars.com","185801","Adam Lindquist","RY1","RY1","05/19/2014","Upperbay Technician","1","3","3","3","3","1","1","0","No","",""
"138411","Steven","Emmons","SEmmons@rydellcars.com","187675","Beverley Longoria","RY1","RY1","01/23/2014","PT Main Shop Technician (C)","1","3","3","3","3","1","1","0","No","",""
"240120","Jordan","Enno","jenno@gfhonda.com","141060","Ned Euliss","RY2","RY2","02/11/2013","PDQ Pit Technician","2","0","0","0","0","0","0","0","No","",""
"140500","Ronald","Erickson","rerickson@rydellcars.com","113550","Alan Berry","RY1","RY1","10/12/2009","Used Car Buyer","1","3","3","3","3","1","1","0","No","",""
"241310","Tyler","Espelien","tespelien@gfhonda.com","141060","Ned Euliss","RY2","RY2","08/11/2011","Lowerbay Technician","1","3","3","3","3","1","1","0","No","",""
"140790","Kenneth","Espelund","kespelund@rydellcars.com","1102195","Andrew Neumann","RY1","RY1","09/19/2005","Service Drive Manager","1","3","3","3","3","3","1","0","No","",""
"141060","Ned","Euliss","neuliss@rydellcars.com","1102195","Andrew Neumann","RY1","RY1","11/02/2004","PDQ Manager","1","3","3","3","3","1","1","0","No","",""
"141069","Daniel","Evavold","devavold@rydellcars.com","1122342","Randy Sattler","RY1","RY1","01/23/2007","Estimator","1","3","3","3","3","1","1","0","No","",""
"241085","Garrett","Evenson","gevenson@rydellcars.com","141060","Ned Euliss","RY2","RY2","05/14/2007","PDQ Advisor","1","3","3","3","3","1","1","0","No","",""
"141070","Ashley","Everman","aeverman@rydellcars.com","113085","Steven Bergh","RY1","RY1","03/24/2014","Car Wash Cashier","1","3","0","3","0","1","0","0","No","",""
"143180","Ludwig","Feist","lfeist@rydellcars.com","1132595","Daniel Stinar","RY1","RY1","08/27/2012","Parts Sales Consultant","1","3","3","3","3","1","1","0","No","",""
"145840","Stephen","Flaat","sflaat@rydellcars.com","113550","Alan Berry","RY1","RY1","02/01/2005","Sales Consultant","1","3","3","3","3","1","1","0","No","",""
"145910","Jerry","Flatin","jflatin@rydellcars.com","1132595","Daniel Stinar","RY1","RY1","07/16/2012","Parts Driver","1","3","3","3","3","1","1","0","No","",""
"145720","Matthew","Flikka","mflikka@rydellcars.com","141060","Ned Euliss","RY1","RY1","02/18/2013","PDQ Advisor","2","0","0","0","0","0","0","0","No","",""
"146450","Kelly","Foerster","kfoerster@rydellcars.com","113550","Alan Berry","RY1","RY1","02/18/1985","New Car Inventory Manager","1","3","3","3","3","1","1","0","No","",""
"148050","Benjamin","Foster","bfoster@rydellcars.com","148050","Benjamin Foster","RY1","RY1","10/21/2013","Human Resources Director","1","3","3","3","3","2","2","0","No","",""
"148075","Kevin","Foster","kevin@fosterstraining.com","1130426","Greg Sorum","RY1","RY1","06/05/2006","Rydell Company","1","3","3","3","3","1","1","0","No","",""
"TEMP001","Sammy","Foster","sfoster@rydellcars.com","113550","Alan Berry","RY1","RY1","11/17/2014","Sales Consultant","1","0","0","0","0","0","0","0","No","",""
"148110","Tracy","Foy","tfoy@rydellcars.com","113550","Alan Berry","RY1","RY1","06/04/2012","Sales Consultant","1","3","3","3","3","1","1","0","No","",""
"148275","Raymond","Franks","rfranks@rydellcars.com","123100","Benjamin Cahalan","RY1","RY1","02/01/1966","Building Maintenance","1","3","3","3","3","1","1","0","No","",""
"149050","Steven","Fruetel","sfruetel@rydellcars.com","1132218","Mark Steinke","RY1","RY1","07/11/2011","Body Shop Detailer","2","0","0","0","0","0","0","0","No","",""
"149750","James","Gabrielson","jgabrielson@rydellcars.com","157995","June Gustafson","RY1","RY1","09/03/2013","F&I Admin","1","3","3","4","4","1","1","0","No","",""
"149878","Traci","Gagnon","tgagnon@rydellcars.com","178079","Justin Kilmer","RY1","RY1","10/30/2008","Service Operator","1","3","3","3","3","1","1","0","No","",""
"150040","Chris","Garceau","cgarceau@rydellcars.com","113550","Alan Berry","RY1","RY1","04/01/2010","Sales Team Leader","1","3","3","3","3","1","1","0","No","",""
"150045","Joseph","Garceau","jgarceau@rydellcars.com","113550","Alan Berry","RY1","RY1","07/18/2011","Sales Consultant","1","3","3","3","3","1","1","0","No","",""
"150060","Tyler","Garchow","tgarchow@rydellcars.com","185801","Adam Lindquist","RY1","RY1","05/19/2014","Upperbay Technician","1","3","3","3","3","1","1","0","No","",""
"150105","Chad","Gardner","cgardner@rydellcars.com","1132218","Mark Steinke","RY1","RY1","04/04/2011","Metal Technician (B)","1","3","0","3","0","1","0","0","No","",""
"150120","John","Gardner","jgardner@rydellcars.com","113085","Steven Bergh","RY1","RY1","04/04/2011","Lead Detail Technician","1","3","3","3","3","1","1","0","No","",""
"150130","Nick","Gerszewski","ngerszewski@gfhonda.com","185801","Adam Lindquist","RY1","RY1","06/03/2013","Upperbay Technician","1","3","3","3","3","1","1","0","No","",""
"152150","Cody","Gieseke","cgieseke@rydellcars.com","187675","Beverley Longoria","RY1","RY1","06/16/2014","Main Shop Technician (D)","1","3","3","3","3","1","1","0","No","",""
"152235","Jeff","Girodat","jgirodat@rydellcars.com","187675","Beverley Longoria","RY1","RY1","05/05/1986","Main Shop Technician (B)","1","3","3","3","3","1","1","0","No","",""
"152480","Duane","Goetz","duane@therydellcompany.com","1130426","Greg Sorum","RY1","RY1","10/01/2012","Rydell Company","1","3","0","3","0","1","0","0","No","",""
"152495","Bryan","Gonzalez","bgonzalez@rydellcars.com","128120","Aubrey Crane","RY1","RY1","03/31/2014","Detail Technician","1","3","3","3","3","1","1","0","No","",""
"152499","Conner","Gothberg","cgothberg@rydellcars.com","113085","Steven Bergh","RY1","RY1","08/25/2014","Car Wash Team Member","1","3","3","3","2","1","0","0","No","",""
"152510","Shane","Goulet","sgoulet@rydellcars.com","113085","Steven Bergh","RY1","RY1","03/31/2014","Car Wash Team Member","1","3","3","3","3","1","1","0","No","",""
"152525","Desiree","Grant","dgrant@rydellcars.com","185801","Adam Lindquist","RY1","RY1","05/19/2014","Lowerbay Technician","1","3","3","3","3","1","1","0","No","",""
"152410","Nathan","Gray","ngray@rydellcars.com","187675","Beverley Longoria","RY1","RY1","08/22/2011","Main Shop Technician (A)","1","3","3","3","3","1","1","0","No","",""
"152610","Cody","Grinde","cgrinde@rydellcars.com","141060","Ned Euliss","RY1","RY1","03/03/2014","PDQ Upper bay Technician","2","0","0","0","0","0","0","0","No","",""
"157995","June","Gustafson","jgustafson@rydellcars.com","1123340","Jeri Schmiess Penas","RY1","RY1","02/11/2008","Office Manager","1","3","3","4","4","2","2","0","No","",""
"161010","Mason","Haga","mhaga@rydellcars.com","185801","Adam Lindquist","RY1","RY1","10/08/2014","Upperbay Technician","1","3","3","3","2","1","0","0","No","",""
"263095","Delwyn","Hager","dhager@gfhonda.com","2106225","John Olderbak","RY2","RY2","03/11/2014","Sales Driver","1","3","0","3","0","1","0","0","No","",""
"263101","Jonathan","Hager","JHager@gfhonda.com","2106225","John Olderbak","RY2","RY2","02/18/2014","Sales Driver","2","0","0","0","0","0","0","0","No","",""
"161051","Sara","Hager","shager@rydellcars.com","123100","Benjamin Cahalan","RY1","RY1","06/26/2013","Project Coordinator","1","3","3","3","3","1","1","0","No","",""
"161075","Christian","Hall","CHall@rydellcars.com","113550","Alan Berry","RY1","RY1","02/10/2014","Sales Apprentice","2","0","0","0","0","0","0","0","No","",""
"161065","Katie","Hallie","khallie@rydellcars.com","157995","June Gustafson","RY1","RY1","05/19/2014","F&I Admin","1","3","3","3","3","1","1","0","No","",""
"161092","Brander","Halver","bhalver@rydellcars.com","128120","Aubrey Crane","RY1","RY1","09/03/2013","Detail Technician","1","3","3","3","3","1","1","0","No","",""
"161120","Caleb","Hamman","chamman@rydellcars.com","1102195","Andrew Neumann","RY1","RY1","04/01/2013","Main Shop Technician","2","0","0","0","0","0","0","0","No","",""
"160932","Calvin","Hankin","chankin@rydellcars.com","185801","Adam Lindquist","RY1","RY1","05/05/2014","Lowerbay Technician","1","3","3","3","3","1","1","0","No","",""
"161361","Chris","Hansen-Stock","chansen@rydellcars.com","185801","Adam Lindquist","RY1","RY1","08/25/2014","Upperbay Technician","1","3","3","3","3","1","1","0","No","",""
"161325","Brett","Hanson","bhanson@rydellcars.com","113550","Alan Berry","RY1","RY1","04/14/2003","Sales Consultant","1","3","3","3","3","1","1","0","No","",""
"161351","Katie","Hanson","khanson1@rydellcars.com","178079","Justin Kilmer","RY1","RY1","07/14/2014","Service Operator","2","0","0","0","0","0","0","0","No","",""
"161350","Kevin","Hanson","khanson@rydellcars.com","140790","Kenneth Espelund","RY1","RY1","02/13/2012","Main Shop Advisor","1","3","3","3","3","1","1","0","No","",""
"264101","Cade","Harmel","charmel@gfhonda.com","230601","Joel Dangerfield","RY2","RY2","10/22/2012","Main Shop Technician","2","0","0","0","0","0","0","0","No","",""
"162424","Haydn","Harmon","HHarmon@rydellcars.com","140790","Kenneth Espelund","RY1","RY1","09/05/2013","Service Porter","2","0","0","0","0","0","0","0","No","",""
"162428","Terry","Harmon","tharmon@rydellcars.com","1132595","Daniel Stinar","RY1","RY1","10/01/2001","Parts Sales Consultant","1","3","3","3","3","1","1","0","No","",""
"162795","Sean","Harris","sharris1@rydellcars.com","185801","Adam Lindquist","RY1","RY1","06/30/2014","Upperbay Technician","1","3","3","3","3","1","1","0","No","",""
"162800","Sheridan","Harris","sharris@rydellcars.com","146450","Kelly Foerster","RY1","RY1","09/01/1955","Sales Driver","1","3","0","3","0","1","0","0","No","",""
"163096","Dawn","Hastings","dhastings@rydellcars.com","157995","June Gustafson","RY1","RY1","01/06/1986","Title Clerk","1","3","3","4","4","1","1","0","No","",""
"163099","Robert","Hatchell","rhatchell@rydellcars.com","187675","Beverley Longoria","RY1","RY1","10/07/2014","Main Shop Technician (A)","1","3","1","3","2","1","0","0","No","",""
"164015","Josh","Heffernan","jheffernan@rydellcars.com","187675","Beverley Longoria","RY1","RY1","12/02/1996","Main Shop Technician (B)","1","3","3","3","3","1","1","0","No","",""
"164202","Herb","Helgeson","hhelgeson@rydellcars.com","146450","Kelly Foerster","RY1","RY1","01/13/2005","Sales Driver","1","3","0","3","0","1","0","0","No","",""
"264220","Jeffrey","Helgeson","jhelgeson@gfhonda.com","2106350","Chad Olson","RY2","RY2","11/24/2009","Parts Shipping & Receiving","1","3","3","3","3","1","0","0","No","",""
"164335","Aaron","Hemington","ahemington@rydellcars.com","128120","Aubrey Crane","RY1","RY1","02/08/2007","Detail Technician","2","0","0","0","0","0","0","0","No","",""
"181520","Kayle","Hendrickson","khendrickson@rydellcars.com","157995","June Gustafson","RY1","RY1","11/20/2013","Accounts Payable","1","3","3","4","4","1","1","0","No","",""
"181876","Judy","Henry","jhenry@rydellcars.com","1130426","Greg Sorum","RY1","RY1","02/01/1994","Rydell Company","1","3","0","3","0","1","0","0","No","",""
"164920","James","Hepola","jhepola@rydellcars.com","128120","Aubrey Crane","RY1","RY1","11/15/2010","Detail Technician","1","3","0","3","0","1","0","0","No","",""
"164981","Trey","Hess","THess@rydellcars.com","1120110","Antonio Ryan","RY1","RY1","01/27/2014","Car Wash Team Member","2","0","0","0","0","0","0","0","No","",""
"264235","Neil","Hickman","nhickman@gfhonda.com","141060","Ned Euliss","RY2","RY2","09/22/2014","Upperbay Technician","1","3","0","3","0","1","0","0","No","",""
"165357","Brian","Hill","bhill@rydellcars.com","1122342","Randy Sattler","RY1","RY1","08/28/2006","Estimator","1","3","3","3","3","1","1","0","No","",""
"165400","Brock","Hillebrand","bhillebrand@rydellcars.com","150120","John Gardner","RY1","RY1","04/06/2011","Detail Porter","1","3","3","3","3","1","1","0","No","",""
"167102","Corey","Hogenson","chogenson@rydellcars.com","113550","Alan Berry","RY1","RY1","11/11/2013","Sales Consultant","1","3","3","3","3","1","1","0","No","",""
"267410","Arne","Holmen","aholmen@gfhonda.com","2106225","John Olderbak","RY2","RY2","11/01/2013","Sales Consultant","2","0","0","0","0","0","0","0","No","",""
"167561","Colton","Holub","cholub@rydellcars.com","141060","Ned Euliss","RY1","RY1","08/26/2013","PDQ Pit Technician","2","0","0","0","0","0","0","0","No","",""
"167812","Amanda","Holweger","ahopkins@rydellcars.com","186100","Katherine Lind","RY1","RY1","04/25/2011","Reception","1","3","3","3","3","1","1","0","No","",""
"167580","Kirby","Holwerda","kholwerda@rydellcars.com","187675","Beverley Longoria","RY1","RY1","05/18/2011","Main Shop Technician (C)","1","3","3","3","3","1","1","0","No","",""
"167592","Grant","Holy","gholy@rydellcars.com","113550","Alan Berry","RY1","RY1","08/25/2014","Sales Consultant","1","3","3","3","3","1","1","0","No","",""
"168800","Larry","Humble","lhumble@rydellcars.com","113550","Alan Berry","RY1","RY1","03/01/2012","Sales Consultant","1","3","3","3","3","1","1","0","No","",""
"168815","Jason","Hunter","jhunter@rydellcars.com","187675","Beverley Longoria","RY1","RY1","01/25/2011","Aftermarket Technician (C)","1","3","3","3","3","1","1","0","No","",""
"168845","Michael","Huot","mhuot@rydellcars.com","123100","Benjamin Cahalan","RY1","RY1","07/07/1989","Main Shop Manager","2","0","0","0","0","0","0","0","No","",""
"168890","Zachary","Huot","zhuot@rydellcars.com","140790","Kenneth Espelund","RY1","RY1","08/12/2013","Courtesy Driver","2","0","0","0","0","0","0","0","No","",""
"170150","Arnold","Iverson","aiverson@rydellcars.com","1132218","Mark Steinke","RY1","RY1","11/30/1981","Metal Technician (A)","1","3","0","3","0","1","0","0","No","",""
"171055","Peter","Jacobson","pjacobson@rydellcars.com","1132218","Mark Steinke","RY1","RY1","12/13/2010","Paint Technician (A)","1","3","3","3","3","1","1","0","No","",""
"171210","Jama","Jama","jjama@rydellcars.com","1122342","Randy Sattler","RY1","RY1","08/01/2011","Body Shop Porter","1","3","0","3","0","1","0","0","No","",""
"166152","Haydar","Jawad","hjawad@rydellcars.com","1120110","Antonio Ryan","RY1","RY1","05/19/2014","Car Wash Team Member","2","0","0","0","0","0","0","0","No","",""
"172077","Kenneth","Jerstad","kjerstad@rydellcars.com","1132595","Daniel Stinar","RY1","RY1","06/10/2002","Parts Sales Consultant","1","3","3","3","3","1","1","0","No","",""
"174110","Ryan","Jobe","rjobe@rydellcars.com","141060","Ned Euliss","RY1","RY1","06/02/2014","Upperbay Technician","2","0","0","0","0","0","0","0","No","",""
"173800","Jeffrey","Johnke","jjohnke@rydellcars.com","1120110","Antonio Ryan","RY1","RY1","11/26/2013","Car Wash Team Member","2","0","0","0","0","0","0","0","No","",""
"184620","Benjamin","Johnson","bjohnson1@rydellcars.com","185801","Adam Lindquist","RY1","RY1","10/08/2014","Upperbay Technician","1","3","3","3","3","1","1","0","No","",""
"273315","Brandon","Johnson","bjohnson@gfhonda.com","230601","Joel Dangerfield","RY2","RY2","03/07/2011","Main Shop Technician","1","3","3","3","3","1","1","0","No","",""
"184830","Brooke","Johnson","bjohnson@rydellcars.com","1147062","Susan Walior","RY1","RY1","04/09/2012","Rental Agent","1","3","3","3","3","1","1","0","No","",""
"174130","Cody","Johnson","cjohnson@rydellcars.com","1132218","Mark Steinke","RY1","RY1","01/02/2013","Paint Technician (A)","1","3","0","3","0","1","0","0","No","",""
"274225","Dustin","Johnson","DJohnson@gfhonda.com","2106350","Chad Olson","RY2","RY2","02/10/2014","Parts Counter","1","3","3","3","3","1","1","0","No","",""
"174141","Eric","Johnson","EJohnson@rydellcars.com","113550","Alan Berry","RY1","RY1","02/03/2014","Sales Consultant","1","3","3","3","3","1","1","0","No","",""
"174150","Joseph","Johnson","jjohnson@rydellcars.com","113550","Alan Berry","RY1","RY1","08/20/2012","Sales Consultant","1","3","3","3","3","1","1","0","No","",""
"174160","Robert","Johnson","rjohnson@rydellcars.com","1132218","Mark Steinke","RY1","RY1","12/10/2012","Glass Technician","2","0","0","0","0","0","0","0","No","",""
"174870","Nicholas","Johnston","njohnston@rydellcars.com","141060","Ned Euliss","RY1","RY1","07/18/2012","PDQ Advisor","1","3","3","3","3","1","1","0","No","",""
"279600","Kali","Jopp","kjopp@gfhonda.com","2126300","Nicholas Shirek","RY2","RY2","06/24/2013","Sales Consultant","2","0","0","0","0","0","0","0","No","",""
"176150","Richard","Kacher","rkacher@rydellcars.com","113550","Alan Berry","RY1","RY1","09/12/2011","New Car Technology Specialist","1","3","3","3","3","1","1","0","No","",""
"176160","Robert","Karpenko","rkarpenko@rydellcars.com","1132218","Mark Steinke","RY1","RY1","12/02/2013","Metal Technician","2","0","0","0","0","0","0","0","No","",""
"176185","Mackenzie","Kartes","mkartes@rydellcars.com","1122342","Randy Sattler","RY1","RY1","10/17/2011","Body Shop Admin","2","0","0","0","0","0","0","0","No","",""
"176190","Suzanne","Kartes","skartes@rydellcars.com","157995","June Gustafson","RY1","RY1","11/21/2013","File Clerk","2","0","0","0","0","0","0","0","No","",""
"177160","Johnathon","Kazmierczak","jkazmierczak@rydellcars.com","140790","Kenneth Espelund","RY1","RY1","09/19/2011","Main Shop Advisor","1","3","3","3","3","1","1","0","No","",""
"177170","Adam","Kempert","akempert@rydellcars.com","1132218","Mark Steinke","RY1","RY1","07/08/2013","Metal Technician","2","0","0","0","0","0","0","0","No","",""
"177950","Tek","Khatiwoda","tkhatiwoda@rydellcars.com","185801","Adam Lindquist","RY1","RY1","09/03/2013","Upperbay Technician","1","3","3","3","3","1","1","0","No","",""
"178050","Lucas","Kiefer","lkiefer@rydellcars.com","187675","Beverley Longoria","RY1","RY1","05/19/2014","Accessory Technician","1","3","3","3","3","1","1","0","No","",""
"178079","Justin","Kilmer","jkilmer@rydellcars.com","1102195","Andrew Neumann","RY1","RY1","02/01/2007","BDC Team Leader","1","3","3","3","3","1","1","0","No","",""
"178200","Chris","Kjenstad","ckjenstad@rydellcars.com","185801","Adam Lindquist","RY1","RY1","09/08/2014","Upperbay Technician","1","3","3","3","3","1","1","0","No","",""
"179380","Benjamin","Knudson","bknudson@rydellcars.com","113550","Alan Berry","RY1","RY1","08/12/2009","Sales Team Leader","1","3","3","3","3","1","1","0","No","",""
"279630","Kenneth","Knudson","kknudson@gfhonda.com","230601","Joel Dangerfield","RY2","RY2","01/02/2013","Main Shop Technician","1","3","3","3","3","1","1","0","No","",""
"179693","Debra","Koenen","dkoenen@rydellcars.com","186100","Katherine Lind","RY1","RY1","08/04/2008","Reception","1","3","3","3","3","1","1","0","No","",""
"179701","Jordan","Kolias","JKolias@rydellcars.com","1132595","Daniel Stinar","RY1","RY1","02/18/2014","Parts Shipping & Receiving","2","0","0","0","0","0","0","0","No","",""
"179750","Mark","Koller","mkoller@rydellcars.com","1102195","Andrew Neumann","RY1","RY1","08/29/1988","Main Shop Technician (C)","2","0","0","0","0","0","0","0","No","",""
"179775","Kirk","Kolstad","kkolstad@rydellcars.com","1132595","Daniel Stinar","RY1","RY1","03/01/1980","Parts Sales Consultant","1","3","3","3","3","1","1","0","No","",""
"179790","Jason","Kowalski","jkowalski@rydellcars.com","1132595","Daniel Stinar","RY1","RY1","06/16/2014","Aftermarket Sales Consultant","1","3","3","3","3","1","1","0","No","",""
"179810","Kalissa","Kruse","KKruse@rydellcars.com","128120","Aubrey Crane","RY1","RY1","01/13/2014","Detail Cashier","1","3","3","3","3","1","1","0","No","",""
"181310","James","Kuefler","jkuefler@rydellcars.com","146450","Kelly Foerster","RY1","RY1","01/20/2010","Sales Driver","1","3","0","3","0","1","0","0","No","",""
"181325","Matthew","Kuhn","mkuhn@rydellcars.com","113550","Alan Berry","RY1","RY1","11/01/2013","Sales Consultant","2","0","0","0","0","0","0","0","No","",""
"181411","Cody","Kuntz","ckuntz@rydellcars.com","113085","Steven Bergh","RY1","RY1","04/23/2014","Car Wash Team Member","1","3","3","3","3","1","1","0","No","",""
"181665","Robert","Kvasager","rkvasager@rydellcars.com","113550","Alan Berry","RY1","RY1","11/17/2008","Sales Consultant","1","3","3","3","3","1","1","0","No","",""
"184605","Kodi","Labelle","klabelle@rydellcars.com","113085","Steven Bergh","RY1","RY1","06/02/2014","Car Wash Team Member","1","3","3","3","3","1","1","0","No","",""
"283125","Dustin","Larson","dlarson@gfhonda.com","230601","Joel Dangerfield","RY2","RY2","04/01/2014","Main Shop Technician","1","3","3","3","3","1","1","0","No","",""
"184100","Jonathan","Larson","jlarson@rydellcars.com","128120","Aubrey Crane","RY1","RY1","11/09/2009","Detail Porter","2","0","0","0","0","0","0","0","No","",""
"184610","Larry","Laughlin","llaughlin@rydellcars.com","1132595","Daniel Stinar","RY1","RY1","10/16/1998","Parts Sales Consultant","1","3","3","3","3","1","1","0","No","",""
"184650","Terry","Lavallie","tlavallie@rydellcars.com","185801","Adam Lindquist","RY1","RY1","10/20/2014","Upperbay Technician","1","3","3","3","2","1","0","0","No","",""
"283521","Melissa","Lawson","mlawson@gfhonda.com","2126300","Nicholas Shirek","RY2","RY2","10/06/2014","Sales Consultant","1","3","3","3","3","1","1","0","No","",""
"284715","Michael","Lear","mlear@gfhonda.com","284715","Michael Lear","RY2","RY2","08/08/2011","General Manager (HGF)","1","5","5","4","4","1","1","0","No","",""
"184806","Paul","Leavy","pleavy@rydellcars.com","128120","Aubrey Crane","RY1","RY1","08/25/2014","Detail Technician","1","3","0","3","0","1","0","0","No","",""
"184851","Theodore","Leighton","TLeighton@rydellcars.com","132500","Michael Delohery","RY1","RY1","10/21/2013","Sales Support","1","3","3","3","3","1","1","0","No","",""
"184867","Brennan","Lemar","blemar@rydellcars.com","141060","Ned Euliss","RY1","RY1","04/21/2014","PDQ Advisor","1","3","3","3","3","1","1","0","No","",""
"185210","Preston","Ligget","pligget@rydellcars.com","141060","Ned Euliss","RY1","RY1","06/02/2014","Upperbay Technician","2","0","0","0","0","0","0","0","No","",""
"185950","Harley","Lind","hlind@rydellcars.com","146450","Kelly Foerster","RY1","RY1","01/30/2009","Sales Driver","1","3","0","3","0","1","0","0","No","",""
"186100","Katherine","Lind","klind@rydellcars.com","1106360","Trent Olson","RY1","RY1","11/22/1983","Customer Relations Manager","1","3","3","3","3","2","2","0","No","",""
"186210","Aaron","Lindom","alindom@rydellcars.com","1132218","Mark Steinke","RY1","RY1","06/02/2014","Staging Technician","1","3","0","3","0","1","0","0","No","",""
"185801","Adam","Lindquist","alindquist@gfhonda.com","141060","Ned Euliss","RY1","RY1","06/10/2013","PDQ Assistant Manager","1","3","3","3","3","4","1","0","No","",""
"285820","Daniel","Lizakowski","dlizakowski@gfhonda.com","2126300","Nicholas Shirek","RY2","RY2","04/23/2009","Sales Consultant","1","3","3","3","3","1","1","0","No","",""
"187675","Beverley","Longoria","blongoria@rydellcars.com","1102195","Andrew Neumann","RY1","RY1","02/21/2005","Dispatcher","1","3","3","3","2","4","1","0","No","",""
"189100","Arden","Loven","aloven@rydellcars.com","113550","Alan Berry","RY1","RY1","03/08/2010","Sales Consultant","1","3","3","3","3","1","1","0","No","",""
"188338","David","Lueker","dlueker@rydellcars.com","1122342","Randy Sattler","RY1","RY1","06/16/2003","Estimator","1","3","3","3","3","1","1","0","No","",""
"188420","David","Lurwig","dlurwig@rydellcars.com","141060","Ned Euliss","RY1","RY1","06/30/2014","PDQ Advisor","2","0","0","0","0","0","0","0","No","",""
"189295","James","Lynch","jlynch@rydellcars.com","1106360","Trent Olson","RY1","RY1","12/03/2007","General Sales Manager","1","3","3","3","3","1","1","0","No","",""
"291580","Landon","Maatz","lmaatz@rydellcars.com","141060","Ned Euliss","RY2","RY2","12/16/2013","PDQ Upper bay Technician","2","0","0","0","0","0","0","0","No","",""
"190502","Savannah","Mack","smack@rydellcars.com","113550","Alan Berry","RY1","RY1","09/02/2014","Sales Consultant","1","3","3","3","3","1","1","0","No","",""
"190600","Tyler","Magnuson","tmagnuson@rydellcars.com","128120","Aubrey Crane","RY1","RY1","04/06/2011","Detail Technician","1","3","0","3","0","1","0","0","No","",""
"190892","Richard","Mangan","rmangan@rydellcars.com","1132595","Daniel Stinar","RY1","RY1","09/23/2002","Shipping Coordinator","1","3","3","3","3","1","1","0","No","",""
"190918","Thomas","Marcotte","tmarcotte@rydellcars.com","1106360","Trent Olson","RY1","RY1","07/28/1985","Hobby Shop Technician","1","3","0","3","0","1","0","0","No","",""
"190910","Dayton","Marek","dmarek@rydellcars.com","128120","Aubrey Crane","RY1","RY1","06/09/2011","Detail Technician","1","3","3","3","3","1","1","0","No","",""
"191060","Nicholas","Maro","nmaro@rydellcars.com","140790","Kenneth Espelund","RY1","RY1","01/20/2014","Main Shop Advisor","1","3","3","3","3","1","1","0","No","",""
"190915","Benjamin","Marotte","BMarotte@rydellcars.com","1130426","Greg Sorum","RY1","RY1","01/01/2013","Rydell Company","1","3","0","3","0","1","0","0","No","",""
"190917","Gilbert","Martell","GMartell@rydellcars.com","185801","Adam Lindquist","RY1","RY1","01/29/2014","PDQ Lead Technician","1","3","3","3","3","1","1","0","No","",""
"190920","Myah","Martin","mmartin@rydellcars.com","113085","Steven Bergh","RY1","RY1","08/25/2014","Car Wash Team Member","1","3","3","3","3","1","1","0","No","",""
"190925","Stacey","Martin","smartin@rydellcars.com","1132218","Mark Steinke","RY1","RY1","12/03/2013","Paint Technician","2","0","0","0","0","0","0","0","No","",""
"291600","Laurie","Mathisen","lmathisen@gfhonda.com","284715","Michael Lear","RY2","RY2","04/01/2003","Reception","1","3","3","3","3","1","1","0","No","",""
"191350","Robert","Mavity","rmavity@rydellcars.com","1132218","Mark Steinke","RY1","RY1","01/01/2008","Paint Technician (B)","1","3","0","3","0","1","0","0","No","",""
"294700","Alsatia","McCloud","amccloud@gfhonda.com","284715","Michael Lear","RY2","RY2","06/02/2014","Reception","2","0","0","0","0","0","0","0","No","",""
"193795","Jacob","McCowan","jmccowan@rydellcars.com","185801","Adam Lindquist","RY1","RY1","05/31/2012","Lowerbay Technician","1","3","3","3","3","1","1","0","No","",""
"193180","Blake","McCoy","bmccoy@rydellcars.com","128120","Aubrey Crane","RY1","RY1","03/11/2013","Detail Technician","1","3","3","3","3","1","1","0","No","",""
"193185","Miles","Mccoyritters","mritters@rydellcars.com","113550","Alan Berry","RY1","RY1","08/25/2014","Sales Consultant","1","3","3","3","3","1","1","0","No","",""
"291810","David","Mckay","dmckay@gfhonda.com","2126300","Nicholas Shirek","RY2","RY2","05/11/2011","Sales Consultant","2","0","0","0","0","0","0","0","No","",""
"293210","Kelsie","McMillin","kmcmillin@rydellcars.com","2106225","John Olderbak","RY2","RY2","07/14/2014","Reception","1","3","3","3","3","1","1","0","No","",""
"294810","Matthew","Mcnamee","mmcnamee@gfhonda.com","230601","Joel Dangerfield","RY2","RY2","10/23/2011","Detailer","1","3","3","3","3","1","1","0","No","",""
"194675","Dennis","Mcveigh","dmcveigh@rydellcars.com","187675","Beverley Longoria","RY1","RY1","11/13/2007","Main Shop Technician (B)","1","3","3","3","3","1","1","0","No","",""
"195101","Michael","Mesrour","mmesrour@rydellcars.com","113550","Alan Berry","RY1","RY1","08/25/2014","Sales Consultant","1","3","3","3","3","1","1","0","No","",""
"195401","Justin","Metzger","jmetzger@rydellcars.com","1132595","Daniel Stinar","RY1","RY1","05/24/2010","Parts Driver","1","3","3","3","3","1","1","0","No","",""
"195460","Anthony","Michael","amichael@rydellcars.com","113550","Alan Berry","RY1","RY1","10/25/2010","Sales Team Leader","1","3","3","3","3","1","1","0","No","",""
"196341","Kim","Miller","kmiller@rydellcars.com","157995","June Gustafson","RY1","RY1","08/18/2008","Accounts Receivable/Payroll","1","3","3","4","4","1","1","0","No","",""
"196345","Michael","Miller","mmiller@rydellcars.com","185801","Adam Lindquist","RY1","RY1","01/02/2013","Lowerbay Technician","1","3","3","3","3","1","1","0","No","",""
"196525","Terry","Miracle","tmiracle@rydellcars.com","150120","John Gardner","RY1","RY1","10/06/2014","Detail Porter","1","3","0","3","0","1","0","0","No","",""
"112090","Mohamed","Mohamed","mmohamed1@rydellcars.com","113085","Steven Bergh","RY1","RY1","08/25/2014","Car Wash Team Member","1","3","3","3","3","1","1","0","No","",""
"112098","Mohamed","Mohamoud","mmohamoud@rydellcars.com","128120","Aubrey Crane","RY1","RY1","06/02/2014","Detail Support","1","3","3","3","3","1","1","0","No","",""
"112101","Jessica","Mongeon","jmongeon@rydellcars.com","178079","Justin Kilmer","RY1","RY1","12/16/2013","Service Operator","2","0","0","0","0","0","0","0","No","",""
"113011","Bruce","Morlock","bmorlock@rydellcars.com","140790","Kenneth Espelund","RY1","RY1","08/30/2012","Courtesy Driver","1","3","3","3","3","1","1","0","No","",""
"113020","Greg","Morris","gmorris@rydellcars.com","1132595","Daniel Stinar","RY1","RY1","04/19/2010","Outside Sales Consultant","1","3","3","3","3","1","1","0","No","",""
"113035","Corbin","Morrison","cmorrison@rydellcars.com","141060","Ned Euliss","RY1","RY1","06/02/2014","PDQ Upper bay Technician","2","0","0","0","0","0","0","0","No","",""
"151410","Crystal","Moulds","cmoulds@rydellcars.com","157995","June Gustafson","RY1","RY1","01/27/2011","Warranty Admin (RAC)","1","3","3","4","4","1","1","0","No","",""
"151420","Luke","Moulds","LMoulds@rydellcars.com","1132595","Daniel Stinar","RY1","RY1","01/06/2014","Parts Shipping & Receiving","2","0","0","0","0","0","0","0","No","",""
"1100710","Gerald","Nefs","gnefs@rydellcars.com","146450","Kelly Foerster","RY1","RY1","07/21/2010","Sales Driver","1","3","0","3","0","1","0","0","No","",""
"1100752","Jason","Neill","jneill@rydellcars.com","185801","Adam Lindquist","RY1","RY1","08/25/2014","Upperbay Technician","1","3","3","3","3","1","1","0","No","",""
"2100680","Allen","Nelson","anelson@gfhonda.com","2106225","John Olderbak","RY2","RY2","07/29/2009","Sales Driver","1","3","0","3","0","1","0","0","No","",""
"1100800","Hunter","Nelson","hnelson@rydellcars.com","128120","Aubrey Crane","RY1","RY1","05/05/2014","Detail Technician","1","3","3","3","3","1","1","0","No","",""
"1100820","Kordell","Nelson","knelson@rydellcars.com","113085","Steven Bergh","RY1","RY1","06/02/2014","Car Wash Team Member","1","3","3","3","2","1","1","0","No","",""
"1100750","Nicholas","Nelson","nnelson@rydellcars.com","113085","Steven Bergh","RY1","RY1","03/17/2014","Car Wash Team Member","1","3","3","3","3","1","1","0","No","",""
"1102195","Andrew","Neumann","aneumann@rydellcars.com","123100","Benjamin Cahalan","RY1","RY1","12/10/2012","Service Director","1","3","3","3","3","1","1","0","No","",""
"2102500","Daniel","Nice","dnice@gfhonda.com","141060","Ned Euliss","RY2","RY2","09/08/2014","PDQ Advisor","1","3","3","3","3","1","1","0","No","",""
"2102196","Chris","Nielson","cnielson@gfhonda.com","2126300","Nicholas Shirek","RY2","RY2","09/19/2013","Sales Consultant","1","3","0","3","0","1","0","0","No","",""
"1102215","Francisco","Nix","fnix@rydellcars.com","140790","Kenneth Espelund","RY1","RY1","07/28/2014","Courtesy Driver","1","3","3","3","3","1","1","0","No","",""
"1103050","Ronald","Nokelby","rnokelby@cartiva.com","1130426","Greg Sorum","RY1","RY1","05/05/1978","Developer","1","3","0","3","2","1","0","0","No","",""
"1105221","Kenneth","Ohlson","kohlson@rydellcars.com","128120","Aubrey Crane","RY1","RY1","10/15/2012","Detail Technician","2","0","0","0","0","0","0","0","No","",""
"2106225","John","Olderbak","jolderbak@gfhonda.com","284715","Michael Lear","RY2","RY2","01/10/2011","Sales Manager","1","3","3","3","3","2","2","0","No","",""
"2106350","Chad","Olson","colson@gfhonda.com","1132595","Daniel Stinar","RY2","RY2","01/01/2010","Parts Manager (HGF)","1","3","3","3","2","1","1","0","No","",""
"1106260","Jacob","Olson","jolson1@rydellcars.com","150120","John Gardner","RY1","RY1","04/06/2011","Detail Porter","1","3","3","3","3","1","1","0","No","",""
"1106399","Jay","Olson","jolson@rydellcars.com","187675","Beverley Longoria","RY1","RY1","02/11/2002","Main Shop Technician (A)","1","3","3","3","3","1","1","0","No","",""
"1106400","Justin","Olson","jolson2@rydellcars.com","1132218","Mark Steinke","RY1","RY1","11/12/2012","Metal Technician (C)","1","3","3","3","3","1","1","0","No","",""
"1106420","Matthew","Olson","MOlson@rydellcars.com","141060","Ned Euliss","RY1","RY1","02/10/2014","PDQ Upper bay Technician","2","0","0","0","0","0","0","0","No","",""
"1106360","Trent","Olson","tolson@rydellcars.com","1106360","Trent Olson","RY1","RY1","08/15/2011","General Manager (RAC)","1","3","3","3","1","1","1","0","No","",""
"1106421","Timothy","O'Neil","toneil@rydellcars.com","187675","Beverley Longoria","RY1","RY1","08/11/2014","Main Shop Technician (A)","1","3","3","3","3","1","1","0","No","",""
"1107950","Guadalupe","Ortiz","gortiz@rydellcars.com","187675","Beverley Longoria","RY1","RY1","11/12/2012","Accessory Technician","1","3","3","3","3","1","1","0","No","",""
"1108200","Anne","Ostlund","aostlund@rydellcars.com","1122342","Randy Sattler","RY1","RY1","01/17/2011","Estimator","1","3","3","3","3","1","1","0","No","",""
"1108248","Gordon","Otto","gotto@rydellcars.com","187675","Beverley Longoria","RY1","RY1","01/23/1996","Main Shop Technician (C)","1","3","3","3","3","1","1","0","No","",""
"1109700","Matthew","Paschke","mpaschke@rydellcars.com","1132595","Daniel Stinar","RY1","RY1","12/27/2010","Aftermarket Sales Consultant","1","3","3","3","3","1","1","0","No","",""
"1109851","Robert","Pearson","rpearson@rydellcars.com","113550","Alan Berry","RY1","RY1","05/17/2013","Sales Consultant","1","3","3","3","3","1","1","0","No","",""
"1109815","Scott","Pearson","spearson@rydellcars.com","113550","Alan Berry","RY1","RY1","05/01/2002","Sales Consultant","1","3","3","3","3","1","1","0","No","",""
"1109826","Dwayne","Pecosky","dpecosky@rydellcars.com","113550","Alan Berry","RY1","RY1","06/02/2014","Sales Intern","2","0","0","0","0","0","0","0","No","",""
"2106410","David","Pederson","dpederson@gfhonda.com","230601","Joel Dangerfield","RY2","RY2","12/16/2011","Main Shop Advisor","1","3","3","3","3","1","1","0","No","",""
"1109821","Bailey","Penas","bpenas@rydellcars.com","157995","June Gustafson","RY1","RY1","05/05/2014","File Clerk","1","3","3","4","4","1","1","0","No","",""
"1109827","Coty","Perez","cperez@gfhonda.com","141060","Ned Euliss","RY1","RY1","12/10/2013","PDQ Advisor","1","3","3","3","3","1","1","0","No","",""
"1109822","Nicholas","Perez","nperez@rydellcars.com","185801","Adam Lindquist","RY1","RY1","06/30/2014","Upperbay Technician","1","3","3","3","3","1","1","0","No","",""
"1109824","Tristian","Perez","tperez@rydellcars.com","141060","Ned Euliss","RY1","RY1","06/30/2014","Upperbay Technician","2","0","0","0","0","0","0","0","No","",""
"1109852","David","Perry","dperry@rydellcars.com","1132218","Mark Steinke","RY1","RY1","08/19/2013","Metal Technician (C)","1","3","3","3","3","1","1","0","No","",""
"1110425","Brian","Peterson","bpeterson@rydellcars.com","1132218","Mark Steinke","RY1","RY1","03/15/1999","PDR Technician","1","3","0","3","0","1","0","0","No","",""
"1110542","Doug","Peterson","dpeterson@rydellcars.com","1106360","Trent Olson","RY1","RY1","12/04/1995","Hobby Shop Technician","1","3","0","3","0","1","0","0","No","",""
"1110650","Mavrik","Peterson","mpeterson@rydellcars.com","1132218","Mark Steinke","RY1","RY1","11/15/2010","Paint Technician (B)","1","3","0","3","0","1","0","0","No","",""
"2106480","Ryan","Pierce","rpierce@gfhonda.com","2126300","Nicholas Shirek","RY2","RY2","09/09/2013","Sales Consultant","2","0","0","0","0","0","0","0","No","",""
"1111230","Kaitlynn","Pocrnich","kpocrnich@rydellcars.com","186100","Katherine Lind","RY1","RY1","08/19/2013","Reception","2","0","0","0","0","0","0","0","No","",""
"2106490","Aaron","Poff","apoff@gfhonda.com","2126300","Nicholas Shirek","RY2","RY2","04/07/2014","Sales Consultant","2","0","0","0","0","0","0","0","No","",""
"1111280","Lekh","Pokhrel","lpokhrel@rydellcars.com","185801","Adam Lindquist","RY1","RY1","07/12/2012","Lowerbay Technician","1","3","3","3","3","1","1","0","No","",""
"1111325","Gayla","Powell","gpowell@rydellcars.com","1122342","Randy Sattler","RY1","RY1","08/29/2011","Body Shop Admin","1","3","3","3","3","1","1","0","No","",""
"1112410","Allen","Preston","APreston@rydellcars.com","113550","Alan Berry","RY1","RY1","02/10/2014","Sales Consultant","1","3","3","3","3","1","1","0","No","",""
"1112425","James","Price","JPrice@rydellcars.com","1130426","Greg Sorum","RY1","RY1","12/01/1990","Rydell Company","1","3","0","3","0","1","0","0","No","",""
"2112451","Samuel","Price","sprice@gfhonda.com","2126300","Nicholas Shirek","RY2","RY2","10/06/2014","Sales Consultant","1","3","3","3","3","1","1","0","No","",""
"1113940","Duane","Radke","dradke@rydellcars.com","187675","Beverley Longoria","RY1","RY1","05/01/1966","Main Shop Technician (B)","1","3","3","3","3","1","1","0","No","",""
"1113960","Pratap","Rai","prai@rydellcars.com","141060","Ned Euliss","RY1","RY1","09/05/2013","PDQ Upper bay Technician","2","0","0","0","0","0","0","0","No","",""
"1113965","Sarbajit","Rai","srai@rydellcars.com","185801","Adam Lindquist","RY1","RY1","10/31/2013","Lowerbay Technician","1","3","3","3","3","1","1","0","No","",""
"1113967","Shabir","Rai","srai1@rydellcars.com","141060","Ned Euliss","RY1","RY1","10/31/2013","PDQ Upper bay Technician","2","0","0","0","0","0","0","0","No","",""
"1114105","Gary","Ramberg","gramberg@rydellcars.com","140790","Kenneth Espelund","RY1","RY1","04/01/2006","Main Shop Advisor","1","3","3","3","3","1","1","0","No","",""
"1114120","Matthew","Ramirez","mramirez@rydellcars.com","1132218","Mark Steinke","RY1","RY1","02/04/2013","Paint Technician (C)","1","3","0","3","0","1","0","0","No","",""
"1114122","Robert","Ramirez","rramirez@rydellcars.com","186100","Katherine Lind","RY1","RY1","06/30/2014","Custodian","1","3","3","3","3","1","1","0","No","",""
"2118050","Jeremiah","Ramos","jramos@gfhonda.com","230601","Joel Dangerfield","RY2","RY2","10/27/2014","Main Shop Technician","1","3","0","3","0","1","0","0","No","",""
"1114305","Yogi","Rasaily","yrasaily@rydellcars.com","1120110","Antonio Ryan","RY1","RY1","09/03/2013","Car Wash Team Member","2","0","0","0","0","0","0","0","No","",""
"1114135","Caitlin","Rasmusson","crasmusson@rydellcars.com","186100","Katherine Lind","RY1","RY1","05/19/2014","Reception","1","3","3","3","3","1","1","0","No","",""
"1114350","Alexander","Rath","arath@rydellcars.com","113085","Steven Bergh","RY1","RY1","02/04/2013","Car Wash Cashier","1","3","3","3","3","1","1","0","No","",""
"2118100","Devlin","Reasy","dreasy@gfhonda.com","2126300","Nicholas Shirek","RY2","RY2","03/21/2014","Sales Consultant","1","3","3","3","2","1","0","0","No","",""
"1114820","Nolan","Rector","nrector@rydellcars.com","150120","John Gardner","RY1","RY1","10/31/2012","Detail Technician","2","0","0","0","0","0","0","0","No","",""
"1116800","Darrick","Richardson","drichardson@rydellcars.com","128120","Aubrey Crane","RY1","RY1","04/11/2011","Detail Technician","1","3","3","3","3","1","1","0","No","",""
"1117600","Rudolph","Robles","rrobles@rydellcars.com","141060","Ned Euliss","RY1","RY1","07/12/2000","PDQ Advisor","1","3","3","3","3","1","1","0","No","",""
"1117950","Nickolas","Roehrich","nroehrich@rydellcars.com","128120","Aubrey Crane","RY1","RY1","08/25/2014","Detail Technician","1","3","3","3","3","1","1","0","No","",""
"1117810","Tyler","Roemmich","troemmich@rydellcars.com","113550","Alan Berry","RY1","RY1","06/24/2013","Sales Consultant","2","0","0","0","0","0","0","0","No","",""
"1117901","Mitch","Rogers","mrogers@rydellcars.com","187675","Beverley Longoria","RY1","RY1","05/29/2012","PT Main Shop Technician (C)","1","3","3","3","3","1","1","0","No","",""
"1117960","Craig","Rogne","crogne@rydellcars.com","187675","Beverley Longoria","RY1","RY1","06/13/1988","Lead Main Shop Technician","1","3","3","3","3","1","1","0","No","",""
"1118722","Cory","Rose","crose@rydellcars.com","1132218","Mark Steinke","RY1","RY1","10/23/2006","Metal Technician (B)","1","3","3","3","3","1","1","0","No","",""
"1118780","Jeremy","Rosenau","jrosenau@rydellcars.com","1132218","Mark Steinke","RY1","RY1","04/19/2005","Paint Technician (A)","1","3","0","3","0","1","0","0","No","",""
"1118800","David","Rosenthal","drosenthal@rydellcars.com","1132595","Daniel Stinar","RY1","RY1","02/11/2013","Parts Sales Consultant","1","3","3","3","3","1","1","0","No","",""
"136185","Julia","Rosenthal","jrosenthal@rydellcars.com","113085","Steven Bergh","RY1","RY1","06/03/2013","Car Wash Cashier","1","3","0","3","0","1","0","0","No","",""
"1118832","Joseph","Rotter","jrotter@rydellcars.com","1132595","Daniel Stinar","RY1","RY1","06/16/2014","Parts Shipping & Receiving","1","3","3","3","3","1","0","0","No","",""
"2119120","Joseph","Rud","jrud@gfhonda.com","230601","Joel Dangerfield","RY2","RY2","02/18/2013","Main Shop Technician","1","3","3","3","3","1","1","0","No","",""
"2119125","Alex","Rude","arude@gfhonda.com","141060","Ned Euliss","RY2","RY2","11/08/2011","PDQ Pit Technician","2","0","0","0","0","0","0","0","No","",""
"1118920","Adam","Rustvang","arustvang@rydellcars.com","185801","Adam Lindquist","RY1","RY1","08/25/2014","Lowerbay Technician","1","3","3","3","3","1","1","0","No","",""
"1119810","Daniel","Ruud","druud@rydellcars.com","1132218","Mark Steinke","RY1","RY1","12/09/2013","Paint Technician","2","0","0","0","0","0","0","0","No","",""
"1120110","Antonio","Ryan","aryan@rydellcars.com","113085","Steven Bergh","RY1","RY1","03/29/2012","Car Wash Manager","1","3","3","3","1","1","0","0","No","",""
"1120151","John","Ryan","jryan@rydellcars.com","185801","Adam Lindquist","RY1","RY1","08/11/2014","Upperbay Technician","1","3","3","3","3","1","1","0","No","",""
"1120225","Brian","Rydell","brian@rydellcars.com","1120225","Brian Rydell","RY1","RY1","06/28/1999","Dealer Principal","1","3","0","3","0","1","0","0","No","",""
"2120492","Robert","Rydell","rrydell@gfhonda.com","2120492","Robert Rydell","RY2","RY2","06/01/2006","Dealer Principal","1","3","0","3","0","1","0","0","No","",""
"1120800","Wesley","Rydell","WRydell@rydellcars.com","1130426","Greg Sorum","RY1","RY1","06/01/1962","Rydell Company","1","3","0","3","0","1","0","0","No","",""
"1120120","Ken","Rygg","krygg@rydellcars.com","1132595","Daniel Stinar","RY1","RY1","11/21/2012","Parts Sales Consultant","1","3","3","3","3","1","1","0","No","",""
"1121240","Gaylen","Salberg","gsalberg@rydellcars.com","113550","Alan Berry","RY1","RY1","06/01/2010","Finance Manager","1","5","5","4","4","1","1","0","No","",""
"1121246","Devin","Salveson","dsalveson@rydellcars.com","128120","Aubrey Crane","RY1","RY1","09/08/2014","Detail Technician","1","3","3","3","3","1","1","0","No","",""
"1121250","Shayla","Salvione","ssalvione@rydellcars.com","186100","Katherine Lind","RY1","RY1","08/25/2014","Reception","1","3","3","3","3","1","1","0","No","",""
"1122120","Gunner","Sannes","gsannes@rydellcars.com","141060","Ned Euliss","RY1","RY1","07/23/2012","PDQ Pit Technician","2","0","0","0","0","0","0","0","No","",""
"1122160","Steven","Sarkela","SSarkela@rydellcars.com","1147062","Susan Walior","RY1","RY1","07/10/2013","Rental Agent","2","0","0","0","0","0","0","0","No","",""
"1122320","Nicholas","Sattler","nsattler@rydellcars.com","1122342","Randy Sattler","RY1","RY1","07/16/2012","Estimator","1","3","3","3","3","1","1","0","No","",""
"1122342","Randy","Sattler","rsattler@rydellcars.com","123100","Benjamin Cahalan","RY1","RY1","08/26/2002","Body Shop Manager","1","3","3","3","3","2","1","0","No","",""
"1122352","Thomas","Sauls","tsauls@rydellcars.com","128120","Aubrey Crane","RY1","RY1","08/12/2013","Detail Technician","1","3","3","3","3","1","1","0","No","",""
"2125100","Myles","Schafer","mschafer@gfhonda.com","230601","Joel Dangerfield","RY2","RY2","02/04/2013","Main Shop Technician","1","3","3","3","3","1","1","0","No","",""
"1123340","Jeri","Schmiess Penas","jschmiess@rydellcars.com","1106360","Trent Olson","RY1","RY1","05/12/2009","Controller","1","3","3","3","3","1","1","0","No","",""
"1123355","Allison","Scholand","ascholand@rydellcars.com","113085","Steven Bergh","RY1","RY1","06/16/2014","Car Wash Cashier","1","3","3","3","3","1","1","0","No","",""
"1123351","Daniel","Scholand","dscholand@rydellcars.com","157995","June Gustafson","RY1","RY1","06/16/2014","Accounting Admin","1","3","3","4","4","1","1","0","No","",""
"1124410","Caleb","Schumacher","cschumacher@rydellcars.com","157995","June Gustafson","RY1","RY1","05/22/2013","F&I Admin","2","0","0","0","0","0","0","0","No","",""
"1124436","Michael","Schwan","mschwan@rydellcars.com","187675","Beverley Longoria","RY1","RY1","02/27/2012","Main Shop Technician (A)","1","3","3","3","3","1","1","0","No","",""
"1124625","Bryn","Seay","bseay@rydellcars.com","113550","Alan Berry","RY1","RY1","08/25/2014","Sales Consultant","1","3","3","3","3","1","1","0","No","",""
"1124875","Bradley","Seeba","bseeba@rydellcars.com","1132595","Daniel Stinar","RY1","RY1","04/11/1977","Parts Sales Consultant","1","3","3","3","3","1","1","0","No","",""
"2124895","John","Seng","jseng@rydellcars.com","141060","Ned Euliss","RY2","RY2","10/21/2013","Lowerbay Technician","1","3","3","3","3","1","1","0","No","",""
"1125565","Scott","Sevigny","ssevigny@rydellcars.com","1132218","Mark Steinke","RY1","RY1","09/29/2008","Metal Technician (B)","1","3","3","3","3","1","1","0","No","",""
"1126040","Loren","Shereck","lshereck@rydellcars.com","1132218","Mark Steinke","RY1","RY1","10/30/2006","Metal Technician (A)","1","3","0","3","0","1","0","0","No","",""
"2126300","Nicholas","Shirek","nshirek@gfhonda.com","284715","Michael Lear","RY2","RY2","09/20/2010","Sales Team Leader","1","3","3","3","3","1","1","0","No","",""
"1126055","Ryan","Shroyer","RShroyer@rydellcars.com","140790","Kenneth Espelund","RY1","RY1","04/10/2013","Courtesy Driver","1","3","3","3","3","1","1","0","No","",""
"1126051","John","Shuler","jshuler@rydellcars.com","141060","Ned Euliss","RY1","RY1","02/15/2013","PDQ Upper bay Technician","2","0","0","0","0","0","0","0","No","",""
"1126060","Martin","Shumaker","mshumaker@rydellcars.com","186100","Katherine Lind","RY1","RY1","07/01/2013","Custodian","1","3","3","3","3","1","1","0","No","",""
"1126110","Zachary","Sieracki","zsieracki@gfhonda.com","141060","Ned Euliss","RY1","RY1","05/23/2013","PDQ Advisor","1","3","3","3","3","1","1","0","No","",""
"1126080","Kyle","Sigette","KSigette@rydellcars.com","1102195","Andrew Neumann","RY1","RY1","12/30/2013","Accessory Technician","2","0","0","0","0","0","0","0","No","",""
"1126082","Erik","Slater","eslater@rydellcars.com","141060","Ned Euliss","RY1","RY1","06/16/2014","Upperbay Technician","2","0","0","0","0","0","0","0","No","",""
"2130150","Paul","Sobolik","psobolik@gfhonda.com","230601","Joel Dangerfield","RY2","RY2","03/23/1992","Main Shop Technician","1","3","3","3","3","1","1","0","No","",""
"1130090","Ben","Solem","bsolem@rydellcars.com","1132595","Daniel Stinar","RY1","RY1","09/16/2013","Parts Shipping & Receiving","1","3","3","3","3","1","0","0","No","",""
"1130100","Ted","Solem","tsolem@rydellcars.com","1132595","Daniel Stinar","RY1","RY1","09/05/2012","Parts Shipping & Receiving","2","0","0","0","0","0","0","0","No","",""
"1130098","Derick","Soli","dsoli@rydellcars.com","187675","Beverley Longoria","RY1","RY1","06/16/2014","Main Shop Technician (C)","1","3","3","3","3","1","1","0","No","",""
"1130426","Greg","Sorum","gsorum@cartiva.com","1130426","Greg Sorum","RY1","RY1","01/01/1996","Executive Manager","1","3","3","3","3","2","1","0","No","",""
"1130428","Jayson","Sorum","jsorum@rydellcars.com","1130426","Greg Sorum","RY1","RY1","11/13/2012","Building Maintenance","1","3","0","3","0","1","0","0","No","",""
"1130430","Michael","Sorum","mikesorum@cartiva.com","1130426","Greg Sorum","RY1","RY1","11/04/2002","Developer","1","3","0","3","0","1","0","0","No","",""
"2130678","Fred","Spencer","fspencer@gfhonda.com","2126300","Nicholas Shirek","RY2","RY2","02/01/2005","Sales Consultant","1","3","3","3","3","1","1","0","No","",""
"1130460","Paige","Spurgeon","pspurgeon@rydellcars.com","178079","Justin Kilmer","RY1","RY1","11/19/2013","Service Operator","2","0","0","0","0","0","0","0","No","",""
"2130690","Larry","Stadstad","lstadstad@gfhonda.com","2126300","Nicholas Shirek","RY2","RY2","08/20/2007","Sales Consultant","1","3","3","3","3","1","1","0","No","",""
"1130500","Kevin","Stafford","kstafford@rydellcars.com","1132218","Mark Steinke","RY1","RY1","01/24/2013","Metal Technician","2","0","0","0","0","0","0","0","No","",""
"1130510","Mitch","Stafford","MStafford@rydellcars.com","1132595","Daniel Stinar","RY1","RY1","12/23/2013","Parts Shipping & Receiving","1","3","3","3","3","1","1","0","No","",""
"1130651","Nick","Stallard","nstallard@rydellcars.com","141060","Ned Euliss","RY1","RY1","04/08/2013","PDQ Pit Technician","2","0","0","0","0","0","0","0","No","",""
"1130700","Richard","Stallmo","rstallmo@rydellcars.com","140790","Kenneth Espelund","RY1","RY1","09/16/2009","Courtesy Driver","1","3","3","3","3","1","1","0","No","",""
"2132360","Darrin","Steffens","dsteffens@gfhonda.com","230601","Joel Dangerfield","RY2","RY2","09/06/2004","Main Shop Technician","1","3","3","3","3","1","1","0","No","",""
"1132205","Donald","Stein","dstein@rydellcars.com","1132595","Daniel Stinar","RY1","RY1","08/13/2012","Parts Sales Consultant","1","3","3","3","3","1","1","0","No","",""
"1132218","Mark","Steinke","msteinke@rydellcars.com","1122342","Randy Sattler","RY1","RY1","02/28/2005","Production Manager","1","3","3","3","3","2","1","0","No","",""
"1132576","Christopher","Stinar","cstinar1@rydellcars.com","1102195","Andrew Neumann","RY1","RY1","12/11/2013","Main Shop Technician (D)","2","0","0","0","0","0","0","0","No","",""
"1132590","Cory","Stinar","cstinar@rydellcars.com","140790","Kenneth Espelund","RY1","RY1","10/21/2008","Main Shop Advisor","1","3","3","3","3","1","1","0","No","",""
"1132595","Daniel","Stinar","dstinar@rydellcars.com","123100","Benjamin Cahalan","RY1","RY1","12/15/2009","Parts Manager","1","3","3","3","3","3","1","0","No","",""
"1133500","Travis","Strandell","tstrandell@rydellcars.com","187675","Beverley Longoria","RY1","RY1","04/12/2011","Main Shop Technician (C)","1","3","3","3","3","1","1","0","No","",""
"1133727","Timothy","Streeter","tstreeter@rydellcars.com","1132595","Daniel Stinar","RY1","RY1","03/28/2007","Parts Driver","1","3","3","3","3","1","1","0","No","",""
"16250","Danielle","Streitz","dstreitz@rydellcars.com","1132595","Daniel Stinar","RY1","RY1","09/12/2011","Parts Sales Consultant","1","3","3","3","3","1","1","0","No","",""
"1133800","Frank","Stropnicky","fstropnicky@rydellcars.com","140790","Kenneth Espelund","RY1","RY1","04/01/1969","Courtesy Driver","1","3","3","3","3","1","1","0","No","",""
"2132420","Lekeith","Strother","lstrother@gfhonda.com","2126300","Nicholas Shirek","RY2","RY2","03/28/2014","Sales Consultant","1","3","0","3","0","1","0","0","No","",""
"1133820","David","Stryker","dstryker@rydellcars.com","1102195","Andrew Neumann","RY1","RY1","03/05/2012","Main Shop Technician","2","0","0","0","0","0","0","0","No","",""
"2133490","Casey","Sullivan","csullivan@rydellcars.com","2126300","Nicholas Shirek","RY2","RY2","07/08/2013","Sales Consultant","2","0","0","0","0","0","0","0","No","",""
"1133910","Erin","Sundby","esundby@rydellcars.com","140790","Kenneth Espelund","RY1","RY1","08/11/2014","Courtesy Driver","1","3","3","3","3","1","1","0","No","",""
"2132390","Robert","Sundby","rsundby@gfhonda.com","230601","Joel Dangerfield","RY2","RY2","07/01/2013","Courtesy Driver","1","3","3","3","3","1","1","0","No","",""
"1134850","Kenneth","Swift","kswift@rydellcars.com","1102195","Andrew Neumann","RY1","RY1","06/03/2011","Main Shop Technician","2","0","0","0","0","0","0","0","No","",""
"1135265","Elizabeth","Symons","libby@cartiva.com","1130426","Greg Sorum","RY1","RY1","12/27/2012","Developer","1","3","3","3","3","1","1","0","No","",""
"1135260","Steven","Symons","steves@rydellcars.com","1130426","Greg Sorum","RY1","RY1","11/22/2010","IT Manager","1","3","3","3","3","1","1","0","No","",""
"1135410","Joshua","Syverson","jsyverson@rydellcars.com","187675","Beverley Longoria","RY1","RY1","06/11/2012","Main Shop Technician (C)","1","3","3","3","3","1","1","0","No","",""
"1135450","Chatur","Tamang","ctamang@rydellcars.com","185801","Adam Lindquist","RY1","RY1","02/18/2013","Upperbay Technician","1","3","3","3","3","1","1","0","No","",""
"1141210","Heather","Tandeski","htandeski@gfhonda.com","157995","June Gustafson","RY1","RY1","10/07/2013","F&I Admin (HGF)","1","3","3","4","4","1","1","0","No","",""
"2141225","Jade","Tandeski","jtandeski@gfhonda.com","2126300","Nicholas Shirek","RY2","RY2","10/08/2014","Sales Consultant","1","3","3","3","3","1","1","0","No","",""
"1135518","Jeff","Tarr","jtarr@rydellcars.com","113550","Alan Berry","RY1","RY1","11/01/1993","Sales Consultant","1","3","3","3","3","1","1","0","No","",""
"1135710","Wyatt","Telken","WTelken@rydellcars.com","128120","Aubrey Crane","RY1","RY1","07/20/2011","Detail Technician","1","3","3","3","3","1","1","0","No","",""
"1137210","Kyle","Theige","ktheige@rydellcars.com","1130426","Greg Sorum","RY1","RY1","06/02/2014","Summer Intern","1","3","3","3","3","1","1","0","No","",""
"1137590","Wyatt","Thompson","wthompson@rydellcars.com","187675","Beverley Longoria","RY1","RY1","05/14/2007","Main Shop Technician (B)","1","3","3","3","3","1","1","0","No","",""
"1138125","Lyle","Thorson","lthorson@rydellcars.com","146450","Kelly Foerster","RY1","RY1","11/02/2006","Sales Driver","1","3","0","3","0","1","0","0","No","",""
"1140870","Rodney","Troftgruben","rtroftgruben@rydellcars.com","140790","Kenneth Espelund","RY1","RY1","08/03/1992","Main Shop Advisor","1","3","3","3","3","1","1","0","No","",""
"1140892","Dustin","Turner","dturner@rydellcars.com","178079","Justin Kilmer","RY1","RY1","06/30/2014","Service Operator","2","0","0","0","0","0","0","0","No","",""
"242460","Michael","Tweten","mtweten@gfhonda.com","284715","Michael Lear","RY2","RY2","02/18/2013","Sales Team Leader","1","3","3","3","3","1","1","0","No","",""
"1142827","John","Tyrrell","jtyrrell@rydellcars.com","140790","Kenneth Espelund","RY1","RY1","07/10/2000","Main Shop Advisor","1","3","3","3","3","1","1","0","No","",""
"1142910","Tyler","Uhrich","tuhrich@rydellcars.com","187675","Beverley Longoria","RY1","RY1","02/04/2013","PT Main Shop Technician (C)","1","3","3","3","3","1","1","0","No","",""
"1143865","Scott","Vacura","svacura@rydellcars.com","141060","Ned Euliss","RY1","RY1","07/16/2007","PDQ Advisor","2","0","0","0","0","0","0","0","No","",""
"1144265","Fred","VanHeste II","fvanheste@rydellcars.com","1132595","Daniel Stinar","RY1","RY1","05/15/2007","Parts Sales Consultant","1","3","3","3","3","1","1","0","No","",""
"1144310","Branden","Vannelli","BVannelli@rydellcars.com","113085","Steven Bergh","RY1","RY1","01/27/2014","Car Wash Team Member","1","3","3","3","3","1","1","0","No","",""
"1145560","Ronnie","Verzosa","RVerzosa@rydellcars.com","128120","Aubrey Crane","RY1","RY1","01/20/2014","Detail Technician","1","3","0","3","0","1","0","0","No","",""
"2146711","Tim","Vick","tvick@gfhonda.com","230601","Joel Dangerfield","RY2","RY2","06/02/2014","Main Shop Advisor","1","3","3","3","3","1","1","0","No","",""
"1150100","Scott","Vida","svida@rydellcars.com","123100","Benjamin Cahalan","RY1","RY1","06/09/2010","Building Maintenance","1","3","3","3","3","1","1","0","No","",""
"1145660","Norman","Vien","nvien@rydellcars.com","1106360","Trent Olson","RY1","RY1","07/27/2007","Hobby Shop Technician","1","3","0","3","0","1","0","0","No","",""
"1146751","Samuel","Wagener","SWagener@rydellcars.com","1130426","Greg Sorum","RY1","RY1","01/01/2014","Rydell Company","1","3","0","3","0","1","0","0","No","",""
"1146989","Alex","Waldbauer","awaldbauer@rydellcars.com","187675","Beverley Longoria","RY1","RY1","08/29/2007","Accessory Technician","1","3","3","3","3","1","1","0","No","",""
"1146991","Chris","Walden","cwalden@rydellcars.com","1132218","Mark Steinke","RY1","RY1","09/06/1994","Paint Technician (A)","1","3","3","3","3","1","1","0","No","",""
"1147062","Susan","Walior","SWalior@rydellcars.com","1102195","Andrew Neumann","RY1","RY1","03/03/1997","Rental Team Leader","1","3","3","3","3","1","1","0","No","",""
"1147065","Nicholas","Walker","nwalker@rydellcars.com","113550","Alan Berry","RY1","RY1","05/06/2014","Sales Consultant","1","3","3","3","3","1","1","0","No","",""
"1147061","Joshua","Walton","jwalton@rydellcars.com","1132218","Mark Steinke","RY1","RY1","12/27/2006","Metal Technician (A)","1","3","3","3","3","1","1","0","No","",""
"1147250","James","Warmack","jwarmack@rydellcars.com","113550","Alan Berry","RY1","RY1","04/02/2011","Sales Consultant","1","3","3","3","3","1","1","0","No","",""
"1147260","Mahamed","Warsame","mwarsame@rydellcars.com","1120110","Antonio Ryan","RY1","RY1","12/05/2011","Car Wash Team Member","2","0","0","0","0","0","0","0","No","",""
"1147325","Thomas","Warweg","twarweg@rydellcars.com","1122342","Randy Sattler","RY1","RY1","10/06/2014","Detail Technician","1","3","0","3","0","1","0","0","No","",""
"1147810","James","Weber","jweber@rydellcars.com","113550","Alan Berry","RY1","RY1","10/10/2011","Sales Consultant","1","3","3","3","3","1","1","0","No","",""
"1148010","Gulled","Welli","gwelli@rydellcars.com","128120","Aubrey Crane","RY1","RY1","07/20/2011","Detail Support","1","3","3","3","2","1","1","0","No","",""
"1148065","Jeffery","Westerhausen","jwesterhausen@rydellcars.com","1102195","Andrew Neumann","RY1","RY1","05/12/1998","Main Shop Technician","2","0","0","0","0","0","0","0","No","",""
"1148699","Lyle","Wicken","lwicken@rydellcars.com","146450","Kelly Foerster","RY1","RY1","01/01/2000","Sales Driver","1","3","0","3","0","1","0","0","No","",""
"2148720","Daniel","Wiebusch","dwiebusch@rydellcars.com","141060","Ned Euliss","RY2","RY2","02/04/2013","PDQ Advisor","1","3","3","3","3","1","1","0","No","",""
"2150210","Corey","Wilde","cwilde@gfhonda.com","2126300","Nicholas Shirek","RY2","RY2","08/06/2012","Sales Consultant","1","3","3","3","3","1","1","0","No","",""
"1149160","Ronald","Wilkening","rwilkening@rydellcars.com","146450","Kelly Foerster","RY1","RY1","01/01/2011","Sales Driver","1","3","0","3","0","1","0","0","No","",""
"1149180","David","Wilkie","dwilkie@rydellcars.com","1106360","Trent Olson","RY1","RY1","05/17/1978","Used Car Invintory Manager","1","3","1","3","1","1","0","0","No","",""
"1149190","Gregory","Wimberly","gwimberly@rydellcars.com","150120","John Gardner","RY1","RY1","04/22/2013","Detail Support","2","0","0","0","0","0","0","0","No","",""
"1149500","Ryan","Winfield","rwinfield@rydellcars.com","187675","Beverley Longoria","RY1","RY1","04/19/2010","Main Shop Technician (B)","1","3","3","3","3","1","1","0","No","",""
"1149300","Zachary","Winkler","zwinkler@rydellcars.com","187675","Beverley Longoria","RY1","RY1","05/19/2014","Main Shop Technician (C)","1","3","3","3","3","1","1","0","No","",""
"1149636","Christopher","Winzer","cwinzer@rydellcars.com","1132595","Daniel Stinar","RY1","RY1","06/25/2007","Parts Shipping & Receiving","1","3","3","3","3","1","1","0","No","",""
"2140825","Arlen","Wirkus","awirkus@gfhonda.com","2106225","John Olderbak","RY2","RY2","11/28/2011","Sales Driver","2","0","0","0","0","0","0","0","No","",""
"1149710","Emilee","Woinarowicz","emilee@rydellcars.com","178079","Justin Kilmer","RY1","RY1","07/29/2013","Service Operator","1","3","3","3","3","1","1","0","No","",""
"1150400","Jordan","Yanish","jyanish@rydellcars.com","1102195","Andrew Neumann","RY1","RY1","12/13/2010","Main Shop Technician","2","0","0","0","0","0","0","0","No","",""
"1150510","Rithy","Yem","myem@rydellcars.com","1122342","Randy Sattler","RY1","RY1","04/29/2013","Estimator","1","3","3","3","3","1","1","0","No","",""
"1140910","Jacob","Young","jyoung@rydellcars.com","1102195","Andrew Neumann","RY1","RY1","08/26/2013","Courtesy Driver","2","0","0","0","0","0","0","0","No","",""
"1160100","Steve","Zoellick","SZoellick@rydellcars.com","1130426","Greg Sorum","RY1","RY1","01/01/2013","Rydell Company","1","3","0","3","0","1","0","0","No","",""

